715.0 1614.0 1
715.0 1593.0 1
715.0 1562.0 1
715.0 1531.0 1
715.0 1479.0 1
704.0 1427.0 1
704.0 1385.0 1
704.0 1364.0 1
694.0 1333.0 1
694.0 1312.0 1
715.0 1645.0 2
715.0 1656.0 2
725.0 1666.0 2
735.0 1677.0 2
746.0 1687.0 2
756.0 1698.0 2
777.0 1698.0 2
808.0 1698.0 2
819.0 1698.0 2
829.0 1687.0 2
829.0 1666.0 2
829.0 1562.0 2
829.0 1520.0 2
819.0 1479.0 2
808.0 1437.0 2
798.0 1416.0 2
798.0 1395.0 2
788.0 1395.0 2
683.0 1552.0 3
683.0 1552.0 3
683.0 1552.0 3
725.0 1552.0 3
756.0 1552.0 3
777.0 1552.0 3
840.0 1552.0 3
850.0 1541.0 3
954.0 1531.0 4
944.0 1531.0 4
944.0 1531.0 4
923.0 1531.0 4
913.0 1520.0 4
892.0 1500.0 4
881.0 1489.0 4
860.0 1479.0 4
850.0 1458.0 4
850.0 1448.0 4
860.0 1437.0 4
881.0 1416.0 4
913.0 1416.0 4
933.0 1416.0 4
965.0 1427.0 4
975.0 1437.0 4
985.0 1437.0 4
1090.0 1750.0 5
1090.0 1750.0 5
1090.0 1750.0 5
1090.0 1677.0 5
1079.0 1635.0 5
1069.0 1573.0 5
1069.0 1531.0 5
1069.0 1489.0 5
1069.0 1468.0 5
1069.0 1448.0 5
1131.0 1635.0 6
1121.0 1625.0 6
1110.0 1614.0 6
1100.0 1593.0 6
1090.0 1573.0 6
1079.0 1562.0 6
1069.0 1552.0 6
1069.0 1552.0 6
1069.0 1552.0 6
1069.0 1552.0 6
1079.0 1541.0 6
1100.0 1531.0 6
1110.0 1510.0 6
1121.0 1500.0 6
1142.0 1479.0 6
1163.0 1479.0 6
1173.0 1468.0 6
1173.0 1468.0 6
1173.0 1468.0 6
1246.0 1614.0 7
1235.0 1604.0 7
1235.0 1583.0 7
1235.0 1562.0 7
1235.0 1531.0 7
1235.0 1500.0 7
1225.0 1468.0 7
1225.0 1468.0 7
1235.0 1468.0 7
1246.0 1489.0 7
1246.0 1520.0 7
1256.0 1552.0 7
1267.0 1583.0 7
1267.0 1604.0 7
1288.0 1614.0 7
1298.0 1625.0 7
1308.0 1635.0 7
1319.0 1635.0 7
1329.0 1625.0 7
1329.0 1604.0 7
1340.0 1593.0 7
1340.0 1479.0 7
1340.0 1468.0 7
1350.0 1468.0 7
1465.0 1625.0 8
1454.0 1625.0 8
1454.0 1625.0 8
1444.0 1625.0 8
1423.0 1625.0 8
1413.0 1614.0 8
1402.0 1593.0 8
1392.0 1573.0 8
1381.0 1541.0 8
1381.0 1520.0 8
1402.0 1500.0 8
1423.0 1489.0 8
1465.0 1500.0 8
1496.0 1510.0 8
1517.0 1552.0 8
1517.0 1583.0 8
1517.0 1625.0 8
1506.0 1635.0 8
1506.0 1645.0 8
1621.0 1614.0 9
1621.0 1614.0 9
1621.0 1604.0 9
1631.0 1593.0 9
1631.0 1573.0 9
1642.0 1552.0 9
1652.0 1520.0 9
1663.0 1500.0 9
1673.0 1500.0 9
1683.0 1510.0 9
1694.0 1541.0 9
1704.0 1562.0 9
1715.0 1593.0 9
1725.0 1625.0 9
1725.0 1635.0 9
1735.0 1645.0 9
1735.0 1645.0 9
1725.0 1625.0 9
1725.0 1552.0 9
1735.0 1531.0 9
1735.0 1510.0 9
1746.0 1510.0 9
1756.0 1510.0 9
1767.0 1520.0 9
1788.0 1541.0 9
1798.0 1562.0 9
1808.0 1604.0 9
1819.0 1635.0 9
1829.0 1645.0 9
1829.0 1645.0 9
1829.0 1645.0 9
1965.0 1812.0 10
1965.0 1781.0 10
1954.0 1750.0 10
1954.0 1708.0 10
1944.0 1645.0 10
1933.0 1593.0 10
1933.0 1552.0 10
1933.0 1531.0 10
1933.0 1510.0 10
2017.0 1625.0 11
2017.0 1625.0 11
2017.0 1635.0 11
2027.0 1625.0 11
2048.0 1625.0 11
2069.0 1614.0 11
2090.0 1614.0 11
2131.0 1614.0 11
2142.0 1625.0 11
2163.0 1625.0 11
2163.0 1635.0 11
2163.0 1645.0 11
2163.0 1656.0 11
2152.0 1666.0 11
2131.0 1666.0 11
2110.0 1677.0 11
2079.0 1677.0 11
2058.0 1666.0 11
2038.0 1656.0 11
2027.0 1635.0 11
2017.0 1614.0 11
2017.0 1593.0 11
2027.0 1573.0 11
2048.0 1562.0 11
2090.0 1552.0 11
2131.0 1552.0 11
2173.0 1562.0 11
2308.0 1656.0 12
2308.0 1666.0 12
2298.0 1666.0 12
2298.0 1656.0 12
2288.0 1656.0 12
2256.0 1645.0 12
2246.0 1635.0 12
2235.0 1614.0 12
2235.0 1593.0 12
2235.0 1573.0 12
2246.0 1562.0 12
2277.0 1562.0 12
2308.0 1573.0 12
2340.0 1614.0 12
2360.0 1656.0 12
2371.0 1677.0 12
2360.0 1875.0 13
2360.0 1823.0 13
2360.0 1760.0 13
2360.0 1718.0 13
2350.0 1677.0 13
2350.0 1635.0 13
2350.0 1593.0 13
2350.0 1583.0 13
2350.0 1583.0 13
2569.0 1687.0 14
2558.0 1687.0 14
2548.0 1698.0 14
2527.0 1698.0 14
2506.0 1687.0 14
2485.0 1677.0 14
2475.0 1656.0 14
2475.0 1645.0 14
2475.0 1635.0 14
2485.0 1614.0 14
2506.0 1614.0 14
2527.0 1614.0 14
2548.0 1625.0 14
2558.0 1635.0 14
2569.0 1635.0 14
2569.0 1645.0 14
2579.0 1656.0 14
2579.0 1656.0 14
2569.0 1625.0 14
2569.0 1593.0 14
2558.0 1552.0 14
2558.0 1510.0 14
2538.0 1468.0 14
2527.0 1437.0 14
2506.0 1416.0 14
2485.0 1416.0 14
2475.0 1406.0 14
2454.0 1406.0 14
2454.0 1427.0 14
2454.0 1458.0 14
2454.0 1489.0 14
2454.0 1500.0 14
2465.0 1510.0 14
2652.0 1635.0 15
2642.0 1656.0 15
2642.0 1656.0 15
2652.0 1656.0 15
2663.0 1645.0 15
2694.0 1645.0 15
2725.0 1645.0 15
2756.0 1635.0 15
2767.0 1635.0 15
2777.0 1645.0 15
2777.0 1666.0 15
2767.0 1677.0 15
2756.0 1687.0 15
2735.0 1698.0 15
2704.0 1698.0 15
2663.0 1677.0 15
2642.0 1656.0 15
2642.0 1614.0 15
2652.0 1593.0 15
2673.0 1573.0 15
2704.0 1562.0 15
2892.0 1687.0 16
2892.0 1687.0 16
2892.0 1614.0 16
2881.0 1583.0 16
2871.0 1552.0 16
2860.0 1552.0 16
2860.0 1541.0 16
2860.0 1552.0 16
2871.0 1573.0 16
2892.0 1604.0 16
2913.0 1645.0 16
2923.0 1666.0 16
2933.0 1687.0 16
2944.0 1698.0 16
2954.0 1698.0 16
2965.0 1687.0 16
2965.0 1666.0 16
2965.0 1635.0 16
2965.0 1614.0 16
2954.0 1593.0 16
2944.0 1573.0 16
2944.0 1573.0 16
2944.0 1573.0 16
2954.0 1573.0 16
2965.0 1593.0 16
2975.0 1635.0 16
2996.0 1656.0 16
3006.0 1677.0 16
3017.0 1677.0 16
3027.0 1687.0 16
3038.0 1687.0 16
3038.0 1666.0 16
3038.0 1645.0 16
3038.0 1604.0 16
3038.0 1573.0 16
3027.0 1552.0 16
3027.0 1541.0 16
3152.0 1635.0 17
3152.0 1635.0 17
3163.0 1635.0 17
3173.0 1635.0 17
3204.0 1625.0 17
3225.0 1614.0 17
3246.0 1614.0 17
3267.0 1614.0 17
3277.0 1635.0 17
3277.0 1645.0 17
3277.0 1656.0 17
3267.0 1677.0 17
3256.0 1687.0 17
3235.0 1698.0 17
3215.0 1698.0 17
3194.0 1677.0 17
3183.0 1666.0 17
3173.0 1645.0 17
3173.0 1625.0 17
3173.0 1604.0 17
3194.0 1583.0 17
3225.0 1562.0 17
3246.0 1552.0 17
3381.0 1656.0 18
3381.0 1656.0 18
3381.0 1656.0 18
3371.0 1625.0 18
3371.0 1593.0 18
3371.0 1552.0 18
3371.0 1552.0 18
3381.0 1552.0 18
3392.0 1573.0 18
3413.0 1614.0 18
3433.0 1645.0 18
3454.0 1656.0 18
3465.0 1677.0 18
3475.0 1677.0 18
3485.0 1666.0 18
3485.0 1656.0 18
3485.0 1635.0 18
3475.0 1583.0 18
3465.0 1552.0 18
3465.0 1520.0 18
3465.0 1510.0 18
3631.0 1843.0 19
3631.0 1823.0 19
3621.0 1791.0 19
3610.0 1739.0 19
3600.0 1687.0 19
3600.0 1645.0 19
3590.0 1604.0 19
3579.0 1573.0 19
3579.0 1562.0 19
3517.0 1770.0 20
3506.0 1781.0 20
3506.0 1781.0 20
3517.0 1791.0 20
3548.0 1791.0 20
3590.0 1781.0 20
3631.0 1781.0 20
3673.0 1781.0 20
3715.0 1770.0 20
3725.0 1770.0 20
3725.0 1770.0 20

