1371.0 1812.0 1
1371.0 1823.0 1
1371.0 1823.0 1
1381.0 1812.0 1
1381.0 1656.0 1
1381.0 1593.0 1
1392.0 1531.0 1
1402.0 1489.0 1
1423.0 1458.0 1
1454.0 1448.0 1
1475.0 1458.0 1
1506.0 1479.0 1
1548.0 1552.0 1
1569.0 1635.0 1
1579.0 1708.0 1
1590.0 1781.0 1
1590.0 1875.0 1
1579.0 1895.0 1
1569.0 1906.0 1
1558.0 1906.0 1
1663.0 1593.0 2
1652.0 1604.0 2
1652.0 1625.0 2
1663.0 1614.0 2
1663.0 1593.0 2
1663.0 1562.0 2
1663.0 1531.0 2
1663.0 1520.0 2
1663.0 1510.0 2
1673.0 1510.0 2
1683.0 1531.0 2
1694.0 1562.0 2
1704.0 1593.0 2
1715.0 1614.0 2
1735.0 1625.0 2
1746.0 1635.0 2
1756.0 1625.0 2
1756.0 1593.0 2
1756.0 1541.0 2
1756.0 1520.0 2
1756.0 1500.0 2
1944.0 1614.0 3
1944.0 1625.0 3
1944.0 1614.0 3
1954.0 1604.0 3
1954.0 1583.0 3
1965.0 1552.0 3
1975.0 1520.0 3
1975.0 1510.0 3
1985.0 1500.0 3
1985.0 1500.0 3
1996.0 1520.0 3
1996.0 1541.0 3
2006.0 1573.0 3
2006.0 1593.0 3
2017.0 1604.0 3
2017.0 1604.0 3
2027.0 1583.0 3
2038.0 1562.0 3
2048.0 1541.0 3
2048.0 1541.0 3
2058.0 1531.0 3
2069.0 1531.0 3
2069.0 1541.0 3
2079.0 1562.0 3
2090.0 1583.0 3
2100.0 1614.0 3
2110.0 1645.0 3
2225.0 1614.0 4
2194.0 1614.0 4
2173.0 1604.0 4
2163.0 1604.0 4
2163.0 1593.0 4
2152.0 1562.0 4
2152.0 1541.0 4
2163.0 1531.0 4
2173.0 1520.0 4
2194.0 1520.0 4
2204.0 1520.0 4
2215.0 1541.0 4
2225.0 1573.0 4
2225.0 1593.0 4
2225.0 1635.0 4
2225.0 1635.0 4
2308.0 1604.0 5
2308.0 1614.0 5
2319.0 1625.0 5
2319.0 1625.0 5
2319.0 1593.0 5
2319.0 1573.0 5
2329.0 1552.0 5
2329.0 1531.0 5
2329.0 1520.0 5
2329.0 1520.0 5
2340.0 1531.0 5
2340.0 1541.0 5
2340.0 1562.0 5
2340.0 1562.0 5
2340.0 1562.0 5
2340.0 1583.0 5
2350.0 1604.0 5
2350.0 1625.0 5
2360.0 1645.0 5
2371.0 1645.0 5
2371.0 1635.0 5
2381.0 1625.0 5
2392.0 1625.0 5
2496.0 1833.0 6
2485.0 1843.0 6
2485.0 1833.0 6
2485.0 1833.0 6
2496.0 1812.0 6
2496.0 1708.0 6
2496.0 1666.0 6
2485.0 1625.0 6
2485.0 1562.0 6
2569.0 1760.0 7
2569.0 1750.0 7
2558.0 1718.0 7
2548.0 1698.0 7
2538.0 1687.0 7
2527.0 1677.0 7
2517.0 1666.0 7
2506.0 1666.0 7
2517.0 1666.0 7
2527.0 1656.0 7
2527.0 1635.0 7
2548.0 1614.0 7
2569.0 1593.0 7
2590.0 1583.0 7
2600.0 1583.0 7
2704.0 1687.0 8
2694.0 1687.0 8
2683.0 1677.0 8
2673.0 1677.0 8
2663.0 1666.0 8
2652.0 1635.0 8
2652.0 1614.0 8
2663.0 1593.0 8
2673.0 1593.0 8
2704.0 1583.0 8
2725.0 1604.0 8
2746.0 1635.0 8
2756.0 1656.0 8
2767.0 1687.0 8
2756.0 1687.0 8
2756.0 1687.0 8
2756.0 1687.0 8
2756.0 1645.0 8
2746.0 1614.0 8
2756.0 1593.0 8
2892.0 1937.0 9
2892.0 1895.0 9
2881.0 1843.0 9
2871.0 1760.0 9
2860.0 1687.0 9
2860.0 1635.0 9
2860.0 1604.0 9
2860.0 1583.0 9
2871.0 1729.0 10
2871.0 1718.0 10
2881.0 1718.0 10
2892.0 1718.0 10
2913.0 1718.0 10
2923.0 1708.0 10
2944.0 1698.0 10
2944.0 1677.0 10
2944.0 1656.0 10
2933.0 1614.0 10
2913.0 1604.0 10
2881.0 1593.0 10
2860.0 1593.0 10
2850.0 1593.0 10
2850.0 1614.0 10
3090.0 1948.0 11
3079.0 1948.0 11
3079.0 1948.0 11
3069.0 1895.0 11
3058.0 1854.0 11
3048.0 1791.0 11
3038.0 1708.0 11
3038.0 1677.0 11
3038.0 1656.0 11
3090.0 1708.0 12
3090.0 1708.0 12
3100.0 1698.0 12
3121.0 1677.0 12
3142.0 1677.0 12
3173.0 1666.0 12
3194.0 1677.0 12
3204.0 1677.0 12
3215.0 1687.0 12
3215.0 1718.0 12
3204.0 1739.0 12
3183.0 1750.0 12
3163.0 1750.0 12
3121.0 1718.0 12
3100.0 1698.0 12
3100.0 1666.0 12
3100.0 1645.0 12
3131.0 1614.0 12
3163.0 1593.0 12

