1892.0 1708.0 1
1892.0 1708.0 1
1892.0 1708.0 1
1892.0 1708.0 1
1902.0 1708.0 1
1923.0 1698.0 1
1944.0 1687.0 1
1954.0 1677.0 1
1965.0 1656.0 1
1965.0 1635.0 1
1965.0 1593.0 1
1944.0 1562.0 1
1913.0 1510.0 1
1881.0 1479.0 1
1860.0 1468.0 1
1850.0 1468.0 1
1850.0 1468.0 1
1871.0 1510.0 1
1892.0 1520.0 1
1923.0 1520.0 1
1944.0 1520.0 1
1965.0 1510.0 1
1975.0 1489.0 1
1996.0 1479.0 1
1996.0 1468.0 1
1996.0 1458.0 1
2131.0 1708.0 2
2121.0 1708.0 2
2121.0 1708.0 2
2121.0 1708.0 2
2131.0 1698.0 2
2152.0 1698.0 2
2173.0 1698.0 2
2194.0 1698.0 2
2204.0 1687.0 2
2204.0 1677.0 2
2194.0 1666.0 2
2183.0 1645.0 2
2163.0 1635.0 2
2152.0 1635.0 2
2142.0 1614.0 2
2152.0 1614.0 2
2163.0 1614.0 2
2173.0 1614.0 2
2194.0 1614.0 2
2204.0 1604.0 2
2215.0 1593.0 2
2215.0 1573.0 2
2194.0 1552.0 2
2173.0 1531.0 2
2152.0 1520.0 2
2131.0 1500.0 2
2110.0 1489.0 2
2110.0 1479.0 2
2110.0 1479.0 2
2433.0 1718.0 3
2433.0 1718.0 3
2423.0 1718.0 3
2423.0 1708.0 3
2423.0 1708.0 3
2413.0 1708.0 3
2413.0 1708.0 3
2413.0 1698.0 3
2402.0 1698.0 3
2392.0 1687.0 3
2381.0 1666.0 3
2371.0 1656.0 3
2360.0 1645.0 3
2360.0 1614.0 3
2360.0 1573.0 3
2360.0 1562.0 3
2371.0 1552.0 3
2381.0 1531.0 3
2381.0 1531.0 3
2402.0 1520.0 3
2413.0 1520.0 3
2423.0 1520.0 3
2444.0 1520.0 3
2465.0 1541.0 3
2465.0 1552.0 3
2475.0 1552.0 3
2475.0 1562.0 3
2465.0 1573.0 3
2465.0 1583.0 3
2454.0 1593.0 3
2433.0 1604.0 3
2402.0 1593.0 3
2381.0 1583.0 3
2360.0 1562.0 3
2360.0 1552.0 3
2360.0 1552.0 3
2683.0 1718.0 4
2673.0 1708.0 4
2652.0 1708.0 4
2642.0 1698.0 4
2642.0 1698.0 4
2642.0 1687.0 4
2642.0 1677.0 4
2663.0 1677.0 4
2673.0 1677.0 4
2704.0 1645.0 4
2715.0 1625.0 4
2715.0 1604.0 4
2704.0 1573.0 4
2683.0 1541.0 4
2663.0 1510.0 4
2642.0 1500.0 4
2631.0 1500.0 4
2631.0 1500.0 4
2631.0 1520.0 4
2642.0 1562.0 4
2673.0 1614.0 4
2704.0 1645.0 4
2725.0 1666.0 4
2746.0 1677.0 4
2913.0 1739.0 5
2913.0 1739.0 5
2913.0 1739.0 5
2923.0 1750.0 5
2944.0 1750.0 5
2965.0 1750.0 5
2996.0 1750.0 5
3017.0 1739.0 5
3038.0 1739.0 5
3038.0 1729.0 5
3027.0 1718.0 5
3006.0 1687.0 5
2996.0 1666.0 5
2975.0 1635.0 5
2933.0 1583.0 5
2902.0 1552.0 5
2892.0 1531.0 5
2892.0 1510.0 5

