263.0 2775.0 1
263.0 2785.0 1
263.0 2806.0 1
273.0 2816.0 1
273.0 2806.0 1
273.0 2775.0 1
273.0 2743.0 1
283.0 2702.0 1
273.0 2660.0 1
231.0 2608.0 1
210.0 2577.0 1
200.0 2566.0 1
200.0 2566.0 1
252.0 2691.0 2
231.0 2681.0 2
231.0 2670.0 2
242.0 2670.0 2
273.0 2681.0 2
325.0 2681.0 2
377.0 2702.0 2
429.0 2723.0 2
398.0 2816.0 3
388.0 2816.0 3
388.0 2816.0 3
388.0 2795.0 3
377.0 2743.0 3
346.0 2670.0 3
325.0 2608.0 3
315.0 2556.0 3
335.0 2545.0 3

