283.0 2775.0 1
283.0 2785.0 1
273.0 2785.0 1
273.0 2785.0 1
273.0 2785.0 1
263.0 2795.0 1
263.0 2795.0 1
263.0 2795.0 1
263.0 2795.0 1
263.0 2785.0 1
252.0 2764.0 1
252.0 2754.0 1
263.0 2733.0 1
273.0 2723.0 1
304.0 2733.0 1
356.0 2754.0 1
419.0 2785.0 1
471.0 2827.0 1
502.0 2858.0 1
502.0 2868.0 1
502.0 2868.0 1
481.0 2848.0 1
460.0 2827.0 1
273.0 2712.0 2
273.0 2723.0 2
273.0 2733.0 2
273.0 2754.0 2
273.0 2754.0 2
273.0 2743.0 2
273.0 2712.0 2
263.0 2681.0 2
263.0 2639.0 2
252.0 2608.0 2
263.0 2587.0 2
273.0 2577.0 2
273.0 2577.0 2
283.0 2577.0 2
283.0 2577.0 2
294.0 2577.0 2
294.0 2577.0 2

