1298.0 1489.0 1
1308.0 1520.0 1
1319.0 1541.0 1
1329.0 1552.0 1
1329.0 1541.0 1
1308.0 1500.0 1
1235.0 1427.0 1
1194.0 1364.0 1
1142.0 1291.0 1
1110.0 1250.0 1
1100.0 1229.0 1
1121.0 1229.0 1
1183.0 1229.0 1
1235.0 1208.0 1
1256.0 1145.0 1
1246.0 1073.0 1
1204.0 979.0 1
1163.0 875.0 1
1090.0 739.0 1
1027.0 645.0 1
965.0 562.0 1
913.0 500.0 1
902.0 489.0 1
902.0 500.0 1
1496.0 1125.0 2
1465.0 1135.0 2
1454.0 1135.0 2
1454.0 1145.0 2
1454.0 1114.0 2
1433.0 1073.0 2
1413.0 1000.0 2
1392.0 906.0 2
1371.0 802.0 2
1360.0 750.0 2
1360.0 718.0 2
1360.0 718.0 2
1360.0 729.0 2
1381.0 760.0 2
1433.0 812.0 2
1506.0 854.0 2
1548.0 864.0 2
1548.0 854.0 2
1548.0 812.0 2
1506.0 739.0 2
1485.0 698.0 2
1475.0 677.0 2
1475.0 666.0 2
1496.0 666.0 2
1704.0 823.0 3
1673.0 833.0 3
1652.0 833.0 3
1642.0 823.0 3
1631.0 812.0 3
1610.0 791.0 3
1600.0 770.0 3
1590.0 750.0 3
1590.0 739.0 3
1600.0 739.0 3
1631.0 770.0 3
1663.0 791.0 3
1694.0 823.0 3
1694.0 833.0 3
1694.0 802.0 3
1683.0 760.0 3
1673.0 739.0 3
1683.0 718.0 3
1704.0 718.0 3
1871.0 843.0 4
1850.0 843.0 4
1850.0 843.0 4
1829.0 843.0 4
1788.0 802.0 4
1767.0 781.0 4
1756.0 760.0 4
1756.0 750.0 4
1767.0 739.0 4
1788.0 760.0 4
1808.0 802.0 4
1860.0 843.0 4
1902.0 916.0 4
1944.0 979.0 4
1965.0 1041.0 4
1975.0 1114.0 4
1975.0 1177.0 4
1975.0 1187.0 4
1954.0 1187.0 4
1933.0 1145.0 4
1913.0 1083.0 4
1902.0 1020.0 4
1881.0 927.0 4
1860.0 812.0 4
1850.0 718.0 4
1850.0 666.0 4
1860.0 656.0 4
1996.0 864.0 5
1996.0 864.0 5
1985.0 864.0 5
1965.0 843.0 5
1954.0 791.0 5
1933.0 739.0 5
1933.0 708.0 5
1944.0 698.0 5
1965.0 698.0 5
2006.0 729.0 5
2038.0 760.0 5
2058.0 802.0 5
2079.0 843.0 5
2079.0 885.0 5
2069.0 906.0 5
2038.0 906.0 5
2006.0 875.0 5
1975.0 833.0 5
1975.0 802.0 5
1985.0 781.0 5
2131.0 864.0 6
2131.0 864.0 6
2121.0 843.0 6
2110.0 823.0 6
2100.0 781.0 6
2100.0 760.0 6
2100.0 729.0 6
2100.0 729.0 6
2110.0 739.0 6
2163.0 781.0 6
2194.0 823.0 6
2225.0 843.0 6
2225.0 843.0 6
2225.0 823.0 6
2204.0 781.0 6
2183.0 739.0 6
2173.0 718.0 6
2183.0 698.0 6
2194.0 698.0 6
2215.0 698.0 6
2235.0 718.0 6
2288.0 770.0 6
2350.0 833.0 6
2423.0 885.0 6
2506.0 927.0 6
2569.0 948.0 6
2590.0 916.0 6

