1360.0 1906.0 1
1360.0 1916.0 1
1360.0 1906.0 1
1360.0 1875.0 1
1350.0 1833.0 1
1350.0 1770.0 1
1340.0 1698.0 1
1329.0 1666.0 1
1329.0 1666.0 1
1329.0 1708.0 1
1329.0 1864.0 1
1329.0 1916.0 1
1329.0 1937.0 1
1340.0 1937.0 1
1350.0 1916.0 1
1350.0 1864.0 1
1371.0 1770.0 1
1381.0 1739.0 1
1402.0 1718.0 1
1423.0 1729.0 1
1444.0 1770.0 1
1465.0 1833.0 1
1485.0 1885.0 1
1496.0 1916.0 1
1496.0 1927.0 1
1485.0 1927.0 1
1517.0 1927.0 2
1506.0 1937.0 2
1506.0 1937.0 2
1506.0 1937.0 2
1506.0 1937.0 2
1506.0 1916.0 2
1506.0 1875.0 2
1496.0 1833.0 2
1485.0 1781.0 2
1485.0 1729.0 2
1496.0 1739.0 2
1610.0 1968.0 3
1610.0 1968.0 3
1610.0 1958.0 3
1610.0 1916.0 3
1600.0 1875.0 3
1600.0 1823.0 3
1590.0 1781.0 3
1590.0 1739.0 3
1600.0 1729.0 3
1610.0 1729.0 3
1631.0 1729.0 3
1663.0 1729.0 3
1683.0 1739.0 3
1704.0 1739.0 3
1610.0 1864.0 4
1631.0 1864.0 4
1652.0 1854.0 4
1704.0 1854.0 4
1725.0 1864.0 4
1725.0 1864.0 4
1610.0 1979.0 5
1621.0 1979.0 5
1652.0 1979.0 5
1725.0 1979.0 5
1871.0 2020.0 6
1871.0 2020.0 6
1860.0 2020.0 6
1850.0 1979.0 6
1840.0 1927.0 6
1829.0 1875.0 6
1829.0 1823.0 6
1819.0 1781.0 6
1819.0 1781.0 6
1819.0 1833.0 6
1819.0 1927.0 6
1840.0 1979.0 6
1850.0 2000.0 6
1871.0 2000.0 6
1892.0 1948.0 6
1902.0 1885.0 6
1902.0 1833.0 6
1913.0 1802.0 6
1933.0 1791.0 6
1954.0 1823.0 6
1975.0 1875.0 6
1975.0 1937.0 6
1975.0 2000.0 6
1975.0 1979.0 6
2017.0 1948.0 7
2048.0 2010.0 7
2058.0 2010.0 7
2058.0 1968.0 7
2058.0 1916.0 7
2058.0 1864.0 7
2069.0 1812.0 7
2090.0 1812.0 7
2121.0 1823.0 7
2163.0 1854.0 7
2194.0 1927.0 7

