1402.0 1375.0 1
1392.0 1375.0 1
1392.0 1364.0 1
1392.0 1364.0 1
1392.0 1354.0 1
1392.0 1354.0 1
1392.0 1354.0 1
1392.0 1354.0 1
1402.0 1364.0 1
1413.0 1375.0 1
1413.0 1416.0 1
1433.0 1458.0 1
1433.0 1489.0 1
1444.0 1520.0 1
1454.0 1562.0 1
1465.0 1604.0 1
1465.0 1635.0 1
1475.0 1666.0 1
1485.0 1687.0 1
1485.0 1708.0 1
1496.0 1718.0 1
1496.0 1729.0 1
1496.0 1729.0 1
1496.0 1729.0 1
1506.0 1718.0 1
1506.0 1687.0 1
1506.0 1677.0 1
1506.0 1656.0 1
1517.0 1635.0 1
1517.0 1583.0 1
1517.0 1562.0 1
1517.0 1531.0 1
1527.0 1510.0 1
1527.0 1489.0 1
1527.0 1479.0 1
1527.0 1468.0 1
1538.0 1458.0 1
1538.0 1448.0 1
1548.0 1448.0 1
1569.0 1468.0 1
1569.0 1479.0 1
1579.0 1510.0 1
1579.0 1531.0 1
1590.0 1562.0 1
1590.0 1583.0 1
1600.0 1614.0 1
1600.0 1635.0 1
1610.0 1666.0 1
1621.0 1687.0 1
1631.0 1698.0 1
1631.0 1729.0 1
1631.0 1729.0 1
1631.0 1708.0 1
1631.0 1698.0 1
1631.0 1666.0 1
1642.0 1614.0 1
1642.0 1468.0 1
1642.0 1437.0 1
1642.0 1385.0 1
1642.0 1375.0 1
1642.0 1333.0 1
1735.0 1437.0 2
1735.0 1448.0 2
1735.0 1448.0 2
1746.0 1448.0 2
1746.0 1448.0 2
1756.0 1448.0 2
1756.0 1458.0 2
1756.0 1458.0 2
1756.0 1458.0 2
1767.0 1458.0 2
1767.0 1468.0 2
1767.0 1468.0 2
1767.0 1510.0 2
1767.0 1520.0 2
1767.0 1520.0 2
1746.0 1520.0 2
1746.0 1520.0 2
1746.0 1510.0 2
1735.0 1500.0 2
1735.0 1489.0 2
1725.0 1479.0 2
1725.0 1448.0 2
1715.0 1416.0 2
1715.0 1385.0 2
1725.0 1375.0 2
1725.0 1375.0 2
1725.0 1364.0 2
1746.0 1364.0 2
1756.0 1364.0 2
1767.0 1375.0 2
1788.0 1385.0 2
1788.0 1406.0 2
1850.0 1552.0 3
1850.0 1552.0 3
1840.0 1552.0 3
1840.0 1500.0 3
1840.0 1489.0 3
1840.0 1468.0 3
1850.0 1458.0 3
1850.0 1448.0 3
1850.0 1427.0 3
1860.0 1385.0 3
1860.0 1375.0 3
1860.0 1375.0 3
1871.0 1375.0 3
1871.0 1375.0 3
1871.0 1375.0 3
1881.0 1385.0 3
1892.0 1395.0 3
1892.0 1416.0 3
1892.0 1427.0 3
1892.0 1437.0 3
1902.0 1448.0 3
1913.0 1468.0 3
1913.0 1489.0 3
1923.0 1489.0 3
1933.0 1500.0 3
1933.0 1500.0 3
1944.0 1500.0 3
1944.0 1489.0 3
1944.0 1489.0 3
1944.0 1479.0 3
1944.0 1468.0 3
1944.0 1448.0 3
1944.0 1427.0 3
1944.0 1416.0 3
2069.0 1520.0 4
2058.0 1520.0 4
2048.0 1520.0 4
2048.0 1510.0 4
2048.0 1489.0 4
2038.0 1479.0 4
2038.0 1468.0 4
2038.0 1458.0 4
2038.0 1395.0 4
2048.0 1385.0 4
2048.0 1375.0 4
2048.0 1364.0 4
2048.0 1354.0 4
2058.0 1354.0 4
2079.0 1354.0 4
2079.0 1354.0 4
2090.0 1364.0 4
2090.0 1375.0 4
2100.0 1385.0 4
2100.0 1395.0 4
2110.0 1406.0 4
2110.0 1427.0 4
2121.0 1468.0 4
2121.0 1489.0 4
2121.0 1562.0 4

