1319.0 1677.0 1
1319.0 1677.0 1
1319.0 1677.0 1
1319.0 1635.0 1
1329.0 1573.0 1
1340.0 1541.0 1
1340.0 1510.0 1
1360.0 1468.0 1
1371.0 1416.0 1
1371.0 1385.0 1
1381.0 1364.0 1
1381.0 1343.0 1
1392.0 1333.0 1
1392.0 1312.0 1
1402.0 1302.0 1
1413.0 1291.0 1
1423.0 1291.0 1
1423.0 1281.0 1
1433.0 1281.0 1
1454.0 1281.0 1
1465.0 1291.0 1
1475.0 1302.0 1
1475.0 1323.0 1
1485.0 1333.0 1
1485.0 1364.0 1
1496.0 1395.0 1
1496.0 1427.0 1
1496.0 1468.0 1
1496.0 1489.0 1
1496.0 1573.0 1
1506.0 1604.0 1
1506.0 1645.0 1
1506.0 1677.0 1
1517.0 1698.0 1
1517.0 1708.0 1
1517.0 1718.0 1
1631.0 1302.0 2
1631.0 1312.0 2
1621.0 1312.0 2
1621.0 1312.0 2
1621.0 1323.0 2
1621.0 1323.0 2
1610.0 1333.0 2
1610.0 1364.0 2
1621.0 1375.0 2
1621.0 1385.0 2
1621.0 1416.0 2
1621.0 1427.0 2
1631.0 1448.0 2
1631.0 1448.0 2
1642.0 1458.0 2
1642.0 1468.0 2
1652.0 1468.0 2
1663.0 1468.0 2
1673.0 1468.0 2
1683.0 1448.0 2
1694.0 1437.0 2
1694.0 1416.0 2
1704.0 1406.0 2
1704.0 1395.0 2
1704.0 1364.0 2
1704.0 1343.0 2
1704.0 1291.0 2
1694.0 1281.0 2
1673.0 1281.0 2
1663.0 1291.0 2
1652.0 1302.0 2
1631.0 1302.0 2
1860.0 1448.0 3
1860.0 1448.0 3
1850.0 1448.0 3
1850.0 1448.0 3
1850.0 1458.0 3
1840.0 1458.0 3
1829.0 1458.0 3
1819.0 1468.0 3
1819.0 1468.0 3
1777.0 1468.0 3
1767.0 1458.0 3
1767.0 1458.0 3
1767.0 1448.0 3
1756.0 1427.0 3
1756.0 1416.0 3
1756.0 1323.0 3
1756.0 1312.0 3
1767.0 1302.0 3
1767.0 1291.0 3
1788.0 1291.0 3
1798.0 1302.0 3
1819.0 1333.0 3
1840.0 1333.0 3
1715.0 1323.0 4
1715.0 1323.0 4
1715.0 1593.0 4
1715.0 1645.0 4
1715.0 1666.0 4
1715.0 1698.0 4
1944.0 1427.0 5
1944.0 1427.0 5
1944.0 1437.0 5
1944.0 1437.0 5
1944.0 1437.0 5
1933.0 1448.0 5
1933.0 1448.0 5
1933.0 1448.0 5
1933.0 1448.0 5
1913.0 1448.0 5
1913.0 1437.0 5
1913.0 1437.0 5
1902.0 1427.0 5
1902.0 1427.0 5
1892.0 1416.0 5
1892.0 1406.0 5
1892.0 1395.0 5
1892.0 1385.0 5
1892.0 1323.0 5
1902.0 1312.0 5
1902.0 1302.0 5
1902.0 1291.0 5
1902.0 1291.0 5
1923.0 1291.0 5
1933.0 1302.0 5
1933.0 1312.0 5
1944.0 1323.0 5
1944.0 1333.0 5
1944.0 1354.0 5
1944.0 1375.0 5
1954.0 1385.0 5
1954.0 1406.0 5
1954.0 1448.0 5
1954.0 1458.0 5
1954.0 1489.0 5
1954.0 1395.0 5
1965.0 1375.0 5
1965.0 1364.0 5
1965.0 1354.0 5
1975.0 1333.0 5
1975.0 1323.0 5
1985.0 1312.0 5
1985.0 1302.0 5
1985.0 1281.0 5
2079.0 1489.0 6
2058.0 1489.0 6
2058.0 1489.0 6
2069.0 1489.0 6
2069.0 1479.0 6
2069.0 1458.0 6
2069.0 1448.0 6
2079.0 1427.0 6
2079.0 1406.0 6
2079.0 1395.0 6
2079.0 1375.0 6
2079.0 1364.0 6
2079.0 1343.0 6
2090.0 1333.0 6
2090.0 1312.0 6
2090.0 1302.0 6
2090.0 1302.0 6
2090.0 1302.0 6
2100.0 1302.0 6
2100.0 1302.0 6
2110.0 1312.0 6
2110.0 1333.0 6
2121.0 1343.0 6
2121.0 1364.0 6
2131.0 1406.0 6
2142.0 1416.0 6
2142.0 1437.0 6
2152.0 1448.0 6
2152.0 1468.0 6
2163.0 1479.0 6
2163.0 1479.0 6
2173.0 1468.0 6
2173.0 1323.0 6
2173.0 1312.0 6
2173.0 1302.0 6
2173.0 1291.0 6
2173.0 1281.0 6
2277.0 1333.0 7
2277.0 1333.0 7
2277.0 1333.0 7
2277.0 1333.0 7
2277.0 1354.0 7
2277.0 1354.0 7
2277.0 1375.0 7
2277.0 1385.0 7
2277.0 1416.0 7
2277.0 1552.0 8
2267.0 1562.0 8
2256.0 1562.0 8
2256.0 1562.0 8
2256.0 1573.0 8
2256.0 1573.0 8
2267.0 1573.0 8
2444.0 1448.0 9
2444.0 1448.0 9
2444.0 1458.0 9
2433.0 1458.0 9
2433.0 1468.0 9
2423.0 1468.0 9
2402.0 1458.0 9
2392.0 1458.0 9
2392.0 1448.0 9
2381.0 1437.0 9
2381.0 1354.0 9
2392.0 1343.0 9
2392.0 1333.0 9
2402.0 1312.0 9
2402.0 1302.0 9
2413.0 1302.0 9
2433.0 1302.0 9
2444.0 1291.0 9
2454.0 1291.0 9
2465.0 1281.0 9

