808.0 1354.0 1
808.0 1354.0 1
808.0 1354.0 1
808.0 1354.0 1
819.0 1354.0 1
819.0 1364.0 1
819.0 1364.0 1
819.0 1364.0 1
829.0 1364.0 1
829.0 1375.0 1
829.0 1375.0 1
829.0 1385.0 1
840.0 1385.0 1
840.0 1406.0 1
850.0 1427.0 1
850.0 1437.0 1
850.0 1448.0 1
860.0 1468.0 1
860.0 1479.0 1
860.0 1489.0 1
871.0 1510.0 1
871.0 1531.0 1
871.0 1552.0 1
881.0 1562.0 1
881.0 1573.0 1
881.0 1593.0 1
892.0 1614.0 1
892.0 1625.0 1
902.0 1635.0 1
902.0 1645.0 1
902.0 1656.0 1
902.0 1687.0 1
913.0 1687.0 1
913.0 1698.0 1
913.0 1708.0 1
923.0 1708.0 1
923.0 1718.0 1
923.0 1729.0 1
923.0 1750.0 1
923.0 1750.0 1
923.0 1739.0 1
933.0 1739.0 1
933.0 1739.0 1
933.0 1739.0 1
933.0 1729.0 1
933.0 1718.0 1
944.0 1708.0 1
944.0 1687.0 1
944.0 1677.0 1
954.0 1656.0 1
954.0 1635.0 1
954.0 1614.0 1
954.0 1573.0 1
965.0 1562.0 1
965.0 1541.0 1
975.0 1531.0 1
975.0 1510.0 1
975.0 1489.0 1
975.0 1479.0 1
975.0 1468.0 1
985.0 1437.0 1
985.0 1427.0 1
985.0 1406.0 1
985.0 1395.0 1
985.0 1385.0 1
996.0 1375.0 1
996.0 1354.0 1
996.0 1343.0 1
996.0 1333.0 1
996.0 1323.0 1
996.0 1312.0 1
860.0 1510.0 2
850.0 1520.0 2
850.0 1520.0 2
850.0 1531.0 2
871.0 1531.0 2
881.0 1520.0 2
881.0 1520.0 2
902.0 1510.0 2
902.0 1510.0 2
923.0 1510.0 2
923.0 1510.0 2
933.0 1510.0 2
975.0 1510.0 2
1194.0 1552.0 3
1183.0 1562.0 3
1183.0 1562.0 3
1183.0 1562.0 3
1183.0 1562.0 3
1183.0 1562.0 3
1194.0 1552.0 3
1194.0 1552.0 3
1204.0 1541.0 3
1204.0 1531.0 3
1204.0 1520.0 3
1204.0 1500.0 3
1204.0 1489.0 3
1204.0 1468.0 3
1215.0 1458.0 3
1215.0 1437.0 3
1215.0 1427.0 3
1215.0 1416.0 3
1225.0 1406.0 3
1225.0 1395.0 3
1225.0 1385.0 3
1225.0 1364.0 3
1225.0 1364.0 3
1225.0 1364.0 3
1225.0 1364.0 3
1235.0 1364.0 3
1235.0 1375.0 3
1235.0 1375.0 3
1235.0 1385.0 3
1235.0 1395.0 3
1235.0 1406.0 3
1246.0 1416.0 3
1246.0 1427.0 3
1256.0 1458.0 3
1256.0 1468.0 3
1256.0 1479.0 3
1256.0 1479.0 3
1256.0 1489.0 3
1267.0 1500.0 3
1267.0 1510.0 3
1267.0 1520.0 3
1267.0 1520.0 3
1277.0 1531.0 3
1277.0 1531.0 3
1277.0 1541.0 3
1277.0 1541.0 3
1277.0 1541.0 3
1277.0 1541.0 3
1277.0 1541.0 3
1288.0 1541.0 3
1288.0 1541.0 3
1288.0 1531.0 3
1288.0 1531.0 3
1288.0 1531.0 3
1298.0 1531.0 3
1298.0 1520.0 3
1298.0 1520.0 3
1298.0 1510.0 3
1308.0 1510.0 3
1308.0 1510.0 3
1308.0 1510.0 3
1308.0 1500.0 3
1308.0 1500.0 3
1319.0 1500.0 3
1319.0 1500.0 3
1319.0 1500.0 3
1319.0 1489.0 3
1329.0 1489.0 3
1329.0 1489.0 3
1329.0 1489.0 3
1329.0 1479.0 3
1329.0 1479.0 3
1329.0 1468.0 3
1329.0 1458.0 3
1340.0 1458.0 3
1340.0 1448.0 3
1340.0 1437.0 3
1340.0 1416.0 3
1340.0 1406.0 3
1350.0 1395.0 3
1350.0 1395.0 3
1350.0 1375.0 3
1350.0 1375.0 3
1433.0 1573.0 4
1433.0 1573.0 4
1433.0 1573.0 4
1433.0 1573.0 4
1444.0 1573.0 4
1444.0 1573.0 4
1444.0 1573.0 4
1454.0 1562.0 4
1454.0 1552.0 4
1465.0 1541.0 4
1465.0 1531.0 4
1475.0 1510.0 4
1475.0 1489.0 4
1485.0 1468.0 4
1485.0 1448.0 4
1485.0 1427.0 4
1485.0 1427.0 4
1496.0 1416.0 4
1496.0 1395.0 4
1496.0 1395.0 4
1496.0 1406.0 4
1496.0 1406.0 4
1506.0 1416.0 4
1506.0 1427.0 4
1506.0 1437.0 4
1506.0 1437.0 4
1517.0 1448.0 4
1517.0 1458.0 4
1517.0 1468.0 4
1517.0 1479.0 4
1527.0 1489.0 4
1527.0 1500.0 4
1527.0 1510.0 4
1527.0 1510.0 4
1538.0 1520.0 4
1538.0 1531.0 4
1538.0 1541.0 4
1538.0 1541.0 4
1538.0 1552.0 4
1538.0 1552.0 4
1538.0 1552.0 4
1538.0 1552.0 4
1548.0 1552.0 4
1548.0 1552.0 4
1548.0 1552.0 4
1548.0 1541.0 4
1558.0 1541.0 4
1558.0 1531.0 4
1569.0 1520.0 4
1569.0 1510.0 4
1579.0 1510.0 4
1579.0 1500.0 4
1579.0 1489.0 4
1579.0 1489.0 4
1579.0 1479.0 4
1590.0 1479.0 4
1590.0 1468.0 4
1590.0 1468.0 4
1590.0 1458.0 4
1590.0 1448.0 4
1600.0 1448.0 4
1600.0 1437.0 4
1600.0 1427.0 4
1600.0 1416.0 4
1610.0 1416.0 4
1610.0 1406.0 4
1610.0 1395.0 4
1610.0 1364.0 4
1610.0 1343.0 4
1621.0 1333.0 4
1735.0 1448.0 5
1725.0 1448.0 5
1725.0 1458.0 5
1725.0 1468.0 5
1725.0 1479.0 5
1725.0 1500.0 5
1725.0 1510.0 5
1725.0 1520.0 5
1735.0 1531.0 5
1735.0 1541.0 5
1735.0 1552.0 5
1746.0 1562.0 5
1746.0 1562.0 5
1756.0 1573.0 5
1777.0 1573.0 5
1788.0 1573.0 5
1788.0 1562.0 5
1798.0 1552.0 5
1798.0 1531.0 5
1798.0 1531.0 5
1808.0 1520.0 5
1808.0 1458.0 5
1798.0 1437.0 5
1798.0 1406.0 5
1788.0 1395.0 5
1788.0 1395.0 5
1767.0 1395.0 5
1860.0 1541.0 6
1860.0 1510.0 6
1871.0 1500.0 6
1871.0 1489.0 6
1871.0 1468.0 6
1871.0 1458.0 6
1871.0 1448.0 6
1881.0 1427.0 6
1881.0 1416.0 6
1892.0 1416.0 6
1902.0 1416.0 6
1913.0 1416.0 6
1913.0 1427.0 6
1923.0 1437.0 6
1933.0 1448.0 6
1944.0 1468.0 6
1944.0 1479.0 6
1954.0 1489.0 6
1954.0 1500.0 6
1954.0 1510.0 6
1965.0 1510.0 6
2017.0 1552.0 7
2017.0 1531.0 7
2027.0 1531.0 7
2027.0 1510.0 7
2027.0 1510.0 7
2027.0 1500.0 7
2027.0 1489.0 7
2038.0 1489.0 7
2038.0 1479.0 7
2038.0 1468.0 7
2038.0 1448.0 7
2048.0 1448.0 7
2048.0 1448.0 7
2048.0 1448.0 7
2048.0 1448.0 7
2058.0 1448.0 7
2058.0 1458.0 7
2058.0 1468.0 7
2069.0 1468.0 7
2069.0 1479.0 7
2079.0 1510.0 7
2079.0 1520.0 7
2090.0 1531.0 7
2090.0 1541.0 7
2100.0 1541.0 7
2100.0 1552.0 7
2100.0 1552.0 7
2110.0 1552.0 7
2110.0 1552.0 7
2121.0 1552.0 7
2121.0 1541.0 7
2121.0 1541.0 7
2121.0 1531.0 7
2121.0 1531.0 7
2131.0 1520.0 7
2131.0 1510.0 7
2131.0 1500.0 7
2131.0 1489.0 7
2131.0 1479.0 7
2142.0 1468.0 7
2142.0 1458.0 7
2142.0 1427.0 7
2142.0 1416.0 7
2142.0 1406.0 7
2360.0 1573.0 8
2360.0 1573.0 8
2350.0 1573.0 8
2350.0 1583.0 8
2329.0 1583.0 8
2308.0 1583.0 8
2277.0 1583.0 8
2277.0 1573.0 8
2267.0 1573.0 8
2267.0 1552.0 8
2256.0 1541.0 8
2256.0 1531.0 8
2256.0 1500.0 8
2256.0 1458.0 8
2256.0 1437.0 8
2256.0 1427.0 8
2256.0 1416.0 8
2267.0 1406.0 8
2277.0 1395.0 8
2277.0 1395.0 8
2298.0 1395.0 8
2319.0 1395.0 8
2329.0 1406.0 8
2340.0 1416.0 8
2475.0 1437.0 9
2475.0 1437.0 9
2475.0 1437.0 9
2475.0 1437.0 9
2475.0 1427.0 9
2475.0 1437.0 9
2475.0 1541.0 9
2454.0 1698.0 10
2454.0 1708.0 10
2444.0 1708.0 10
2444.0 1718.0 10
2444.0 1718.0 10
2538.0 1583.0 11
2538.0 1593.0 11
2548.0 1593.0 11
2548.0 1583.0 11
2548.0 1583.0 11
2558.0 1573.0 11
2558.0 1562.0 11
2558.0 1552.0 11
2569.0 1541.0 11
2569.0 1531.0 11
2569.0 1510.0 11
2569.0 1500.0 11
2569.0 1489.0 11
2579.0 1479.0 11
2579.0 1448.0 11
2579.0 1437.0 11
2579.0 1427.0 11
2590.0 1416.0 11
2590.0 1416.0 11
2590.0 1416.0 11
2600.0 1416.0 11
2600.0 1427.0 11
2600.0 1437.0 11
2610.0 1448.0 11
2610.0 1468.0 11
2610.0 1479.0 11
2621.0 1489.0 11
2621.0 1510.0 11
2631.0 1510.0 11
2642.0 1520.0 11
2642.0 1520.0 11
2642.0 1520.0 11
2642.0 1531.0 11
2652.0 1531.0 11
2652.0 1531.0 11
2652.0 1531.0 11
2652.0 1500.0 11
2652.0 1489.0 11
2652.0 1437.0 11
2652.0 1416.0 11
2881.0 1583.0 12
2860.0 1583.0 12
2850.0 1593.0 12
2819.0 1593.0 12
2819.0 1593.0 12
2808.0 1583.0 12
2798.0 1573.0 12
2798.0 1562.0 12
2777.0 1552.0 12
2777.0 1541.0 12
2777.0 1531.0 12
2777.0 1520.0 12
2777.0 1510.0 12
2767.0 1489.0 12
2767.0 1458.0 12
2777.0 1448.0 12
2777.0 1437.0 12
2777.0 1427.0 12
2808.0 1427.0 12
2819.0 1427.0 12
2840.0 1458.0 12
2850.0 1468.0 12
2860.0 1479.0 12
2871.0 1500.0 12
2881.0 1510.0 12
2902.0 1552.0 12
2902.0 1562.0 12
2923.0 1583.0 12
2923.0 1593.0 12
2944.0 1593.0 12
2944.0 1583.0 12
2944.0 1583.0 12
2944.0 1573.0 12
2944.0 1562.0 12
2944.0 1541.0 12
2944.0 1531.0 12
2944.0 1458.0 12
2944.0 1437.0 12
2944.0 1416.0 12
2933.0 1385.0 12
2923.0 1323.0 12
2923.0 1302.0 12
2923.0 1270.0 12
2913.0 1239.0 12
2902.0 1208.0 12
2902.0 1177.0 12
2892.0 1145.0 12
2892.0 1114.0 12
2881.0 1083.0 12
2881.0 1062.0 12
2860.0 1041.0 12
2860.0 1031.0 12
2840.0 1020.0 12
2819.0 1020.0 12
2798.0 1020.0 12
2788.0 1031.0 12
2777.0 1041.0 12
2756.0 1062.0 12
2756.0 1083.0 12
2756.0 1177.0 12
2777.0 1229.0 12
2788.0 1250.0 12
2798.0 1281.0 12
2819.0 1302.0 12
2840.0 1333.0 12
2860.0 1364.0 12
2892.0 1395.0 12
2923.0 1427.0 12
2954.0 1458.0 12
2985.0 1489.0 12
3017.0 1520.0 12
3038.0 1583.0 12
3100.0 1614.0 12
3142.0 1635.0 12

