710.0 2743.0 1
710.0 2743.0 1
710.0 2743.0 1
710.0 2723.0 1
710.0 2712.0 1
710.0 2691.0 1
721.0 2660.0 1
721.0 2629.0 1
721.0 2545.0 1
721.0 2545.0 1
731.0 2545.0 1
742.0 2556.0 1
742.0 2566.0 1
752.0 2566.0 1
773.0 2577.0 1
804.0 2556.0 1
835.0 2556.0 1
856.0 2556.0 1
867.0 2556.0 1
877.0 2556.0 1
877.0 2566.0 1
888.0 2566.0 1
919.0 2629.0 2
929.0 2629.0 2
940.0 2629.0 2
960.0 2639.0 2
971.0 2639.0 2
971.0 2639.0 2
971.0 2650.0 2
960.0 2660.0 2
940.0 2660.0 2
919.0 2660.0 2
908.0 2650.0 2
908.0 2629.0 2
919.0 2618.0 2
929.0 2587.0 2
960.0 2577.0 2
981.0 2566.0 2
1002.0 2566.0 2
1054.0 2577.0 3
1054.0 2566.0 3
1054.0 2577.0 3
1054.0 2598.0 3
1044.0 2629.0 3
1044.0 2670.0 3
1044.0 2712.0 3
1033.0 2743.0 3
1033.0 2754.0 3
1033.0 2775.0 3
1044.0 2785.0 3
1054.0 2795.0 3
1075.0 2806.0 3
1096.0 2806.0 3
1106.0 2795.0 3
1117.0 2785.0 3
1096.0 2712.0 4
1096.0 2702.0 4
1085.0 2702.0 4
1065.0 2712.0 4
1033.0 2702.0 4
1013.0 2691.0 4
1013.0 2691.0 4
1023.0 2691.0 4
1190.0 2743.0 5
1190.0 2754.0 5
1190.0 2764.0 5
1190.0 2764.0 5
1190.0 2764.0 5
1190.0 2764.0 5
1190.0 2743.0 5
1190.0 2702.0 5
1210.0 2660.0 5
1221.0 2629.0 5
1221.0 2608.0 5
1221.0 2608.0 5
1231.0 2608.0 5
1273.0 2681.0 6
1263.0 2691.0 6
1263.0 2691.0 6
1242.0 2702.0 6
1221.0 2712.0 6
1169.0 2723.0 6
1148.0 2723.0 6
1127.0 2712.0 6
1117.0 2712.0 6
1127.0 2712.0 6

