2090.0 1802.0 1
2090.0 1812.0 1
2090.0 1812.0 1
2079.0 1812.0 1
2069.0 1812.0 1
2069.0 1812.0 1
2058.0 1791.0 1
2006.0 1729.0 1
1975.0 1666.0 1
1954.0 1604.0 1
1954.0 1562.0 1
1954.0 1520.0 1
1975.0 1500.0 1
2017.0 1500.0 1
2058.0 1500.0 1
2121.0 1531.0 1
2152.0 1562.0 1
2173.0 1593.0 1
2173.0 1614.0 1
2173.0 1666.0 1
2142.0 1708.0 1
2121.0 1750.0 1
2100.0 1781.0 1
2069.0 1791.0 1
2058.0 1791.0 1
2058.0 1791.0 1
2058.0 1791.0 1
2058.0 1791.0 1
2215.0 1812.0 2
2194.0 1812.0 2
2194.0 1812.0 2
2194.0 1812.0 2
2194.0 1812.0 2
2194.0 1812.0 2
2204.0 1812.0 2
2225.0 1812.0 2
2267.0 1812.0 2
2308.0 1823.0 2
2350.0 1843.0 2
2371.0 1843.0 2
2381.0 1843.0 2
2392.0 1843.0 2
2392.0 1843.0 2
2392.0 1812.0 2
2392.0 1781.0 2
2381.0 1729.0 2
2371.0 1666.0 2
2371.0 1625.0 2
2371.0 1531.0 2
2371.0 1531.0 2
2371.0 1541.0 2
2485.0 1802.0 3
2475.0 1812.0 3
2475.0 1823.0 3
2496.0 1833.0 3
2517.0 1843.0 3
2548.0 1843.0 3
2569.0 1843.0 3
2579.0 1833.0 3
2579.0 1823.0 3
2590.0 1802.0 3
2579.0 1770.0 3
2569.0 1729.0 3
2527.0 1656.0 3
2517.0 1625.0 3
2506.0 1583.0 3
2496.0 1562.0 3
2496.0 1552.0 3
2506.0 1552.0 3
2517.0 1552.0 3
2538.0 1552.0 3
2569.0 1573.0 3
2590.0 1593.0 3
2600.0 1604.0 3
2600.0 1625.0 3
2600.0 1645.0 3
2590.0 1666.0 3
2558.0 1687.0 3
2538.0 1708.0 3
2506.0 1729.0 3
2475.0 1750.0 3
2454.0 1791.0 3
2444.0 1802.0 3
2444.0 1812.0 3
2444.0 1823.0 3
2465.0 1833.0 3
2631.0 1843.0 4
2631.0 1843.0 4
2631.0 1843.0 4
2642.0 1854.0 4
2642.0 1854.0 4
2673.0 1864.0 4
2704.0 1885.0 4
2735.0 1885.0 4
2735.0 1885.0 4
2725.0 1875.0 4
2663.0 1864.0 5
2642.0 1864.0 5
2642.0 1854.0 5
2642.0 1833.0 5
2642.0 1812.0 5
2642.0 1791.0 5
2642.0 1770.0 5
2652.0 1760.0 5
2663.0 1760.0 5
2663.0 1760.0 5
2673.0 1760.0 5
2673.0 1760.0 5
2694.0 1770.0 5
2715.0 1770.0 5
2725.0 1781.0 5
2746.0 1781.0 5
2756.0 1781.0 5
2777.0 1760.0 5
2788.0 1739.0 5
2788.0 1708.0 5
2788.0 1687.0 5
2788.0 1656.0 5
2788.0 1635.0 5
2767.0 1614.0 5
2756.0 1604.0 5
2715.0 1604.0 5
2704.0 1614.0 5
2683.0 1625.0 5
2673.0 1645.0 5
2683.0 1656.0 5
2902.0 1916.0 6
2902.0 1927.0 6
2892.0 1927.0 6
2892.0 1927.0 6
2881.0 1916.0 6
2871.0 1864.0 6
2860.0 1833.0 6
2850.0 1781.0 6
2840.0 1708.0 6
2840.0 1666.0 6
2840.0 1645.0 6
2860.0 1645.0 6
2902.0 1635.0 6
2933.0 1645.0 6
2965.0 1666.0 6
2985.0 1677.0 6
2985.0 1698.0 6
2975.0 1708.0 6
2975.0 1729.0 6
2954.0 1729.0 6
2913.0 1729.0 6
2892.0 1718.0 6
2860.0 1698.0 6
2840.0 1687.0 6

