808.0 1739.0 1
808.0 1750.0 1
808.0 1729.0 1
819.0 1708.0 1
819.0 1677.0 1
829.0 1625.0 1
829.0 1583.0 1
829.0 1541.0 1
829.0 1510.0 1
840.0 1489.0 1
840.0 1489.0 1
808.0 1718.0 2
808.0 1729.0 2
819.0 1739.0 2
829.0 1739.0 2
860.0 1760.0 2
881.0 1770.0 2
913.0 1770.0 2
923.0 1770.0 2
933.0 1750.0 2
933.0 1729.0 2
923.0 1698.0 2
902.0 1677.0 2
850.0 1656.0 2
850.0 1656.0 2
850.0 1666.0 2
871.0 1666.0 2
892.0 1656.0 2
913.0 1656.0 2
933.0 1635.0 2
933.0 1604.0 2
933.0 1583.0 2
933.0 1552.0 2
913.0 1510.0 2
892.0 1500.0 2
860.0 1500.0 2
829.0 1500.0 2
798.0 1510.0 2
798.0 1510.0 2
798.0 1520.0 2
1048.0 1573.0 3
1048.0 1573.0 3
1048.0 1583.0 3
1048.0 1604.0 3
1048.0 1635.0 3
1048.0 1656.0 3
1038.0 1666.0 3
1027.0 1677.0 3
1027.0 1677.0 3
985.0 1677.0 3
975.0 1656.0 3
965.0 1625.0 3
954.0 1604.0 3
954.0 1583.0 3
965.0 1562.0 3
975.0 1552.0 3
996.0 1552.0 3
1017.0 1552.0 3
1027.0 1573.0 3
1038.0 1583.0 3
1038.0 1604.0 3
1038.0 1625.0 3
1038.0 1635.0 3
1038.0 1635.0 3
1027.0 1614.0 3
1038.0 1583.0 3
1038.0 1562.0 3
1048.0 1552.0 3
1058.0 1541.0 3
1173.0 1656.0 4
1163.0 1677.0 4
1163.0 1677.0 4
1152.0 1687.0 4
1152.0 1687.0 4
1131.0 1677.0 4
1121.0 1666.0 4
1110.0 1645.0 4
1100.0 1625.0 4
1100.0 1593.0 4
1100.0 1583.0 4
1110.0 1562.0 4
1131.0 1552.0 4
1152.0 1552.0 4
1173.0 1552.0 4
1246.0 1791.0 5
1235.0 1770.0 5
1235.0 1739.0 5
1235.0 1698.0 5
1235.0 1645.0 5
1225.0 1614.0 5
1225.0 1583.0 5
1298.0 1718.0 6
1298.0 1718.0 6
1288.0 1708.0 6
1277.0 1687.0 6
1246.0 1666.0 6
1235.0 1635.0 6
1235.0 1614.0 6
1235.0 1604.0 6
1235.0 1593.0 6
1267.0 1573.0 6
1288.0 1573.0 6
1319.0 1573.0 6
1381.0 1687.0 7
1381.0 1677.0 7
1381.0 1656.0 7
1371.0 1625.0 7
1371.0 1593.0 7
1371.0 1760.0 8
1371.0 1770.0 8
1371.0 1781.0 8
1433.0 1677.0 9
1433.0 1656.0 9
1433.0 1625.0 9
1444.0 1593.0 9
1444.0 1573.0 9
1454.0 1573.0 9
1454.0 1573.0 9
1454.0 1593.0 9
1454.0 1635.0 9
1465.0 1656.0 9
1475.0 1687.0 9
1485.0 1698.0 9
1496.0 1708.0 9
1506.0 1698.0 9
1527.0 1677.0 9
1538.0 1666.0 9
1548.0 1635.0 9
1548.0 1614.0 9
1548.0 1593.0 9
1548.0 1583.0 9
1548.0 1573.0 9
1663.0 1573.0 10
1673.0 1583.0 10
1673.0 1593.0 10
1683.0 1604.0 10
1683.0 1635.0 10
1683.0 1666.0 10
1683.0 1687.0 10
1673.0 1708.0 10
1673.0 1708.0 10
1652.0 1708.0 10
1631.0 1698.0 10
1610.0 1687.0 10
1600.0 1666.0 10
1590.0 1625.0 10
1590.0 1614.0 10
1590.0 1604.0 10
1610.0 1604.0 10
1642.0 1604.0 10
1663.0 1614.0 10
1683.0 1635.0 10
1683.0 1645.0 10
1683.0 1666.0 10
1663.0 1666.0 10
1663.0 1666.0 10
1663.0 1656.0 10
1652.0 1656.0 10
1652.0 1635.0 10
1663.0 1604.0 10
1673.0 1562.0 10
1673.0 1531.0 10
1683.0 1479.0 10
1683.0 1458.0 10
1663.0 1427.0 10
1631.0 1406.0 10
1600.0 1385.0 10
1558.0 1385.0 10
1496.0 1385.0 10
1485.0 1395.0 10

