1485.0 1531.0 1
1485.0 1531.0 1
1485.0 1520.0 1
1485.0 1510.0 1
1485.0 1500.0 1
1485.0 1500.0 1
1485.0 1479.0 1
1485.0 1468.0 1
1485.0 1458.0 1
1496.0 1448.0 1
1496.0 1416.0 1
1496.0 1406.0 1
1496.0 1395.0 1
1496.0 1395.0 1
1506.0 1395.0 1
1506.0 1395.0 1
1402.0 1552.0 2
1392.0 1552.0 2
1392.0 1573.0 2
1402.0 1573.0 2
1444.0 1573.0 2
1465.0 1562.0 2
1475.0 1562.0 2
1496.0 1552.0 2
1517.0 1552.0 2
1527.0 1541.0 2
1538.0 1531.0 2
1548.0 1520.0 2
1558.0 1510.0 2
1569.0 1510.0 2
1590.0 1489.0 2
1590.0 1479.0 2
1590.0 1448.0 2
1579.0 1437.0 2
1579.0 1427.0 2
1569.0 1416.0 2
1548.0 1395.0 2
1517.0 1385.0 2
1496.0 1375.0 2
1423.0 1375.0 2
1413.0 1385.0 2
1610.0 1479.0 3
1600.0 1479.0 3
1600.0 1479.0 3
1600.0 1468.0 3
1600.0 1468.0 3
1600.0 1437.0 3
1610.0 1427.0 3
1610.0 1427.0 3
1610.0 1406.0 3
1610.0 1406.0 3
1610.0 1395.0 3
1621.0 1395.0 3
1621.0 1385.0 3
1621.0 1385.0 3
1610.0 1531.0 4
1600.0 1541.0 4
1600.0 1541.0 4
1600.0 1531.0 4
1756.0 1489.0 5
1746.0 1489.0 5
1746.0 1489.0 5
1735.0 1489.0 5
1725.0 1500.0 5
1704.0 1500.0 5
1694.0 1489.0 5
1694.0 1489.0 5
1683.0 1489.0 5
1683.0 1479.0 5
1673.0 1479.0 5
1673.0 1468.0 5
1683.0 1468.0 5
1683.0 1458.0 5
1694.0 1458.0 5
1704.0 1448.0 5
1715.0 1448.0 5
1725.0 1448.0 5
1725.0 1437.0 5
1746.0 1427.0 5
1746.0 1427.0 5
1756.0 1427.0 5
1767.0 1427.0 5
1767.0 1416.0 5
1767.0 1406.0 5
1767.0 1395.0 5
1756.0 1395.0 5
1746.0 1395.0 5
1694.0 1395.0 5
1683.0 1395.0 5
1673.0 1395.0 5
1663.0 1395.0 5
1663.0 1395.0 5
1663.0 1395.0 5
1881.0 1448.0 6
1881.0 1448.0 6
1881.0 1448.0 6
1881.0 1458.0 6
1871.0 1458.0 6
1871.0 1468.0 6
1860.0 1468.0 6
1850.0 1479.0 6
1840.0 1479.0 6
1819.0 1479.0 6
1808.0 1479.0 6
1808.0 1468.0 6
1798.0 1468.0 6
1788.0 1468.0 6
1788.0 1468.0 6
1788.0 1468.0 6
1777.0 1458.0 6
1777.0 1437.0 6
1788.0 1437.0 6
1788.0 1427.0 6
1788.0 1427.0 6
1788.0 1416.0 6
1798.0 1406.0 6
1798.0 1406.0 6
1829.0 1406.0 6
1840.0 1406.0 6
1850.0 1406.0 6
1850.0 1416.0 6
1860.0 1427.0 6
1860.0 1427.0 6
1871.0 1427.0 6
1871.0 1427.0 6
1871.0 1437.0 6
1881.0 1437.0 6
1881.0 1437.0 6
1881.0 1427.0 6
1881.0 1427.0 6
1892.0 1416.0 6
1892.0 1406.0 6
1892.0 1406.0 6
1892.0 1395.0 6
1892.0 1385.0 6
1892.0 1375.0 6
1902.0 1364.0 6
1902.0 1354.0 6
1902.0 1343.0 6
1913.0 1333.0 6
1913.0 1323.0 6
1913.0 1302.0 6
1913.0 1291.0 6
1913.0 1281.0 6
1913.0 1312.0 6
1913.0 1312.0 6
1913.0 1323.0 6
1913.0 1333.0 6
1913.0 1343.0 6
1923.0 1343.0 6
1923.0 1354.0 6
1933.0 1375.0 6
1933.0 1385.0 6
1933.0 1395.0 6
1944.0 1406.0 6
1944.0 1406.0 6
1944.0 1416.0 6
1944.0 1416.0 6
1954.0 1427.0 6
1954.0 1427.0 6
1954.0 1437.0 6
1954.0 1437.0 6
1954.0 1437.0 6
1965.0 1437.0 6
1985.0 1489.0 7
1985.0 1489.0 7
1985.0 1489.0 7
1975.0 1489.0 7
1975.0 1489.0 7
1975.0 1458.0 7
1975.0 1448.0 7
1985.0 1448.0 7
1985.0 1437.0 7
1985.0 1427.0 7
1996.0 1427.0 7
1996.0 1416.0 7
2006.0 1406.0 7
2038.0 1406.0 7
2048.0 1416.0 7
2058.0 1416.0 7
2058.0 1427.0 7
2069.0 1427.0 7
2079.0 1427.0 7
2079.0 1437.0 7
2079.0 1458.0 7
2079.0 1468.0 7
2079.0 1479.0 7
2079.0 1489.0 7
2079.0 1489.0 7
2069.0 1500.0 7
2069.0 1500.0 7
2069.0 1500.0 7
2069.0 1489.0 7
2194.0 1468.0 8
2183.0 1479.0 8
2183.0 1489.0 8
2183.0 1489.0 8
2183.0 1489.0 8
2173.0 1500.0 8
2163.0 1500.0 8
2142.0 1500.0 8
2142.0 1500.0 8
2131.0 1500.0 8
2110.0 1489.0 8
2100.0 1479.0 8
2100.0 1468.0 8
2100.0 1458.0 8
2100.0 1448.0 8
2110.0 1448.0 8
2110.0 1437.0 8
2110.0 1427.0 8
2121.0 1416.0 8
2121.0 1416.0 8
2121.0 1406.0 8
2131.0 1406.0 8
2152.0 1406.0 8
2163.0 1406.0 8
2173.0 1406.0 8
2173.0 1416.0 8
2173.0 1427.0 8
2173.0 1427.0 8
2173.0 1437.0 8
2183.0 1448.0 8
2183.0 1479.0 8
2183.0 1479.0 8
2183.0 1468.0 8
2194.0 1468.0 8
2194.0 1458.0 8
2194.0 1448.0 8
2194.0 1448.0 8
2194.0 1437.0 8
2194.0 1427.0 8
2204.0 1427.0 8
2215.0 1416.0 8
2215.0 1406.0 8
2225.0 1406.0 8
2225.0 1406.0 8
2256.0 1520.0 9
2256.0 1520.0 9
2267.0 1510.0 9
2267.0 1510.0 9
2267.0 1500.0 9
2267.0 1489.0 9
2267.0 1489.0 9
2277.0 1479.0 9
2277.0 1468.0 9
2277.0 1468.0 9
2277.0 1458.0 9
2288.0 1437.0 9
2288.0 1427.0 9
2288.0 1427.0 9
2288.0 1416.0 9
2288.0 1406.0 9
2288.0 1406.0 9
2329.0 1479.0 10
2329.0 1479.0 10
2329.0 1437.0 10
2340.0 1427.0 10
2340.0 1427.0 10
2340.0 1416.0 10
2350.0 1406.0 10
2350.0 1395.0 10
2350.0 1395.0 10
2360.0 1395.0 10
2319.0 1531.0 11
2319.0 1541.0 11
2308.0 1541.0 11
2308.0 1541.0 11
2496.0 1510.0 12
2485.0 1520.0 12
2485.0 1531.0 12
2475.0 1531.0 12
2475.0 1541.0 12
2465.0 1541.0 12
2465.0 1541.0 12
2465.0 1541.0 12
2444.0 1541.0 12
2433.0 1531.0 12
2423.0 1531.0 12
2423.0 1520.0 12
2413.0 1510.0 12
2413.0 1510.0 12
2413.0 1500.0 12
2413.0 1468.0 12
2413.0 1458.0 12
2413.0 1448.0 12
2423.0 1406.0 12
2423.0 1395.0 12
2423.0 1385.0 12
2423.0 1364.0 12
2433.0 1354.0 12
2433.0 1354.0 12
2444.0 1343.0 12
2444.0 1343.0 12
2454.0 1343.0 12
2454.0 1343.0 12
2392.0 1448.0 13
2392.0 1448.0 13
2392.0 1448.0 13
2392.0 1448.0 13
2402.0 1448.0 13
2402.0 1448.0 13
2423.0 1448.0 13
2433.0 1448.0 13
2485.0 1448.0 13
2496.0 1448.0 13
2506.0 1448.0 13
2548.0 1479.0 14
2548.0 1479.0 14
2548.0 1479.0 14
2548.0 1448.0 14
2548.0 1448.0 14
2548.0 1437.0 14
2548.0 1427.0 14
2558.0 1427.0 14
2558.0 1416.0 14
2569.0 1406.0 14
2569.0 1406.0 14
2569.0 1406.0 14
2548.0 1531.0 15
2527.0 1531.0 15
2527.0 1541.0 15
2527.0 1541.0 15
2527.0 1531.0 15
2527.0 1510.0 15
2610.0 1427.0 16
2610.0 1427.0 16
2631.0 1427.0 16
2642.0 1437.0 16
2642.0 1437.0 16
2663.0 1437.0 16
2683.0 1448.0 16
2683.0 1448.0 16
2694.0 1448.0 16
2694.0 1458.0 16
2694.0 1468.0 16
2694.0 1479.0 16
2694.0 1489.0 16
2683.0 1489.0 16
2683.0 1500.0 16
2673.0 1500.0 16
2663.0 1510.0 16
2642.0 1510.0 16
2631.0 1500.0 16
2621.0 1489.0 16
2621.0 1489.0 16
2610.0 1489.0 16
2610.0 1479.0 16
2600.0 1479.0 16
2600.0 1468.0 16
2600.0 1458.0 16
2600.0 1427.0 16
2610.0 1427.0 16
2610.0 1427.0 16
2621.0 1416.0 16
2631.0 1406.0 16
2642.0 1406.0 16
2642.0 1395.0 16
2663.0 1395.0 16
2673.0 1395.0 16
2683.0 1385.0 16
2694.0 1385.0 16
2715.0 1385.0 16
2725.0 1385.0 16
2860.0 1448.0 17
2860.0 1448.0 17
2850.0 1448.0 17
2850.0 1458.0 17
2850.0 1458.0 17
2840.0 1468.0 17
2840.0 1468.0 17
2829.0 1468.0 17
2819.0 1479.0 17
2808.0 1479.0 17
2777.0 1479.0 17
2777.0 1479.0 17
2767.0 1479.0 17
2756.0 1468.0 17
2746.0 1468.0 17
2746.0 1458.0 17
2746.0 1448.0 17
2746.0 1437.0 17
2756.0 1437.0 17
2756.0 1427.0 17
2756.0 1427.0 17
2756.0 1416.0 17
2777.0 1406.0 17
2777.0 1406.0 17
2798.0 1395.0 17
2798.0 1395.0 17
2819.0 1395.0 17
2819.0 1395.0 17
2829.0 1395.0 17
2829.0 1395.0 17
2840.0 1406.0 17
2850.0 1416.0 17
2850.0 1427.0 17
2850.0 1489.0 17
2840.0 1500.0 17
2840.0 1510.0 17
2840.0 1520.0 17
2840.0 1541.0 17
2840.0 1552.0 17
2829.0 1552.0 17
2829.0 1510.0 17
2840.0 1500.0 17
2840.0 1489.0 17
2840.0 1479.0 17
2840.0 1468.0 17
2840.0 1458.0 17
2850.0 1448.0 17
2850.0 1437.0 17
2850.0 1427.0 17
2860.0 1416.0 17
2860.0 1416.0 17
2871.0 1406.0 17
2871.0 1406.0 17

