1715.0 1323.0 1
1715.0 1333.0 1
1725.0 1343.0 1
1725.0 1364.0 1
1725.0 1385.0 1
1704.0 1406.0 1
1683.0 1427.0 1
1642.0 1427.0 1
1600.0 1406.0 1
1558.0 1375.0 1
1527.0 1333.0 1
1506.0 1270.0 1
1506.0 1187.0 1
1506.0 1135.0 1
1538.0 1083.0 1
1569.0 1062.0 1
1621.0 1041.0 1
1652.0 1041.0 1
1683.0 1062.0 1
1767.0 1145.0 2
1756.0 1145.0 2
1735.0 1135.0 2
1725.0 1104.0 2
1725.0 1073.0 2
1725.0 1052.0 2
1756.0 1041.0 2
1788.0 1041.0 2
1829.0 1062.0 2
1850.0 1083.0 2
1860.0 1093.0 2
1860.0 1114.0 2
1840.0 1145.0 2
1808.0 1156.0 2
1788.0 1156.0 2
1756.0 1156.0 2
1756.0 1114.0 2
1923.0 1125.0 3
1923.0 1114.0 3
1923.0 1083.0 3
1923.0 1062.0 3
1933.0 1041.0 3
1933.0 1041.0 3
1944.0 1062.0 3
1954.0 1093.0 3
1975.0 1104.0 3
1985.0 1125.0 3
2006.0 1135.0 3
2017.0 1125.0 3
2027.0 1114.0 3
2038.0 1104.0 3
2038.0 1062.0 3
2038.0 1052.0 3
2038.0 1052.0 3
2048.0 1062.0 3
2079.0 1083.0 3
2090.0 1104.0 3
2100.0 1125.0 3
2110.0 1125.0 3
2121.0 1114.0 3
2131.0 1093.0 3
2142.0 1073.0 3
2152.0 1041.0 3
2163.0 1020.0 3
2163.0 1020.0 3
2246.0 1125.0 4
2235.0 1125.0 4
2235.0 1104.0 4
2235.0 1073.0 4
2235.0 1031.0 4
2246.0 968.0 4
2256.0 916.0 4
2267.0 885.0 4
2267.0 864.0 4
2267.0 864.0 4
2204.0 1145.0 5
2204.0 1156.0 5
2225.0 1166.0 5
2267.0 1166.0 5
2319.0 1156.0 5
2360.0 1125.0 5
2371.0 1104.0 5
2381.0 1083.0 5
2360.0 1052.0 5
2329.0 1041.0 5
2298.0 1041.0 5
2256.0 1041.0 5
2225.0 1041.0 5
2371.0 1270.0 6
2371.0 1270.0 6
2371.0 1270.0 6
2381.0 1250.0 6
2392.0 1198.0 6
2402.0 1114.0 6
2402.0 1073.0 6
2402.0 1041.0 6
2413.0 1020.0 6
2413.0 1010.0 6
2485.0 1093.0 7
2485.0 1083.0 7
2506.0 1073.0 7
2538.0 1073.0 7
2558.0 1073.0 7
2590.0 1073.0 7
2600.0 1093.0 7
2610.0 1125.0 7
2600.0 1135.0 7
2590.0 1156.0 7
2569.0 1156.0 7
2527.0 1135.0 7
2517.0 1104.0 7
2506.0 1083.0 7
2527.0 1052.0 7
2558.0 1031.0 7
2590.0 1031.0 7
2621.0 1031.0 7
2652.0 1041.0 7
2704.0 1125.0 8
2704.0 1114.0 8
2725.0 1093.0 8
2735.0 1073.0 8
2767.0 1052.0 8
2798.0 1041.0 8
2808.0 1020.0 8
2829.0 1020.0 8
2829.0 1135.0 9
2808.0 1125.0 9
2788.0 1104.0 9
2756.0 1083.0 9
2715.0 1052.0 9
2652.0 1010.0 9

