325.0 2827.0 1
325.0 2837.0 1
325.0 2837.0 1
325.0 2816.0 1
315.0 2764.0 1
315.0 2702.0 1
315.0 2639.0 1
315.0 2598.0 1
325.0 2587.0 1
325.0 2577.0 1
419.0 2743.0 2
408.0 2743.0 2
398.0 2733.0 2
377.0 2712.0 2
356.0 2681.0 2
325.0 2660.0 2
315.0 2660.0 2
304.0 2650.0 2
315.0 2639.0 2
335.0 2639.0 2
367.0 2639.0 2
398.0 2629.0 2
429.0 2629.0 2

