252.0 2785.0 1
252.0 2775.0 1
252.0 2754.0 1
242.0 2723.0 1
242.0 2681.0 1
242.0 2650.0 1
231.0 2618.0 1
231.0 2587.0 1
231.0 2587.0 1
231.0 2577.0 1
231.0 2827.0 2
231.0 2837.0 2
242.0 2837.0 2
252.0 2837.0 2
283.0 2837.0 2
325.0 2827.0 2
346.0 2816.0 2
356.0 2795.0 2
356.0 2775.0 2
346.0 2764.0 2
335.0 2743.0 2
315.0 2733.0 2
283.0 2723.0 2
252.0 2723.0 2

