231.0 2816.0 1
242.0 2816.0 1
242.0 2827.0 1
263.0 2827.0 1
304.0 2837.0 1
325.0 2837.0 1
346.0 2837.0 1
335.0 2837.0 1
335.0 2827.0 1
294.0 2827.0 2
283.0 2827.0 2
273.0 2827.0 2
263.0 2816.0 2
252.0 2806.0 2
242.0 2785.0 2
242.0 2764.0 2
263.0 2764.0 2
273.0 2754.0 2
304.0 2754.0 2
335.0 2743.0 2
356.0 2743.0 2
356.0 2733.0 2
356.0 2712.0 2
356.0 2691.0 2
335.0 2670.0 2
304.0 2660.0 2
273.0 2639.0 2
263.0 2639.0 2

