367.0 2723.0 1
356.0 2733.0 1
325.0 2743.0 1
294.0 2743.0 1
283.0 2733.0 1
263.0 2702.0 1
263.0 2670.0 1
283.0 2660.0 1
315.0 2681.0 1
356.0 2723.0 1
388.0 2775.0 1
429.0 2848.0 1
460.0 2900.0 1
460.0 2921.0 1
450.0 2910.0 1
429.0 2848.0 1
398.0 2775.0 1
388.0 2712.0 1
388.0 2670.0 1

