371.0 2864.0 1
360.0 2864.0 1
360.0 2864.0 1
360.0 2864.0 1
350.0 2854.0 1
329.0 2854.0 1
308.0 2854.0 1
288.0 2854.0 1
267.0 2854.0 1
246.0 2843.0 1
235.0 2843.0 1
235.0 2833.0 1
235.0 2833.0 1
235.0 2833.0 1
235.0 2812.0 1
235.0 2791.0 1
256.0 2750.0 1
256.0 2718.0 1
267.0 2677.0 1
267.0 2656.0 1
267.0 2635.0 1
256.0 2625.0 1
256.0 2625.0 1
256.0 2625.0 1
267.0 2625.0 1
350.0 2729.0 2
350.0 2729.0 2
329.0 2739.0 2
308.0 2750.0 2
288.0 2750.0 2
256.0 2750.0 2
246.0 2750.0 2
246.0 2739.0 2
246.0 2739.0 2
256.0 2739.0 2
413.0 2729.0 3
413.0 2708.0 3
413.0 2677.0 3
402.0 2625.0 3
402.0 2625.0 3
402.0 2625.0 3
402.0 2625.0 3
402.0 2666.0 3
413.0 2698.0 3
433.0 2729.0 3
454.0 2750.0 3
465.0 2760.0 3
475.0 2760.0 3
485.0 2760.0 3
558.0 2687.0 4
558.0 2687.0 4
558.0 2677.0 4
558.0 2656.0 4
558.0 2645.0 4
683.0 2739.0 5
673.0 2739.0 5
673.0 2729.0 5
663.0 2718.0 5
642.0 2698.0 5
631.0 2666.0 5
631.0 2645.0 5
642.0 2614.0 5
642.0 2614.0 5
652.0 2614.0 5
673.0 2635.0 5
683.0 2677.0 5
683.0 2687.0 5
683.0 2698.0 5
694.0 2698.0 5
694.0 2687.0 5
673.0 2625.0 5
663.0 2573.0 5
652.0 2541.0 5
631.0 2520.0 5
631.0 2531.0 5
767.0 2812.0 6
767.0 2791.0 6
767.0 2760.0 6
767.0 2718.0 6
756.0 2677.0 6
746.0 2656.0 6
746.0 2645.0 6
746.0 2645.0 6
746.0 2656.0 6
756.0 2687.0 6
777.0 2698.0 6
788.0 2698.0 6
798.0 2687.0 6
808.0 2656.0 6
808.0 2635.0 6
808.0 2593.0 6
819.0 2593.0 6
933.0 2812.0 7
933.0 2687.0 7
933.0 2656.0 7
933.0 2635.0 7
933.0 2625.0 7
975.0 2833.0 8
975.0 2833.0 8
965.0 2823.0 8
965.0 2823.0 8
954.0 2823.0 8
923.0 2812.0 8
913.0 2802.0 8
902.0 2791.0 8
1163.0 2812.0 9
1163.0 2833.0 9
1163.0 2833.0 9
1163.0 2833.0 9
1163.0 2833.0 9
1142.0 2833.0 9
1121.0 2812.0 9
1121.0 2791.0 9
1110.0 2750.0 9
1110.0 2718.0 9
1100.0 2656.0 9
1110.0 2625.0 9
1110.0 2593.0 9
1110.0 2583.0 9
1110.0 2593.0 9
1121.0 2604.0 9
1163.0 2729.0 10
1163.0 2729.0 10
1152.0 2729.0 10
1121.0 2729.0 10
1100.0 2729.0 10
1069.0 2708.0 10
1058.0 2698.0 10
1058.0 2687.0 10
1069.0 2687.0 10
1215.0 2698.0 11
1215.0 2698.0 11
1215.0 2687.0 11
1215.0 2666.0 11
1204.0 2635.0 11
1215.0 2614.0 11
1215.0 2593.0 11
1225.0 2593.0 11
1225.0 2593.0 11
1235.0 2604.0 11
1246.0 2635.0 11
1246.0 2666.0 11
1256.0 2677.0 11
1256.0 2677.0 11
1267.0 2677.0 11
1267.0 2656.0 11
1277.0 2625.0 11
1288.0 2604.0 11
1288.0 2593.0 11
1298.0 2583.0 11
1308.0 2593.0 11
1381.0 2833.0 12
1381.0 2791.0 12
1392.0 2770.0 12
1392.0 2666.0 12
1392.0 2645.0 12
1392.0 2625.0 12
1392.0 2625.0 12
1392.0 2625.0 12
1485.0 2802.0 13
1485.0 2791.0 13
1496.0 2760.0 13
1496.0 2718.0 13
1496.0 2677.0 13
1496.0 2614.0 13
1496.0 2604.0 13
1496.0 2604.0 13
1506.0 2614.0 13
1610.0 2687.0 14
1621.0 2687.0 14
1631.0 2677.0 14
1652.0 2645.0 14
1663.0 2625.0 14
1663.0 2604.0 14
1673.0 2593.0 14
1673.0 2593.0 14
1683.0 2593.0 14
1683.0 2604.0 14
1694.0 2625.0 14
1735.0 2687.0 15
1735.0 2645.0 15
1715.0 2583.0 15
1694.0 2531.0 15
1673.0 2489.0 15
1663.0 2458.0 15
1652.0 2437.0 15
1652.0 2427.0 15
1652.0 2427.0 15

