1465.0 1875.0 1
1465.0 1875.0 1
1465.0 1875.0 1
1465.0 1875.0 1
1454.0 1885.0 1
1444.0 1895.0 1
1433.0 1895.0 1
1423.0 1906.0 1
1402.0 1906.0 1
1392.0 1895.0 1
1381.0 1895.0 1
1371.0 1885.0 1
1360.0 1875.0 1
1360.0 1875.0 1
1360.0 1864.0 1
1360.0 1854.0 1
1371.0 1833.0 1
1392.0 1833.0 1
1423.0 1812.0 1
1433.0 1791.0 1
1454.0 1760.0 1
1465.0 1739.0 1
1465.0 1718.0 1
1465.0 1698.0 1
1465.0 1687.0 1
1454.0 1687.0 1
1444.0 1687.0 1
1423.0 1698.0 1
1402.0 1698.0 1
1392.0 1708.0 1
1371.0 1708.0 1
1371.0 1718.0 1
1506.0 1854.0 2
1506.0 1854.0 2
1506.0 1854.0 2
1506.0 1854.0 2
1506.0 1854.0 2
1506.0 1843.0 2
1506.0 1812.0 2
1517.0 1770.0 2
1517.0 1739.0 2
1517.0 1708.0 2
1527.0 1698.0 2
1527.0 1677.0 2
1527.0 1698.0 2
1569.0 1791.0 3
1569.0 1791.0 3
1558.0 1791.0 3
1548.0 1791.0 3
1548.0 1770.0 3
1538.0 1770.0 3
1527.0 1750.0 3
1517.0 1750.0 3
1517.0 1750.0 3
1527.0 1739.0 3
1538.0 1739.0 3
1548.0 1729.0 3
1569.0 1718.0 3
1569.0 1708.0 3
1579.0 1698.0 3
1590.0 1698.0 3
1590.0 1698.0 3
1610.0 1791.0 4
1610.0 1791.0 4
1610.0 1770.0 4
1610.0 1750.0 4
1610.0 1729.0 4
1610.0 1708.0 4
1610.0 1708.0 4
1610.0 1718.0 4
1610.0 1885.0 5
1610.0 1885.0 5
1610.0 1885.0 5
1610.0 1875.0 5
1610.0 1864.0 5
1663.0 1791.0 6
1663.0 1781.0 6
1673.0 1770.0 6
1673.0 1739.0 6
1673.0 1729.0 6
1673.0 1708.0 6
1673.0 1708.0 6
1673.0 1708.0 6
1673.0 1885.0 7
1673.0 1875.0 7
1673.0 1875.0 7
1673.0 1864.0 7
1683.0 1864.0 7
1673.0 1864.0 7
1715.0 1791.0 8
1715.0 1791.0 8
1715.0 1760.0 8
1715.0 1729.0 8
1715.0 1698.0 8
1715.0 1708.0 8
1715.0 1718.0 8
1725.0 1739.0 8
1725.0 1770.0 8
1735.0 1791.0 8
1746.0 1802.0 8
1756.0 1802.0 8
1756.0 1791.0 8
1767.0 1781.0 8
1767.0 1729.0 8
1767.0 1718.0 8
1767.0 1708.0 8
1767.0 1708.0 8
1767.0 1698.0 8
1840.0 1770.0 9
1840.0 1781.0 9
1840.0 1802.0 9
1829.0 1812.0 9
1829.0 1812.0 9
1819.0 1812.0 9
1808.0 1812.0 9
1798.0 1802.0 9
1798.0 1791.0 9
1798.0 1750.0 9
1798.0 1729.0 9
1808.0 1718.0 9
1808.0 1708.0 9
1819.0 1708.0 9
1819.0 1708.0 9
1829.0 1718.0 9
1840.0 1739.0 9
1850.0 1760.0 9
1850.0 1770.0 9
1850.0 1770.0 9
1850.0 1760.0 9
1850.0 1739.0 9
1850.0 1708.0 9
1860.0 1677.0 9
1871.0 1656.0 9
1871.0 1625.0 9
1892.0 1593.0 9
1892.0 1573.0 9
1892.0 1562.0 9
1892.0 1562.0 9
1871.0 1552.0 9
1871.0 1562.0 9
1860.0 1562.0 9
1850.0 1573.0 9
1829.0 1583.0 9
1819.0 1614.0 9
1819.0 1656.0 9
1829.0 1656.0 9
1850.0 1666.0 9
1860.0 1666.0 9
1871.0 1656.0 9

