1371.0 1875.0 1
1371.0 1875.0 1
1371.0 1864.0 1
1360.0 1864.0 1
1360.0 1802.0 1
1371.0 1760.0 1
1371.0 1739.0 1
1371.0 1656.0 1
1371.0 1677.0 1
1360.0 1854.0 2
1360.0 1864.0 2
1360.0 1875.0 2
1360.0 1875.0 2
1371.0 1885.0 2
1371.0 1885.0 2
1381.0 1895.0 2
1392.0 1895.0 2
1402.0 1895.0 2
1413.0 1906.0 2
1423.0 1906.0 2
1433.0 1906.0 2
1444.0 1885.0 2
1444.0 1875.0 2
1444.0 1854.0 2
1444.0 1833.0 2
1433.0 1812.0 2
1423.0 1791.0 2
1413.0 1770.0 2
1402.0 1770.0 2
1392.0 1760.0 2
1381.0 1750.0 2
1381.0 1750.0 2
1444.0 1750.0 3
1444.0 1750.0 3
1444.0 1750.0 3
1444.0 1729.0 3
1444.0 1708.0 3
1454.0 1687.0 3
1454.0 1677.0 3
1465.0 1677.0 3
1465.0 1677.0 3
1475.0 1687.0 3
1475.0 1708.0 3
1485.0 1739.0 3
1485.0 1739.0 3
1485.0 1750.0 3
1485.0 1739.0 3
1485.0 1729.0 3
1496.0 1708.0 3
1506.0 1687.0 3
1517.0 1687.0 3
1517.0 1687.0 3
1517.0 1698.0 3
1527.0 1750.0 4
1527.0 1770.0 4
1538.0 1770.0 4
1548.0 1770.0 4
1558.0 1760.0 4
1569.0 1760.0 4
1579.0 1760.0 4
1590.0 1770.0 4
1600.0 1770.0 4
1600.0 1770.0 4
1600.0 1760.0 4
1590.0 1739.0 4
1579.0 1718.0 4
1579.0 1708.0 4
1579.0 1698.0 4
1579.0 1677.0 4
1579.0 1677.0 4
1590.0 1687.0 4
1590.0 1687.0 4
1610.0 1687.0 4
1610.0 1687.0 4
1558.0 1729.0 5
1548.0 1729.0 5
1548.0 1739.0 5
1558.0 1739.0 5
1569.0 1739.0 5
1579.0 1739.0 5
1590.0 1739.0 5
1590.0 1739.0 5
1610.0 1729.0 5
1631.0 1791.0 6
1631.0 1791.0 6
1631.0 1791.0 6
1652.0 1791.0 6
1663.0 1791.0 6
1683.0 1791.0 6
1694.0 1791.0 6
1694.0 1791.0 6
1704.0 1791.0 6
1704.0 1770.0 6
1694.0 1760.0 6
1683.0 1739.0 6
1663.0 1729.0 6
1652.0 1718.0 6
1652.0 1698.0 6
1652.0 1687.0 6
1663.0 1687.0 6
1663.0 1687.0 6
1673.0 1677.0 6
1683.0 1677.0 6
1694.0 1687.0 6
1704.0 1698.0 6
1704.0 1698.0 6
1642.0 1760.0 7
1642.0 1760.0 7
1642.0 1750.0 7
1673.0 1750.0 7
1694.0 1760.0 7
1704.0 1760.0 7
1735.0 1916.0 8
1735.0 1906.0 8
1735.0 1885.0 8
1735.0 1843.0 8
1735.0 1708.0 8
1735.0 1687.0 8
1735.0 1677.0 8
1735.0 1677.0 8
1735.0 1677.0 8
1819.0 1770.0 9
1819.0 1781.0 9
1808.0 1791.0 9
1808.0 1791.0 9
1798.0 1802.0 9
1777.0 1812.0 9
1767.0 1802.0 9
1767.0 1781.0 9
1767.0 1770.0 9
1767.0 1739.0 9
1767.0 1718.0 9
1767.0 1708.0 9
1777.0 1687.0 9
1788.0 1687.0 9
1798.0 1687.0 9
1819.0 1687.0 9
1829.0 1687.0 9
1819.0 1791.0 10
1819.0 1791.0 10
1819.0 1781.0 10
1808.0 1770.0 10
1798.0 1750.0 10
1798.0 1729.0 10
1788.0 1718.0 10
1777.0 1708.0 10
1840.0 1802.0 11
1840.0 1802.0 11
1840.0 1781.0 11
1840.0 1760.0 11
1840.0 1698.0 11
1840.0 1708.0 11
1850.0 1718.0 11
1850.0 1739.0 11
1850.0 1760.0 11
1860.0 1791.0 11
1871.0 1802.0 11
1881.0 1802.0 11
1881.0 1802.0 11
1892.0 1781.0 11
1892.0 1750.0 11
1892.0 1729.0 11
1892.0 1718.0 11
1892.0 1718.0 11
1892.0 1718.0 11
1892.0 1739.0 11
1892.0 1750.0 11
1902.0 1791.0 11
1913.0 1802.0 11
1923.0 1802.0 11
1923.0 1802.0 11
1923.0 1781.0 11
1933.0 1760.0 11
1933.0 1739.0 11
1933.0 1698.0 11
1933.0 1698.0 11
2006.0 1781.0 12
1996.0 1781.0 12
1996.0 1802.0 12
1996.0 1802.0 12
1975.0 1812.0 12
1965.0 1812.0 12
1954.0 1791.0 12
1954.0 1781.0 12
1944.0 1770.0 12
1944.0 1739.0 12
1954.0 1718.0 12
1965.0 1708.0 12
1985.0 1698.0 12
1985.0 1687.0 12
2006.0 1687.0 12
2017.0 1698.0 12
2027.0 1718.0 12
2006.0 1781.0 13
2006.0 1781.0 13
1996.0 1760.0 13
1985.0 1750.0 13
1985.0 1729.0 13
1975.0 1729.0 13
1975.0 1718.0 13
1975.0 1718.0 13
2038.0 1791.0 14
2038.0 1791.0 14
2038.0 1781.0 14
2038.0 1770.0 14
2027.0 1729.0 14
2038.0 1718.0 14
2038.0 1708.0 14
2038.0 1708.0 14
2038.0 1708.0 14
2038.0 1718.0 14
2048.0 1739.0 14
2058.0 1781.0 14
2069.0 1791.0 14
2069.0 1791.0 14
2069.0 1781.0 14
2079.0 1770.0 14
2079.0 1750.0 14
2079.0 1729.0 14
2079.0 1708.0 14
2079.0 1708.0 14
2079.0 1708.0 14
2079.0 1708.0 14
2079.0 1708.0 14
2121.0 1895.0 15
2121.0 1895.0 15
2121.0 1875.0 15
2121.0 1843.0 15
2121.0 1791.0 15
2121.0 1729.0 15
2121.0 1698.0 15
2121.0 1677.0 15
2121.0 1677.0 15
2121.0 1666.0 15
2121.0 1666.0 15
2131.0 1677.0 15
2152.0 1677.0 15
2163.0 1677.0 15
2173.0 1833.0 16
2163.0 1843.0 16
2152.0 1843.0 16
2121.0 1843.0 16
2079.0 1843.0 16
2048.0 1833.0 16

