1413.0 1875.0 1
1413.0 1875.0 1
1413.0 1864.0 1
1402.0 1864.0 1
1402.0 1864.0 1
1413.0 1843.0 1
1413.0 1823.0 1
1423.0 1770.0 1
1423.0 1729.0 1
1423.0 1677.0 1
1423.0 1656.0 1
1423.0 1656.0 1
1423.0 1656.0 1
1423.0 1656.0 1
1423.0 1677.0 1
1423.0 1708.0 1
1465.0 1875.0 2
1465.0 1885.0 2
1465.0 1875.0 2
1465.0 1864.0 2
1465.0 1833.0 2
1475.0 1802.0 2
1475.0 1770.0 2
1485.0 1718.0 2
1496.0 1698.0 2
1496.0 1677.0 2
1496.0 1666.0 2
1496.0 1666.0 2
1485.0 1666.0 2
1485.0 1666.0 2
1433.0 1750.0 3
1433.0 1750.0 3
1444.0 1750.0 3
1444.0 1750.0 3
1454.0 1760.0 3
1465.0 1760.0 3
1475.0 1770.0 3
1485.0 1770.0 3
1548.0 1781.0 4
1548.0 1781.0 4
1548.0 1781.0 4
1548.0 1770.0 4
1548.0 1750.0 4
1548.0 1718.0 4
1558.0 1708.0 4
1569.0 1677.0 4
1569.0 1677.0 4
1569.0 1677.0 4
1579.0 1677.0 4
1579.0 1698.0 4
1590.0 1729.0 4
1600.0 1760.0 4
1600.0 1781.0 4
1600.0 1760.0 4
1600.0 1739.0 4
1610.0 1718.0 4
1610.0 1698.0 4
1610.0 1698.0 4
1621.0 1698.0 4
1694.0 1750.0 5
1683.0 1770.0 5
1683.0 1791.0 5
1673.0 1791.0 5
1673.0 1791.0 5
1663.0 1791.0 5
1652.0 1781.0 5
1652.0 1770.0 5
1652.0 1750.0 5
1652.0 1718.0 5
1652.0 1708.0 5
1652.0 1698.0 5
1663.0 1698.0 5
1663.0 1687.0 5
1673.0 1708.0 5
1683.0 1718.0 5
1694.0 1739.0 5
1694.0 1750.0 5
1694.0 1750.0 5
1694.0 1718.0 5
1694.0 1698.0 5
1704.0 1677.0 5
1715.0 1645.0 5
1715.0 1625.0 5
1725.0 1614.0 5
1725.0 1604.0 5
1715.0 1604.0 5
1715.0 1593.0 5
1704.0 1593.0 5
1694.0 1604.0 5
1683.0 1614.0 5
1683.0 1625.0 5
1683.0 1645.0 5
1683.0 1656.0 5
1694.0 1666.0 5
1704.0 1666.0 5
1715.0 1666.0 5
1788.0 1781.0 6
1788.0 1781.0 6
1788.0 1791.0 6
1788.0 1802.0 6
1767.0 1812.0 6
1756.0 1823.0 6
1746.0 1823.0 6
1735.0 1812.0 6
1735.0 1812.0 6
1735.0 1760.0 6
1746.0 1718.0 6
1756.0 1718.0 6
1756.0 1718.0 6
1756.0 1718.0 6
1777.0 1729.0 6
1788.0 1750.0 6
1788.0 1770.0 6
1788.0 1781.0 6
1788.0 1781.0 6
1788.0 1750.0 6
1788.0 1729.0 6
1788.0 1708.0 6
1798.0 1687.0 6
1808.0 1656.0 6
1808.0 1614.0 6
1798.0 1614.0 6
1798.0 1614.0 6
1798.0 1614.0 6
1788.0 1625.0 6
1777.0 1635.0 6
1767.0 1635.0 6
1767.0 1645.0 6
1767.0 1656.0 6
1777.0 1656.0 6
1788.0 1666.0 6
1798.0 1677.0 6
1808.0 1677.0 6
1829.0 1791.0 7
1829.0 1791.0 7
1829.0 1791.0 7
1840.0 1770.0 7
1840.0 1760.0 7
1840.0 1739.0 7
1840.0 1729.0 7
1819.0 1916.0 8
1819.0 1916.0 8
1819.0 1906.0 8
1819.0 1885.0 8
1881.0 1812.0 9
1871.0 1812.0 9
1871.0 1770.0 9
1881.0 1760.0 9
1881.0 1739.0 9
1881.0 1729.0 9
1881.0 1729.0 9
1881.0 1729.0 9
1881.0 1750.0 9
1881.0 1760.0 9
1892.0 1791.0 9
1892.0 1812.0 9
1902.0 1823.0 9
1902.0 1823.0 9
1913.0 1812.0 9
1923.0 1802.0 9
1923.0 1770.0 9
1923.0 1750.0 9
1923.0 1739.0 9
1923.0 1729.0 9
1923.0 1739.0 9
1933.0 1739.0 9
2017.0 1781.0 10
2017.0 1802.0 10
2017.0 1812.0 10
2006.0 1833.0 10
1996.0 1833.0 10
1996.0 1833.0 10
1985.0 1833.0 10
1985.0 1812.0 10
1985.0 1791.0 10
1975.0 1770.0 10
1975.0 1750.0 10
1975.0 1739.0 10
1985.0 1729.0 10
1996.0 1729.0 10
2006.0 1729.0 10
2017.0 1739.0 10
2017.0 1760.0 10
2017.0 1781.0 10
2017.0 1791.0 10
2017.0 1770.0 10
2027.0 1739.0 10
2027.0 1729.0 10
2027.0 1698.0 10
2038.0 1666.0 10
2048.0 1645.0 10
2058.0 1614.0 10
2069.0 1583.0 10
2069.0 1573.0 10
2069.0 1573.0 10
2048.0 1573.0 10
2027.0 1573.0 10
2006.0 1583.0 10
1985.0 1593.0 10
1985.0 1604.0 10
1985.0 1625.0 10
1996.0 1645.0 10
2006.0 1677.0 10
2027.0 1677.0 10
2038.0 1687.0 10
2048.0 1687.0 10
2048.0 1687.0 10

