408.0 2827.0 1
408.0 2827.0 1
388.0 2827.0 1
377.0 2827.0 1
356.0 2816.0 1
346.0 2816.0 1
325.0 2816.0 1
325.0 2816.0 1
325.0 2816.0 1
325.0 2806.0 1
325.0 2764.0 1
325.0 2764.0 1
325.0 2764.0 1
335.0 2764.0 1
346.0 2775.0 1
367.0 2775.0 1
377.0 2775.0 1
388.0 2775.0 1
398.0 2764.0 1
398.0 2743.0 1
398.0 2723.0 1
398.0 2712.0 1
398.0 2702.0 1
398.0 2691.0 1
388.0 2691.0 1
356.0 2691.0 1
346.0 2681.0 1

