1215.0 1875.0 1
1215.0 1875.0 1
1215.0 1875.0 1
1225.0 1833.0 1
1225.0 1781.0 1
1235.0 1729.0 1
1246.0 1687.0 1
1256.0 1635.0 1
1256.0 1604.0 1
1267.0 1593.0 1
1267.0 1583.0 1
1017.0 1843.0 2
1017.0 1854.0 2
1027.0 1854.0 2
1048.0 1875.0 2
1100.0 1885.0 2
1173.0 1895.0 2
1246.0 1916.0 2
1329.0 1927.0 2
1371.0 1927.0 2
1381.0 1927.0 2
1392.0 1916.0 2
1538.0 1718.0 3
1538.0 1739.0 3
1527.0 1739.0 3
1506.0 1750.0 3
1475.0 1750.0 3
1454.0 1739.0 3
1433.0 1718.0 3
1423.0 1677.0 3
1433.0 1666.0 3
1465.0 1656.0 3
1485.0 1656.0 3
1517.0 1677.0 3
1538.0 1708.0 3
1548.0 1729.0 3
1548.0 1739.0 3
1548.0 1739.0 3
1548.0 1739.0 3
1558.0 1708.0 3
1579.0 1677.0 3
1590.0 1656.0 3
1621.0 1625.0 3
1840.0 1760.0 4
1829.0 1770.0 4
1829.0 1770.0 4
1808.0 1739.0 4
1777.0 1708.0 4
1746.0 1677.0 4
1725.0 1666.0 4
1715.0 1656.0 4
1715.0 1656.0 4
1735.0 1770.0 5
1725.0 1781.0 5
1725.0 1781.0 5
1725.0 1770.0 5
1756.0 1750.0 5
1777.0 1729.0 5
1819.0 1687.0 5
1850.0 1666.0 5
1871.0 1656.0 5
2027.0 1770.0 6
2027.0 1770.0 6
2027.0 1770.0 6
2038.0 1729.0 6
2038.0 1698.0 6
2038.0 1666.0 6
2027.0 1843.0 7
2017.0 1854.0 7
2006.0 1864.0 7
2006.0 1864.0 7

