1465.0 1698.0 1
1444.0 1698.0 1
1423.0 1666.0 1
1413.0 1635.0 1
1413.0 1604.0 1
1423.0 1573.0 1
1444.0 1541.0 1
1475.0 1541.0 1
1506.0 1552.0 1
1538.0 1583.0 1
1569.0 1635.0 1
1569.0 1666.0 1
1558.0 1698.0 1
1527.0 1729.0 1
1485.0 1739.0 1
1444.0 1739.0 1
1423.0 1708.0 1
1413.0 1666.0 1
1433.0 1635.0 1
1788.0 1729.0 2
1788.0 1739.0 2
1788.0 1750.0 2
1777.0 1750.0 2
1767.0 1739.0 2
1756.0 1718.0 2
1756.0 1687.0 2
1756.0 1666.0 2
1788.0 1645.0 2
1819.0 1625.0 2
1860.0 1604.0 2
1871.0 1593.0 2
1871.0 1583.0 2
1840.0 1573.0 2
1798.0 1552.0 2
1767.0 1552.0 2
1756.0 1552.0 2
1756.0 1562.0 2
1788.0 1750.0 3
1767.0 1760.0 3
1767.0 1760.0 3
1767.0 1760.0 3
1798.0 1770.0 3
1840.0 1770.0 3
1892.0 1770.0 3
2163.0 1750.0 4
2142.0 1750.0 4
2131.0 1750.0 4
2121.0 1739.0 4
2121.0 1718.0 4
2121.0 1698.0 4
2163.0 1666.0 4
2183.0 1645.0 4
2215.0 1635.0 4
2215.0 1625.0 4
2204.0 1614.0 4
2173.0 1593.0 4
2131.0 1583.0 4
2110.0 1583.0 4
2090.0 1583.0 4
2090.0 1593.0 4
2131.0 1781.0 5
2131.0 1781.0 5
2204.0 1781.0 5
2246.0 1781.0 5
2527.0 1760.0 6
2517.0 1770.0 6
2517.0 1770.0 6
2517.0 1781.0 6
2538.0 1791.0 6
2569.0 1791.0 6
2600.0 1781.0 6
2621.0 1770.0 6
2621.0 1750.0 6
2621.0 1718.0 6
2579.0 1687.0 6
2558.0 1666.0 6
2517.0 1635.0 6
2517.0 1614.0 6
2517.0 1593.0 6
2548.0 1583.0 6
2579.0 1583.0 6
2621.0 1583.0 6
2892.0 1791.0 7
2892.0 1750.0 7
2881.0 1698.0 7
2881.0 1635.0 7
2881.0 1593.0 7

