933.0 1760.0 1
933.0 1698.0 1
933.0 1656.0 1
933.0 1593.0 1
944.0 1552.0 1
944.0 1552.0 1
954.0 1552.0 1
954.0 1562.0 1
944.0 1593.0 1
923.0 1677.0 1
913.0 1760.0 1
892.0 1823.0 1
892.0 1864.0 1
892.0 1885.0 1
892.0 1885.0 1
902.0 1885.0 1
944.0 1885.0 1
1006.0 1885.0 1
1069.0 1875.0 1
1110.0 1875.0 1
1152.0 1875.0 1
923.0 1708.0 2
923.0 1708.0 2
923.0 1708.0 2
944.0 1708.0 2
975.0 1708.0 2
1017.0 1708.0 2
1038.0 1708.0 2
1058.0 1708.0 2
1246.0 1645.0 3
1246.0 1625.0 3
1246.0 1614.0 3
1246.0 1614.0 3
1246.0 1614.0 3
1246.0 1625.0 3
1246.0 1666.0 3
1246.0 1698.0 3
1256.0 1739.0 3
1267.0 1760.0 3
1288.0 1760.0 3
1319.0 1750.0 3
1350.0 1718.0 3
1371.0 1698.0 3
1579.0 1739.0 4
1579.0 1729.0 4
1579.0 1718.0 4
1579.0 1635.0 4
1579.0 1614.0 4
1590.0 1833.0 5
1569.0 1843.0 5
1569.0 1854.0 5
1569.0 1843.0 5
1579.0 1833.0 5
1829.0 1698.0 6
1819.0 1708.0 6
1798.0 1729.0 6
1788.0 1739.0 6
1767.0 1739.0 6
1746.0 1718.0 6
1735.0 1687.0 6
1735.0 1656.0 6
1746.0 1645.0 6
1767.0 1645.0 6
1788.0 1656.0 6
1798.0 1677.0 6
1808.0 1698.0 6
1808.0 1718.0 6
1819.0 1718.0 6
1829.0 1708.0 6
1850.0 1666.0 6
1881.0 1604.0 6
1902.0 1573.0 6
1902.0 1541.0 6
1892.0 1520.0 6
1871.0 1510.0 6
1829.0 1489.0 6
1788.0 1489.0 6
1913.0 1885.0 7
1913.0 1875.0 7
1923.0 1864.0 7
1923.0 1802.0 7
1923.0 1739.0 7
1933.0 1687.0 7
1944.0 1677.0 7
1965.0 1666.0 7
1975.0 1677.0 7
1996.0 1698.0 7
2017.0 1718.0 7
2017.0 1718.0 7
2038.0 1708.0 7
2048.0 1687.0 7
2058.0 1666.0 7
2069.0 1656.0 7
2235.0 1885.0 8
2235.0 1885.0 8
2235.0 1885.0 8
2246.0 1854.0 8
2256.0 1812.0 8
2256.0 1750.0 8
2267.0 1687.0 8
2277.0 1666.0 8
2183.0 1698.0 9
2173.0 1718.0 9
2173.0 1718.0 9
2183.0 1718.0 9
2204.0 1729.0 9
2256.0 1739.0 9
2298.0 1750.0 9
2319.0 1750.0 9
2506.0 1687.0 10
2506.0 1677.0 10
2496.0 1687.0 10
2485.0 1718.0 10
2475.0 1750.0 10
2465.0 1791.0 10
2465.0 1843.0 10
2475.0 1885.0 10
2496.0 1916.0 10
2517.0 1937.0 10
2548.0 1937.0 10
2579.0 1916.0 10
2610.0 1885.0 10
2631.0 1864.0 10
2485.0 1781.0 11
2485.0 1781.0 11
2506.0 1781.0 11
2527.0 1781.0 11
2569.0 1770.0 11
2600.0 1770.0 11
2777.0 1802.0 12
2767.0 1802.0 12
2767.0 1802.0 12
2767.0 1791.0 12
2767.0 1739.0 12
2777.0 1718.0 12
2788.0 1698.0 12
2808.0 1687.0 12
2840.0 1687.0 12
2860.0 1698.0 12
2860.0 1718.0 12
2860.0 1750.0 12
2850.0 1781.0 12
2840.0 1791.0 12
2840.0 1802.0 12
3017.0 1937.0 13
3017.0 1948.0 13
3017.0 1948.0 13
3017.0 1937.0 13
3017.0 1927.0 13
3027.0 1875.0 13
3038.0 1833.0 13
3038.0 1781.0 13
3038.0 1739.0 13
3048.0 1708.0 13
3058.0 1708.0 13
3058.0 1687.0 13
3204.0 1958.0 14
3204.0 1958.0 14
3204.0 1958.0 14
3215.0 1937.0 14
3215.0 1895.0 14
3225.0 1843.0 14
3225.0 1770.0 14
3235.0 1739.0 14
3246.0 1718.0 14
3413.0 1770.0 15
3423.0 1760.0 15
3423.0 1739.0 15
3423.0 1708.0 15
3423.0 1593.0 15
3402.0 1864.0 16
3402.0 1864.0 16
3413.0 1833.0 16
3423.0 1802.0 16
3444.0 1781.0 16
3465.0 1760.0 16
3496.0 1760.0 16
3517.0 1781.0 16
3527.0 1802.0 16
3538.0 1823.0 16
3527.0 1833.0 16
3517.0 1843.0 16
3517.0 1854.0 16

