419.0 2743.0 1
398.0 2733.0 1
377.0 2712.0 1
356.0 2670.0 1
346.0 2639.0 1
335.0 2598.0 1
346.0 2587.0 1
367.0 2577.0 1
398.0 2577.0 1
440.0 2618.0 1
460.0 2660.0 1
471.0 2712.0 1
471.0 2743.0 1
429.0 2785.0 1
388.0 2795.0 1
356.0 2795.0 1
335.0 2764.0 1

