1350.0 1823.0 1
1350.0 1823.0 1
1350.0 1823.0 1
1350.0 1802.0 1
1350.0 1791.0 1
1340.0 1781.0 1
1340.0 1760.0 1
1340.0 1729.0 1
1350.0 1718.0 1
1350.0 1687.0 1
1350.0 1656.0 1
1350.0 1635.0 1
1371.0 1604.0 1
1381.0 1562.0 1
1392.0 1510.0 1
1413.0 1468.0 1
1423.0 1406.0 1
1433.0 1375.0 1
1433.0 1333.0 1
1423.0 1312.0 1
1413.0 1291.0 1
1381.0 1270.0 1
1360.0 1260.0 1
1329.0 1250.0 1
1288.0 1250.0 1
1246.0 1260.0 1
1215.0 1281.0 1
1204.0 1291.0 1
1225.0 1729.0 2
1204.0 1770.0 2
1204.0 1791.0 2
1215.0 1802.0 2
1246.0 1802.0 2
1267.0 1812.0 2
1288.0 1812.0 2
1329.0 1812.0 2
1392.0 1812.0 2
1444.0 1802.0 2
1673.0 1323.0 3
1663.0 1323.0 3
1663.0 1291.0 3
1663.0 1260.0 3
1673.0 1208.0 3
1694.0 1177.0 3
1715.0 1166.0 3
1735.0 1166.0 3
1767.0 1198.0 3
1777.0 1239.0 3
1777.0 1281.0 3
1777.0 1312.0 3
1777.0 1343.0 3
1777.0 1333.0 3
1788.0 1302.0 3
1788.0 1250.0 3
1808.0 1229.0 3
1829.0 1208.0 3
1933.0 1375.0 4
1923.0 1395.0 4
1902.0 1395.0 4
1892.0 1375.0 4
1902.0 1333.0 4
1902.0 1302.0 4
1923.0 1281.0 4
1944.0 1270.0 4
1985.0 1260.0 4
1996.0 1239.0 4
2006.0 1239.0 4
1996.0 1218.0 4
1975.0 1198.0 4
1954.0 1198.0 4
1902.0 1198.0 4
2069.0 1666.0 5
2048.0 1666.0 5
2048.0 1645.0 5
2058.0 1573.0 5
2079.0 1448.0 5
2100.0 1343.0 5
2110.0 1250.0 5
2121.0 1187.0 5
2142.0 1156.0 5
2152.0 1156.0 5
2069.0 1323.0 6
2058.0 1354.0 6
2058.0 1364.0 6
2090.0 1354.0 6
2121.0 1343.0 6
2152.0 1333.0 6
2267.0 1281.0 7
2256.0 1281.0 7
2256.0 1250.0 7
2288.0 1208.0 7
2308.0 1198.0 7
2235.0 1458.0 8
2204.0 1510.0 8
2204.0 1510.0 8
2246.0 1489.0 8
2475.0 1198.0 9
2475.0 1166.0 9
2475.0 1156.0 9
2454.0 1156.0 9
2444.0 1166.0 9
2423.0 1208.0 9
2413.0 1250.0 9
2413.0 1312.0 9
2402.0 1406.0 9
2402.0 1531.0 9
2402.0 1604.0 9
2413.0 1635.0 9
2413.0 1645.0 9
2433.0 1635.0 9
2465.0 1625.0 9
2496.0 1583.0 9
2517.0 1541.0 9
2538.0 1489.0 9
2423.0 1343.0 10
2402.0 1354.0 10
2423.0 1343.0 10
2475.0 1333.0 10
2527.0 1312.0 10
2610.0 1343.0 11
2610.0 1291.0 11
2642.0 1250.0 11
2652.0 1218.0 11
2652.0 1198.0 11
2663.0 1198.0 11
2600.0 1479.0 12
2600.0 1479.0 12
2860.0 1343.0 13
2829.0 1354.0 13
2808.0 1354.0 13
2788.0 1343.0 13
2756.0 1312.0 13
2746.0 1291.0 13
2746.0 1270.0 13
2756.0 1250.0 13
2798.0 1218.0 13
2829.0 1218.0 13
2933.0 1291.0 14
2913.0 1270.0 14
2902.0 1250.0 14
2892.0 1218.0 14
2892.0 1198.0 14
2902.0 1198.0 14
2923.0 1198.0 14
2933.0 1229.0 14
2954.0 1260.0 14
2965.0 1291.0 14
2954.0 1312.0 14
2954.0 1291.0 14
2965.0 1260.0 14
2975.0 1218.0 14
2985.0 1198.0 14
3017.0 1198.0 14
3038.0 1573.0 15
3038.0 1573.0 15
3038.0 1520.0 15
3048.0 1448.0 15
3069.0 1333.0 15
3090.0 1270.0 15
3090.0 1239.0 15
3058.0 1250.0 16
3058.0 1270.0 16
3069.0 1312.0 16
3079.0 1333.0 16
3100.0 1333.0 16
3131.0 1343.0 16
3215.0 1323.0 17
3204.0 1323.0 17
3204.0 1281.0 17
3215.0 1260.0 17
3215.0 1250.0 17
3225.0 1250.0 17
3194.0 1468.0 18
3163.0 1500.0 18
3173.0 1500.0 18
3288.0 1343.0 19
3288.0 1281.0 19
3288.0 1239.0 19
3298.0 1198.0 19
3308.0 1198.0 19
3329.0 1198.0 19
3340.0 1229.0 19
3350.0 1281.0 19
3350.0 1333.0 19
3340.0 1375.0 19
3319.0 1385.0 19
3319.0 1364.0 19
3433.0 1312.0 20
3433.0 1260.0 20
3433.0 1229.0 20
3433.0 1239.0 20
3465.0 1270.0 20
3485.0 1302.0 20
3496.0 1343.0 20
3506.0 1364.0 20
3517.0 1354.0 20
3517.0 1333.0 20
3517.0 1302.0 20
3527.0 1260.0 20
3527.0 1218.0 20
3673.0 1395.0 21
3663.0 1385.0 21
3642.0 1354.0 21
3621.0 1323.0 21
3621.0 1291.0 21
3642.0 1270.0 21
3663.0 1260.0 21
3683.0 1250.0 21
3704.0 1250.0 21
3673.0 1239.0 21
3610.0 1208.0 21
3558.0 1187.0 21

