1121.0 1583.0 1
1121.0 1583.0 1
1131.0 1583.0 1
1131.0 1573.0 1
1131.0 1562.0 1
1131.0 1541.0 1
1142.0 1510.0 1
1142.0 1468.0 1
1152.0 1416.0 1
1152.0 1375.0 1
1152.0 1333.0 1
1163.0 1281.0 1
1163.0 1239.0 1
1163.0 1239.0 1
1163.0 1291.0 1
1350.0 1541.0 2
1340.0 1541.0 2
1329.0 1531.0 2
1288.0 1510.0 2
1246.0 1500.0 2
1215.0 1479.0 2
1183.0 1458.0 2
1152.0 1437.0 2
1142.0 1427.0 2
1131.0 1427.0 2
1131.0 1416.0 2
1131.0 1416.0 2
1142.0 1416.0 2
1152.0 1416.0 2
1173.0 1406.0 2
1215.0 1406.0 2
1256.0 1395.0 2
1298.0 1385.0 2
1350.0 1364.0 2
1392.0 1354.0 2
1433.0 1343.0 2
1465.0 1343.0 2
1475.0 1343.0 2
1475.0 1343.0 2
1465.0 1343.0 2
1454.0 1354.0 2
1444.0 1354.0 2
1506.0 1448.0 3
1506.0 1458.0 3
1506.0 1458.0 3
1506.0 1448.0 3
1506.0 1437.0 3
1517.0 1406.0 3
1517.0 1375.0 3
1527.0 1354.0 3
1538.0 1333.0 3
1538.0 1312.0 3
1527.0 1312.0 3
1538.0 1573.0 4
1538.0 1583.0 4
1538.0 1583.0 4
1538.0 1562.0 4
1808.0 1448.0 5
1798.0 1448.0 5
1767.0 1448.0 5
1746.0 1448.0 5
1725.0 1437.0 5
1683.0 1416.0 5
1663.0 1395.0 5
1642.0 1385.0 5
1631.0 1364.0 5
1631.0 1354.0 5
1642.0 1354.0 5
1663.0 1354.0 5
1694.0 1354.0 5
1735.0 1375.0 5
1767.0 1395.0 5
1788.0 1427.0 5
1808.0 1458.0 5
1808.0 1510.0 5
1808.0 1541.0 5
1808.0 1562.0 5
1808.0 1573.0 5
1808.0 1573.0 5
1798.0 1562.0 5
1798.0 1458.0 5
1808.0 1427.0 5
1808.0 1395.0 5
1808.0 1364.0 5
1819.0 1343.0 5
1819.0 1343.0 5
1819.0 1333.0 5
2110.0 1427.0 6
2110.0 1427.0 6
2090.0 1427.0 6
2058.0 1416.0 6
2027.0 1416.0 6
1996.0 1406.0 6
1954.0 1385.0 6
1933.0 1364.0 6
1913.0 1354.0 6
1892.0 1343.0 6
1892.0 1333.0 6
1902.0 1343.0 6
1944.0 1343.0 6
1975.0 1354.0 6
2027.0 1375.0 6
2058.0 1406.0 6
2090.0 1448.0 6
2090.0 1479.0 6
2090.0 1531.0 6
2069.0 1552.0 6
2069.0 1562.0 6
2058.0 1562.0 6
2058.0 1541.0 6
2069.0 1510.0 6
2079.0 1479.0 6
2079.0 1437.0 6
2090.0 1385.0 6
2090.0 1354.0 6
2079.0 1343.0 6
2079.0 1333.0 6
2079.0 1333.0 6
2246.0 1448.0 7
2246.0 1458.0 7
2246.0 1448.0 7
2246.0 1437.0 7
2246.0 1406.0 7
2246.0 1375.0 7
2256.0 1354.0 7
2256.0 1333.0 7
2256.0 1323.0 7
2256.0 1323.0 7
2371.0 1448.0 8
2371.0 1448.0 8
2371.0 1448.0 8
2371.0 1437.0 8
2381.0 1395.0 8
2381.0 1375.0 8
2392.0 1343.0 8
2392.0 1323.0 8
2392.0 1302.0 8
2392.0 1333.0 8
2402.0 1354.0 8
2413.0 1385.0 8
2423.0 1406.0 8
2454.0 1427.0 8
2475.0 1427.0 8
2496.0 1427.0 8
2517.0 1416.0 8
2527.0 1395.0 8
2538.0 1385.0 8
2538.0 1323.0 8
2538.0 1312.0 8
2808.0 1406.0 9
2808.0 1406.0 9
2798.0 1416.0 9
2788.0 1427.0 9
2756.0 1427.0 9
2735.0 1427.0 9
2704.0 1406.0 9
2683.0 1385.0 9
2652.0 1364.0 9
2642.0 1343.0 9
2642.0 1333.0 9
2642.0 1323.0 9
2673.0 1323.0 9
2704.0 1323.0 9
2725.0 1333.0 9
2788.0 1343.0 9
2808.0 1364.0 9
2829.0 1375.0 9
2850.0 1385.0 9
2850.0 1395.0 9
2840.0 1395.0 9
2840.0 1385.0 9
2840.0 1354.0 9
2850.0 1323.0 9
2871.0 1291.0 9
2892.0 1239.0 9
2892.0 1208.0 9
2892.0 1166.0 9
2881.0 1145.0 9
2850.0 1114.0 9
2819.0 1104.0 9
2788.0 1093.0 9
2746.0 1093.0 9
2319.0 1625.0 10
2319.0 1635.0 10
2329.0 1635.0 10
2329.0 1625.0 10
2340.0 1614.0 10
2350.0 1614.0 10
2360.0 1593.0 10
2371.0 1583.0 10

