902.0 1562.0 1
892.0 1562.0 1
892.0 1562.0 1
902.0 1552.0 1
902.0 1541.0 1
923.0 1531.0 1
933.0 1510.0 1
965.0 1468.0 1
985.0 1437.0 1
996.0 1395.0 1
1017.0 1364.0 1
1038.0 1343.0 1
1038.0 1333.0 1
1038.0 1333.0 1
1038.0 1333.0 1
1038.0 1354.0 1
1048.0 1364.0 1
1058.0 1395.0 1
1069.0 1416.0 1
1079.0 1437.0 1
1090.0 1458.0 1
1100.0 1479.0 1
1100.0 1489.0 1
1110.0 1489.0 1
1110.0 1489.0 1
1110.0 1479.0 1
1131.0 1458.0 1
1152.0 1437.0 1
1163.0 1406.0 1
1173.0 1385.0 1
1194.0 1375.0 1
1194.0 1364.0 1
1204.0 1364.0 1
1215.0 1364.0 1
1215.0 1375.0 1
1225.0 1395.0 1
1235.0 1416.0 1
1246.0 1448.0 1
1256.0 1489.0 1
1267.0 1520.0 1
1277.0 1552.0 1
1288.0 1573.0 1
1288.0 1593.0 1
1288.0 1593.0 1
1288.0 1583.0 1
1288.0 1573.0 1
1485.0 1468.0 2
1475.0 1468.0 2
1475.0 1468.0 2
1465.0 1468.0 2
1433.0 1468.0 2
1413.0 1458.0 2
1392.0 1448.0 2
1371.0 1427.0 2
1360.0 1416.0 2
1360.0 1406.0 2
1360.0 1395.0 2
1381.0 1385.0 2
1402.0 1385.0 2
1454.0 1395.0 2
1496.0 1406.0 2
1527.0 1416.0 2
1548.0 1427.0 2
1548.0 1448.0 2
1538.0 1458.0 2
1496.0 1468.0 2
1465.0 1468.0 2
1444.0 1458.0 2
1423.0 1448.0 2
1413.0 1448.0 2
1683.0 1552.0 3
1683.0 1531.0 3
1683.0 1489.0 3
1704.0 1468.0 3
1704.0 1437.0 3
1704.0 1416.0 3
1704.0 1395.0 3
1704.0 1395.0 3
1704.0 1406.0 3
1715.0 1427.0 3
1715.0 1437.0 3
1735.0 1458.0 3
1756.0 1468.0 3
1767.0 1468.0 3
1798.0 1468.0 3
1829.0 1468.0 3
1850.0 1468.0 3
1850.0 1458.0 3
1850.0 1448.0 3
1829.0 1427.0 3
1808.0 1416.0 3
1777.0 1406.0 3
1767.0 1406.0 3
1735.0 1406.0 3
1725.0 1406.0 3
1954.0 1552.0 4
1965.0 1520.0 4
1965.0 1489.0 4
1965.0 1458.0 4
1965.0 1385.0 4
1965.0 1406.0 4
1965.0 1416.0 4
1975.0 1437.0 4
1975.0 1458.0 4
2006.0 1468.0 4
2017.0 1479.0 4
2058.0 1479.0 4
2090.0 1468.0 4
2100.0 1458.0 4
2110.0 1448.0 4
2110.0 1427.0 4
2090.0 1406.0 4
2069.0 1395.0 4
2038.0 1385.0 4
1996.0 1385.0 4
2235.0 1541.0 5
2235.0 1541.0 5
2225.0 1541.0 5
2225.0 1500.0 5
2225.0 1479.0 5
2235.0 1448.0 5
2235.0 1427.0 5
2235.0 1395.0 5
2235.0 1375.0 5
2235.0 1375.0 5
2308.0 1448.0 6
2308.0 1448.0 6
2319.0 1437.0 6
2329.0 1437.0 6
2350.0 1437.0 6
2381.0 1437.0 6
2402.0 1437.0 6
2423.0 1448.0 6
2454.0 1448.0 6
2475.0 1458.0 6
2485.0 1468.0 6
2485.0 1479.0 6
2465.0 1489.0 6
2444.0 1489.0 6
2413.0 1489.0 6
2381.0 1479.0 6
2350.0 1468.0 6
2329.0 1458.0 6
2329.0 1437.0 6
2329.0 1416.0 6
2340.0 1406.0 6
2371.0 1385.0 6
2392.0 1385.0 6
2517.0 1385.0 6
2558.0 1385.0 6
2590.0 1395.0 6
2621.0 1406.0 6
2621.0 1406.0 6
2621.0 1416.0 6
2621.0 1416.0 6
2610.0 1406.0 6

