1277.0 1812.0 1
1277.0 1833.0 1
1288.0 1791.0 1
1298.0 1750.0 1
1308.0 1708.0 1
1319.0 1666.0 1
1329.0 1625.0 1
1350.0 1614.0 1
1267.0 1802.0 2
1277.0 1812.0 2
1298.0 1812.0 2
1340.0 1791.0 2
1381.0 1760.0 2
1402.0 1729.0 2
1413.0 1677.0 2
1402.0 1645.0 2
1371.0 1625.0 2
1350.0 1614.0 2
1319.0 1614.0 2
1454.0 1666.0 3
1475.0 1666.0 3
1496.0 1666.0 3
1517.0 1677.0 3
1527.0 1687.0 3
1527.0 1708.0 3
1517.0 1708.0 3
1485.0 1698.0 3
1444.0 1677.0 3
1433.0 1656.0 3
1433.0 1635.0 3
1444.0 1625.0 3
1475.0 1604.0 3
1548.0 1604.0 3
1735.0 1708.0 4
1735.0 1708.0 4
1735.0 1708.0 4
1735.0 1698.0 4
1746.0 1698.0 4
1746.0 1687.0 4
1746.0 1698.0 4
1746.0 1698.0 4
1746.0 1708.0 4
1725.0 1708.0 4
1704.0 1698.0 4
1683.0 1677.0 4
1663.0 1656.0 4
1663.0 1635.0 4
1673.0 1614.0 4
1704.0 1614.0 4
1756.0 1614.0 4
1788.0 1635.0 4
1808.0 1656.0 4
1819.0 1656.0 4
1819.0 1656.0 4
1829.0 1656.0 4
1829.0 1645.0 4
1829.0 1635.0 4
1840.0 1635.0 4
1860.0 1635.0 4
1881.0 1635.0 4
1881.0 1645.0 4
1881.0 1666.0 4
1850.0 1677.0 4
1829.0 1677.0 4
1798.0 1677.0 4
1788.0 1677.0 4
1975.0 1677.0 5
1975.0 1635.0 5
1975.0 1625.0 5
1975.0 1635.0 5
1996.0 1645.0 5
2017.0 1666.0 5
2038.0 1677.0 5
2048.0 1677.0 5
2058.0 1666.0 5
2058.0 1635.0 5
2058.0 1635.0 5
2058.0 1625.0 5
2058.0 1635.0 5
2079.0 1656.0 5
2090.0 1666.0 5
2100.0 1666.0 5
2110.0 1656.0 5
2121.0 1656.0 5
2131.0 1635.0 5
2152.0 1635.0 5
2204.0 1656.0 6
2204.0 1635.0 6
2215.0 1614.0 6
2215.0 1541.0 6
2215.0 1520.0 6
2215.0 1510.0 6
2215.0 1510.0 6
2215.0 1541.0 6
2225.0 1583.0 6
2235.0 1625.0 6
2246.0 1656.0 6
2256.0 1656.0 6
2277.0 1656.0 6
2277.0 1645.0 6
2277.0 1614.0 6
2267.0 1604.0 6
2246.0 1593.0 6
2235.0 1593.0 6
2360.0 1645.0 7
2371.0 1635.0 7
2371.0 1614.0 7
2360.0 1604.0 7
2360.0 1593.0 7
2360.0 1583.0 7
2360.0 1593.0 7
2371.0 1614.0 7
2371.0 1635.0 7
2381.0 1645.0 7
2381.0 1656.0 7
2402.0 1656.0 7
2413.0 1666.0 7
2475.0 1635.0 8
2475.0 1635.0 8
2485.0 1645.0 8
2506.0 1645.0 8
2527.0 1656.0 8
2527.0 1666.0 8
2527.0 1666.0 8
2506.0 1666.0 8
2485.0 1656.0 8
2465.0 1635.0 8
2454.0 1625.0 8
2454.0 1604.0 8
2465.0 1593.0 8
2485.0 1583.0 8
2517.0 1583.0 8
2663.0 1677.0 9
2642.0 1687.0 9
2631.0 1687.0 9
2610.0 1677.0 9
2600.0 1666.0 9
2610.0 1645.0 9
2621.0 1625.0 9
2621.0 1604.0 9
2621.0 1593.0 9
2621.0 1593.0 9
2610.0 1593.0 9
2600.0 1593.0 9
2767.0 1677.0 10
2756.0 1687.0 10
2746.0 1677.0 10
2725.0 1677.0 10
2715.0 1666.0 10
2715.0 1656.0 10
2725.0 1645.0 10
2725.0 1625.0 10
2725.0 1604.0 10
2725.0 1593.0 10
2694.0 1593.0 10
2673.0 1593.0 10

