1788.0 1635.0 1
1788.0 1635.0 1
1808.0 1635.0 1
1871.0 1635.0 1
1913.0 1635.0 1
1944.0 1635.0 1
1965.0 1625.0 1
1965.0 1583.0 1
1954.0 1541.0 1
1933.0 1500.0 1
1902.0 1448.0 1
1892.0 1437.0 1
1892.0 1416.0 1
1892.0 1406.0 1
1840.0 1479.0 2
1829.0 1500.0 2
1829.0 1510.0 2
1850.0 1510.0 2
1923.0 1510.0 2
1975.0 1510.0 2
2069.0 1583.0 3
2058.0 1593.0 3
2058.0 1593.0 3
2090.0 1593.0 3
2110.0 1593.0 3
2142.0 1573.0 3
2142.0 1541.0 3
2121.0 1500.0 3
2100.0 1468.0 3
2100.0 1458.0 3
2100.0 1448.0 3
2121.0 1448.0 3
2152.0 1458.0 3
2183.0 1458.0 3
2215.0 1468.0 3
2371.0 1593.0 4
2371.0 1593.0 4
2371.0 1583.0 4
2371.0 1562.0 4
2371.0 1552.0 4
2392.0 1541.0 4
2413.0 1552.0 4
2444.0 1562.0 4
2444.0 1573.0 4
2444.0 1604.0 4
2423.0 1614.0 4
2402.0 1614.0 4
2371.0 1604.0 4
2340.0 1562.0 4
2329.0 1531.0 4
2329.0 1510.0 4
2350.0 1489.0 4
2371.0 1479.0 4
2392.0 1479.0 4
2402.0 1500.0 4
2402.0 1510.0 4
2392.0 1520.0 4
2392.0 1531.0 4
2631.0 1604.0 5
2631.0 1614.0 5
2621.0 1635.0 5
2621.0 1645.0 5
2600.0 1645.0 5
2579.0 1635.0 5
2558.0 1604.0 5
2538.0 1583.0 5
2538.0 1573.0 5
2558.0 1562.0 5
2579.0 1573.0 5
2600.0 1583.0 5
2610.0 1593.0 5
2610.0 1562.0 5
2600.0 1520.0 5
2579.0 1489.0 5
2579.0 1468.0 5
2569.0 1458.0 5
2788.0 1614.0 6
2777.0 1614.0 6
2777.0 1614.0 6
2767.0 1604.0 6
2777.0 1583.0 6
2777.0 1562.0 6
2808.0 1562.0 6
2840.0 1573.0 6
2850.0 1593.0 6
2860.0 1604.0 6
2860.0 1635.0 6
2850.0 1645.0 6
2840.0 1645.0 6
2808.0 1635.0 6
2788.0 1614.0 6
2767.0 1552.0 6
2767.0 1520.0 6
2777.0 1489.0 6
2808.0 1489.0 6
2829.0 1489.0 6
2840.0 1510.0 6
2840.0 1531.0 6
2829.0 1552.0 6
2819.0 1573.0 6

