335.0 2848.0 1
335.0 2848.0 1
325.0 2837.0 1
315.0 2837.0 1
283.0 2816.0 1
263.0 2795.0 1
231.0 2764.0 1
221.0 2743.0 1
221.0 2702.0 1
231.0 2670.0 1
252.0 2650.0 1
283.0 2629.0 1
315.0 2629.0 1
356.0 2639.0 1
388.0 2660.0 1
398.0 2681.0 1
398.0 2702.0 1
398.0 2712.0 1
377.0 2723.0 1
356.0 2733.0 1
335.0 2733.0 1
315.0 2723.0 1
304.0 2702.0 1
304.0 2691.0 1

