2048.0 1708.0 1
2048.0 1708.0 1
2048.0 1718.0 1
2048.0 1729.0 1
2038.0 1739.0 1
2027.0 1750.0 1
2027.0 1750.0 1
2017.0 1750.0 1
2006.0 1760.0 1
1996.0 1760.0 1
1985.0 1750.0 1
1975.0 1739.0 1
1954.0 1698.0 1
1944.0 1677.0 1
1944.0 1666.0 1
1954.0 1656.0 1
1975.0 1645.0 1
1985.0 1645.0 1
2006.0 1656.0 1
2017.0 1666.0 1
2038.0 1698.0 1
2038.0 1677.0 1
2038.0 1635.0 1
2027.0 1562.0 1
2027.0 1520.0 1
2027.0 1468.0 1
2027.0 1468.0 1
2027.0 1468.0 1
2246.0 1698.0 2
2256.0 1698.0 2
2256.0 1708.0 2
2256.0 1729.0 2
2246.0 1750.0 2
2246.0 1760.0 2
2225.0 1760.0 2
2204.0 1750.0 2
2194.0 1739.0 2
2163.0 1708.0 2
2163.0 1687.0 2
2152.0 1666.0 2
2152.0 1656.0 2
2173.0 1645.0 2
2194.0 1645.0 2
2215.0 1666.0 2
2235.0 1687.0 2
2246.0 1698.0 2
2246.0 1698.0 2
2246.0 1666.0 2
2246.0 1625.0 2
2235.0 1573.0 2
2225.0 1520.0 2
2225.0 1500.0 2
2225.0 1489.0 2
2225.0 1489.0 2
2225.0 1489.0 2
2360.0 1708.0 3
2360.0 1708.0 3
2360.0 1708.0 3
2360.0 1718.0 3
2381.0 1739.0 3
2423.0 1760.0 3
2444.0 1770.0 3
2454.0 1770.0 3
2465.0 1750.0 3
2465.0 1729.0 3
2444.0 1698.0 3
2423.0 1677.0 3
2402.0 1656.0 3
2402.0 1656.0 3
2402.0 1656.0 3
2413.0 1666.0 3
2454.0 1677.0 3
2485.0 1677.0 3
2517.0 1666.0 3
2527.0 1645.0 3
2527.0 1604.0 3
2517.0 1573.0 3
2496.0 1541.0 3
2475.0 1520.0 3
2454.0 1510.0 3
2454.0 1510.0 3
2444.0 1510.0 3
2631.0 1760.0 4
2631.0 1760.0 4
2631.0 1750.0 4
2631.0 1729.0 4
2631.0 1718.0 4
2621.0 1708.0 4
2631.0 1708.0 4
2621.0 1708.0 4
2621.0 1729.0 4
2621.0 1750.0 4
2631.0 1760.0 4
2652.0 1770.0 4
2683.0 1770.0 4
2725.0 1781.0 4
2746.0 1791.0 4
2767.0 1802.0 4
2767.0 1802.0 4
2767.0 1802.0 4
2767.0 1802.0 4
2767.0 1791.0 4
2767.0 1760.0 4
2756.0 1718.0 4
2746.0 1666.0 4
2746.0 1604.0 4
2735.0 1583.0 4
2735.0 1562.0 4
2735.0 1552.0 4
2725.0 1552.0 4
2642.0 1645.0 5
2642.0 1656.0 5
2663.0 1656.0 5
2683.0 1656.0 5
2704.0 1656.0 5
2756.0 1666.0 5
2788.0 1677.0 5
2819.0 1687.0 5
3058.0 1781.0 6
3058.0 1791.0 6
3048.0 1791.0 6
3038.0 1802.0 6
3017.0 1802.0 6
2996.0 1791.0 6
2965.0 1791.0 6
2954.0 1781.0 6
2954.0 1781.0 6
2944.0 1781.0 6
2944.0 1781.0 6
2944.0 1770.0 6
2944.0 1750.0 6
2944.0 1739.0 6
2933.0 1729.0 6
2933.0 1708.0 6
2933.0 1687.0 6
2933.0 1677.0 6
2933.0 1666.0 6
2933.0 1666.0 6
2954.0 1677.0 6
2985.0 1698.0 6
3017.0 1708.0 6
3038.0 1698.0 6
3058.0 1687.0 6
3058.0 1666.0 6
3058.0 1635.0 6
3038.0 1593.0 6
3006.0 1552.0 6
2985.0 1520.0 6
2954.0 1510.0 6
2954.0 1510.0 6

