715.0 2093.0 1
715.0 2093.0 1
694.0 2093.0 1
694.0 2093.0 1
694.0 2093.0 1
694.0 2093.0 1
694.0 2104.0 1
704.0 2114.0 1
715.0 2125.0 1
725.0 2135.0 1
746.0 2145.0 1
767.0 2156.0 1
798.0 2166.0 1
819.0 2156.0 1
840.0 2145.0 1
860.0 2135.0 1
871.0 2093.0 1
881.0 2041.0 1
881.0 1968.0 1
871.0 1906.0 1
819.0 1833.0 1
777.0 1802.0 1
746.0 1781.0 1
715.0 1781.0 1
683.0 1791.0 1
683.0 1812.0 1
683.0 1823.0 1
704.0 1833.0 1
746.0 1833.0 1
788.0 1833.0 1
819.0 1823.0 1
860.0 1812.0 1
892.0 1791.0 1
902.0 1781.0 1
913.0 1781.0 1
1288.0 2135.0 2
1298.0 2156.0 2
1298.0 2177.0 2
1298.0 2187.0 2
1267.0 2187.0 2
1235.0 2187.0 2
1215.0 2166.0 2
1194.0 2145.0 2
1173.0 2114.0 2
1173.0 2093.0 2
1173.0 2073.0 2
1183.0 2052.0 2
1204.0 2041.0 2
1225.0 2052.0 2
1246.0 2073.0 2
1256.0 2093.0 2
1277.0 2135.0 2
1288.0 2135.0 2
1288.0 2135.0 2
1288.0 2104.0 2
1267.0 2052.0 2
1256.0 1989.0 2
1235.0 1916.0 2
1215.0 1833.0 2
1194.0 1781.0 2
1183.0 1739.0 2
1183.0 1729.0 2
1194.0 1739.0 2
1642.0 2229.0 3
1642.0 2229.0 3
1642.0 2229.0 3
1621.0 2208.0 3
1590.0 2177.0 3
1569.0 2125.0 3
1538.0 2062.0 3
1517.0 2000.0 3
1485.0 1948.0 3
1475.0 1895.0 3
1465.0 1843.0 3
1475.0 1823.0 3
1485.0 1791.0 3
1496.0 1770.0 3
1527.0 1770.0 3
1548.0 1781.0 3
1558.0 1802.0 3
1579.0 1823.0 3
1600.0 1875.0 3
1610.0 1906.0 3
1621.0 1937.0 3
1621.0 1958.0 3
1610.0 1968.0 3
1590.0 1968.0 3
1569.0 1958.0 3
1548.0 1937.0 3
1506.0 1906.0 3
1485.0 1895.0 3
1475.0 1875.0 3
1475.0 1875.0 3
1475.0 1885.0 3
1996.0 2135.0 4
2017.0 2156.0 4
2027.0 2198.0 4
2038.0 2229.0 4
2038.0 2250.0 4
2017.0 2260.0 4
1985.0 2260.0 4
1954.0 2250.0 4
1933.0 2218.0 4
1913.0 2187.0 4
1902.0 2125.0 4
1902.0 2083.0 4
1913.0 2062.0 4
1923.0 2041.0 4
1954.0 2052.0 4
1975.0 2073.0 4
1985.0 2093.0 4
2006.0 2135.0 4
2017.0 2166.0 4
2027.0 2177.0 4
2027.0 2177.0 4
2027.0 2177.0 4
2027.0 2166.0 4
2027.0 2135.0 4
2017.0 2093.0 4
2006.0 2062.0 4
1975.0 1968.0 4
1954.0 1895.0 4
1944.0 1854.0 4
1923.0 1802.0 4
1913.0 1770.0 4
1913.0 1760.0 4
1933.0 1770.0 4
2256.0 2187.0 5
2256.0 2187.0 5
2246.0 2187.0 5
2246.0 2198.0 5
2246.0 2198.0 5
2246.0 2198.0 5
2277.0 2198.0 5
2308.0 2198.0 5
2350.0 2198.0 5
2392.0 2198.0 5
2444.0 2198.0 5
2465.0 2208.0 5
2485.0 2198.0 5
2496.0 2198.0 5
2496.0 2177.0 5
2496.0 2177.0 5
2496.0 2145.0 5
2485.0 2114.0 5
2465.0 2062.0 5
2433.0 1989.0 5
2413.0 1916.0 5
2381.0 1823.0 5
2371.0 1781.0 5
2371.0 1760.0 5
2371.0 1760.0 5
2371.0 1760.0 5

