1246.0 1614.0 1
1225.0 1635.0 1
1235.0 1593.0 1
1256.0 1541.0 1
1277.0 1479.0 1
1288.0 1406.0 1
1308.0 1312.0 1
1308.0 1270.0 1
1298.0 1250.0 1
1298.0 1218.0 1
1288.0 1208.0 1
1006.0 1614.0 2
1006.0 1635.0 2
1090.0 1656.0 2
1183.0 1666.0 2
1308.0 1677.0 2
1465.0 1677.0 2
1465.0 1375.0 3
1475.0 1343.0 3
1496.0 1291.0 3
1517.0 1270.0 3
1527.0 1250.0 3
1538.0 1239.0 3
1517.0 1250.0 3
1496.0 1270.0 3
1475.0 1323.0 3
1475.0 1385.0 3
1496.0 1427.0 3
1538.0 1448.0 3
1579.0 1448.0 3
1600.0 1437.0 3
1610.0 1416.0 3
1788.0 1364.0 4
1767.0 1385.0 4
1746.0 1395.0 4
1704.0 1385.0 4
1673.0 1364.0 4
1652.0 1343.0 4
1652.0 1312.0 4
1694.0 1270.0 4
1746.0 1250.0 4
1788.0 1250.0 4
1798.0 1260.0 4
1798.0 1291.0 4
1788.0 1323.0 4
1756.0 1354.0 4
1756.0 1354.0 4
1767.0 1333.0 4
1788.0 1302.0 4
1819.0 1281.0 4
1860.0 1260.0 4
1902.0 1239.0 4
1923.0 1239.0 4
1954.0 1323.0 5
1944.0 1323.0 5
1944.0 1323.0 5
1954.0 1312.0 5
1965.0 1291.0 5
1975.0 1260.0 5
1985.0 1239.0 5
1985.0 1229.0 5
1985.0 1239.0 5
1975.0 1281.0 5
1975.0 1323.0 5
1985.0 1354.0 5
2027.0 1364.0 5
2058.0 1354.0 5
2100.0 1333.0 5
2121.0 1302.0 5
2131.0 1260.0 5
2131.0 1239.0 5
2246.0 1354.0 6
2235.0 1364.0 6
2225.0 1375.0 6
2173.0 1375.0 6
2152.0 1354.0 6
2152.0 1343.0 6
2163.0 1323.0 6
2204.0 1291.0 6
2256.0 1270.0 6
2288.0 1239.0 6
2288.0 1229.0 6
2288.0 1218.0 6
2267.0 1208.0 6
2235.0 1208.0 6
2225.0 1218.0 6
2225.0 1218.0 6
2465.0 1198.0 7
2475.0 1208.0 7
2475.0 1218.0 7
2454.0 1229.0 7
2444.0 1239.0 7
2423.0 1270.0 7
2413.0 1312.0 7
2402.0 1385.0 7
2402.0 1468.0 7
2402.0 1552.0 7
2423.0 1583.0 7
2433.0 1593.0 7
2465.0 1583.0 7
2517.0 1552.0 7
2340.0 1375.0 8
2350.0 1375.0 8
2381.0 1364.0 8
2475.0 1364.0 8
2517.0 1364.0 8
2663.0 1354.0 9
2631.0 1364.0 9
2610.0 1375.0 9
2569.0 1375.0 9
2538.0 1354.0 9
2527.0 1312.0 9
2527.0 1281.0 9
2569.0 1250.0 9
2610.0 1229.0 9
2652.0 1229.0 9
2663.0 1250.0 9
2663.0 1281.0 9
2631.0 1333.0 9
2621.0 1354.0 9
2600.0 1354.0 9
2600.0 1364.0 9
2767.0 1250.0 10
2767.0 1250.0 10
2756.0 1260.0 10
2735.0 1281.0 10
2725.0 1291.0 10
2725.0 1343.0 10
2725.0 1385.0 10
2746.0 1406.0 10
2767.0 1406.0 10
2798.0 1395.0 10
2985.0 1343.0 11
2985.0 1354.0 11
2985.0 1343.0 11
2996.0 1323.0 11
2996.0 1281.0 11
2996.0 1208.0 11
2996.0 1208.0 11
2996.0 1229.0 11
2985.0 1270.0 11
2985.0 1343.0 11
2996.0 1385.0 11
3017.0 1406.0 11
3027.0 1406.0 11
3069.0 1364.0 11
3069.0 1333.0 11
3069.0 1302.0 11
3058.0 1291.0 11
3058.0 1291.0 11
3069.0 1302.0 11
3100.0 1333.0 11
3142.0 1354.0 11
3183.0 1364.0 11
3225.0 1354.0 11
3256.0 1323.0 11
3277.0 1281.0 11
3288.0 1239.0 11
3288.0 1218.0 11

