1350.0 1395.0 1
1350.0 1406.0 1
1350.0 1406.0 1
1350.0 1406.0 1
1350.0 1406.0 1
1350.0 1312.0 1
1340.0 1260.0 1
1340.0 1198.0 1
1329.0 1145.0 1
1329.0 1031.0 1
1329.0 1031.0 1
1329.0 1041.0 1
1673.0 1406.0 2
1673.0 1416.0 2
1663.0 1416.0 2
1642.0 1416.0 2
1610.0 1416.0 2
1590.0 1406.0 2
1569.0 1406.0 2
1548.0 1406.0 2
1538.0 1395.0 2
1527.0 1395.0 2
1527.0 1385.0 2
1517.0 1375.0 2
1517.0 1364.0 2
1517.0 1323.0 2
1517.0 1281.0 2
1517.0 1239.0 2
1527.0 1198.0 2
1527.0 1135.0 2
1517.0 1093.0 2
1517.0 1073.0 2
1517.0 1041.0 2
1517.0 1031.0 2
1527.0 1020.0 2
1527.0 1020.0 2
1527.0 1020.0 2
1558.0 1031.0 2
1590.0 1031.0 2
1621.0 1031.0 2
1673.0 1041.0 2
1725.0 1041.0 2
1756.0 1041.0 2
1767.0 1052.0 2
1777.0 1041.0 2
1777.0 1052.0 2
1777.0 1104.0 2
1767.0 1125.0 2
1767.0 1156.0 2
1767.0 1198.0 2
1767.0 1208.0 2
1767.0 1208.0 2
1767.0 1208.0 2
1767.0 1208.0 2
1767.0 1208.0 2
1756.0 1218.0 2
1725.0 1218.0 2
1683.0 1218.0 2
1621.0 1208.0 2
1558.0 1198.0 2
1496.0 1187.0 2
1485.0 1187.0 2
1881.0 1416.0 3
1871.0 1427.0 3
1871.0 1427.0 3
1871.0 1427.0 3
1902.0 1427.0 3
1933.0 1427.0 3
1965.0 1437.0 3
2006.0 1437.0 3
2048.0 1437.0 3
2100.0 1437.0 3
2110.0 1437.0 3
2121.0 1437.0 3
2121.0 1437.0 3
2121.0 1437.0 3
2121.0 1385.0 3
2110.0 1364.0 3
2110.0 1323.0 3
2110.0 1281.0 3
2121.0 1229.0 3
2121.0 1218.0 3
2121.0 1208.0 3
2121.0 1208.0 3
2110.0 1208.0 3
2100.0 1218.0 3
2027.0 1218.0 3
1996.0 1218.0 3
1965.0 1208.0 3
1944.0 1208.0 3
1923.0 1208.0 3
1913.0 1208.0 3
1913.0 1208.0 3
1892.0 1208.0 3
1881.0 1208.0 3
1871.0 1208.0 3
1860.0 1208.0 3
1860.0 1208.0 3
1871.0 1208.0 3
2058.0 1218.0 4
2058.0 1218.0 4
2058.0 1218.0 4
2058.0 1218.0 4
2058.0 1208.0 4
2069.0 1187.0 4
2069.0 1156.0 4
2069.0 1125.0 4
2079.0 1093.0 4
2079.0 1062.0 4
2079.0 1052.0 4
2079.0 1041.0 4
2079.0 1041.0 4
2079.0 1041.0 4
2079.0 1041.0 4
2079.0 1041.0 4
2058.0 1041.0 4
2017.0 1041.0 4
1965.0 1041.0 4
1923.0 1041.0 4
1892.0 1041.0 4
1871.0 1041.0 4
1871.0 1041.0 4
1871.0 1041.0 4
2371.0 1458.0 5
2360.0 1468.0 5
2360.0 1468.0 5
2360.0 1468.0 5
2360.0 1468.0 5
2360.0 1468.0 5
2360.0 1458.0 5
2350.0 1458.0 5
2350.0 1468.0 5
2340.0 1468.0 5
2329.0 1468.0 5
2288.0 1468.0 5
2267.0 1458.0 5
2246.0 1458.0 5
2225.0 1448.0 5
2215.0 1448.0 5
2215.0 1448.0 5
2215.0 1416.0 5
2225.0 1354.0 5
2225.0 1302.0 5
2235.0 1260.0 5
2235.0 1208.0 5
2246.0 1177.0 5
2246.0 1104.0 5
2246.0 1062.0 5
2256.0 1062.0 5
2267.0 1062.0 5
2277.0 1062.0 5
2288.0 1062.0 5
2340.0 1073.0 5
2371.0 1073.0 5
2413.0 1073.0 5
2465.0 1073.0 5
2506.0 1083.0 5
2527.0 1083.0 5
2527.0 1083.0 5
2538.0 1083.0 5
2548.0 1083.0 5
2548.0 1104.0 5
2548.0 1125.0 5
2538.0 1145.0 5
2527.0 1187.0 5
2517.0 1229.0 5
2517.0 1270.0 5
2517.0 1291.0 5
2506.0 1291.0 5
2506.0 1333.0 5
2506.0 1354.0 5
2496.0 1375.0 5
2496.0 1385.0 5
2485.0 1395.0 5
2485.0 1406.0 5
2485.0 1416.0 5
2475.0 1437.0 5
2475.0 1448.0 5
2475.0 1458.0 5
2465.0 1458.0 5
2465.0 1468.0 5
2465.0 1468.0 5
2454.0 1468.0 5
2444.0 1479.0 5
2413.0 1479.0 5
2381.0 1479.0 5
2340.0 1468.0 5
2288.0 1458.0 5
2235.0 1260.0 6
2225.0 1260.0 6
2225.0 1260.0 6
2225.0 1250.0 6
2215.0 1250.0 6
2225.0 1250.0 6
2256.0 1260.0 6
2298.0 1260.0 6
2329.0 1270.0 6
2381.0 1270.0 6
2423.0 1270.0 6
2465.0 1281.0 6
2485.0 1281.0 6
2496.0 1281.0 6
2496.0 1281.0 6
2496.0 1281.0 6
2475.0 1281.0 6
2475.0 1281.0 6
2631.0 1448.0 7
2631.0 1458.0 7
2631.0 1468.0 7
2631.0 1468.0 7
2631.0 1468.0 7
2631.0 1427.0 7
2642.0 1385.0 7
2642.0 1333.0 7
2642.0 1281.0 7
2642.0 1218.0 7
2642.0 1166.0 7
2642.0 1104.0 7
2642.0 1083.0 7
2642.0 1083.0 7
2642.0 1073.0 7
2652.0 1073.0 7
2663.0 1073.0 7
2683.0 1083.0 7
2715.0 1083.0 7
2777.0 1093.0 7
2808.0 1104.0 7
2829.0 1104.0 7
2850.0 1104.0 7
2881.0 1114.0 7
2892.0 1114.0 7
2902.0 1125.0 7
2902.0 1125.0 7
2902.0 1145.0 7
2902.0 1166.0 7
2892.0 1208.0 7
2892.0 1260.0 7
2881.0 1291.0 7
2881.0 1323.0 7
2871.0 1354.0 7
2860.0 1395.0 7
2850.0 1437.0 7
2850.0 1458.0 7
2850.0 1468.0 7
2850.0 1468.0 7
2840.0 1479.0 7
2840.0 1479.0 7
2840.0 1479.0 7
2829.0 1489.0 7
2829.0 1489.0 7
2829.0 1489.0 7
2819.0 1489.0 7
2777.0 1489.0 7
2704.0 1479.0 7
2631.0 1479.0 7
2569.0 1479.0 7

