283.0 2795.0 1
283.0 2795.0 1
283.0 2795.0 1
294.0 2775.0 1
304.0 2754.0 1
315.0 2733.0 1
335.0 2712.0 1
346.0 2702.0 1
346.0 2691.0 1
356.0 2691.0 1
429.0 2785.0 2
429.0 2795.0 2
429.0 2795.0 2
429.0 2785.0 2
419.0 2785.0 2
408.0 2775.0 2
398.0 2775.0 2
388.0 2754.0 2
367.0 2712.0 2
356.0 2681.0 2
356.0 2650.0 2
356.0 2587.0 2
356.0 2587.0 2
356.0 2587.0 2
356.0 2587.0 2
356.0 2598.0 2

