1673.0 1802.0 1
1673.0 1802.0 1
1673.0 1781.0 1
1673.0 1739.0 1
1694.0 1666.0 1
1715.0 1614.0 1
1735.0 1562.0 1
1746.0 1520.0 1
1756.0 1489.0 1
1756.0 1489.0 1
1756.0 1489.0 1
1767.0 1510.0 1
1777.0 1562.0 1
1788.0 1614.0 1
1788.0 1666.0 1
1788.0 1729.0 1
1788.0 1781.0 1
1788.0 1812.0 1
1788.0 1823.0 1
1798.0 1833.0 1
1933.0 1645.0 2
1933.0 1645.0 2
1933.0 1645.0 2
1923.0 1645.0 2
1913.0 1614.0 2
1902.0 1562.0 2
1902.0 1520.0 2
1913.0 1489.0 2
1933.0 1479.0 2
1944.0 1468.0 2
1965.0 1489.0 2
1975.0 1510.0 2
1975.0 1531.0 2
1975.0 1573.0 2
1965.0 1604.0 2
1944.0 1635.0 2
1933.0 1645.0 2
1933.0 1645.0 2
1933.0 1645.0 2
1944.0 1635.0 2
2100.0 1750.0 3
2100.0 1760.0 3
2090.0 1770.0 3
2090.0 1770.0 3
2090.0 1770.0 3
2090.0 1739.0 3
2090.0 1698.0 3
2090.0 1614.0 3
2100.0 1573.0 3
2100.0 1531.0 3
2110.0 1500.0 3
2110.0 1489.0 3
2110.0 1500.0 3
2110.0 1510.0 3
2121.0 1531.0 3
2246.0 1656.0 4
2246.0 1656.0 4
2246.0 1635.0 4
2246.0 1625.0 4
2256.0 1614.0 4
2267.0 1604.0 4
2267.0 1604.0 4
2267.0 1614.0 4
2277.0 1614.0 4
2277.0 1635.0 4
2267.0 1656.0 4
2256.0 1666.0 4
2246.0 1666.0 4
2235.0 1666.0 4
2215.0 1635.0 4
2204.0 1604.0 4
2204.0 1552.0 4
2204.0 1520.0 4
2225.0 1479.0 4
2235.0 1468.0 4
2267.0 1468.0 4
2288.0 1479.0 4
2329.0 1489.0 4
2423.0 1541.0 5
2423.0 1531.0 5
2423.0 1531.0 5
2423.0 1531.0 5
2433.0 1531.0 5
2444.0 1531.0 5
2454.0 1552.0 5
2465.0 1573.0 5
2465.0 1593.0 5
2465.0 1614.0 5
2454.0 1635.0 5
2433.0 1656.0 5
2413.0 1645.0 5
2392.0 1625.0 5
2381.0 1593.0 5
2371.0 1562.0 5
2381.0 1520.0 5
2392.0 1510.0 5
2402.0 1500.0 5
2413.0 1500.0 5
2433.0 1510.0 5
2444.0 1531.0 5
2444.0 1552.0 5
2444.0 1573.0 5
2444.0 1593.0 5
2444.0 1573.0 5
2454.0 1541.0 5
2465.0 1510.0 5
2475.0 1500.0 5
2496.0 1489.0 5
2517.0 1489.0 5
2610.0 1645.0 6
2610.0 1645.0 6
2610.0 1635.0 6
2610.0 1635.0 6
2610.0 1604.0 6
2610.0 1562.0 6
2610.0 1531.0 6
2610.0 1510.0 6
2621.0 1489.0 6
2621.0 1489.0 6
2621.0 1489.0 6
2631.0 1510.0 6
2642.0 1541.0 6
2652.0 1583.0 6
2663.0 1604.0 6
2673.0 1614.0 6
2683.0 1625.0 6
2694.0 1614.0 6
2694.0 1593.0 6
2704.0 1562.0 6
2704.0 1541.0 6
2715.0 1510.0 6
2715.0 1500.0 6
2715.0 1489.0 6
2725.0 1489.0 6
2808.0 1625.0 7
2808.0 1625.0 7
2808.0 1614.0 7
2808.0 1593.0 7
2808.0 1552.0 7
2819.0 1520.0 7
2819.0 1500.0 7
2829.0 1500.0 7
2985.0 1614.0 8
2985.0 1625.0 8
2985.0 1625.0 8
2985.0 1635.0 8
2985.0 1635.0 8
2965.0 1625.0 8
2944.0 1604.0 8
2933.0 1593.0 8
2923.0 1573.0 8
2933.0 1531.0 8
2944.0 1510.0 8
2965.0 1500.0 8
2985.0 1489.0 8
3017.0 1489.0 8
3027.0 1500.0 8
2923.0 1739.0 9
2902.0 1750.0 9
2902.0 1750.0 9
2913.0 1750.0 9

