923.0 1916.0 1
933.0 1937.0 1
933.0 1958.0 1
913.0 2000.0 1
881.0 2020.0 1
829.0 2041.0 1
725.0 2031.0 1
652.0 1989.0 1
590.0 1927.0 1
548.0 1843.0 1
506.0 1708.0 1
506.0 1635.0 1
527.0 1573.0 1
569.0 1531.0 1
663.0 1520.0 1
756.0 1520.0 1
850.0 1510.0 1
954.0 1500.0 1
1090.0 1448.0 1
1183.0 1395.0 1
1225.0 1323.0 1
1235.0 1250.0 1
1194.0 1135.0 1
1131.0 1052.0 1
1038.0 968.0 1
944.0 906.0 1
829.0 854.0 1
767.0 823.0 1
725.0 823.0 1
694.0 833.0 1
663.0 864.0 1
663.0 937.0 1
1256.0 2218.0 2
1256.0 2218.0 2
1288.0 2198.0 2
1319.0 2125.0 2
1360.0 1989.0 2
1381.0 1843.0 2
1402.0 1656.0 2
1423.0 1458.0 2
1433.0 1239.0 2
1433.0 1114.0 2
1454.0 1020.0 2
1454.0 937.0 2
1454.0 916.0 2
1444.0 927.0 2
1413.0 1000.0 2
1538.0 1604.0 3
1548.0 1635.0 3
1558.0 1635.0 3
1558.0 1625.0 3
1517.0 1562.0 3
1475.0 1489.0 3
1423.0 1427.0 3
1371.0 1354.0 3
1340.0 1291.0 3
1340.0 1291.0 3
1360.0 1291.0 3
1392.0 1291.0 3
1465.0 1291.0 3
1517.0 1281.0 3
1579.0 1239.0 3
1642.0 1166.0 3
1715.0 1062.0 3
1756.0 989.0 3
1788.0 927.0 3
1829.0 895.0 3
1892.0 885.0 3
1933.0 895.0 3
1975.0 937.0 3
1975.0 1010.0 3
1933.0 1250.0 4
1913.0 1302.0 4
1902.0 1333.0 4
1902.0 1333.0 4
1913.0 1291.0 4
1933.0 1198.0 4
1944.0 1093.0 4
1944.0 1020.0 4
1954.0 958.0 4
1954.0 948.0 4
1954.0 968.0 4
1954.0 1041.0 4
1808.0 1593.0 5
1808.0 1635.0 5
1808.0 1656.0 5
1819.0 1666.0 5
1819.0 1677.0 5
1819.0 1687.0 5
1829.0 1677.0 5
1850.0 1625.0 5
2225.0 1218.0 6
2225.0 1218.0 6
2246.0 1229.0 6
2256.0 1218.0 6
2277.0 1166.0 6
2288.0 1104.0 6
2298.0 1020.0 6
2308.0 937.0 6
2319.0 864.0 6
2319.0 843.0 6
2308.0 854.0 6
2298.0 916.0 6
2173.0 1635.0 7
2152.0 1677.0 7
2152.0 1687.0 7
2163.0 1708.0 7
2173.0 1718.0 7
2173.0 1718.0 7
2183.0 1687.0 7
2485.0 1187.0 8
2485.0 1187.0 8
2506.0 1156.0 8
2527.0 1114.0 8
2579.0 1020.0 8
2600.0 937.0 8
2600.0 854.0 8
2590.0 802.0 8
2590.0 781.0 8
2579.0 802.0 8
2558.0 875.0 8
2548.0 1000.0 8
2548.0 1218.0 8
2558.0 1333.0 8
2590.0 1395.0 8
2631.0 1416.0 8
2694.0 1395.0 8
2746.0 1312.0 8
2788.0 1187.0 8
2829.0 1041.0 8
2860.0 895.0 8
2881.0 833.0 8
2902.0 791.0 8
2902.0 791.0 8
2933.0 812.0 8
3298.0 1291.0 9
3277.0 1312.0 9
3267.0 1333.0 9
3235.0 1385.0 9
3204.0 1385.0 9
3152.0 1364.0 9
3090.0 1312.0 9
3027.0 1208.0 9
2996.0 1104.0 9
2996.0 1020.0 9
3027.0 968.0 9
3100.0 948.0 9
3173.0 968.0 9
3246.0 1041.0 9
3308.0 1145.0 9
3319.0 1250.0 9
3319.0 1323.0 9
3319.0 1364.0 9
3319.0 1364.0 9
3319.0 1364.0 9
3319.0 1354.0 9
3350.0 1312.0 9
3402.0 1250.0 9
3444.0 1166.0 9
3496.0 1083.0 9
3548.0 1000.0 9
3579.0 895.0 9
3590.0 823.0 9
3590.0 729.0 9
3558.0 645.0 9
3485.0 552.0 9
3444.0 531.0 9
3413.0 531.0 9
3402.0 562.0 9
3402.0 677.0 9
3444.0 802.0 9
3506.0 937.0 9
3569.0 1083.0 9
3673.0 1250.0 9
3777.0 1343.0 9
3871.0 1427.0 9
3975.0 1500.0 9
4079.0 1573.0 9
4142.0 1625.0 9

