840.0 1093.0 1
829.0 1093.0 1
829.0 1093.0 1
829.0 1104.0 1
840.0 1156.0 1
871.0 1291.0 1
923.0 1437.0 1
965.0 1562.0 1
1017.0 1677.0 1
1058.0 1781.0 1
1079.0 1833.0 1
1090.0 1864.0 1
1090.0 1895.0 1
1100.0 1895.0 1
1110.0 1875.0 1
1110.0 1823.0 1
1110.0 1458.0 1
1110.0 1375.0 1
1110.0 1218.0 1
1110.0 1166.0 1
1121.0 1135.0 1
1121.0 1104.0 1
1121.0 1093.0 1
1121.0 1093.0 1
1121.0 1093.0 1
1121.0 1093.0 1
1121.0 1093.0 1
829.0 1250.0 2
829.0 1250.0 2
829.0 1250.0 2
860.0 1270.0 2
923.0 1291.0 2
975.0 1323.0 2
1038.0 1354.0 2
1277.0 1312.0 3
1277.0 1281.0 3
1267.0 1208.0 3
1267.0 1114.0 3
1256.0 1000.0 3
1246.0 937.0 3
1246.0 895.0 3
1256.0 875.0 3
1173.0 1291.0 4
1163.0 1333.0 4
1194.0 1385.0 4
1235.0 1416.0 4
1288.0 1427.0 4
1329.0 1427.0 4
1381.0 1395.0 4
1413.0 1364.0 4
1433.0 1323.0 4
1433.0 1270.0 4
1413.0 1229.0 4
1371.0 1177.0 4
1340.0 1125.0 4
1288.0 1093.0 4
1267.0 1093.0 4
1246.0 1093.0 4
1246.0 1104.0 4
1527.0 1270.0 5
1517.0 1250.0 5
1517.0 1166.0 5
1517.0 1093.0 5
1517.0 1041.0 5
1517.0 937.0 5
1517.0 916.0 5
1444.0 1250.0 6
1444.0 1291.0 6
1454.0 1323.0 6
1485.0 1364.0 6
1527.0 1375.0 6
1590.0 1375.0 6
1631.0 1354.0 6
1663.0 1323.0 6
1683.0 1291.0 6
1683.0 1250.0 6
1673.0 1208.0 6
1642.0 1177.0 6
1600.0 1145.0 6
1569.0 1125.0 6
1548.0 1125.0 6
1527.0 1125.0 6
1527.0 1145.0 6
1767.0 1187.0 7
1767.0 1135.0 7
1756.0 1135.0 7
1756.0 1145.0 7
1746.0 1166.0 7
1746.0 1187.0 7
1746.0 1218.0 7
1746.0 1250.0 7
1746.0 1260.0 7
1756.0 1270.0 7
1767.0 1291.0 7
1798.0 1302.0 7
1829.0 1312.0 7
1850.0 1323.0 7
1975.0 1323.0 8
1965.0 1302.0 8
1944.0 1260.0 8
1933.0 1198.0 8
1933.0 1156.0 8
1944.0 1125.0 8
1975.0 1125.0 8
2027.0 1156.0 8
2079.0 1187.0 8
2110.0 1239.0 8
2121.0 1270.0 8
2110.0 1333.0 8
2079.0 1364.0 8
2027.0 1375.0 8
1996.0 1375.0 8
1965.0 1375.0 8
1954.0 1364.0 8
1954.0 1323.0 8
2267.0 1323.0 9
2267.0 1343.0 9
2267.0 1375.0 9
2267.0 1406.0 9
2246.0 1406.0 9
2235.0 1406.0 9
2215.0 1375.0 9
2183.0 1312.0 9
2163.0 1260.0 9
2152.0 1208.0 9
2152.0 1187.0 9
2163.0 1166.0 9
2173.0 1166.0 9
2204.0 1187.0 9
2225.0 1218.0 9
2246.0 1239.0 9
2256.0 1250.0 9
2256.0 1250.0 9
2256.0 1218.0 9
2267.0 1187.0 9
2267.0 1166.0 9
2277.0 1145.0 9
2475.0 1323.0 10
2475.0 1343.0 10
2465.0 1364.0 10
2454.0 1375.0 10
2433.0 1375.0 10
2413.0 1343.0 10
2392.0 1302.0 10
2371.0 1239.0 10
2360.0 1187.0 10
2360.0 1156.0 10
2381.0 1145.0 10
2423.0 1145.0 10
2465.0 1156.0 10
2621.0 1729.0 11
2610.0 1687.0 11
2600.0 1583.0 11
2579.0 1489.0 11
2579.0 1385.0 11
2569.0 1302.0 11
2558.0 1239.0 11
2558.0 1198.0 11
2548.0 1166.0 11
2548.0 1145.0 11
2548.0 1135.0 11
2558.0 1135.0 11
2569.0 1156.0 11
2590.0 1198.0 11
2621.0 1250.0 11
2642.0 1291.0 11
2673.0 1323.0 11
2694.0 1323.0 11
2704.0 1312.0 11
2704.0 1270.0 11
2704.0 1218.0 11
2704.0 1198.0 11
2704.0 1177.0 11
2704.0 1166.0 11
2819.0 1281.0 12
2808.0 1260.0 12
2798.0 1198.0 12
2788.0 1166.0 12
2788.0 1125.0 12
2819.0 1427.0 13
2808.0 1427.0 13
2808.0 1427.0 13
2798.0 1406.0 13
2798.0 1375.0 13
2954.0 1302.0 14
2944.0 1260.0 14
2933.0 1208.0 14
2923.0 1166.0 14
2923.0 1156.0 14
2923.0 1145.0 14
2923.0 1145.0 14
2933.0 1177.0 14
2954.0 1208.0 14
2965.0 1239.0 14
2985.0 1270.0 14
3017.0 1302.0 14
3017.0 1312.0 14
3038.0 1302.0 14
3038.0 1281.0 14
3038.0 1166.0 14
3038.0 1156.0 14
3038.0 1156.0 14
3048.0 1156.0 14
3277.0 1354.0 15
3277.0 1364.0 15
3267.0 1375.0 15
3246.0 1385.0 15
3225.0 1375.0 15
3194.0 1343.0 15
3163.0 1312.0 15
3142.0 1260.0 15
3131.0 1239.0 15
3131.0 1218.0 15
3142.0 1218.0 15
3163.0 1229.0 15
3204.0 1250.0 15
3225.0 1281.0 15
3246.0 1291.0 15
3256.0 1291.0 15
3267.0 1281.0 15
3277.0 1250.0 15
3277.0 1187.0 15
3267.0 1093.0 15
3267.0 1031.0 15
3256.0 968.0 15
3225.0 906.0 15
3194.0 843.0 15
3173.0 812.0 15
3142.0 791.0 15
3110.0 791.0 15
3100.0 812.0 15
3100.0 864.0 15
3110.0 937.0 15
3152.0 1020.0 15
3204.0 1104.0 15
3256.0 1145.0 15
3288.0 1166.0 15
3319.0 1166.0 15
3329.0 1166.0 15
3329.0 1156.0 15
3329.0 1145.0 15
3329.0 1145.0 15

