1496.0 1833.0 1
1475.0 1833.0 1
1475.0 1823.0 1
1465.0 1812.0 1
1465.0 1791.0 1
1454.0 1750.0 1
1454.0 1718.0 1
1444.0 1687.0 1
1444.0 1656.0 1
1433.0 1614.0 1
1423.0 1583.0 1
1423.0 1552.0 1
1423.0 1531.0 1
1413.0 1500.0 1
1413.0 1489.0 1
1413.0 1479.0 1
1413.0 1468.0 1
1413.0 1458.0 1
1413.0 1448.0 1
1402.0 1448.0 1
1402.0 1448.0 1
1402.0 1458.0 1
1402.0 1468.0 1
1413.0 1489.0 1
1413.0 1500.0 1
1413.0 1520.0 1
1413.0 1552.0 1
1423.0 1573.0 1
1423.0 1593.0 1
1423.0 1614.0 1
1423.0 1645.0 1
1423.0 1698.0 1
1433.0 1718.0 1
1433.0 1739.0 1
1433.0 1760.0 1
1433.0 1781.0 1
1444.0 1802.0 1
1444.0 1823.0 1
1454.0 1833.0 1
1454.0 1854.0 1
1454.0 1864.0 1
1465.0 1885.0 1
1465.0 1885.0 1
1475.0 1895.0 1
1485.0 1895.0 1
1485.0 1906.0 1
1485.0 1906.0 1
1485.0 1895.0 1
1496.0 1895.0 1
1496.0 1885.0 1
1496.0 1875.0 1
1506.0 1854.0 1
1517.0 1823.0 1
1527.0 1791.0 1
1527.0 1750.0 1
1548.0 1698.0 1
1548.0 1666.0 1
1558.0 1635.0 1
1558.0 1593.0 1
1569.0 1552.0 1
1579.0 1531.0 1
1579.0 1500.0 1
1579.0 1489.0 1
1579.0 1479.0 1
1579.0 1468.0 1
1590.0 1468.0 1
1433.0 1656.0 2
1433.0 1677.0 2
1444.0 1677.0 2
1475.0 1666.0 2
1485.0 1656.0 2
1506.0 1656.0 2
1517.0 1656.0 2
1517.0 1656.0 2
1527.0 1656.0 2
1735.0 1656.0 3
1725.0 1677.0 3
1715.0 1666.0 3
1694.0 1656.0 3
1683.0 1656.0 3
1663.0 1635.0 3
1642.0 1604.0 3
1631.0 1573.0 3
1621.0 1552.0 3
1610.0 1531.0 3
1621.0 1500.0 3
1631.0 1489.0 3
1642.0 1479.0 3
1663.0 1479.0 3
1683.0 1479.0 3
1694.0 1479.0 3
1704.0 1479.0 3
1715.0 1479.0 3
1725.0 1479.0 3
1725.0 1479.0 3
1725.0 1479.0 3
1725.0 1479.0 3
1881.0 1645.0 4
1881.0 1656.0 4
1871.0 1666.0 4
1871.0 1666.0 4
1850.0 1666.0 4
1840.0 1645.0 4
1819.0 1635.0 4
1798.0 1614.0 4
1777.0 1593.0 4
1767.0 1573.0 4
1767.0 1541.0 4
1756.0 1520.0 4
1756.0 1500.0 4
1767.0 1489.0 4
1788.0 1479.0 4
1808.0 1479.0 4
1819.0 1468.0 4
1850.0 1468.0 4
1850.0 1468.0 4
1850.0 1468.0 4
1850.0 1468.0 4
1850.0 1468.0 4
1975.0 1656.0 5
1975.0 1656.0 5
1965.0 1645.0 5
1954.0 1635.0 5
1933.0 1614.0 5
1913.0 1593.0 5
1902.0 1573.0 5
1892.0 1541.0 5
1892.0 1510.0 5
1892.0 1489.0 5
1902.0 1468.0 5
1923.0 1458.0 5
1944.0 1448.0 5
1965.0 1448.0 5
1975.0 1448.0 5
2006.0 1468.0 5
2027.0 1489.0 5
2038.0 1500.0 5
2048.0 1520.0 5
2048.0 1552.0 5
2048.0 1573.0 5
2038.0 1583.0 5
1996.0 1625.0 5
1985.0 1635.0 5
1965.0 1645.0 5
1954.0 1645.0 5
2079.0 1666.0 6
2069.0 1656.0 6
2069.0 1656.0 6
2069.0 1645.0 6
2058.0 1625.0 6
2058.0 1593.0 6
2048.0 1562.0 6
2048.0 1520.0 6
2058.0 1500.0 6
2069.0 1489.0 6
2079.0 1479.0 6
2090.0 1479.0 6
2100.0 1468.0 6
2110.0 1468.0 6
2121.0 1468.0 6
2142.0 1489.0 6
2163.0 1500.0 6
2163.0 1520.0 6
2173.0 1541.0 6
2173.0 1614.0 6
2173.0 1635.0 6
2183.0 1645.0 6
2183.0 1645.0 6
2183.0 1656.0 6
2183.0 1656.0 6
2225.0 1656.0 7
2225.0 1635.0 7
2215.0 1604.0 7
2215.0 1573.0 7
2215.0 1541.0 7
2204.0 1510.0 7
2204.0 1500.0 7
2204.0 1489.0 7
2194.0 1489.0 7
2194.0 1510.0 7
2204.0 1531.0 7
2204.0 1552.0 7
2215.0 1583.0 7
2225.0 1604.0 7
2235.0 1635.0 7
2246.0 1656.0 7
2256.0 1666.0 7
2267.0 1687.0 7
2267.0 1687.0 7
2277.0 1677.0 7
2277.0 1677.0 7
2288.0 1645.0 7
2288.0 1573.0 7
2277.0 1531.0 7
2277.0 1510.0 7
2267.0 1479.0 7
2267.0 1468.0 7
2267.0 1458.0 7
2267.0 1458.0 7
2267.0 1458.0 7
2444.0 1791.0 8
2444.0 1750.0 8
2433.0 1708.0 8
2433.0 1666.0 8
2423.0 1604.0 8
2413.0 1562.0 8
2413.0 1531.0 8
2402.0 1500.0 8
2392.0 1479.0 8
2392.0 1468.0 8
2392.0 1468.0 8
2340.0 1718.0 9
2340.0 1718.0 9
2360.0 1718.0 9
2381.0 1718.0 9
2413.0 1718.0 9
2444.0 1718.0 9
2465.0 1708.0 9
2485.0 1698.0 9
2506.0 1698.0 9
2517.0 1698.0 9
2600.0 1666.0 10
2590.0 1666.0 10
2558.0 1656.0 10
2538.0 1635.0 10
2527.0 1625.0 10
2506.0 1604.0 10
2485.0 1573.0 10
2485.0 1552.0 10
2485.0 1510.0 10
2506.0 1510.0 10
2517.0 1500.0 10
2538.0 1510.0 10
2548.0 1510.0 10
2569.0 1541.0 10
2579.0 1552.0 10
2579.0 1573.0 10
2579.0 1604.0 10
2579.0 1604.0 10
2579.0 1562.0 10
2579.0 1531.0 10
2579.0 1510.0 10
2579.0 1500.0 10
2579.0 1479.0 10
2579.0 1479.0 10
2590.0 1468.0 10
2704.0 1812.0 11
2704.0 1770.0 11
2704.0 1739.0 11
2694.0 1698.0 11
2694.0 1645.0 11
2683.0 1593.0 11
2673.0 1562.0 11
2673.0 1531.0 11
2663.0 1510.0 11
2663.0 1489.0 11
2663.0 1489.0 11
2663.0 1489.0 11
2663.0 1510.0 11
2673.0 1531.0 11
2683.0 1562.0 11
2694.0 1583.0 11
2704.0 1614.0 11
2715.0 1625.0 11
2725.0 1635.0 11
2735.0 1635.0 11
2746.0 1635.0 11
2746.0 1635.0 11
2756.0 1614.0 11
2756.0 1593.0 11
2746.0 1562.0 11
2735.0 1531.0 11
2725.0 1510.0 11
2715.0 1489.0 11
2694.0 1489.0 11
2683.0 1479.0 11
2663.0 1479.0 11
2642.0 1489.0 11
2642.0 1489.0 11
2829.0 1635.0 12
2829.0 1625.0 12
2829.0 1614.0 12
2819.0 1583.0 12
2808.0 1541.0 12
2808.0 1510.0 12
2798.0 1500.0 12
2798.0 1489.0 12
2798.0 1489.0 12
2840.0 1750.0 13
2840.0 1750.0 13
2954.0 1823.0 14
2954.0 1823.0 14
2954.0 1802.0 14
2954.0 1760.0 14
2944.0 1718.0 14
2923.0 1677.0 14
2923.0 1625.0 14
2902.0 1552.0 14
2892.0 1520.0 14
2881.0 1500.0 14
2871.0 1479.0 14
2860.0 1468.0 14
2860.0 1458.0 14
2860.0 1458.0 14
2860.0 1458.0 14
3006.0 1635.0 15
3006.0 1635.0 15
3006.0 1635.0 15
3006.0 1614.0 15
3006.0 1573.0 15
2985.0 1552.0 15
2985.0 1531.0 15
2985.0 1500.0 15
2965.0 1489.0 15
2965.0 1479.0 15
2965.0 1479.0 15
3027.0 1718.0 16
3017.0 1708.0 16
3017.0 1698.0 16
3152.0 1781.0 17
3152.0 1687.0 17
3152.0 1645.0 17
3142.0 1593.0 17
3142.0 1562.0 17
3131.0 1520.0 17
3121.0 1500.0 17
3121.0 1489.0 17
3121.0 1479.0 17
3058.0 1656.0 18
3058.0 1677.0 18
3069.0 1677.0 18
3100.0 1677.0 18
3110.0 1677.0 18
3142.0 1677.0 18
3163.0 1677.0 18
3183.0 1666.0 18
3204.0 1666.0 18
3204.0 1666.0 18
3246.0 1666.0 19
3246.0 1666.0 19
3246.0 1656.0 19
3256.0 1656.0 19
3267.0 1635.0 19
3277.0 1614.0 19
3277.0 1593.0 19
3288.0 1562.0 19
3298.0 1552.0 19
3298.0 1541.0 19
3298.0 1531.0 19
3298.0 1531.0 19
3381.0 1656.0 20
3371.0 1645.0 20
3360.0 1635.0 20
3350.0 1614.0 20
3329.0 1583.0 20
3308.0 1552.0 20
3288.0 1510.0 20
3267.0 1468.0 20
3235.0 1437.0 20
3215.0 1395.0 20
3194.0 1375.0 20
3194.0 1354.0 20
3183.0 1343.0 20
3183.0 1333.0 20

