377.0 2816.0 1
346.0 2827.0 1
325.0 2827.0 1
283.0 2816.0 1
252.0 2795.0 1
252.0 2775.0 1
304.0 2764.0 1
377.0 2743.0 1
450.0 2723.0 1
471.0 2691.0 1
471.0 2670.0 1
450.0 2639.0 1
377.0 2608.0 1
325.0 2598.0 1
263.0 2587.0 1
231.0 2587.0 1

