1715.0 1468.0 1
1704.0 1448.0 1
1683.0 1416.0 1
1642.0 1385.0 1
1600.0 1364.0 1
1558.0 1364.0 1
1517.0 1364.0 1
1475.0 1385.0 1
1465.0 1427.0 1
1465.0 1468.0 1
1496.0 1510.0 1
1558.0 1541.0 1
1600.0 1541.0 1
1652.0 1510.0 1
1683.0 1448.0 1
1694.0 1323.0 1
1694.0 1239.0 1
1652.0 1166.0 1
1610.0 1093.0 1
1558.0 1052.0 1
1548.0 1052.0 1
1975.0 1437.0 2
1965.0 1416.0 2
1944.0 1406.0 2
1902.0 1406.0 2
1860.0 1406.0 2
1829.0 1416.0 2
1808.0 1448.0 2
1798.0 1468.0 2
1808.0 1500.0 2
1850.0 1531.0 2
1892.0 1531.0 2
1933.0 1520.0 2
1965.0 1468.0 2
1985.0 1364.0 2
1975.0 1270.0 2
1954.0 1198.0 2
1923.0 1135.0 2
1881.0 1093.0 2
1881.0 1093.0 2
1881.0 1093.0 2
2121.0 1489.0 3
2121.0 1510.0 3
2183.0 1541.0 3
2215.0 1552.0 3
2256.0 1541.0 3
2288.0 1520.0 3
2288.0 1479.0 3
2267.0 1437.0 3
2225.0 1395.0 3
2163.0 1364.0 3
2142.0 1364.0 3
2142.0 1354.0 3
2235.0 1354.0 3
2298.0 1354.0 3
2340.0 1333.0 3
2360.0 1291.0 3
2350.0 1239.0 3
2319.0 1198.0 3
2267.0 1166.0 3
2204.0 1145.0 3
2152.0 1135.0 3
2142.0 1135.0 3
2142.0 1135.0 3
2152.0 1145.0 3
2413.0 1489.0 4
2413.0 1520.0 4
2454.0 1531.0 4
2527.0 1541.0 4
2590.0 1541.0 4
2631.0 1541.0 4
2683.0 1541.0 4
2683.0 1531.0 4
2683.0 1520.0 4
2683.0 1489.0 4
2652.0 1437.0 4
2631.0 1375.0 4
2621.0 1291.0 4
2600.0 1239.0 4
2600.0 1145.0 4
2600.0 1135.0 4
2517.0 1250.0 5
2517.0 1270.0 5
2527.0 1281.0 5
2590.0 1302.0 5
2652.0 1312.0 5
2694.0 1312.0 5
3017.0 1520.0 6
3006.0 1541.0 6
2985.0 1562.0 6
2954.0 1573.0 6
2923.0 1573.0 6
2881.0 1562.0 6
2850.0 1552.0 6
2829.0 1552.0 6
2829.0 1541.0 6
2819.0 1510.0 6
2808.0 1468.0 6
2798.0 1416.0 6
2798.0 1385.0 6
2798.0 1364.0 6
2808.0 1375.0 6
2850.0 1385.0 6
2892.0 1395.0 6
2933.0 1395.0 6
2975.0 1354.0 6
2996.0 1312.0 6
2996.0 1270.0 6
2975.0 1229.0 6
2913.0 1177.0 6
2860.0 1156.0 6
2819.0 1145.0 6
2788.0 1145.0 6
2767.0 1166.0 6
2767.0 1177.0 6

