1548.0 1750.0 1
1538.0 1770.0 1
1517.0 1770.0 1
1465.0 1770.0 1
1413.0 1750.0 1
1371.0 1698.0 1
1329.0 1635.0 1
1319.0 1510.0 1
1329.0 1448.0 1
1360.0 1395.0 1
1402.0 1364.0 1
1465.0 1354.0 1
1517.0 1364.0 1
1558.0 1385.0 1
1433.0 1500.0 2
1423.0 1500.0 2
1423.0 1500.0 2
1475.0 1520.0 2
1548.0 1552.0 2
1600.0 1583.0 2
1631.0 1593.0 2
1621.0 1583.0 2
1621.0 1520.0 2
1600.0 1458.0 2
1590.0 1406.0 2
1579.0 1375.0 2
1579.0 1333.0 2
1579.0 1323.0 2
1579.0 1312.0 2
1704.0 1520.0 3
1683.0 1510.0 3
1652.0 1458.0 3
1642.0 1416.0 3
1652.0 1375.0 3
1673.0 1364.0 3
1715.0 1364.0 3
1746.0 1375.0 3
1767.0 1395.0 3
1767.0 1427.0 3
1746.0 1468.0 3
1725.0 1479.0 3
1704.0 1489.0 3
1788.0 1510.0 4
1798.0 1500.0 4
1808.0 1458.0 4
1819.0 1416.0 4
1840.0 1385.0 4
1860.0 1375.0 4
1871.0 1375.0 4
1871.0 1385.0 4
1881.0 1406.0 4
1892.0 1437.0 4
1892.0 1489.0 4
1892.0 1520.0 4
1902.0 1541.0 4
1975.0 1448.0 5
1996.0 1458.0 5
2027.0 1468.0 5
2069.0 1479.0 5
2100.0 1500.0 5
2121.0 1520.0 5
2121.0 1531.0 5
2100.0 1531.0 5
2058.0 1531.0 5
2017.0 1510.0 5
1996.0 1489.0 5
1985.0 1458.0 5
1985.0 1437.0 5
2017.0 1406.0 5
2048.0 1395.0 5
2194.0 1510.0 6
2194.0 1510.0 6
2194.0 1479.0 6
2183.0 1448.0 6
2183.0 1416.0 6
2194.0 1406.0 6
2194.0 1406.0 6
2194.0 1406.0 6
2204.0 1437.0 6
2204.0 1468.0 6
2225.0 1489.0 6
2246.0 1500.0 6
2277.0 1510.0 6
2298.0 1510.0 6
2381.0 1531.0 7
2381.0 1489.0 7
2381.0 1458.0 7
2381.0 1427.0 7
2381.0 1416.0 7
2381.0 1406.0 7
2381.0 1416.0 7
2392.0 1427.0 7
2413.0 1458.0 7
2413.0 1489.0 7
2433.0 1510.0 7
2454.0 1510.0 7
2465.0 1500.0 7
2465.0 1479.0 7
2465.0 1448.0 7
2465.0 1427.0 7
2454.0 1406.0 7
2569.0 1510.0 8
2569.0 1510.0 8
2579.0 1489.0 8
2579.0 1448.0 8
2579.0 1427.0 8
2579.0 1406.0 8
2569.0 1593.0 9
2569.0 1604.0 9
2663.0 1520.0 10
2663.0 1479.0 10
2663.0 1458.0 10
2673.0 1427.0 10
2673.0 1416.0 10
2673.0 1416.0 10
2683.0 1437.0 10
2715.0 1479.0 10
2735.0 1510.0 10
2746.0 1531.0 10
2756.0 1531.0 10
2767.0 1510.0 10
2777.0 1489.0 10
2777.0 1458.0 10
2777.0 1427.0 10
2944.0 1520.0 11
2933.0 1531.0 11
2923.0 1531.0 11
2892.0 1500.0 11
2871.0 1468.0 11
2860.0 1437.0 11
2860.0 1416.0 11
2871.0 1416.0 11
2892.0 1416.0 11
2923.0 1437.0 11
2933.0 1458.0 11
2944.0 1479.0 11
2944.0 1479.0 11
2944.0 1385.0 11
2933.0 1323.0 11
2923.0 1270.0 11
2913.0 1229.0 11
2892.0 1187.0 11
2829.0 1166.0 11
2808.0 1166.0 11
2788.0 1177.0 11

