1569.0 1666.0 1
1558.0 1677.0 1
1548.0 1645.0 1
1506.0 1593.0 1
1433.0 1500.0 1
1371.0 1416.0 1
1308.0 1343.0 1
1267.0 1302.0 1
1246.0 1270.0 1
1246.0 1270.0 1
1256.0 1270.0 1
1288.0 1270.0 1
1360.0 1291.0 1
1423.0 1312.0 1
1558.0 1312.0 1
1610.0 1302.0 1
1621.0 1302.0 1
1558.0 1625.0 2
1558.0 1625.0 2
1548.0 1583.0 2
1548.0 1520.0 2
1538.0 1437.0 2
1527.0 1312.0 2
1527.0 1250.0 2
1527.0 1198.0 2
1517.0 1166.0 2
1517.0 1145.0 2
2058.0 1645.0 3
2027.0 1645.0 3
1985.0 1635.0 3
1965.0 1625.0 3
1933.0 1625.0 3
1923.0 1614.0 3
1892.0 1593.0 3
1860.0 1593.0 3
1829.0 1583.0 3
1798.0 1583.0 3
1767.0 1573.0 3
1735.0 1573.0 3
1725.0 1573.0 3
1725.0 1562.0 3
1725.0 1562.0 3
1725.0 1562.0 3
1725.0 1552.0 3
1725.0 1531.0 3
1735.0 1500.0 3
1725.0 1458.0 3
1725.0 1427.0 3
1725.0 1416.0 3
1725.0 1406.0 3
1735.0 1406.0 3
1756.0 1416.0 3
1808.0 1437.0 3
1913.0 1458.0 3
1954.0 1448.0 3
1996.0 1416.0 3
2038.0 1364.0 3
2058.0 1312.0 3
2048.0 1281.0 3
2017.0 1250.0 3
1944.0 1208.0 3
1881.0 1198.0 3
1829.0 1187.0 3
1788.0 1187.0 3
1777.0 1187.0 3
1777.0 1187.0 3
2402.0 1468.0 4
2402.0 1489.0 4
2413.0 1479.0 4
2392.0 1468.0 4
2371.0 1448.0 4
2329.0 1427.0 4
2256.0 1427.0 4
2204.0 1448.0 4
2183.0 1468.0 4
2173.0 1489.0 4
2183.0 1531.0 4
2215.0 1562.0 4
2267.0 1573.0 4
2319.0 1562.0 4
2371.0 1520.0 4
2392.0 1458.0 4
2392.0 1375.0 4
2381.0 1291.0 4
2329.0 1229.0 4
2288.0 1187.0 4
2267.0 1187.0 4
2267.0 1187.0 4
2527.0 1479.0 5
2527.0 1510.0 5
2538.0 1531.0 5
2569.0 1552.0 5
2621.0 1562.0 5
2683.0 1552.0 5
2715.0 1531.0 5
2735.0 1500.0 5
2735.0 1448.0 5
2694.0 1375.0 5
2631.0 1312.0 5
2590.0 1281.0 5
2558.0 1250.0 5
2558.0 1239.0 5
2558.0 1229.0 5
2569.0 1229.0 5
2663.0 1250.0 5
2715.0 1260.0 5
2746.0 1260.0 5
2777.0 1260.0 5
2777.0 1260.0 5
2850.0 1458.0 6
2850.0 1500.0 6
2892.0 1531.0 6
2933.0 1552.0 6
2965.0 1552.0 6
2996.0 1541.0 6
3017.0 1510.0 6
3017.0 1468.0 6
3006.0 1427.0 6
2975.0 1364.0 6
2902.0 1291.0 6
2881.0 1260.0 6
2871.0 1239.0 6
2871.0 1229.0 6
2892.0 1229.0 6
2923.0 1229.0 6
2996.0 1229.0 6
3048.0 1239.0 6
3110.0 1239.0 6
3142.0 1239.0 6
3152.0 1218.0 6

