325.0 2775.0 1
325.0 2775.0 1
335.0 2764.0 1
335.0 2743.0 1
346.0 2702.0 1
356.0 2639.0 1
367.0 2608.0 1
367.0 2587.0 1
367.0 2577.0 1
315.0 2733.0 2
315.0 2754.0 2
325.0 2764.0 2
335.0 2775.0 2
408.0 2775.0 2
440.0 2754.0 2
440.0 2733.0 2
429.0 2712.0 2
377.0 2681.0 2
356.0 2670.0 2
346.0 2660.0 2

