294.0 2816.0 1
304.0 2806.0 1
304.0 2785.0 1
304.0 2723.0 1
315.0 2681.0 1
315.0 2650.0 1
315.0 2629.0 1
315.0 2629.0 1
367.0 2764.0 2
367.0 2764.0 2
346.0 2754.0 2
325.0 2712.0 2
325.0 2681.0 2
335.0 2660.0 2
367.0 2639.0 2
408.0 2639.0 2

