183.0 2198.0 1
183.0 2208.0 1
173.0 2218.0 1
173.0 2229.0 1
173.0 2218.0 1
183.0 2208.0 1
183.0 2198.0 1
183.0 2177.0 1
194.0 2156.0 1
204.0 2135.0 1
204.0 2114.0 1
204.0 2093.0 1
215.0 2062.0 1
215.0 2020.0 1
225.0 1948.0 1
235.0 1916.0 1
235.0 1875.0 1
246.0 1843.0 1
256.0 1802.0 1
256.0 1750.0 1
267.0 1708.0 1
277.0 1677.0 1
288.0 1635.0 1
298.0 1593.0 1
308.0 1552.0 1
319.0 1510.0 1
319.0 1448.0 1
340.0 1416.0 1
340.0 1375.0 1
350.0 1343.0 1
350.0 1312.0 1
350.0 1281.0 1
350.0 1250.0 1
360.0 1218.0 1
360.0 1187.0 1
360.0 1156.0 1
360.0 1125.0 1
360.0 906.0 1
371.0 885.0 1
371.0 875.0 1
371.0 854.0 1
381.0 843.0 1
381.0 833.0 1
392.0 823.0 1
402.0 823.0 1
402.0 833.0 1
402.0 833.0 1
413.0 843.0 1
413.0 854.0 1
413.0 875.0 1
423.0 885.0 1
423.0 906.0 1
433.0 937.0 1
433.0 968.0 1
444.0 1010.0 1
444.0 1083.0 1
454.0 1125.0 1
454.0 1166.0 1
465.0 1208.0 1
475.0 1250.0 1
485.0 1291.0 1
506.0 1343.0 1
517.0 1395.0 1
527.0 1437.0 1
538.0 1479.0 1
548.0 1531.0 1
569.0 1573.0 1
579.0 1666.0 1
600.0 1708.0 1
600.0 1760.0 1
610.0 1812.0 1
631.0 1854.0 1
631.0 1895.0 1
642.0 1948.0 1
652.0 1989.0 1
663.0 2031.0 1
673.0 2062.0 1
673.0 2083.0 1
683.0 2125.0 1
694.0 2135.0 1
694.0 2145.0 1
694.0 2177.0 1
694.0 2177.0 1
694.0 2177.0 1
683.0 2187.0 1
683.0 2177.0 1
683.0 2177.0 1
683.0 2177.0 1
683.0 2177.0 1
694.0 2166.0 1
756.0 1156.0 2
756.0 1166.0 2
746.0 1166.0 2
746.0 1177.0 2
746.0 1177.0 2
746.0 1187.0 2
735.0 1187.0 2
735.0 1187.0 2
735.0 1187.0 2
704.0 1187.0 2
704.0 1187.0 2
694.0 1177.0 2
683.0 1177.0 2
663.0 1156.0 2
663.0 1145.0 2
652.0 1135.0 2
642.0 1125.0 2
631.0 1104.0 2
631.0 1093.0 2
631.0 1093.0 2
631.0 1062.0 2
631.0 1062.0 2
631.0 1041.0 2
642.0 1031.0 2
642.0 1020.0 2
652.0 1020.0 2
663.0 1020.0 2
694.0 1020.0 2
694.0 1020.0 2
704.0 1031.0 2
725.0 1041.0 2
725.0 1062.0 2
746.0 1073.0 2
746.0 1083.0 2
756.0 1093.0 2
756.0 1104.0 2
756.0 1114.0 2
756.0 1125.0 2
756.0 1135.0 2
767.0 1135.0 2
767.0 1135.0 2
767.0 1135.0 2
767.0 1135.0 2
767.0 1135.0 2
767.0 1125.0 2
767.0 1114.0 2
777.0 1104.0 2
788.0 1104.0 2
788.0 1073.0 2
798.0 1062.0 2
819.0 1052.0 2
819.0 1041.0 2
829.0 1031.0 2
840.0 1020.0 2
850.0 1020.0 2
860.0 1000.0 2
871.0 1000.0 2
892.0 1000.0 2
892.0 1010.0 2
933.0 1145.0 3
933.0 1145.0 3
923.0 1145.0 3
923.0 1135.0 3
923.0 1125.0 3
923.0 1114.0 3
923.0 1083.0 3
913.0 1073.0 3
913.0 1062.0 3
913.0 1052.0 3
913.0 1031.0 3
913.0 1020.0 3
913.0 1020.0 3
913.0 1031.0 3
913.0 1062.0 3
913.0 1062.0 3
923.0 1073.0 3
923.0 1093.0 3
933.0 1104.0 3
933.0 1114.0 3
933.0 1135.0 3
944.0 1145.0 3
954.0 1145.0 3
954.0 1156.0 3
954.0 1166.0 3
965.0 1177.0 3
975.0 1177.0 3
1006.0 1177.0 3
1017.0 1177.0 3
1017.0 1177.0 3
1038.0 1166.0 3
1048.0 1156.0 3
1048.0 1135.0 3
1058.0 1125.0 3
1069.0 1114.0 3
1069.0 1104.0 3
1079.0 1093.0 3
1079.0 1083.0 3
1079.0 1073.0 3
1090.0 1073.0 3
1090.0 1062.0 3
1100.0 1062.0 3
1100.0 1052.0 3
1100.0 1041.0 3
1100.0 1031.0 3
1110.0 1031.0 3
1110.0 1020.0 3
1110.0 1020.0 3
1121.0 1020.0 3
1121.0 1010.0 3
1121.0 1000.0 3
1329.0 1083.0 4
1329.0 1093.0 4
1329.0 1093.0 4
1340.0 1093.0 4
1350.0 1104.0 4
1350.0 1104.0 4
1350.0 1104.0 4
1350.0 1125.0 4
1329.0 1125.0 4
1319.0 1125.0 4
1319.0 1125.0 4
1308.0 1125.0 4
1288.0 1114.0 4
1277.0 1104.0 4
1267.0 1093.0 4
1256.0 1083.0 4
1256.0 1073.0 4
1246.0 1062.0 4
1235.0 1052.0 4
1235.0 1020.0 4
1235.0 979.0 4
1235.0 968.0 4
1235.0 958.0 4
1267.0 958.0 4
1277.0 958.0 4
1288.0 968.0 4
1298.0 968.0 4
1308.0 979.0 4
1319.0 1000.0 4
1329.0 1010.0 4
1340.0 1020.0 4
1350.0 1041.0 4
1350.0 1052.0 4
1360.0 1052.0 4
1360.0 1062.0 4
1360.0 1083.0 4
1360.0 1031.0 4
1360.0 1020.0 4
1360.0 979.0 4
1350.0 937.0 4
1350.0 916.0 4
1350.0 885.0 4
1350.0 791.0 4
1350.0 770.0 4
1350.0 760.0 4
1360.0 760.0 4
1360.0 750.0 4
1371.0 729.0 4
1392.0 729.0 4
1413.0 739.0 4
1413.0 739.0 4
1423.0 739.0 4
1444.0 750.0 4
1454.0 760.0 4
1465.0 770.0 4
1475.0 781.0 4
1506.0 802.0 4
1621.0 1125.0 5
1600.0 1125.0 5
1600.0 1125.0 5
1590.0 1114.0 5
1590.0 1104.0 5
1579.0 1083.0 5
1579.0 1073.0 5
1579.0 968.0 5
1579.0 958.0 5
1590.0 948.0 5
1600.0 937.0 5
1610.0 916.0 5
1631.0 916.0 5
1673.0 916.0 5
1683.0 927.0 5
1694.0 927.0 5
1704.0 937.0 5
1725.0 948.0 5
1735.0 958.0 5
1746.0 968.0 5
1746.0 968.0 5
1767.0 1010.0 5
1767.0 1020.0 5
1767.0 1031.0 5
1777.0 1052.0 5
1777.0 1073.0 5
1777.0 1145.0 5
1777.0 1156.0 5
1777.0 1166.0 5
1767.0 1166.0 5
1767.0 1166.0 5
1756.0 1166.0 5
1902.0 1104.0 6
1902.0 1093.0 6
1892.0 1093.0 6
1881.0 1083.0 6
1881.0 1073.0 6
1881.0 1062.0 6
1881.0 1010.0 6
1881.0 1000.0 6
1881.0 979.0 6
1860.0 1187.0 7
1850.0 1198.0 7
1850.0 1198.0 7
1840.0 1198.0 7
1829.0 1208.0 7
1829.0 1208.0 7
1829.0 1208.0 7
1829.0 1208.0 7
1829.0 1208.0 7
2110.0 1187.0 8
2110.0 1187.0 8
2110.0 1187.0 8
2100.0 1177.0 8
2090.0 1177.0 8
2079.0 1177.0 8
2079.0 1166.0 8
2069.0 1166.0 8
2058.0 1166.0 8
2048.0 1156.0 8
2048.0 1145.0 8
2038.0 1145.0 8
2027.0 1135.0 8
2017.0 1135.0 8
2006.0 1125.0 8
1996.0 1114.0 8
1996.0 1104.0 8
1996.0 1104.0 8
1996.0 1093.0 8
2006.0 1093.0 8
2006.0 1083.0 8
2006.0 1073.0 8
2017.0 1073.0 8
2017.0 1073.0 8
2048.0 1062.0 8
2058.0 1052.0 8
2069.0 1052.0 8
2079.0 1041.0 8
2090.0 1041.0 8
2110.0 1031.0 8
2121.0 1020.0 8
2131.0 1020.0 8
2131.0 1010.0 8
2131.0 1000.0 8
2131.0 979.0 8
2131.0 968.0 8
2121.0 968.0 8
2121.0 958.0 8
2110.0 958.0 8
2100.0 948.0 8
2090.0 937.0 8
2079.0 937.0 8
2058.0 937.0 8
2038.0 937.0 8
2027.0 937.0 8
2017.0 948.0 8
2006.0 948.0 8
1996.0 958.0 8
1985.0 968.0 8
1985.0 979.0 8
1985.0 989.0 8
1985.0 1031.0 8
1985.0 1041.0 8
2256.0 1364.0 9
2256.0 1375.0 9
2246.0 1375.0 9
2235.0 1375.0 9
2235.0 1375.0 9
2246.0 1375.0 9
2246.0 1375.0 9
2246.0 1364.0 9
2256.0 1323.0 9
2256.0 1312.0 9
2267.0 1291.0 9
2267.0 1187.0 9
2256.0 1166.0 9
2256.0 1135.0 9
2246.0 1104.0 9
2246.0 1083.0 9
2246.0 1062.0 9
2235.0 1020.0 9
2235.0 937.0 9
2235.0 968.0 9
2246.0 979.0 9
2246.0 1000.0 9
2256.0 1020.0 9
2256.0 1041.0 9
2267.0 1052.0 9
2277.0 1062.0 9
2288.0 1073.0 9
2298.0 1083.0 9
2308.0 1093.0 9
2319.0 1093.0 9
2319.0 1093.0 9
2329.0 1104.0 9
2350.0 1104.0 9
2360.0 1093.0 9
2360.0 1093.0 9
2371.0 1093.0 9
2381.0 1073.0 9
2381.0 1062.0 9
2381.0 1052.0 9
2381.0 1041.0 9
2392.0 1031.0 9
2392.0 989.0 9
2402.0 979.0 9
2402.0 968.0 9
2402.0 958.0 9
2402.0 958.0 9
2402.0 948.0 9
2402.0 948.0 9
2413.0 958.0 9

