356.0 2702.0 1
346.0 2712.0 1
346.0 2712.0 1
346.0 2712.0 1
367.0 2712.0 1
398.0 2723.0 1
429.0 2723.0 1
460.0 2712.0 1
492.0 2702.0 1
502.0 2691.0 1
502.0 2670.0 1
481.0 2660.0 1
450.0 2629.0 1
419.0 2618.0 1
398.0 2608.0 1
388.0 2598.0 1
398.0 2587.0 1
408.0 2577.0 1
440.0 2577.0 1
481.0 2577.0 1
533.0 2577.0 1
565.0 2577.0 1
575.0 2587.0 1
596.0 2587.0 1
742.0 2618.0 2
742.0 2618.0 2
742.0 2618.0 2
731.0 2618.0 2
721.0 2629.0 2
700.0 2639.0 2
690.0 2681.0 2
679.0 2723.0 2
679.0 2754.0 2
690.0 2775.0 2
731.0 2795.0 2
763.0 2806.0 2
794.0 2806.0 2
846.0 2785.0 2
898.0 2764.0 2
908.0 2733.0 2
908.0 2712.0 2
867.0 2670.0 2
835.0 2660.0 2
783.0 2650.0 2
742.0 2660.0 2

