388.0 2723.0 1
388.0 2733.0 1
388.0 2733.0 1
398.0 2743.0 1
398.0 2743.0 1
419.0 2743.0 1
429.0 2743.0 1
440.0 2723.0 1
450.0 2702.0 1
450.0 2670.0 1
440.0 2629.0 1
429.0 2608.0 1
419.0 2587.0 1
398.0 2587.0 1
388.0 2587.0 1
377.0 2598.0 1
388.0 2629.0 1
388.0 2639.0 1
408.0 2639.0 1
419.0 2639.0 1
450.0 2650.0 1
460.0 2650.0 1
471.0 2629.0 1
481.0 2618.0 1
481.0 2608.0 1
492.0 2598.0 1
575.0 2754.0 2
575.0 2743.0 2
575.0 2733.0 2
565.0 2712.0 2
565.0 2691.0 2
554.0 2670.0 2
554.0 2650.0 2
565.0 2639.0 2
565.0 2639.0 2
575.0 2639.0 2
596.0 2639.0 2
627.0 2650.0 2
638.0 2660.0 2
658.0 2660.0 2
669.0 2660.0 2
638.0 2743.0 3
638.0 2743.0 3
638.0 2712.0 3
627.0 2681.0 3
627.0 2650.0 3
617.0 2608.0 3
617.0 2587.0 3
617.0 2566.0 3
617.0 2556.0 3
617.0 2556.0 3

