2402.0 823.0 1
2402.0 823.0 1
2402.0 823.0 1
2392.0 791.0 1
2392.0 760.0 1
2392.0 739.0 1
2413.0 729.0 1
2433.0 739.0 1
2454.0 770.0 1
2465.0 791.0 1
2454.0 823.0 1
2433.0 843.0 1
2413.0 843.0 1
2402.0 843.0 1
2402.0 833.0 1
2402.0 802.0 1
2517.0 854.0 2
2527.0 843.0 2
2527.0 791.0 2
2527.0 770.0 2
2527.0 770.0 2
2538.0 781.0 2
2558.0 823.0 2
2569.0 854.0 2
2579.0 864.0 2
2579.0 864.0 2
2590.0 854.0 2
2590.0 833.0 2
2600.0 812.0 2
2600.0 770.0 2
2590.0 760.0 2
2590.0 770.0 2
2600.0 791.0 2
2621.0 843.0 2
2631.0 843.0 2
2631.0 843.0 2
2642.0 843.0 2
2652.0 823.0 2
2652.0 781.0 2
2642.0 750.0 2
2642.0 750.0 2
2652.0 750.0 2
2704.0 812.0 3
2704.0 802.0 3
2694.0 781.0 3
2694.0 770.0 3
2704.0 760.0 3
2725.0 760.0 3
2735.0 885.0 4
2715.0 885.0 4
2715.0 885.0 4
2725.0 885.0 4
2735.0 885.0 4
2808.0 1000.0 5
2808.0 989.0 5
2808.0 958.0 5
2798.0 916.0 5
2798.0 854.0 5
2788.0 812.0 5
2788.0 781.0 5
2788.0 781.0 5
2808.0 791.0 5
2860.0 958.0 6
2860.0 979.0 6
2860.0 979.0 6
2860.0 968.0 6
2840.0 916.0 6
2829.0 864.0 6
2829.0 823.0 6
2840.0 791.0 6
2850.0 781.0 6
2860.0 781.0 6
2881.0 781.0 6
2881.0 802.0 6
2881.0 823.0 6
2860.0 864.0 6
2829.0 895.0 6
2808.0 927.0 6
2808.0 948.0 6
2808.0 948.0 6
2860.0 948.0 6
2913.0 948.0 6
2944.0 833.0 7
2954.0 833.0 7
2975.0 843.0 7
2996.0 854.0 7
3006.0 864.0 7
3006.0 885.0 7
2985.0 885.0 7
2965.0 885.0 7
2944.0 864.0 7
2944.0 833.0 7
2944.0 823.0 7
2965.0 791.0 7
2996.0 791.0 7
3121.0 989.0 8
3121.0 979.0 8
3121.0 927.0 8
3110.0 875.0 8
3100.0 823.0 8
3100.0 781.0 8
3100.0 770.0 8
3110.0 770.0 8
3110.0 770.0 8
3121.0 802.0 8
3110.0 823.0 8
3100.0 833.0 8
3079.0 833.0 8
3048.0 823.0 8
3048.0 791.0 8
3048.0 781.0 8
3069.0 770.0 8
3121.0 770.0 8

