3163.0 791.0 1
3152.0 802.0 1
3163.0 812.0 1
3163.0 833.0 1
3163.0 833.0 1
3163.0 833.0 1
3152.0 802.0 1
3152.0 750.0 1
3142.0 698.0 1
3131.0 656.0 1
3121.0 635.0 1
3110.0 635.0 1
3100.0 625.0 1
3069.0 635.0 1
3058.0 635.0 1
3048.0 645.0 1
3048.0 656.0 1
3048.0 666.0 1
3194.0 666.0 2
3215.0 666.0 2
3225.0 677.0 2
3246.0 687.0 2
3267.0 708.0 2
3267.0 718.0 2
3267.0 729.0 2
3246.0 739.0 2
3225.0 729.0 2
3215.0 718.0 2
3204.0 698.0 2
3215.0 656.0 2
3225.0 635.0 2
3256.0 635.0 2
3288.0 635.0 2
3329.0 656.0 2
3360.0 677.0 2
3371.0 698.0 2
3371.0 718.0 2
3360.0 729.0 2
3350.0 729.0 2
3340.0 718.0 2
3329.0 698.0 2
3329.0 666.0 2
3340.0 645.0 2
3350.0 635.0 2
3381.0 635.0 2
3465.0 833.0 3
3465.0 833.0 3
3465.0 812.0 3
3465.0 770.0 3
3454.0 708.0 3
3454.0 666.0 3
3454.0 645.0 3
3454.0 656.0 3
3465.0 677.0 3
3475.0 698.0 3
3485.0 708.0 3
3496.0 708.0 3
3517.0 698.0 3
3538.0 677.0 3
3569.0 666.0 3
3590.0 666.0 3
3579.0 666.0 3
3558.0 666.0 3
3527.0 687.0 3
3506.0 708.0 3
3506.0 750.0 3
3527.0 812.0 3
3579.0 854.0 3
3631.0 895.0 3
3652.0 718.0 4
3652.0 718.0 4
3652.0 718.0 4
3673.0 718.0 4
3694.0 718.0 4
3704.0 739.0 4
3704.0 760.0 4
3704.0 770.0 4
3683.0 781.0 4
3663.0 781.0 4
3652.0 750.0 4
3642.0 718.0 4
3652.0 677.0 4
3673.0 666.0 4
3715.0 666.0 4
3808.0 781.0 5
3808.0 770.0 5
3808.0 729.0 5
3798.0 708.0 5
3798.0 666.0 5
3798.0 677.0 5
3808.0 677.0 5
3808.0 718.0 5
3829.0 750.0 5
3850.0 760.0 5
3860.0 770.0 5
3881.0 760.0 5
3902.0 760.0 5
3923.0 739.0 5

