1517.0 1166.0 1
1506.0 1145.0 1
1496.0 1114.0 1
1465.0 1093.0 1
1454.0 1083.0 1
1454.0 1083.0 1
1454.0 1073.0 1
1454.0 1083.0 1
1465.0 1104.0 1
1475.0 1135.0 1
1475.0 1166.0 1
1517.0 1218.0 1
1548.0 1229.0 1
1558.0 1239.0 1
1569.0 1218.0 1
1569.0 1208.0 1
1569.0 1187.0 1
1569.0 1166.0 1
1569.0 1145.0 1
1569.0 1135.0 1
1569.0 1135.0 1
1579.0 1156.0 1
1600.0 1187.0 1
1621.0 1229.0 1
1673.0 1270.0 1
1704.0 1281.0 1
1704.0 1270.0 1
1704.0 1260.0 1
1715.0 1239.0 1
1715.0 1208.0 1
1704.0 1187.0 1
1683.0 1145.0 1
1673.0 1125.0 1
1673.0 1114.0 1
1673.0 1093.0 1
1673.0 1083.0 1
1756.0 1083.0 2
1756.0 1093.0 2
1767.0 1093.0 2
1777.0 1104.0 2
1788.0 1125.0 2
1788.0 1145.0 2
1777.0 1156.0 2
1767.0 1156.0 2
1746.0 1156.0 2
1735.0 1156.0 2
1725.0 1135.0 2
1715.0 1125.0 2
1715.0 1104.0 2
1725.0 1093.0 2
1746.0 1083.0 2
1788.0 1073.0 2
1892.0 1135.0 3
1871.0 1114.0 3
1871.0 1104.0 3
1871.0 1104.0 3
1871.0 1104.0 3
1871.0 1104.0 3
1892.0 1125.0 3
1923.0 1145.0 3
1954.0 1166.0 3
1975.0 1177.0 3
1985.0 1177.0 3
1985.0 1156.0 3
1975.0 1125.0 3
1975.0 1114.0 3
1975.0 1104.0 3
1975.0 1083.0 3
2090.0 1156.0 4
2079.0 1156.0 4
2079.0 1145.0 4
2079.0 1125.0 4
2090.0 1104.0 4
2100.0 1083.0 4
2121.0 1083.0 4
2142.0 1083.0 4
2183.0 1093.0 4
2194.0 1114.0 4
2215.0 1125.0 4
2215.0 1135.0 4
2215.0 1156.0 4
2215.0 1166.0 4
2215.0 1166.0 4

