1496.0 1448.0 1
1496.0 1448.0 1
1496.0 1448.0 1
1485.0 1448.0 1
1465.0 1437.0 1
1444.0 1416.0 1
1413.0 1395.0 1
1381.0 1375.0 1
1360.0 1343.0 1
1350.0 1312.0 1
1350.0 1291.0 1
1360.0 1270.0 1
1371.0 1250.0 1
1392.0 1239.0 1
1413.0 1229.0 1
1454.0 1229.0 1
1465.0 1229.0 1
1433.0 1354.0 2
1423.0 1354.0 2
1423.0 1354.0 2
1423.0 1354.0 2
1444.0 1354.0 2
1485.0 1354.0 2
1496.0 1343.0 2
1496.0 1343.0 2
1496.0 1343.0 2
1496.0 1333.0 2
1496.0 1323.0 2
1485.0 1312.0 2
1465.0 1291.0 2
1444.0 1281.0 2
1423.0 1260.0 2
1423.0 1260.0 2
1413.0 1250.0 2
1413.0 1250.0 2
1413.0 1239.0 2
1569.0 1291.0 3
1569.0 1291.0 3
1579.0 1291.0 3
1610.0 1302.0 3
1631.0 1312.0 3
1652.0 1323.0 3
1663.0 1333.0 3
1652.0 1343.0 3
1631.0 1354.0 3
1610.0 1364.0 3
1590.0 1364.0 3
1579.0 1343.0 3
1558.0 1333.0 3
1538.0 1302.0 3
1538.0 1281.0 3
1538.0 1270.0 3
1538.0 1250.0 3
1548.0 1250.0 3
1558.0 1239.0 3
1621.0 1239.0 3
1777.0 1323.0 4
1767.0 1323.0 4
1767.0 1323.0 4
1767.0 1323.0 4
1746.0 1312.0 4
1715.0 1291.0 4
1694.0 1270.0 4
1694.0 1260.0 4
1704.0 1250.0 4
1725.0 1239.0 4
1756.0 1239.0 4
1777.0 1250.0 4
1808.0 1270.0 4
1808.0 1281.0 4
1788.0 1291.0 4
1777.0 1312.0 4
1767.0 1312.0 4
1756.0 1312.0 4
1756.0 1302.0 4
1965.0 1333.0 5
1933.0 1333.0 5
1913.0 1333.0 5
1892.0 1323.0 5
1881.0 1291.0 5
1871.0 1291.0 5
1871.0 1281.0 5
1881.0 1270.0 5
1892.0 1281.0 5
1902.0 1281.0 5
1913.0 1291.0 5
1923.0 1302.0 5
1913.0 1323.0 5
1913.0 1333.0 5
1913.0 1333.0 5
1913.0 1323.0 5
1913.0 1312.0 5
1923.0 1291.0 5
1944.0 1270.0 5
1954.0 1239.0 5
1965.0 1218.0 5
1965.0 1198.0 5
1965.0 1166.0 5
1944.0 1156.0 5
1913.0 1145.0 5
1860.0 1145.0 5
1829.0 1145.0 5
1808.0 1145.0 5
1788.0 1145.0 5
1788.0 1156.0 5
1985.0 1270.0 6
1985.0 1270.0 6
1985.0 1270.0 6
1985.0 1270.0 6
2006.0 1312.0 6
2006.0 1333.0 6
2027.0 1354.0 6
2038.0 1364.0 6
2038.0 1364.0 6
2048.0 1354.0 6
2058.0 1354.0 6
2069.0 1343.0 6
2183.0 1343.0 7
2173.0 1343.0 7
2173.0 1354.0 7
2173.0 1354.0 7
2152.0 1343.0 7
2121.0 1323.0 7
2100.0 1312.0 7
2079.0 1291.0 7
2079.0 1281.0 7
2090.0 1270.0 7
2100.0 1270.0 7
2110.0 1270.0 7
2131.0 1281.0 7
2152.0 1302.0 7
2163.0 1312.0 7
2163.0 1333.0 7
2163.0 1333.0 7
2163.0 1333.0 7
2163.0 1323.0 7
2163.0 1302.0 7
2173.0 1291.0 7
2183.0 1281.0 7
2194.0 1270.0 7
2194.0 1260.0 7
2215.0 1250.0 7
2340.0 1343.0 8
2340.0 1343.0 8
2329.0 1343.0 8
2329.0 1343.0 8
2329.0 1323.0 8
2329.0 1302.0 8
2340.0 1270.0 8
2340.0 1198.0 8
2329.0 1177.0 8
2329.0 1166.0 8
2329.0 1166.0 8
2329.0 1177.0 8
2288.0 1343.0 9
2288.0 1354.0 9
2288.0 1375.0 9
2288.0 1375.0 9
2288.0 1375.0 9
2308.0 1375.0 9
2329.0 1385.0 9
2350.0 1375.0 9
2381.0 1364.0 9
2402.0 1354.0 9
2413.0 1333.0 9
2413.0 1323.0 9
2413.0 1312.0 9
2392.0 1312.0 9
2371.0 1312.0 9
2340.0 1302.0 9
2308.0 1302.0 9
2298.0 1302.0 9
2288.0 1302.0 9
2288.0 1291.0 9
2485.0 1479.0 10
2485.0 1479.0 10
2485.0 1458.0 11
2485.0 1437.0 11
2485.0 1416.0 11
2475.0 1385.0 11
2465.0 1364.0 11
2465.0 1354.0 11
2465.0 1354.0 11
2465.0 1354.0 11
2485.0 1354.0 11
2517.0 1364.0 11
2538.0 1375.0 11
2558.0 1385.0 11
2579.0 1385.0 11
2579.0 1375.0 11
2579.0 1354.0 11
2579.0 1343.0 11
2579.0 1323.0 11
2579.0 1323.0 11
2579.0 1302.0 11
2579.0 1291.0 11
2683.0 1385.0 12
2683.0 1375.0 12
2673.0 1375.0 12
2673.0 1354.0 12
2673.0 1333.0 12
2683.0 1323.0 12
2694.0 1312.0 12
2725.0 1312.0 12
2735.0 1312.0 12
2746.0 1323.0 12
2746.0 1343.0 12
2756.0 1354.0 12
2756.0 1375.0 12
2756.0 1375.0 12
2756.0 1364.0 12
2767.0 1354.0 12
2767.0 1343.0 12
2777.0 1323.0 12
2777.0 1291.0 12
2777.0 1250.0 12
2767.0 1218.0 12
2756.0 1187.0 12
2756.0 1166.0 12
2756.0 1145.0 12

