610.0 2541.0 1
610.0 2541.0 1
610.0 2541.0 1
610.0 2552.0 1
610.0 2552.0 1
600.0 2562.0 1
590.0 2552.0 1
558.0 2531.0 1
538.0 2500.0 1
506.0 2468.0 1
475.0 2427.0 1
444.0 2364.0 1
444.0 2312.0 1
444.0 2260.0 1
465.0 2229.0 1
506.0 2198.0 1
558.0 2187.0 1
610.0 2187.0 1
683.0 2218.0 1
715.0 2250.0 1
735.0 2281.0 1
756.0 2312.0 1
756.0 2364.0 1
746.0 2406.0 1
735.0 2458.0 1
715.0 2500.0 1
673.0 2531.0 1
642.0 2541.0 1
610.0 2552.0 1
590.0 2552.0 1
579.0 2541.0 1
569.0 2531.0 1
610.0 2260.0 2
610.0 2260.0 2
610.0 2260.0 2
621.0 2260.0 2
631.0 2250.0 2
663.0 2239.0 2
683.0 2229.0 2
715.0 2218.0 2
725.0 2218.0 2
735.0 2218.0 2
735.0 2218.0 2
840.0 2302.0 3
840.0 2312.0 3
850.0 2323.0 3
840.0 2323.0 3
840.0 2302.0 3
840.0 2281.0 3
840.0 2260.0 3
850.0 2239.0 3
860.0 2239.0 3
881.0 2239.0 3
902.0 2250.0 3
923.0 2270.0 3
933.0 2281.0 3
933.0 2333.0 3
1027.0 2302.0 4
1027.0 2312.0 4
1027.0 2302.0 4
1027.0 2291.0 4
1027.0 2281.0 4
1027.0 2270.0 4
1027.0 2260.0 4
1038.0 2250.0 4
1017.0 2385.0 5
1006.0 2395.0 5
1006.0 2395.0 5
1017.0 2385.0 5
1110.0 2343.0 6
1110.0 2354.0 6
1152.0 2354.0 6
1173.0 2354.0 6
1183.0 2354.0 6
1183.0 2343.0 6
1173.0 2323.0 6
1152.0 2281.0 6
1142.0 2260.0 6
1142.0 2239.0 6
1131.0 2239.0 6
1142.0 2229.0 6
1142.0 2229.0 6
1152.0 2239.0 6
1173.0 2239.0 6
1204.0 2250.0 6
1215.0 2250.0 6
1235.0 2250.0 6
1246.0 2239.0 6
1246.0 2239.0 6
1090.0 2302.0 7
1090.0 2312.0 7
1100.0 2312.0 7
1110.0 2302.0 7
1121.0 2312.0 7
1142.0 2312.0 7
1163.0 2323.0 7
1183.0 2323.0 7
1183.0 2323.0 7
1298.0 2354.0 8
1288.0 2354.0 8
1288.0 2364.0 8
1288.0 2364.0 8
1288.0 2375.0 8
1277.0 2375.0 8
1277.0 2375.0 8
1288.0 2375.0 8
1319.0 2375.0 8
1340.0 2375.0 8
1360.0 2364.0 8
1371.0 2364.0 8
1371.0 2354.0 8
1360.0 2354.0 8
1340.0 2343.0 8
1329.0 2323.0 8
1298.0 2281.0 8
1288.0 2250.0 8
1288.0 2239.0 8
1288.0 2239.0 8
1298.0 2229.0 8
1319.0 2239.0 8
1350.0 2239.0 8
1360.0 2250.0 8
1371.0 2250.0 8
1381.0 2250.0 8
1381.0 2250.0 8
1256.0 2312.0 9
1256.0 2312.0 9
1256.0 2323.0 9
1277.0 2323.0 9
1298.0 2323.0 9
1329.0 2323.0 9
1350.0 2323.0 9
1360.0 2312.0 9
1423.0 2312.0 10
1423.0 2312.0 10
1423.0 2302.0 10
1423.0 2281.0 10
1423.0 2270.0 10
1433.0 2385.0 11
1423.0 2385.0 11
1433.0 2375.0 11
1610.0 2343.0 12
1610.0 2343.0 12
1590.0 2343.0 12
1548.0 2323.0 12
1538.0 2312.0 12
1538.0 2291.0 12
1538.0 2281.0 12
1538.0 2270.0 12
1558.0 2260.0 12
1590.0 2260.0 12
1621.0 2260.0 12
1683.0 2281.0 13
1673.0 2281.0 13
1673.0 2281.0 13
1673.0 2291.0 13
1683.0 2302.0 13
1694.0 2312.0 13
1715.0 2343.0 13
1725.0 2364.0 13
1735.0 2364.0 13
1735.0 2364.0 13
1746.0 2354.0 13
1746.0 2333.0 13
1746.0 2312.0 13
1756.0 2302.0 13
1767.0 2291.0 13
1777.0 2281.0 13
1777.0 2270.0 13
1704.0 2343.0 14
1704.0 2343.0 14
1704.0 2333.0 14
1704.0 2333.0 14
1715.0 2323.0 14
1735.0 2323.0 14
1756.0 2323.0 14
1777.0 2323.0 14
1850.0 2395.0 15
1840.0 2406.0 15
1840.0 2375.0 15
1840.0 2354.0 15
1829.0 2333.0 15
1829.0 2312.0 15
1840.0 2291.0 15
1840.0 2281.0 15
1860.0 2281.0 15
1871.0 2281.0 15
1892.0 2281.0 15
1923.0 2281.0 15
1954.0 2281.0 15
1996.0 2291.0 15
2006.0 2291.0 15
2110.0 2437.0 16
2100.0 2437.0 16
2100.0 2437.0 16
2110.0 2437.0 16
2110.0 2375.0 16
2100.0 2323.0 16
2100.0 2270.0 16
2100.0 2270.0 16
2100.0 2270.0 16
2100.0 2281.0 16
2079.0 2291.0 17
2069.0 2291.0 17
2090.0 2291.0 17
2110.0 2281.0 17
2163.0 2281.0 17
2173.0 2281.0 17
2183.0 2281.0 17
2183.0 2281.0 17
2173.0 2281.0 17
2173.0 2281.0 17
2225.0 2364.0 18
2225.0 2375.0 18
2225.0 2364.0 18
2235.0 2354.0 18
2256.0 2333.0 18
2277.0 2323.0 18
2298.0 2302.0 18
2308.0 2302.0 18
2350.0 2354.0 19
2340.0 2343.0 19
2319.0 2312.0 19
2298.0 2281.0 19
2288.0 2250.0 19
2267.0 2218.0 19
2256.0 2187.0 19

