1444.0 1333.0 1
1444.0 1312.0 1
1465.0 1270.0 1
1475.0 1218.0 1
1506.0 1156.0 1
1527.0 1083.0 1
1538.0 1041.0 1
1548.0 1010.0 1
1548.0 1000.0 1
1548.0 1000.0 1
1194.0 1312.0 2
1246.0 1323.0 2
1319.0 1333.0 2
1517.0 1333.0 2
1621.0 1323.0 2
1694.0 1291.0 2
1725.0 1260.0 2
1735.0 1229.0 2
1704.0 1198.0 2
1652.0 1177.0 2
1590.0 1166.0 2
1527.0 1166.0 2
1496.0 1166.0 2
1485.0 1166.0 2
1485.0 1166.0 2
1704.0 1135.0 3
1704.0 1114.0 3
1715.0 1093.0 3
1725.0 1062.0 3
1746.0 1031.0 3
1767.0 1010.0 3
1788.0 1000.0 3
1798.0 1000.0 3
1829.0 1020.0 3
1840.0 1052.0 3
1850.0 1073.0 3
1850.0 1104.0 3
1850.0 1104.0 3
1850.0 1083.0 3
1850.0 1052.0 3
1871.0 1031.0 3
1892.0 1000.0 3
1933.0 989.0 3
1985.0 1156.0 4
1985.0 1156.0 4
1985.0 1156.0 4
1985.0 1156.0 4
2017.0 1145.0 4
2038.0 1145.0 4
2069.0 1135.0 4
2100.0 1125.0 4
2121.0 1114.0 4
2121.0 1104.0 4
2100.0 1083.0 4
2079.0 1073.0 4
2048.0 1041.0 4
2027.0 1020.0 4
2027.0 1000.0 4
2027.0 1000.0 4
2058.0 989.0 4
2100.0 989.0 4
2142.0 1000.0 4
2163.0 1000.0 4
2173.0 1010.0 4
1975.0 1062.0 5
2058.0 1062.0 5
2100.0 1073.0 5
2142.0 1073.0 5
2215.0 1135.0 6
2204.0 1135.0 6
2215.0 1135.0 6
2246.0 1125.0 6
2288.0 1125.0 6
2308.0 1125.0 6
2319.0 1114.0 6
2319.0 1104.0 6
2319.0 1083.0 6
2298.0 1073.0 6
2267.0 1041.0 6
2267.0 1020.0 6
2267.0 1010.0 6
2267.0 1000.0 6
2288.0 989.0 6
2319.0 989.0 6
2340.0 1000.0 6
2340.0 1000.0 6
2194.0 1052.0 7
2194.0 1052.0 7
2204.0 1062.0 7
2225.0 1062.0 7
2256.0 1062.0 7
2298.0 1073.0 7
2329.0 1073.0 7
2392.0 1218.0 8
2392.0 1208.0 8
2413.0 1156.0 8
2423.0 1114.0 8
2433.0 1083.0 8
2454.0 1041.0 8
2454.0 1020.0 8
2548.0 1093.0 9
2548.0 1093.0 9
2579.0 1083.0 9
2610.0 1083.0 9
2621.0 1083.0 9
2631.0 1093.0 9
2631.0 1104.0 9
2610.0 1125.0 9
2590.0 1135.0 9
2579.0 1135.0 9
2548.0 1125.0 9
2517.0 1093.0 9
2517.0 1073.0 9
2527.0 1052.0 9
2569.0 1020.0 9
2610.0 1000.0 9
2652.0 989.0 9
2694.0 989.0 9
2746.0 1041.0 10
2746.0 1031.0 10
2746.0 1020.0 10
2746.0 1010.0 10
2756.0 1010.0 10
2756.0 1000.0 10
2756.0 1031.0 10
2756.0 1052.0 10
2756.0 1073.0 10
2767.0 1083.0 10
2777.0 1093.0 10
2788.0 1104.0 10
2808.0 1104.0 10
2829.0 1093.0 10
2860.0 1073.0 10
2871.0 1062.0 10
2881.0 1041.0 10
2881.0 1031.0 10
2881.0 1031.0 10
2871.0 1031.0 10
2871.0 1062.0 10
2881.0 1083.0 10
2902.0 1093.0 10
2944.0 1104.0 10
2965.0 1104.0 10
2985.0 1093.0 10
2996.0 1083.0 10
3006.0 1052.0 10
3017.0 1010.0 10
3017.0 1010.0 10
3069.0 1083.0 11
3069.0 1073.0 11
3079.0 1073.0 11
3090.0 1073.0 11
3110.0 1073.0 11
3131.0 1073.0 11
3163.0 1083.0 11
3163.0 1093.0 11
3163.0 1104.0 11
3163.0 1114.0 11
3142.0 1114.0 11
3110.0 1114.0 11
3079.0 1104.0 11
3058.0 1093.0 11
3048.0 1062.0 11
3058.0 1041.0 11
3090.0 1020.0 11
3121.0 1000.0 11
3183.0 979.0 11
3246.0 1010.0 12
3246.0 1010.0 12
3246.0 1020.0 12
3246.0 1031.0 12
3246.0 1041.0 12
3246.0 1062.0 12
3256.0 1083.0 12
3277.0 1104.0 12
3298.0 1114.0 12
3340.0 1114.0 12
3371.0 1114.0 12
3392.0 1093.0 12
3402.0 1083.0 12
3402.0 1062.0 12
3402.0 1020.0 12
3402.0 1020.0 12
3444.0 1239.0 13
3444.0 1239.0 13
3454.0 1208.0 13
3465.0 1177.0 13
3475.0 1135.0 13
3485.0 1104.0 13
3506.0 1073.0 13
3506.0 1052.0 13
3506.0 1031.0 13
3402.0 1156.0 14
3402.0 1156.0 14
3413.0 1166.0 14
3433.0 1166.0 14
3475.0 1156.0 14
3527.0 1145.0 14
3579.0 1145.0 14

