965.0 1333.0 1
975.0 1302.0 1
996.0 1260.0 1
1017.0 1218.0 1
1038.0 1156.0 1
1058.0 1125.0 1
1069.0 1093.0 1
1079.0 1083.0 1
694.0 1323.0 2
715.0 1333.0 2
777.0 1354.0 2
913.0 1354.0 2
1038.0 1343.0 2
1173.0 1312.0 2
1277.0 1270.0 2
1371.0 1187.0 2
1402.0 1135.0 2
1402.0 1083.0 2
1360.0 1062.0 2
1256.0 1031.0 2
1173.0 1010.0 2
1110.0 1010.0 2
1069.0 1010.0 2
1048.0 1020.0 2
1048.0 1031.0 2
1058.0 1031.0 2
1485.0 1145.0 3
1485.0 1145.0 3
1485.0 1135.0 3
1506.0 1125.0 3
1548.0 1114.0 3
1579.0 1114.0 3
1610.0 1114.0 3
1642.0 1135.0 3
1652.0 1156.0 3
1642.0 1166.0 3
1631.0 1187.0 3
1600.0 1187.0 3
1558.0 1187.0 3
1506.0 1166.0 3
1465.0 1135.0 3
1454.0 1104.0 3
1465.0 1083.0 3
1506.0 1062.0 3
1558.0 1041.0 3
1600.0 1031.0 3
1652.0 1020.0 3
1683.0 1020.0 3
1704.0 1020.0 3
1704.0 1020.0 3
1808.0 1177.0 4
1788.0 1177.0 4
1767.0 1166.0 4
1746.0 1145.0 4
1725.0 1125.0 4
1715.0 1093.0 4
1715.0 1073.0 4
1746.0 1052.0 4
1788.0 1031.0 4
1850.0 1020.0 4
1923.0 1020.0 4
2017.0 1114.0 5
2006.0 1135.0 5
2006.0 1135.0 5
1996.0 1135.0 5
1965.0 1125.0 5
1954.0 1104.0 5
1944.0 1083.0 5
1944.0 1062.0 5
1965.0 1041.0 5
1996.0 1020.0 5
2038.0 1020.0 5
2090.0 1041.0 5
2110.0 1052.0 5
2121.0 1083.0 5
2110.0 1104.0 5
2079.0 1135.0 5
2038.0 1156.0 5
2006.0 1166.0 5
1985.0 1166.0 5
1965.0 1156.0 5
2194.0 1145.0 6
2194.0 1156.0 6
2194.0 1135.0 6
2204.0 1114.0 6
2215.0 1093.0 6
2225.0 1073.0 6
2225.0 1073.0 6
2225.0 1104.0 6
2235.0 1135.0 6
2256.0 1156.0 6
2277.0 1166.0 6
2308.0 1156.0 6
2350.0 1145.0 6
2371.0 1125.0 6
2381.0 1093.0 6
2381.0 1083.0 6
2381.0 1083.0 6
2381.0 1083.0 6
2381.0 1093.0 6
2381.0 1104.0 6
2381.0 1125.0 6
2402.0 1145.0 6
2433.0 1135.0 6
2454.0 1135.0 6
2475.0 1114.0 6
2485.0 1093.0 6
2496.0 1073.0 6
2506.0 1062.0 6
2517.0 1052.0 6
2517.0 1052.0 6
2610.0 1062.0 7
2621.0 1020.0 7
2642.0 979.0 7
2652.0 927.0 7
2652.0 895.0 7
2652.0 875.0 7
2652.0 875.0 7
2631.0 885.0 7
2610.0 927.0 7
2600.0 979.0 7
2590.0 1031.0 7
2590.0 1073.0 7
2590.0 1114.0 7
2590.0 1135.0 7
2600.0 1145.0 7
2621.0 1145.0 7
2663.0 1135.0 7
2704.0 1114.0 7
2725.0 1093.0 7
2725.0 1073.0 7
2715.0 1041.0 7
2683.0 1041.0 7
2663.0 1031.0 7
2621.0 1031.0 7
2600.0 1031.0 7
2590.0 1041.0 7
2590.0 1041.0 7
2798.0 1125.0 8
2798.0 1125.0 8
2808.0 1114.0 8
2808.0 1104.0 8
2819.0 1083.0 8
2819.0 1073.0 8
2819.0 1062.0 8
2829.0 1062.0 8
2819.0 1062.0 8
2819.0 1083.0 8
2808.0 1093.0 8
2798.0 1125.0 8
2798.0 1145.0 8
2798.0 1156.0 8
2798.0 1177.0 8
2819.0 1177.0 8
2860.0 1177.0 8
2881.0 1177.0 8
2902.0 1166.0 8
2913.0 1166.0 8
2985.0 1125.0 9
2985.0 1135.0 9
2996.0 1125.0 9
3017.0 1125.0 9
3038.0 1125.0 9
3048.0 1125.0 9
3069.0 1125.0 9
3090.0 1135.0 9
3100.0 1145.0 9
3090.0 1156.0 9
3079.0 1166.0 9
3048.0 1187.0 9
3017.0 1187.0 9
2996.0 1177.0 9
2975.0 1156.0 9
2965.0 1125.0 9
2965.0 1104.0 9
2996.0 1073.0 9
3038.0 1052.0 9
3090.0 1041.0 9
3131.0 1041.0 9
3152.0 1041.0 9
3173.0 1041.0 9
3173.0 1052.0 9
3288.0 1166.0 10
3288.0 1166.0 10
3277.0 1177.0 10
3277.0 1177.0 10
3246.0 1177.0 10
3225.0 1177.0 10
3215.0 1166.0 10
3204.0 1156.0 10
3204.0 1145.0 10
3235.0 1125.0 10
3298.0 1104.0 10
3340.0 1083.0 10
3371.0 1062.0 10
3371.0 1052.0 10
3371.0 1041.0 10
3350.0 1041.0 10
3319.0 1041.0 10
3277.0 1041.0 10
3246.0 1041.0 10
3506.0 1166.0 11
3506.0 1166.0 11
3485.0 1177.0 11
3454.0 1177.0 11
3433.0 1166.0 11
3433.0 1156.0 11
3433.0 1145.0 11
3454.0 1125.0 11
3485.0 1104.0 11
3527.0 1073.0 11
3548.0 1062.0 11
3558.0 1041.0 11
3558.0 1041.0 11
3538.0 1031.0 11
3506.0 1031.0 11
3465.0 1031.0 11
3444.0 1031.0 11
3433.0 1020.0 11

