892.0 1781.0 1
871.0 1791.0 1
871.0 1802.0 1
871.0 1791.0 1
892.0 1760.0 1
944.0 1666.0 1
985.0 1573.0 1
1006.0 1468.0 1
1048.0 1375.0 1
1069.0 1323.0 1
1090.0 1302.0 1
1090.0 1302.0 1
1090.0 1312.0 1
1100.0 1375.0 1
1121.0 1468.0 1
1131.0 1593.0 1
1152.0 1718.0 1
1173.0 1770.0 1
1183.0 1802.0 1
1183.0 1812.0 1
1215.0 1791.0 1
1475.0 1583.0 2
1454.0 1583.0 2
1433.0 1573.0 2
1402.0 1531.0 2
1329.0 1458.0 2
1288.0 1395.0 2
1288.0 1354.0 2
1288.0 1333.0 2
1329.0 1354.0 2
1371.0 1395.0 2
1402.0 1458.0 2
1423.0 1500.0 2
1433.0 1541.0 2
1433.0 1552.0 2
1433.0 1541.0 2
1433.0 1500.0 2
1454.0 1468.0 2
1475.0 1406.0 2
1496.0 1354.0 2
1517.0 1302.0 2
1610.0 1520.0 3
1610.0 1520.0 3
1631.0 1520.0 3
1642.0 1489.0 3
1652.0 1448.0 3
1663.0 1406.0 3
1663.0 1375.0 3
1673.0 1375.0 3
1673.0 1385.0 3
1673.0 1416.0 3
1694.0 1489.0 3
1715.0 1531.0 3
1725.0 1552.0 3
1735.0 1552.0 3
1756.0 1510.0 3
1756.0 1458.0 3
1767.0 1406.0 3
1788.0 1375.0 3
1808.0 1364.0 3
2058.0 1573.0 4
2027.0 1552.0 4
1996.0 1520.0 4
1975.0 1489.0 4
1954.0 1437.0 4
1954.0 1416.0 4
1965.0 1416.0 4
1985.0 1416.0 4
2006.0 1458.0 4
2027.0 1489.0 4
2038.0 1531.0 4
2038.0 1562.0 4
2038.0 1562.0 4
2048.0 1562.0 4
2048.0 1531.0 4
2048.0 1479.0 4
2069.0 1395.0 4
2079.0 1291.0 4
2090.0 1208.0 4
2100.0 1145.0 4
2100.0 1083.0 4
2110.0 1052.0 4
2110.0 1052.0 4
2121.0 1062.0 4
2131.0 1145.0 4
2163.0 1239.0 4
2194.0 1323.0 4
2215.0 1385.0 4
2235.0 1427.0 4
2235.0 1437.0 4
2256.0 1520.0 5
2256.0 1520.0 5
2256.0 1510.0 5
2256.0 1468.0 5
2267.0 1427.0 5
2277.0 1364.0 5
2298.0 1343.0 5
2319.0 1343.0 5
2371.0 1375.0 5
2392.0 1416.0 5
2413.0 1468.0 5
2423.0 1520.0 5
2433.0 1573.0 5
2538.0 1531.0 6
2538.0 1500.0 6
2527.0 1468.0 6
2527.0 1427.0 6
2527.0 1385.0 6
2527.0 1375.0 6
2527.0 1375.0 6
2527.0 1625.0 7
2517.0 1625.0 7
2517.0 1625.0 7
2538.0 1614.0 7
2756.0 1531.0 8
2756.0 1531.0 8
2756.0 1531.0 8
2735.0 1520.0 8
2704.0 1500.0 8
2694.0 1479.0 8
2694.0 1458.0 8
2715.0 1448.0 8
2756.0 1437.0 8
2798.0 1427.0 8
2829.0 1416.0 8
2829.0 1406.0 8
2798.0 1375.0 8
2756.0 1343.0 8
2725.0 1323.0 8
2725.0 1323.0 8
2944.0 1802.0 9
2944.0 1812.0 9
2965.0 1791.0 9
2985.0 1739.0 9
3027.0 1614.0 9
3038.0 1510.0 9
3038.0 1427.0 9
3038.0 1375.0 9
3038.0 1354.0 9
3038.0 1354.0 9
3038.0 1385.0 9
3048.0 1427.0 9
3100.0 1520.0 9
3131.0 1552.0 9
3163.0 1562.0 9
3194.0 1552.0 9
3225.0 1510.0 9
3235.0 1458.0 9
3235.0 1385.0 9
3235.0 1291.0 9

