221.0 2806.0 1
221.0 2816.0 1
231.0 2827.0 1
231.0 2837.0 1
231.0 2837.0 1
231.0 2827.0 1
231.0 2827.0 1
252.0 2806.0 1
273.0 2764.0 1
283.0 2733.0 1
304.0 2702.0 1
325.0 2670.0 1
335.0 2639.0 1
335.0 2629.0 1
335.0 2629.0 1
335.0 2629.0 1
335.0 2639.0 1
346.0 2660.0 1
356.0 2712.0 1
388.0 2775.0 1
419.0 2827.0 1
429.0 2858.0 1
429.0 2868.0 1
429.0 2868.0 1
429.0 2858.0 1

