2308.0 1364.0 1
2308.0 1364.0 1
2308.0 1364.0 1
2308.0 1354.0 1
2298.0 1333.0 1
2298.0 1312.0 1
2298.0 1291.0 1
2298.0 1291.0 1
2298.0 1291.0 1
2308.0 1291.0 1
2319.0 1302.0 1
2329.0 1312.0 1
2350.0 1312.0 1
2360.0 1312.0 1
2381.0 1291.0 1
2392.0 1291.0 1
2402.0 1281.0 1
2402.0 1270.0 1
2402.0 1239.0 1
2402.0 1229.0 1
2392.0 1218.0 1
2371.0 1208.0 1
2350.0 1208.0 1
2308.0 1375.0 2
2308.0 1375.0 2
2329.0 1375.0 2
2350.0 1385.0 2
2371.0 1385.0 2
2381.0 1385.0 2
2392.0 1385.0 2
2454.0 1416.0 3
2454.0 1364.0 3
2454.0 1343.0 3
2465.0 1333.0 3
2465.0 1333.0 3
2475.0 1333.0 3
2496.0 1333.0 3
2527.0 1343.0 3
2538.0 1343.0 3
2527.0 1416.0 4
2527.0 1416.0 4
2538.0 1395.0 4
2538.0 1375.0 4
2548.0 1343.0 4
2548.0 1323.0 4
2548.0 1302.0 4
2548.0 1291.0 4
2558.0 1281.0 4
2558.0 1270.0 4
2558.0 1270.0 4
2631.0 1458.0 5
2621.0 1458.0 5
2621.0 1458.0 5
2631.0 1468.0 5
2642.0 1479.0 5
2673.0 1479.0 5
2694.0 1479.0 5
2704.0 1479.0 5
2704.0 1468.0 5
2694.0 1448.0 5
2683.0 1437.0 5
2673.0 1427.0 5
2652.0 1406.0 5
2663.0 1416.0 5
2673.0 1416.0 5
2694.0 1416.0 5
2704.0 1416.0 5
2715.0 1416.0 5
2725.0 1406.0 5
2735.0 1395.0 5
2735.0 1375.0 5
2725.0 1354.0 5
2715.0 1343.0 5
2704.0 1323.0 5
2694.0 1323.0 5
2683.0 1323.0 5
2777.0 1500.0 6
2767.0 1510.0 6
2767.0 1510.0 6
2777.0 1510.0 6
2777.0 1520.0 6
2798.0 1520.0 6
2808.0 1531.0 6
2829.0 1531.0 6
2829.0 1520.0 6
2829.0 1520.0 6
2829.0 1500.0 6
2819.0 1489.0 6
2808.0 1468.0 6
2798.0 1468.0 6
2798.0 1468.0 6
2808.0 1468.0 6
2808.0 1468.0 6
2829.0 1468.0 6
2840.0 1479.0 6
2850.0 1468.0 6
2860.0 1468.0 6
2871.0 1458.0 6
2881.0 1437.0 6
2881.0 1427.0 6
2881.0 1416.0 6
2871.0 1395.0 6
2840.0 1385.0 6
2829.0 1364.0 6
2808.0 1364.0 6
2798.0 1364.0 6
2902.0 1573.0 7
2902.0 1573.0 7
2913.0 1552.0 7
2923.0 1531.0 7
2923.0 1510.0 7
2933.0 1489.0 7
2944.0 1458.0 7
2944.0 1448.0 7
2944.0 1427.0 7
2954.0 1416.0 7
2954.0 1395.0 7

