304.0 2848.0 1
304.0 2848.0 1
304.0 2848.0 1
304.0 2837.0 1
294.0 2827.0 1
294.0 2806.0 1
294.0 2795.0 1
294.0 2785.0 1
304.0 2785.0 1
315.0 2785.0 1
346.0 2795.0 1
367.0 2806.0 1
377.0 2816.0 1
388.0 2837.0 1
388.0 2837.0 1
388.0 2837.0 1
388.0 2837.0 1
388.0 2816.0 1
388.0 2795.0 1
398.0 2764.0 1
408.0 2712.0 1
419.0 2670.0 1
419.0 2629.0 1
408.0 2598.0 1
408.0 2566.0 1
398.0 2556.0 1
388.0 2556.0 1
367.0 2566.0 1
325.0 2566.0 1
304.0 2587.0 1
283.0 2618.0 1
283.0 2639.0 1

