315.0 2733.0 1
315.0 2733.0 1
315.0 2733.0 1
315.0 2733.0 1
315.0 2712.0 1
315.0 2702.0 1
315.0 2691.0 1
325.0 2681.0 1
346.0 2681.0 1
356.0 2681.0 1
367.0 2691.0 1
377.0 2702.0 1
388.0 2712.0 1
388.0 2723.0 1
388.0 2733.0 1
377.0 2733.0 1
377.0 2733.0 1
377.0 2723.0 1
377.0 2723.0 1
377.0 2702.0 1
377.0 2681.0 1
377.0 2660.0 1
388.0 2650.0 1
388.0 2608.0 1
388.0 2587.0 1
388.0 2566.0 1
388.0 2556.0 1
377.0 2556.0 1
346.0 2556.0 1
315.0 2566.0 1
283.0 2587.0 1
263.0 2598.0 1
263.0 2608.0 1

