1527.0 1833.0 1
1517.0 1843.0 1
1517.0 1843.0 1
1517.0 1843.0 1
1517.0 1833.0 1
1527.0 1802.0 1
1527.0 1760.0 1
1538.0 1729.0 1
1538.0 1718.0 1
1538.0 1729.0 1
1538.0 1739.0 1
1538.0 1791.0 1
1548.0 1843.0 1
1548.0 1875.0 1
1558.0 1895.0 1
1558.0 1916.0 1
1569.0 1916.0 1
1590.0 1895.0 1
1600.0 1875.0 1
1610.0 1833.0 1
1610.0 1802.0 1
1610.0 1770.0 1
1610.0 1750.0 1
1590.0 1729.0 1
1579.0 1729.0 1
1548.0 1729.0 1
1538.0 1739.0 1
1517.0 1750.0 1
1517.0 1760.0 1
1642.0 1812.0 2
1642.0 1812.0 2
1642.0 1812.0 2
1631.0 1781.0 2
1642.0 1760.0 2
1652.0 1739.0 2
1652.0 1729.0 2
1663.0 1729.0 2
1652.0 1885.0 3
1631.0 1885.0 3
1631.0 1885.0 3
1756.0 1843.0 4
1746.0 1823.0 4
1725.0 1823.0 4
1725.0 1812.0 4
1725.0 1802.0 4
1725.0 1791.0 4
1725.0 1781.0 4
1746.0 1770.0 4
1746.0 1770.0 4
1756.0 1750.0 4
1756.0 1739.0 4
1746.0 1739.0 4
1715.0 1729.0 4
1683.0 1729.0 4
1673.0 1729.0 4
1871.0 1823.0 5
1871.0 1823.0 5
1871.0 1823.0 5
1871.0 1833.0 5
1860.0 1833.0 5
1860.0 1833.0 5
1850.0 1833.0 5
1840.0 1833.0 5
1829.0 1833.0 5
1808.0 1833.0 5
1788.0 1823.0 5
1777.0 1812.0 5
1777.0 1791.0 5
1777.0 1781.0 5
1788.0 1781.0 5
1788.0 1770.0 5
1808.0 1770.0 5
1819.0 1770.0 5
1829.0 1770.0 5
1840.0 1770.0 5
1840.0 1791.0 5
1850.0 1802.0 5
1850.0 1802.0 5
1840.0 1812.0 5
1840.0 1812.0 5
1840.0 1802.0 5
1840.0 1781.0 5
1850.0 1750.0 5
1850.0 1708.0 5
1860.0 1666.0 5
1860.0 1593.0 5
1871.0 1552.0 5
1871.0 1531.0 5
1871.0 1520.0 5
1871.0 1520.0 5
1881.0 1531.0 5
1881.0 1562.0 5
1881.0 1593.0 5
1892.0 1635.0 5
1902.0 1645.0 5
1913.0 1823.0 6
1892.0 1833.0 6
1892.0 1833.0 6
1892.0 1833.0 6
1892.0 1802.0 6
1892.0 1770.0 6
1902.0 1760.0 6
1902.0 1760.0 6
1913.0 1750.0 6
1933.0 1750.0 6
1944.0 1760.0 6
1944.0 1781.0 6
1944.0 1802.0 6
1954.0 1823.0 6
1954.0 1833.0 6
1954.0 1843.0 6
1954.0 1823.0 6
1954.0 1791.0 6
1954.0 1760.0 6
1965.0 1750.0 6
1965.0 1739.0 6
2048.0 1823.0 7
2038.0 1833.0 7
2038.0 1833.0 7
2038.0 1843.0 7
2038.0 1843.0 7
2027.0 1843.0 7
2027.0 1843.0 7
2017.0 1843.0 7
2006.0 1833.0 7
1996.0 1823.0 7
1985.0 1812.0 7
1975.0 1791.0 7
1975.0 1781.0 7
1975.0 1770.0 7
1985.0 1770.0 7
1996.0 1760.0 7
2017.0 1760.0 7
2027.0 1760.0 7
2038.0 1770.0 7
2038.0 1791.0 7
2038.0 1823.0 7
2038.0 1843.0 7
2038.0 1843.0 7
2027.0 1843.0 7
2027.0 1833.0 7
2027.0 1812.0 7
2038.0 1791.0 7
2038.0 1770.0 7
2048.0 1770.0 7
2058.0 1770.0 7
2090.0 1760.0 8
2079.0 1760.0 8
2079.0 1770.0 8
2090.0 1781.0 8
2110.0 1791.0 8
2121.0 1812.0 8
2131.0 1843.0 8
2142.0 1875.0 8
2142.0 1895.0 8
2131.0 1906.0 8
2121.0 1927.0 8
2110.0 1927.0 8
2110.0 1927.0 8
2110.0 1916.0 8
2100.0 1843.0 8
2100.0 1781.0 8
2110.0 1760.0 8
2131.0 1750.0 8
2142.0 1750.0 8
2183.0 1833.0 9
2173.0 1833.0 9
2173.0 1823.0 9
2173.0 1802.0 9
2173.0 1760.0 9
2183.0 1750.0 9
2194.0 1906.0 10
2173.0 1916.0 10
2173.0 1916.0 10
2173.0 1895.0 10
2194.0 1729.0 11
2183.0 1708.0 11
2173.0 1708.0 11
2183.0 1708.0 11
2194.0 1708.0 11
2225.0 1718.0 11
2256.0 1718.0 11
2277.0 1729.0 11
2277.0 1739.0 11
2277.0 1770.0 11
2267.0 1802.0 11
2256.0 1833.0 11
2246.0 1864.0 11
2235.0 1885.0 11
2235.0 1895.0 11
2235.0 1906.0 11
2235.0 1906.0 11
2256.0 1916.0 11
2288.0 1916.0 11
2308.0 1916.0 11
2329.0 1906.0 11
2225.0 1833.0 12
2225.0 1833.0 12
2225.0 1833.0 12
2235.0 1833.0 12
2256.0 1843.0 12
2298.0 1843.0 12
2350.0 1843.0 13
2340.0 1843.0 13
2340.0 1843.0 13
2329.0 1833.0 13
2329.0 1823.0 13
2340.0 1791.0 13
2340.0 1770.0 13
2340.0 1760.0 13
2350.0 1760.0 13
2340.0 1906.0 14
2340.0 1906.0 14
2329.0 1895.0 14
2329.0 1885.0 14
2381.0 1760.0 15
2371.0 1760.0 15
2371.0 1770.0 15
2371.0 1770.0 15
2381.0 1791.0 15
2392.0 1791.0 15
2402.0 1812.0 15
2413.0 1812.0 15
2423.0 1833.0 15
2433.0 1843.0 15
2444.0 1854.0 15
2444.0 1864.0 15
2433.0 1864.0 15
2423.0 1864.0 15
2413.0 1875.0 15
2413.0 1875.0 15
2402.0 1864.0 15
2402.0 1864.0 15
2392.0 1843.0 15
2392.0 1823.0 15
2402.0 1812.0 15
2402.0 1791.0 15
2423.0 1781.0 15
2454.0 1781.0 15
2475.0 1791.0 15
2558.0 1843.0 16
2558.0 1854.0 16
2558.0 1854.0 16
2558.0 1854.0 16
2548.0 1854.0 16
2527.0 1864.0 16
2506.0 1864.0 16
2496.0 1864.0 16
2485.0 1843.0 16
2485.0 1833.0 16
2485.0 1812.0 16
2485.0 1802.0 16
2496.0 1791.0 16
2517.0 1791.0 16
2527.0 1791.0 16
2548.0 1802.0 16
2558.0 1823.0 16
2558.0 1864.0 16
2558.0 1895.0 16
2548.0 1927.0 16
2538.0 1958.0 16
2538.0 1979.0 16
2538.0 1989.0 16
2527.0 1948.0 16
2527.0 1854.0 16
2538.0 1823.0 16
2548.0 1781.0 16
2569.0 1770.0 16
2590.0 1770.0 16

