579.0 2093.0 1
579.0 2135.0 1
579.0 2135.0 1
579.0 2073.0 1
590.0 1937.0 1
610.0 1823.0 1
631.0 1708.0 1
642.0 1614.0 1
652.0 1552.0 1
652.0 1552.0 1
652.0 1552.0 1
652.0 1604.0 1
642.0 1687.0 1
631.0 1781.0 1
621.0 1895.0 1
579.0 2031.0 1
548.0 2135.0 1
527.0 2218.0 1
517.0 2260.0 1
517.0 2281.0 1
527.0 2270.0 1
548.0 2208.0 1
579.0 2083.0 1
610.0 1989.0 1
652.0 1895.0 1
704.0 1833.0 1
777.0 1760.0 1
840.0 1750.0 1
902.0 1750.0 1
965.0 1791.0 1
1017.0 1875.0 1
1027.0 1968.0 1
1027.0 2073.0 1
996.0 2177.0 1
975.0 2260.0 1
975.0 2270.0 1
975.0 2260.0 1
1006.0 2166.0 1
1048.0 2062.0 1
1090.0 1937.0 1
1121.0 1833.0 1
1163.0 1708.0 1
1183.0 1645.0 1
1194.0 1604.0 1
1340.0 1760.0 2
1340.0 1760.0 2
1371.0 1750.0 2
1402.0 1750.0 2
1475.0 1750.0 2
1517.0 1770.0 2
1538.0 1791.0 2
1548.0 1812.0 2
1538.0 1854.0 2
1496.0 1875.0 2
1444.0 1875.0 2
1371.0 1843.0 2
1298.0 1781.0 2
1288.0 1718.0 2
1298.0 1677.0 2
1340.0 1625.0 2
1444.0 1604.0 2
1517.0 1604.0 2
1569.0 1614.0 2
1715.0 1802.0 3
1715.0 1812.0 3
1715.0 1781.0 3
1725.0 1729.0 3
1725.0 1666.0 3
1735.0 1625.0 3
1735.0 1604.0 3
1735.0 1645.0 3
1735.0 1698.0 3
1756.0 1760.0 3
1798.0 1833.0 3
1829.0 1875.0 3
1850.0 1885.0 3
1881.0 1885.0 3
1923.0 1843.0 3
1933.0 1791.0 3
1944.0 1739.0 3
1954.0 1698.0 3
1965.0 1656.0 3
1965.0 1645.0 3
1965.0 1635.0 3
2110.0 1854.0 4
2110.0 1864.0 4
2110.0 1854.0 4
2110.0 1812.0 4
2110.0 1750.0 4
2110.0 1687.0 4
2142.0 1635.0 4
2173.0 1604.0 4
2204.0 1593.0 4
2256.0 1604.0 4
2308.0 1645.0 4
2350.0 1698.0 4
2360.0 1760.0 4
2371.0 1823.0 4
2360.0 1875.0 4
2360.0 1885.0 4
2350.0 1895.0 4
2350.0 1906.0 4
2329.0 1906.0 4

