246.0 2875.0 1
246.0 2875.0 1
246.0 2854.0 1
235.0 2823.0 1
225.0 2791.0 1
225.0 2760.0 1
225.0 2718.0 1
225.0 2718.0 1
225.0 2750.0 1
235.0 2791.0 1
256.0 2833.0 1
267.0 2864.0 1
288.0 2906.0 1
298.0 2906.0 1
298.0 2906.0 1
308.0 2895.0 1
319.0 2864.0 1
319.0 2833.0 1
329.0 2791.0 1
340.0 2760.0 1
350.0 2739.0 1
350.0 2739.0 1
360.0 2729.0 1
360.0 2729.0 1
350.0 2802.0 2
350.0 2802.0 2
340.0 2802.0 2
319.0 2802.0 2
256.0 2802.0 2
235.0 2802.0 2
235.0 2802.0 2
465.0 2833.0 3
475.0 2843.0 3
465.0 2843.0 3
454.0 2833.0 3
423.0 2823.0 3
413.0 2812.0 3
413.0 2791.0 3
423.0 2781.0 3
444.0 2770.0 3
465.0 2760.0 3
485.0 2770.0 3
506.0 2770.0 3
506.0 2781.0 3
506.0 2781.0 3
506.0 2781.0 3
548.0 2906.0 4
548.0 2906.0 4
548.0 2906.0 4
548.0 2895.0 4
548.0 2864.0 4
558.0 2833.0 4
558.0 2812.0 4
558.0 2791.0 4
558.0 2781.0 4
642.0 2875.0 5
642.0 2875.0 5
642.0 2875.0 5
610.0 2854.0 5
579.0 2843.0 5
569.0 2823.0 5
569.0 2812.0 5
569.0 2812.0 5
569.0 2802.0 5
590.0 2802.0 5
610.0 2791.0 5
631.0 2791.0 5
642.0 2791.0 5
694.0 2843.0 6
694.0 2854.0 6
694.0 2843.0 6
694.0 2781.0 6
694.0 2781.0 6
694.0 2791.0 6
694.0 2812.0 6
704.0 2833.0 6
725.0 2854.0 6
735.0 2854.0 6
767.0 2854.0 6
767.0 2843.0 6
777.0 2833.0 6
777.0 2812.0 6
777.0 2812.0 6
819.0 2854.0 7
819.0 2864.0 7
829.0 2875.0 7
840.0 2875.0 7
850.0 2864.0 7
860.0 2854.0 7
860.0 2843.0 7
860.0 2833.0 7
840.0 2812.0 7
819.0 2802.0 7
798.0 2802.0 7
788.0 2802.0 7
788.0 2823.0 7
798.0 2833.0 7
819.0 2854.0 7
819.0 2864.0 7
829.0 2864.0 7
902.0 2875.0 8
902.0 2875.0 8
902.0 2854.0 8
892.0 2843.0 8
892.0 2833.0 8
902.0 2812.0 8
913.0 2812.0 8
923.0 2802.0 8
954.0 2812.0 8
965.0 2823.0 8
965.0 2833.0 8
965.0 2843.0 8
965.0 2854.0 8
954.0 2854.0 8
954.0 2843.0 8
965.0 2833.0 8
965.0 2812.0 8
985.0 2802.0 8
996.0 2802.0 8
1038.0 2802.0 8
1058.0 2812.0 8
1069.0 2823.0 8
1069.0 2843.0 8
1058.0 2864.0 8
1048.0 2875.0 8
1038.0 2875.0 8
1027.0 2875.0 8
1142.0 2927.0 9
1142.0 2927.0 9
1142.0 2927.0 9
1152.0 2906.0 9
1152.0 2875.0 9
1152.0 2843.0 9
1152.0 2833.0 9
1152.0 2823.0 9
1152.0 2823.0 9
1194.0 2864.0 10
1194.0 2864.0 10
1194.0 2854.0 10
1204.0 2854.0 10
1235.0 2843.0 10
1256.0 2854.0 10
1277.0 2854.0 10
1277.0 2864.0 10
1288.0 2875.0 10
1277.0 2885.0 10
1267.0 2885.0 10
1235.0 2885.0 10
1235.0 2875.0 10
1235.0 2864.0 10
1235.0 2854.0 10
1256.0 2823.0 10
1277.0 2823.0 10
1340.0 2823.0 10
1381.0 2833.0 10
1392.0 2843.0 10
1413.0 2854.0 10
1423.0 2864.0 10
1423.0 2875.0 10
1402.0 2885.0 10
1381.0 2895.0 10
1371.0 2895.0 10
1350.0 2885.0 10
1329.0 2875.0 10
1329.0 2864.0 10
1329.0 2843.0 10
1340.0 2833.0 10
1340.0 2833.0 10
1360.0 2833.0 10
1381.0 2843.0 10
1402.0 2864.0 10
1423.0 2885.0 10
1433.0 2906.0 10
1433.0 2927.0 10
1433.0 2958.0 10
1433.0 2958.0 10
1433.0 2948.0 10
1423.0 2916.0 10
1423.0 2885.0 10
1423.0 2843.0 10
1423.0 2843.0 10
1423.0 2843.0 10
1433.0 2833.0 10
1579.0 2885.0 11
1579.0 2906.0 11
1569.0 2906.0 11
1538.0 2906.0 11
1517.0 2906.0 11
1506.0 2885.0 11
1506.0 2875.0 11
1517.0 2864.0 11
1548.0 2843.0 11
1558.0 2823.0 11
1569.0 2802.0 11
1579.0 2770.0 11
1579.0 2750.0 11
1569.0 2739.0 11
1548.0 2739.0 11
1517.0 2739.0 11
1496.0 2760.0 11
1496.0 2770.0 11
1496.0 2791.0 11
1527.0 2812.0 11
1548.0 2833.0 11
1569.0 2833.0 11
1600.0 2843.0 11
1621.0 2854.0 11
1631.0 2875.0 11
1642.0 2885.0 11
1631.0 2895.0 11
1631.0 2906.0 11
1621.0 2916.0 11
1621.0 2906.0 11
1610.0 2895.0 11
1600.0 2885.0 11
1600.0 2864.0 11
1600.0 2854.0 11
1621.0 2843.0 11
1621.0 2843.0 11
1715.0 2906.0 12
1715.0 2906.0 12
1715.0 2906.0 12
1704.0 2895.0 12
1704.0 2864.0 12
1704.0 2854.0 12
1704.0 2854.0 12
1704.0 2864.0 12
1715.0 2875.0 12
1715.0 2895.0 12
1735.0 2906.0 12
1735.0 2906.0 12
1746.0 2906.0 12
1756.0 2906.0 12
1756.0 2895.0 12
1756.0 2885.0 12
1756.0 2864.0 12
1756.0 2864.0 12
1767.0 2875.0 12
1788.0 2885.0 12
1798.0 2895.0 12
1819.0 2895.0 12
1829.0 2895.0 12
1840.0 2895.0 12
1850.0 2895.0 12
1850.0 2885.0 12
1850.0 2875.0 12
1850.0 2875.0 12
1850.0 2875.0 12
1892.0 2885.0 13
1892.0 2885.0 13
1902.0 2875.0 13
1923.0 2875.0 13
1933.0 2885.0 13
1933.0 2895.0 13
1944.0 2895.0 13
1933.0 2906.0 13
1913.0 2916.0 13
1913.0 2916.0 13
1902.0 2906.0 13
1892.0 2885.0 13
1892.0 2875.0 13
1902.0 2864.0 13
1923.0 2864.0 13
1965.0 2864.0 13
1985.0 2875.0 13
1996.0 2885.0 13
2006.0 2895.0 13
2006.0 2895.0 13
2006.0 2895.0 13
2006.0 2875.0 13
2017.0 2864.0 13
2017.0 2843.0 13
2027.0 2843.0 13
2027.0 2843.0 13
2038.0 2864.0 13
2048.0 2875.0 13
2058.0 2885.0 13
2069.0 2895.0 13
2090.0 2895.0 13
2090.0 2906.0 13
2090.0 2906.0 13
2100.0 2895.0 13
2121.0 2895.0 13
2131.0 2885.0 13
2142.0 2875.0 13
2152.0 2864.0 13
2194.0 2958.0 14
2194.0 2968.0 14
2194.0 2958.0 14
2194.0 2937.0 14
2204.0 2927.0 14
2204.0 2895.0 14
2204.0 2875.0 14
2204.0 2864.0 14
2204.0 2854.0 14
2277.0 2927.0 15
2277.0 2927.0 15
2256.0 2927.0 15
2215.0 2927.0 15
2183.0 2927.0 15
2163.0 2927.0 15
2152.0 2927.0 15
2152.0 2927.0 15

