704.0 2708.0 1
704.0 2718.0 1
694.0 2718.0 1
673.0 2718.0 1
610.0 2708.0 1
527.0 2677.0 1
485.0 2656.0 1
465.0 2645.0 1
465.0 2645.0 1
475.0 2635.0 1
517.0 2614.0 1
558.0 2583.0 1
621.0 2552.0 1
663.0 2510.0 1
663.0 2489.0 1
652.0 2458.0 1
610.0 2437.0 1
538.0 2437.0 1
485.0 2437.0 1
735.0 2573.0 2
725.0 2562.0 2
715.0 2552.0 2
715.0 2520.0 2
704.0 2500.0 2
715.0 2479.0 2
715.0 2458.0 2
735.0 2437.0 2
746.0 2448.0 2
777.0 2479.0 2
788.0 2500.0 2
798.0 2531.0 2
798.0 2541.0 2
798.0 2541.0 2
808.0 2541.0 2
819.0 2510.0 2
840.0 2500.0 2
860.0 2489.0 2
881.0 2468.0 2
902.0 2468.0 2
902.0 2468.0 2
913.0 2468.0 2
913.0 2500.0 2
913.0 2562.0 2
913.0 2583.0 2
913.0 2583.0 2
913.0 2583.0 2
1079.0 2541.0 3
1090.0 2541.0 3
1100.0 2552.0 3
1100.0 2552.0 3
1079.0 2562.0 3
1048.0 2562.0 3
1027.0 2552.0 3
1006.0 2520.0 3
996.0 2500.0 3
996.0 2500.0 3
1006.0 2489.0 3
1038.0 2489.0 3
1079.0 2489.0 3
1110.0 2500.0 3
1131.0 2520.0 3
1131.0 2552.0 3
1110.0 2562.0 3
1100.0 2562.0 3
1090.0 2552.0 3
1090.0 2531.0 3
1100.0 2500.0 3
1121.0 2479.0 3
1152.0 2468.0 3
1215.0 2677.0 4
1225.0 2645.0 4
1225.0 2604.0 4
1225.0 2552.0 4
1235.0 2520.0 4
1246.0 2489.0 4
1267.0 2479.0 4
1277.0 2489.0 4
1350.0 2520.0 4
1371.0 2520.0 4
1381.0 2520.0 4
1392.0 2500.0 4
1381.0 2479.0 4
1360.0 2437.0 4
1329.0 2416.0 4
1277.0 2416.0 4

