788.0 573.0 1
788.0 531.0 1
798.0 479.0 1
798.0 375.0 1
798.0 312.0 1
808.0 260.0 1
819.0 229.0 1
819.0 229.0 1
829.0 239.0 1
777.0 604.0 2
777.0 614.0 2
777.0 614.0 2
788.0 593.0 2
829.0 531.0 2
860.0 479.0 2
902.0 427.0 2
933.0 375.0 2
965.0 333.0 2
975.0 312.0 2
756.0 364.0 3
767.0 375.0 3
798.0 406.0 3
860.0 448.0 3
923.0 479.0 3
975.0 520.0 3
1131.0 645.0 4
1110.0 645.0 4
1100.0 635.0 4
1079.0 614.0 4
1048.0 573.0 4
1038.0 541.0 4
1038.0 510.0 4
1038.0 479.0 4
1069.0 458.0 4
1100.0 458.0 4
1142.0 479.0 4
1183.0 510.0 4
1298.0 739.0 5
1288.0 739.0 5
1277.0 750.0 5
1256.0 750.0 5
1235.0 739.0 5
1204.0 708.0 5
1183.0 666.0 5
1183.0 625.0 5
1194.0 604.0 5
1215.0 583.0 5
1267.0 583.0 5
1308.0 593.0 5
1402.0 854.0 6
1392.0 854.0 6
1381.0 843.0 6
1371.0 812.0 6
1371.0 781.0 6
1381.0 760.0 6
1392.0 729.0 6
1423.0 718.0 6
1444.0 718.0 6
1475.0 739.0 6
1496.0 770.0 6
1517.0 812.0 6
1517.0 854.0 6
1506.0 875.0 6
1485.0 895.0 6
1433.0 906.0 6
1402.0 895.0 6
1381.0 875.0 6
1371.0 833.0 6
1371.0 791.0 6
1558.0 1000.0 7
1558.0 1010.0 7
1548.0 1000.0 7
1548.0 968.0 7
1548.0 927.0 7
1548.0 885.0 7
1569.0 854.0 7
1590.0 843.0 7
1610.0 843.0 7
1631.0 875.0 7
1652.0 906.0 7
1652.0 948.0 7
1663.0 989.0 7
1663.0 1020.0 7
1652.0 1073.0 7
1642.0 1083.0 7
1631.0 1083.0 7
1631.0 1073.0 7
1642.0 1010.0 7
1652.0 968.0 7
1673.0 937.0 7
1694.0 927.0 7
1746.0 1156.0 8
1746.0 1166.0 8
1746.0 1104.0 8
1746.0 1073.0 8
1746.0 1041.0 8
1756.0 1020.0 8
1756.0 1000.0 8
1756.0 1000.0 8
1756.0 1062.0 8
1756.0 1093.0 8
1767.0 1135.0 8
1777.0 1187.0 8
1788.0 1218.0 8
1808.0 1218.0 8
1829.0 1208.0 8
1850.0 1187.0 8
1860.0 1145.0 8
1871.0 1093.0 8
1871.0 1073.0 8
1881.0 1052.0 8
1902.0 1052.0 8
1913.0 1073.0 8
1892.0 1468.0 9
1892.0 1468.0 9
1902.0 1458.0 9
1913.0 1427.0 9
1923.0 1364.0 9
1933.0 1270.0 9
1944.0 1208.0 9
1944.0 1166.0 9
1954.0 1135.0 9
1850.0 1270.0 10
1850.0 1281.0 10
1881.0 1312.0 10
1913.0 1343.0 10
1954.0 1375.0 10
2121.0 1448.0 11
2100.0 1448.0 11
2090.0 1448.0 11
2058.0 1427.0 11
2038.0 1395.0 11
2006.0 1333.0 11
2006.0 1281.0 11
2006.0 1250.0 11
2017.0 1229.0 11
2038.0 1208.0 11
2069.0 1218.0 11
2100.0 1239.0 11
2121.0 1281.0 11
2142.0 1323.0 11
2142.0 1375.0 11
2142.0 1416.0 11
2131.0 1458.0 11
2121.0 1468.0 11
2121.0 1458.0 11
2110.0 1437.0 11
2110.0 1364.0 11
2121.0 1323.0 11
2142.0 1302.0 11
2163.0 1291.0 11
2194.0 1677.0 12
2194.0 1677.0 12
2194.0 1656.0 12
2194.0 1614.0 12
2225.0 1479.0 12
2225.0 1437.0 12
2235.0 1406.0 12
2246.0 1406.0 12
2246.0 1520.0 12
2246.0 1573.0 12
2256.0 1614.0 12
2267.0 1635.0 12
2298.0 1635.0 12
2319.0 1625.0 12
2340.0 1593.0 12
2371.0 1552.0 12
2381.0 1510.0 12
2371.0 1479.0 12
2360.0 1458.0 12
2319.0 1437.0 12
2298.0 1437.0 12
2277.0 1448.0 12
2267.0 1468.0 12
2277.0 1479.0 12
2298.0 1500.0 12
2392.0 1687.0 13
2392.0 1708.0 13
2392.0 1698.0 13
2402.0 1666.0 13
2413.0 1614.0 13
2413.0 1573.0 13
2423.0 1541.0 13
2423.0 1531.0 13
2392.0 1770.0 14
2381.0 1802.0 14
2381.0 1802.0 14
2381.0 1802.0 14
2381.0 1791.0 14
2517.0 2020.0 15
2517.0 2020.0 15
2517.0 1989.0 15
2517.0 1906.0 15
2527.0 1843.0 15
2527.0 1760.0 15
2527.0 1708.0 15
2527.0 1656.0 15
2527.0 1635.0 15
2538.0 1625.0 15
2538.0 1625.0 15
2621.0 1895.0 16
2631.0 1895.0 16
2631.0 1875.0 16
2642.0 1823.0 16
2642.0 1781.0 16
2642.0 1750.0 16
2652.0 1729.0 16
2652.0 1729.0 16
2631.0 1968.0 17
2610.0 2000.0 17
2610.0 2000.0 17
2610.0 1989.0 17
2694.0 2135.0 18
2694.0 2135.0 18
2694.0 2114.0 18
2715.0 2041.0 18
2735.0 1979.0 18
2746.0 1906.0 18
2756.0 1864.0 18
2767.0 1823.0 18
2652.0 1958.0 19
2652.0 1968.0 19
2663.0 1979.0 19
2673.0 1989.0 19
2725.0 2020.0 19
2777.0 2041.0 19
2798.0 2062.0 19
2850.0 2125.0 20
2850.0 2125.0 20
2850.0 2104.0 20
2850.0 2073.0 20
2860.0 2020.0 20
2871.0 1989.0 20
2892.0 1979.0 20
2902.0 1979.0 20
2923.0 1989.0 20
2933.0 2020.0 20
2944.0 2062.0 20
2954.0 2104.0 20
2954.0 2156.0 20
2954.0 2166.0 20
2954.0 2166.0 20
2954.0 2156.0 20
2954.0 2093.0 20
2975.0 2041.0 20
2985.0 1979.0 20
2996.0 1916.0 20
3006.0 1854.0 20
3017.0 1802.0 20
3017.0 1760.0 20
3006.0 1739.0 20
2975.0 1729.0 20
2933.0 1729.0 20
2881.0 1729.0 20
2819.0 1739.0 20
2788.0 1760.0 20
2777.0 1791.0 20
2777.0 1812.0 20
2808.0 1854.0 20
2871.0 1885.0 20
2954.0 1927.0 20
3017.0 1958.0 20
3069.0 2000.0 20

