1006.0 1312.0 1
996.0 1302.0 1
985.0 1302.0 1
965.0 1281.0 1
954.0 1250.0 1
933.0 1208.0 1
933.0 1156.0 1
933.0 1104.0 1
954.0 1062.0 1
985.0 1041.0 1
1027.0 1031.0 1
1069.0 1031.0 1
1152.0 1052.0 1
1194.0 1083.0 1
1225.0 1135.0 1
1246.0 1177.0 1
1256.0 1250.0 1
1256.0 1302.0 1
1235.0 1375.0 1
1204.0 1427.0 1
1163.0 1458.0 1
1121.0 1458.0 1
1079.0 1437.0 1
1017.0 1385.0 1
996.0 1281.0 1
1090.0 1208.0 2
1090.0 1208.0 2
1090.0 1208.0 2
1100.0 1177.0 2
1142.0 1145.0 2
1173.0 1104.0 2
1204.0 1093.0 2
1256.0 1073.0 2
1277.0 1062.0 2
1288.0 1062.0 2
1329.0 1323.0 3
1329.0 1323.0 3
1329.0 1323.0 3
1329.0 1302.0 3
1329.0 1239.0 3
1329.0 1208.0 3
1350.0 1187.0 3
1360.0 1177.0 3
1381.0 1187.0 3
1402.0 1198.0 3
1423.0 1229.0 3
1433.0 1250.0 3
1444.0 1281.0 3
1444.0 1333.0 3
1444.0 1375.0 3
1444.0 1395.0 3
1444.0 1406.0 3
1444.0 1385.0 3
1444.0 1343.0 3
1444.0 1291.0 3
1454.0 1250.0 3
1475.0 1229.0 3
1517.0 1510.0 4
1517.0 1489.0 4
1517.0 1468.0 4
1517.0 1427.0 4
1517.0 1333.0 4
1527.0 1323.0 4
1527.0 1312.0 4
1527.0 1302.0 4
1496.0 1614.0 5
1475.0 1625.0 5
1600.0 1552.0 6
1590.0 1562.0 6
1590.0 1562.0 6
1590.0 1562.0 6
1590.0 1562.0 6
1621.0 1583.0 6
1631.0 1593.0 6
1642.0 1593.0 6
1652.0 1593.0 6
1663.0 1593.0 6
1673.0 1573.0 6
1673.0 1520.0 6
1652.0 1479.0 6
1621.0 1427.0 6
1610.0 1395.0 6
1600.0 1375.0 6
1590.0 1375.0 6
1590.0 1375.0 6
1590.0 1364.0 6
1610.0 1375.0 6
1642.0 1395.0 6
1683.0 1416.0 6
1725.0 1437.0 6
1756.0 1448.0 6
1788.0 1468.0 6
1798.0 1468.0 6
1788.0 1468.0 6
1725.0 1677.0 7
1725.0 1687.0 7
1735.0 1698.0 7
1746.0 1708.0 7
1767.0 1718.0 7
1788.0 1739.0 7
1808.0 1739.0 7
1829.0 1739.0 7
1840.0 1718.0 7
1850.0 1687.0 7
1840.0 1645.0 7
1819.0 1604.0 7
1788.0 1573.0 7
1777.0 1552.0 7
1767.0 1541.0 7
1767.0 1541.0 7
1767.0 1541.0 7
1788.0 1552.0 7
1829.0 1573.0 7
1860.0 1573.0 7
1892.0 1583.0 7
1923.0 1583.0 7
1944.0 1583.0 7
1944.0 1583.0 7
1944.0 1583.0 7
1954.0 1802.0 8
1954.0 1770.0 8
1954.0 1729.0 8
1965.0 1677.0 8
1965.0 1635.0 8
1975.0 1625.0 8
1975.0 1614.0 8
1923.0 1906.0 9
1913.0 1927.0 9
1913.0 1927.0 9
2194.0 1906.0 10
2194.0 1906.0 10
2194.0 1864.0 10
2194.0 1864.0 10
2204.0 1864.0 10
2204.0 1885.0 10
2204.0 1906.0 10
2194.0 1927.0 10
2173.0 1937.0 10
2131.0 1937.0 10
2100.0 1916.0 10
2079.0 1885.0 10
2058.0 1843.0 10
2058.0 1781.0 10
2079.0 1739.0 10
2110.0 1729.0 10
2163.0 1729.0 10
2225.0 1750.0 10
2267.0 1770.0 10
2402.0 2000.0 11
2402.0 2020.0 11
2392.0 2031.0 11
2381.0 2041.0 11
2371.0 2041.0 11
2329.0 2010.0 11
2298.0 1968.0 11
2288.0 1916.0 11
2288.0 1875.0 11
2308.0 1833.0 11
2329.0 1812.0 11
2360.0 1812.0 11
2381.0 1833.0 11
2413.0 1864.0 11
2423.0 1895.0 11
2433.0 1927.0 11
2433.0 1968.0 11
2433.0 2020.0 11
2423.0 2041.0 11
2423.0 2041.0 11
2423.0 2020.0 11
2413.0 1958.0 11
2413.0 1906.0 11
2423.0 1875.0 11
2433.0 1854.0 11
2548.0 2270.0 12
2548.0 2260.0 12
2538.0 2208.0 12
2538.0 2135.0 12
2527.0 2073.0 12
2538.0 2000.0 12
2538.0 1937.0 12
2548.0 1916.0 12
2558.0 1916.0 12
2621.0 2323.0 13
2621.0 2323.0 13
2610.0 2281.0 13
2610.0 2083.0 13
2621.0 2020.0 13
2631.0 1989.0 13
2735.0 2250.0 14
2735.0 2229.0 14
2735.0 2198.0 14
2735.0 2166.0 14
2746.0 2114.0 14
2767.0 2093.0 14
2777.0 2083.0 14
2798.0 2093.0 14
2819.0 2114.0 14
2840.0 2145.0 14
2840.0 2187.0 14
2850.0 2229.0 14
2850.0 2281.0 14
2850.0 2281.0 14
2850.0 2281.0 14
2840.0 2250.0 14
2829.0 2166.0 14
2840.0 2093.0 14
2850.0 2020.0 14
2860.0 1937.0 14
2860.0 1854.0 14
2850.0 1791.0 14
2829.0 1750.0 14
2788.0 1729.0 14
2725.0 1729.0 14
2694.0 1739.0 14
2673.0 1770.0 14
2673.0 1791.0 14
2704.0 1864.0 14

