808.0 1916.0 1
798.0 1916.0 1
798.0 1916.0 1
808.0 1916.0 1
808.0 1802.0 1
808.0 1729.0 1
798.0 1677.0 1
788.0 1604.0 1
788.0 1552.0 1
798.0 1500.0 1
798.0 1489.0 1
808.0 1489.0 1
819.0 1510.0 1
850.0 1562.0 1
860.0 1614.0 1
871.0 1666.0 1
881.0 1698.0 1
881.0 1739.0 1
892.0 1750.0 1
892.0 1750.0 1
892.0 1729.0 1
913.0 1656.0 1
933.0 1604.0 1
954.0 1562.0 1
975.0 1541.0 1
1006.0 1552.0 1
1038.0 1573.0 1
1058.0 1604.0 1
1069.0 1656.0 1
1090.0 1729.0 1
1100.0 1781.0 1
1110.0 1823.0 1
1110.0 1843.0 1
1235.0 1562.0 2
1215.0 1562.0 2
1215.0 1562.0 2
1204.0 1593.0 2
1204.0 1625.0 2
1204.0 1666.0 2
1215.0 1698.0 2
1235.0 1739.0 2
1246.0 1750.0 2
1267.0 1750.0 2
1288.0 1739.0 2
1308.0 1708.0 2
1319.0 1677.0 2
1319.0 1645.0 2
1298.0 1614.0 2
1277.0 1583.0 2
1267.0 1583.0 2
1256.0 1593.0 2
1256.0 1604.0 2
1423.0 1604.0 3
1413.0 1604.0 3
1402.0 1604.0 3
1402.0 1625.0 3
1392.0 1645.0 3
1392.0 1677.0 3
1402.0 1718.0 3
1413.0 1739.0 3
1423.0 1760.0 3
1433.0 1760.0 3
1454.0 1760.0 3
1465.0 1739.0 3
1485.0 1718.0 3
1496.0 1687.0 3
1496.0 1677.0 3
1475.0 1656.0 3
1475.0 1645.0 3
1454.0 1645.0 3
1454.0 1645.0 3
1454.0 1645.0 3
1454.0 1645.0 3
1475.0 1645.0 3
1506.0 1645.0 3
1527.0 1635.0 3
1538.0 1625.0 3
1548.0 1604.0 3
1538.0 1583.0 3
1517.0 1562.0 3
1496.0 1552.0 3
1454.0 1552.0 3
1444.0 1562.0 3
1444.0 1593.0 3
1600.0 1583.0 4
1590.0 1593.0 4
1569.0 1593.0 4
1558.0 1625.0 4
1548.0 1645.0 4
1548.0 1677.0 4
1558.0 1708.0 4
1569.0 1729.0 4
1579.0 1739.0 4
1590.0 1739.0 4
1610.0 1739.0 4
1631.0 1718.0 4
1631.0 1698.0 4
1631.0 1666.0 4
1610.0 1645.0 4
1600.0 1635.0 4
1590.0 1635.0 4
1590.0 1635.0 4
1590.0 1635.0 4
1590.0 1635.0 4
1610.0 1635.0 4
1631.0 1635.0 4
1663.0 1625.0 4
1673.0 1614.0 4
1673.0 1604.0 4
1663.0 1593.0 4
1642.0 1573.0 4
1621.0 1573.0 4
1600.0 1573.0 4
1590.0 1583.0 4
1579.0 1593.0 4
1725.0 1729.0 5
1725.0 1739.0 5
1725.0 1687.0 5
1715.0 1645.0 5
1715.0 1625.0 5
1715.0 1614.0 5
1715.0 1593.0 5
1725.0 1593.0 5
1735.0 1593.0 5
1756.0 1593.0 5
1788.0 1604.0 5
1860.0 1760.0 6
1860.0 1770.0 6
1860.0 1770.0 6
1860.0 1760.0 6
1860.0 1739.0 6
1850.0 1729.0 6
1850.0 1708.0 6
1840.0 1677.0 6
1829.0 1656.0 6
1829.0 1635.0 6
1829.0 1614.0 6
1840.0 1593.0 6
1850.0 1593.0 6
1881.0 1593.0 6
1902.0 1604.0 6
1944.0 1635.0 6
1829.0 1791.0 7
1829.0 1791.0 7
1840.0 1791.0 7
1860.0 1791.0 7
1944.0 1791.0 7
1975.0 1781.0 7
1808.0 1718.0 8
1819.0 1718.0 8
1829.0 1718.0 8
1840.0 1718.0 8
1860.0 1718.0 8

