381.0 2354.0 1
350.0 2375.0 1
340.0 2395.0 1
319.0 2448.0 1
319.0 2489.0 1
329.0 2552.0 1
350.0 2593.0 1
371.0 2625.0 1
402.0 2635.0 1
454.0 2604.0 1
496.0 2562.0 1
527.0 2510.0 1
527.0 2468.0 1
506.0 2385.0 1
475.0 2343.0 1
433.0 2312.0 1
402.0 2302.0 1
371.0 2312.0 1
360.0 2354.0 1
569.0 2323.0 2
558.0 2343.0 2
558.0 2364.0 2
558.0 2385.0 2
569.0 2427.0 2
569.0 2437.0 2
579.0 2448.0 2
579.0 2448.0 2
579.0 2427.0 2
590.0 2395.0 2
600.0 2375.0 2
610.0 2364.0 2
631.0 2375.0 2
642.0 2395.0 2
652.0 2416.0 2
652.0 2437.0 2
652.0 2448.0 2
663.0 2448.0 2
663.0 2448.0 2
673.0 2416.0 2
683.0 2375.0 2
694.0 2343.0 2
704.0 2333.0 2
767.0 2333.0 3
767.0 2343.0 3
756.0 2364.0 3
756.0 2385.0 3
756.0 2427.0 3
767.0 2458.0 3
767.0 2479.0 3
829.0 2458.0 4
829.0 2458.0 4
829.0 2458.0 4
850.0 2448.0 4
871.0 2448.0 4
902.0 2448.0 4
923.0 2448.0 4
902.0 2458.0 5
892.0 2437.0 5
881.0 2416.0 5
871.0 2364.0 5
871.0 2343.0 5
881.0 2333.0 5
975.0 2468.0 6
965.0 2468.0 6
965.0 2458.0 6
975.0 2448.0 6
996.0 2448.0 6
1027.0 2458.0 6
1048.0 2468.0 6
1027.0 2458.0 7
1027.0 2437.0 7
1017.0 2406.0 7
1017.0 2343.0 7
1027.0 2312.0 7
1152.0 2479.0 8
1152.0 2479.0 8
1142.0 2479.0 8
1142.0 2468.0 8
1131.0 2437.0 8
1121.0 2406.0 8
1110.0 2364.0 8
1110.0 2333.0 8
1131.0 2312.0 8
1152.0 2312.0 8
1173.0 2323.0 8
1142.0 2458.0 9
1142.0 2458.0 9
1142.0 2458.0 9
1152.0 2458.0 9
1163.0 2458.0 9
1131.0 2427.0 10
1131.0 2427.0 10
1131.0 2416.0 10
1142.0 2427.0 10
1173.0 2427.0 10
1277.0 2479.0 11
1277.0 2479.0 11
1277.0 2479.0 11
1288.0 2468.0 11
1308.0 2458.0 11
1329.0 2437.0 11
1350.0 2406.0 11
1350.0 2385.0 11
1350.0 2343.0 11
1329.0 2323.0 11
1298.0 2302.0 11
1267.0 2302.0 11
1235.0 2323.0 11
1225.0 2343.0 11
1256.0 2343.0 12
1256.0 2364.0 12
1267.0 2385.0 12
1277.0 2427.0 12
1288.0 2458.0 12

