1579.0 1666.0 1
1548.0 1687.0 1
1517.0 1708.0 1
1465.0 1708.0 1
1413.0 1687.0 1
1371.0 1625.0 1
1360.0 1520.0 1
1381.0 1395.0 1
1454.0 1281.0 1
1527.0 1250.0 1
1610.0 1250.0 1
1683.0 1281.0 1
1746.0 1375.0 1
1756.0 1448.0 1
1746.0 1520.0 1
1704.0 1593.0 1
1621.0 1635.0 1
1569.0 1645.0 1
1517.0 1635.0 1
1881.0 1729.0 2
1871.0 1739.0 2
1881.0 1739.0 2
1913.0 1739.0 2
1954.0 1729.0 2
1996.0 1708.0 2
2048.0 1698.0 2
2079.0 1666.0 2
2110.0 1645.0 2
2110.0 1593.0 2
2100.0 1531.0 2
2079.0 1416.0 2
2079.0 1333.0 2
2079.0 1239.0 2
2558.0 1677.0 3
2548.0 1698.0 3
2527.0 1708.0 3
2496.0 1729.0 3
2433.0 1718.0 3
2381.0 1698.0 3
2350.0 1666.0 3
2329.0 1625.0 3
2329.0 1593.0 3
2350.0 1562.0 3
2381.0 1531.0 3
2433.0 1489.0 3
2465.0 1458.0 3
2485.0 1427.0 3
2485.0 1385.0 3
2475.0 1343.0 3
2454.0 1333.0 3
2423.0 1333.0 3
2381.0 1354.0 3
2381.0 1406.0 3
2381.0 1468.0 3
2402.0 1531.0 3
2454.0 1625.0 3
2485.0 1677.0 3
2517.0 1698.0 3
2527.0 1718.0 3
2965.0 1770.0 4
2975.0 1770.0 4
2985.0 1770.0 4
2933.0 1770.0 4
2881.0 1760.0 4
2829.0 1750.0 4
2788.0 1729.0 4
2767.0 1708.0 4
2756.0 1698.0 4
2756.0 1698.0 4
2756.0 1687.0 4
2746.0 1687.0 4
2746.0 1677.0 4
2735.0 1656.0 4
2725.0 1635.0 4
2715.0 1604.0 4
2715.0 1593.0 4
2715.0 1583.0 4
2725.0 1573.0 4
2767.0 1573.0 4
2840.0 1573.0 4
2881.0 1562.0 4
2944.0 1552.0 4
2985.0 1520.0 4
2985.0 1500.0 4
2965.0 1448.0 4
2902.0 1395.0 4
2808.0 1333.0 4
2746.0 1291.0 4
2694.0 1270.0 4
3267.0 1823.0 5
3267.0 1833.0 5
3267.0 1833.0 5
3256.0 1823.0 5
3215.0 1739.0 5
3183.0 1635.0 5
3163.0 1500.0 5
3163.0 1395.0 5
3173.0 1333.0 5
3215.0 1333.0 5
3246.0 1364.0 5
3288.0 1427.0 5
3288.0 1468.0 5
3246.0 1489.0 5
3204.0 1489.0 5
3142.0 1468.0 5
3142.0 1416.0 5

