367.0 2691.0 1
356.0 2712.0 1
346.0 2712.0 1
335.0 2712.0 1
315.0 2712.0 1
294.0 2691.0 1
283.0 2660.0 1
283.0 2650.0 1
304.0 2629.0 1
325.0 2629.0 1
335.0 2629.0 1
356.0 2650.0 1
367.0 2702.0 1
367.0 2733.0 1
367.0 2775.0 1
356.0 2795.0 1
356.0 2806.0 1

