1100.0 1677.0 1
1090.0 1677.0 1
1110.0 1635.0 1
1131.0 1531.0 1
1142.0 1437.0 1
1142.0 1333.0 1
1142.0 1250.0 1
1142.0 1187.0 1
1131.0 1156.0 1
1131.0 1177.0 1
850.0 1593.0 2
850.0 1604.0 2
871.0 1604.0 2
944.0 1604.0 2
1017.0 1635.0 2
1110.0 1666.0 2
1204.0 1698.0 2
1298.0 1739.0 2
1360.0 1760.0 2
1392.0 1781.0 2
1423.0 1781.0 2
1350.0 1479.0 3
1350.0 1479.0 3
1360.0 1427.0 3
1381.0 1385.0 3
1392.0 1354.0 3
1413.0 1323.0 3
1413.0 1323.0 3
1402.0 1333.0 3
1402.0 1385.0 3
1392.0 1448.0 3
1413.0 1468.0 3
1423.0 1489.0 3
1444.0 1500.0 3
1485.0 1500.0 3
1517.0 1500.0 3
1548.0 1500.0 3
1840.0 1479.0 4
1829.0 1489.0 4
1829.0 1489.0 4
1819.0 1510.0 4
1788.0 1520.0 4
1746.0 1531.0 4
1673.0 1510.0 4
1621.0 1479.0 4
1590.0 1448.0 4
1579.0 1416.0 4
1590.0 1375.0 4
1610.0 1364.0 4
1642.0 1364.0 4
1673.0 1364.0 4
1704.0 1385.0 4
1735.0 1416.0 4
1756.0 1448.0 4
1777.0 1468.0 4
1788.0 1500.0 4
1798.0 1510.0 4
1798.0 1510.0 4
1798.0 1510.0 4
1798.0 1510.0 4
1808.0 1489.0 4
1808.0 1458.0 4
1819.0 1416.0 4
1819.0 1395.0 4
1829.0 1385.0 4
1840.0 1385.0 4
1860.0 1520.0 5
1860.0 1520.0 5
1871.0 1510.0 5
1892.0 1500.0 5
1913.0 1479.0 5
1923.0 1458.0 5
1923.0 1437.0 5
1923.0 1427.0 5
1933.0 1427.0 5
1933.0 1448.0 5
1944.0 1479.0 5
1965.0 1541.0 5
1985.0 1583.0 5
1996.0 1614.0 5
2027.0 1625.0 5
2048.0 1614.0 5
2069.0 1593.0 5
2079.0 1562.0 5
2090.0 1520.0 5
2100.0 1479.0 5
2100.0 1468.0 5
2100.0 1468.0 5
2100.0 1468.0 5
2308.0 1656.0 6
2308.0 1656.0 6
2277.0 1645.0 6
2256.0 1625.0 6
2235.0 1604.0 6
2215.0 1583.0 6
2225.0 1562.0 6
2235.0 1552.0 6
2256.0 1541.0 6
2288.0 1520.0 6
2308.0 1500.0 6
2319.0 1489.0 6
2319.0 1468.0 6
2298.0 1448.0 6
2267.0 1427.0 6
2215.0 1406.0 6
2183.0 1385.0 6
2704.0 1895.0 7
2704.0 1895.0 7
2683.0 1895.0 7
2621.0 1895.0 7
2579.0 1875.0 7
2538.0 1843.0 7
2506.0 1802.0 7
2485.0 1750.0 7
2485.0 1708.0 7
2496.0 1666.0 7
2517.0 1625.0 7
2548.0 1552.0 7
2569.0 1510.0 7
2569.0 1479.0 7
2579.0 1468.0 7
2579.0 1468.0 7
2579.0 1458.0 7
2569.0 1458.0 7
2371.0 1614.0 8
2371.0 1614.0 8
2381.0 1614.0 8
2402.0 1625.0 8
2475.0 1656.0 8
2527.0 1666.0 8
2569.0 1677.0 8
2600.0 1687.0 8
2631.0 1698.0 8
2798.0 1593.0 9
2777.0 1593.0 9
2767.0 1614.0 9
2746.0 1614.0 9
2715.0 1593.0 9
2683.0 1552.0 9
2663.0 1510.0 9
2663.0 1489.0 9
2694.0 1479.0 9
2725.0 1479.0 9
2777.0 1500.0 9
2798.0 1520.0 9
2808.0 1552.0 9
2808.0 1573.0 9
2788.0 1604.0 9
2777.0 1614.0 9
2767.0 1614.0 9
2756.0 1614.0 9
2881.0 1645.0 10
2881.0 1625.0 10
2902.0 1593.0 10
2913.0 1552.0 10
2933.0 1500.0 10
2933.0 1479.0 10
2933.0 1468.0 10
2933.0 1468.0 10
2923.0 1489.0 10
2913.0 1541.0 10
2913.0 1593.0 10
2913.0 1625.0 10
2933.0 1645.0 10
2954.0 1656.0 10
2975.0 1656.0 10
3006.0 1656.0 10
3027.0 1656.0 10
3110.0 1666.0 11
3110.0 1656.0 11
3131.0 1562.0 11
3131.0 1510.0 11
3131.0 1479.0 11
3142.0 1500.0 11
3152.0 1531.0 11
3173.0 1604.0 11
3194.0 1656.0 11
3215.0 1677.0 11
3225.0 1677.0 11
3225.0 1677.0 11
3246.0 1656.0 11
3246.0 1614.0 11
3256.0 1573.0 11
3256.0 1520.0 11
3256.0 1500.0 11
3267.0 1500.0 11
3288.0 1531.0 11
3298.0 1583.0 11
3319.0 1635.0 11
3350.0 1677.0 11
3392.0 1687.0 11
3402.0 1677.0 11
3413.0 1635.0 11
3433.0 1573.0 11
3454.0 1520.0 11
3465.0 1489.0 11
3475.0 1479.0 11

