1871.0 1656.0 1
1871.0 1656.0 1
1871.0 1656.0 1
1840.0 1666.0 1
1788.0 1666.0 1
1715.0 1656.0 1
1673.0 1645.0 1
1631.0 1635.0 1
1610.0 1625.0 1
1600.0 1625.0 1
1600.0 1625.0 1
1600.0 1604.0 1
1600.0 1573.0 1
1600.0 1541.0 1
1590.0 1500.0 1
1590.0 1458.0 1
1569.0 1437.0 1
1569.0 1427.0 1
1579.0 1427.0 1
1610.0 1427.0 1
1642.0 1427.0 1
1735.0 1427.0 1
1808.0 1395.0 1
1860.0 1375.0 1
1881.0 1343.0 1
1881.0 1302.0 1
1850.0 1239.0 1
1788.0 1166.0 1
1725.0 1114.0 1
1652.0 1083.0 1
1590.0 1062.0 1
1590.0 1083.0 1
2215.0 1541.0 2
2215.0 1573.0 2
2204.0 1583.0 2
2173.0 1583.0 2
2131.0 1573.0 2
2079.0 1531.0 2
2048.0 1468.0 2
2027.0 1343.0 2
2027.0 1281.0 2
2069.0 1239.0 2
2121.0 1229.0 2
2183.0 1250.0 2
2225.0 1291.0 2
2246.0 1364.0 2
2256.0 1437.0 2
2235.0 1500.0 2
2204.0 1531.0 2
2183.0 1552.0 2
2600.0 1573.0 3
2569.0 1583.0 3
2538.0 1604.0 3
2496.0 1604.0 3
2444.0 1573.0 3
2402.0 1500.0 3
2392.0 1385.0 3
2402.0 1312.0 3
2444.0 1270.0 3
2506.0 1270.0 3
2579.0 1323.0 3
2621.0 1395.0 3
2631.0 1458.0 3
2621.0 1510.0 3
2590.0 1562.0 3
2538.0 1573.0 3
2506.0 1562.0 3
2860.0 1614.0 4
2871.0 1625.0 4
2871.0 1604.0 4
2881.0 1562.0 4
2881.0 1500.0 4
2871.0 1416.0 4
2860.0 1312.0 4
2860.0 1281.0 4
2860.0 1270.0 4
3079.0 1698.0 5
3079.0 1698.0 5
3100.0 1666.0 5
3110.0 1604.0 5
3121.0 1489.0 5
3121.0 1385.0 5
3121.0 1312.0 5
3121.0 1260.0 5
3142.0 1239.0 5

