1610.0 1698.0 1
1610.0 1698.0 1
1610.0 1698.0 1
1610.0 1698.0 1
1610.0 1698.0 1
1600.0 1666.0 1
1590.0 1583.0 1
1569.0 1479.0 1
1548.0 1395.0 1
1527.0 1302.0 1
1517.0 1260.0 1
1517.0 1229.0 1
1517.0 1208.0 1
1517.0 1208.0 1
1642.0 1416.0 2
1642.0 1416.0 2
1642.0 1406.0 2
1631.0 1385.0 2
1621.0 1333.0 2
1610.0 1291.0 2
1610.0 1250.0 2
1610.0 1239.0 2
1610.0 1239.0 2
1621.0 1260.0 2
1631.0 1291.0 2
1642.0 1333.0 2
1652.0 1364.0 2
1652.0 1364.0 2
1652.0 1364.0 2
1663.0 1364.0 2
1663.0 1354.0 2
1673.0 1343.0 2
1683.0 1323.0 2
1694.0 1291.0 2
1704.0 1270.0 2
1715.0 1260.0 2
1715.0 1250.0 2
1725.0 1239.0 2
1725.0 1229.0 2
1735.0 1229.0 2
1735.0 1239.0 2
1735.0 1250.0 2
1746.0 1302.0 2
1767.0 1385.0 2
1767.0 1416.0 2
1767.0 1427.0 2
1767.0 1427.0 2
1767.0 1427.0 2
1777.0 1427.0 2
1944.0 1406.0 3
1933.0 1416.0 3
1923.0 1427.0 3
1913.0 1427.0 3
1892.0 1416.0 3
1860.0 1385.0 3
1819.0 1323.0 3
1808.0 1281.0 3
1808.0 1250.0 3
1808.0 1239.0 3
1819.0 1239.0 3
1840.0 1239.0 3
1860.0 1260.0 3
1902.0 1312.0 3
1933.0 1395.0 3
1954.0 1468.0 3
1975.0 1552.0 3
1985.0 1645.0 3
1985.0 1677.0 3
1985.0 1687.0 3
1985.0 1687.0 3
1985.0 1687.0 3
1985.0 1666.0 3
1965.0 1593.0 3
1944.0 1500.0 3
1923.0 1416.0 3
1913.0 1364.0 3
1902.0 1323.0 3
1902.0 1281.0 3
1902.0 1270.0 3
1902.0 1250.0 3
1902.0 1250.0 3
2017.0 1375.0 4
2017.0 1385.0 4
2017.0 1385.0 4
2017.0 1385.0 4
2017.0 1385.0 4
2006.0 1354.0 4
2006.0 1323.0 4
2006.0 1302.0 4
2017.0 1291.0 4
2027.0 1291.0 4
2048.0 1302.0 4
2058.0 1323.0 4
2079.0 1375.0 4
2090.0 1416.0 4
2090.0 1448.0 4
2090.0 1458.0 4
2246.0 1468.0 5
2246.0 1468.0 5
2246.0 1458.0 5
2225.0 1448.0 5
2194.0 1395.0 5
2183.0 1375.0 5
2173.0 1375.0 5
2173.0 1364.0 5
2183.0 1364.0 5
2194.0 1364.0 5
2215.0 1364.0 5
2246.0 1354.0 5
2256.0 1354.0 5
2256.0 1343.0 5
2256.0 1323.0 5
2235.0 1291.0 5
2225.0 1270.0 5
2204.0 1260.0 5
2194.0 1250.0 5
2183.0 1250.0 5
2183.0 1250.0 5
2381.0 1625.0 6
2381.0 1625.0 6
2371.0 1614.0 6
2371.0 1468.0 6
2371.0 1416.0 6
2360.0 1354.0 6
2340.0 1302.0 6
2340.0 1270.0 6
2340.0 1260.0 6
2340.0 1260.0 6
2350.0 1270.0 6
2277.0 1406.0 7
2277.0 1416.0 7
2288.0 1427.0 7
2329.0 1448.0 7
2350.0 1458.0 7
2381.0 1468.0 7
2413.0 1468.0 7
2423.0 1468.0 7
2433.0 1468.0 7
2454.0 1468.0 7
2454.0 1458.0 7
2465.0 1437.0 7
2454.0 1385.0 7
2454.0 1333.0 7
2444.0 1302.0 7
2423.0 1281.0 7
2423.0 1260.0 7
2423.0 1260.0 7
2423.0 1302.0 7
2433.0 1364.0 7
2454.0 1427.0 7
2465.0 1468.0 7
2475.0 1479.0 7
2485.0 1479.0 7
2496.0 1479.0 7
2506.0 1479.0 7
2527.0 1458.0 7
2527.0 1437.0 7
2527.0 1416.0 7
2506.0 1395.0 7
2475.0 1364.0 7
2454.0 1354.0 7
2444.0 1354.0 7
2444.0 1343.0 7
2444.0 1343.0 7
2444.0 1343.0 7
2465.0 1333.0 7
2485.0 1323.0 7
2506.0 1312.0 7
2527.0 1312.0 7
2548.0 1312.0 7
2621.0 1406.0 8
2621.0 1416.0 8
2610.0 1416.0 8
2610.0 1406.0 8
2610.0 1375.0 8
2600.0 1333.0 8
2590.0 1302.0 8
2590.0 1260.0 8
2683.0 1406.0 9
2694.0 1406.0 9
2694.0 1406.0 9
2694.0 1406.0 9
2694.0 1375.0 9
2683.0 1333.0 9
2683.0 1302.0 9
2673.0 1291.0 9
2673.0 1281.0 9
2673.0 1291.0 9
2683.0 1312.0 9
2704.0 1375.0 9
2725.0 1406.0 9
2746.0 1437.0 9
2756.0 1448.0 9
2767.0 1448.0 9
2767.0 1437.0 9
2777.0 1416.0 9
2788.0 1385.0 9
2777.0 1343.0 9
2777.0 1291.0 9
2777.0 1291.0 9
2777.0 1291.0 9
2777.0 1291.0 9
2683.0 1354.0 10
2683.0 1354.0 10
2694.0 1364.0 10
2746.0 1364.0 10
2777.0 1385.0 10
2798.0 1395.0 10
2923.0 1656.0 11
2902.0 1635.0 11
2881.0 1573.0 11
2871.0 1510.0 11
2860.0 1437.0 11
2860.0 1385.0 11
2860.0 1343.0 11
2860.0 1323.0 11
2860.0 1302.0 11
2860.0 1302.0 11
2860.0 1302.0 11
2985.0 1458.0 12
2985.0 1448.0 12
2985.0 1448.0 12
2985.0 1416.0 12
2985.0 1385.0 12
2975.0 1354.0 12
2965.0 1333.0 12
2965.0 1312.0 12
2965.0 1312.0 12
2975.0 1312.0 12
3048.0 1416.0 13
3058.0 1427.0 13
3069.0 1437.0 13
3079.0 1437.0 13
3100.0 1448.0 13
3110.0 1448.0 13
3121.0 1458.0 13
3142.0 1448.0 13
3142.0 1448.0 13
3142.0 1437.0 13
3142.0 1416.0 13
3131.0 1385.0 13
3100.0 1333.0 13
3090.0 1312.0 13
3090.0 1291.0 13
3079.0 1281.0 13
3090.0 1281.0 13
3090.0 1281.0 13
3110.0 1270.0 13
3142.0 1270.0 13
3173.0 1270.0 13
3183.0 1281.0 13
3204.0 1291.0 13
3204.0 1302.0 13
3288.0 1448.0 14
3288.0 1458.0 14
3288.0 1448.0 14
3267.0 1416.0 14
3256.0 1385.0 14
3225.0 1323.0 14
3215.0 1302.0 14
3215.0 1281.0 14
3215.0 1270.0 14
3215.0 1270.0 14
3225.0 1270.0 14
3246.0 1270.0 14
3277.0 1270.0 14
3298.0 1270.0 14
3340.0 1270.0 14
3340.0 1270.0 14
3340.0 1291.0 14
3246.0 1333.0 15
3235.0 1333.0 15
3246.0 1333.0 15
3256.0 1333.0 15
3277.0 1343.0 15
3298.0 1354.0 15
3319.0 1354.0 15
3329.0 1364.0 15
3329.0 1364.0 15
3267.0 1427.0 16
3267.0 1437.0 16
3277.0 1448.0 16
3298.0 1458.0 16
3319.0 1458.0 16
3340.0 1468.0 16
3360.0 1468.0 16
3360.0 1468.0 16
3360.0 1468.0 16
2975.0 1552.0 17
2975.0 1552.0 17
2975.0 1552.0 17
2975.0 1552.0 17
2975.0 1552.0 17
2600.0 1583.0 18
2600.0 1583.0 18
2600.0 1583.0 18
2600.0 1583.0 18

