871.0 2198.0 1
871.0 2198.0 1
871.0 2208.0 1
871.0 2208.0 1
871.0 2208.0 1
871.0 2198.0 1
860.0 2177.0 1
860.0 2145.0 1
871.0 2083.0 1
892.0 2020.0 1
933.0 1979.0 1
975.0 1948.0 1
1027.0 1937.0 1
1100.0 1937.0 1
1142.0 1968.0 1
1183.0 2000.0 1
1204.0 2052.0 1
1215.0 2114.0 1
1204.0 2166.0 1
1194.0 2218.0 1
1183.0 2250.0 1
1173.0 2260.0 1
1163.0 2260.0 1
1392.0 2093.0 2
1392.0 2083.0 2
1392.0 2073.0 2
1413.0 2041.0 2
1423.0 2010.0 2
1433.0 1989.0 2
1433.0 1968.0 2
1433.0 1958.0 2
1433.0 2041.0 2
1444.0 2062.0 2
1465.0 2093.0 2
1485.0 2114.0 2
1517.0 2125.0 2
1527.0 2114.0 2
1548.0 2083.0 2
1558.0 2052.0 2
1590.0 2010.0 2
1590.0 1979.0 2
1600.0 1968.0 2
1600.0 1958.0 2
1600.0 1968.0 2
1600.0 1968.0 2
1683.0 2020.0 3
1683.0 2020.0 3
1694.0 2010.0 3
1735.0 2000.0 3
1756.0 2010.0 3
1767.0 2020.0 3
1788.0 2031.0 3
1788.0 2052.0 3
1767.0 2073.0 3
1746.0 2083.0 3
1725.0 2093.0 3
1683.0 2073.0 3
1652.0 2062.0 3
1652.0 2041.0 3
1652.0 2010.0 3
1673.0 1968.0 3
1715.0 1948.0 3
1756.0 1937.0 3
1808.0 1937.0 3
1850.0 1937.0 3
1881.0 1948.0 3
1923.0 2052.0 4
1913.0 2052.0 4
1923.0 2041.0 4
1944.0 2020.0 4
1965.0 2000.0 4
1985.0 1958.0 4
2017.0 1937.0 4
2027.0 1927.0 4
2048.0 1916.0 4
2006.0 2052.0 5
1996.0 2052.0 5
1975.0 2020.0 5
1954.0 2000.0 5
1923.0 1958.0 5
1902.0 1948.0 5
1892.0 1937.0 5
2204.0 2031.0 6
2194.0 2010.0 6
2194.0 1979.0 6
2204.0 1948.0 6
2215.0 1916.0 6
2215.0 1895.0 6
2225.0 1885.0 6
2225.0 1875.0 6
2215.0 1875.0 6
2215.0 1885.0 6
2215.0 1916.0 6
2204.0 1948.0 6
2194.0 2010.0 6
2204.0 2041.0 6
2215.0 2083.0 6
2225.0 2104.0 6
2246.0 2125.0 6
2267.0 2125.0 6
2288.0 2114.0 6
2298.0 2073.0 6
2298.0 2041.0 6
2298.0 2020.0 6
2288.0 2010.0 6
2267.0 2000.0 6
2235.0 2010.0 6
2215.0 2031.0 6
2360.0 2010.0 7
2360.0 2010.0 7
2360.0 2010.0 7
2360.0 2010.0 7
2360.0 2000.0 7
2371.0 1989.0 7
2381.0 1989.0 7
2413.0 1989.0 7
2433.0 2000.0 7
2444.0 2010.0 7
2454.0 2020.0 7
2444.0 2041.0 7
2433.0 2052.0 7
2423.0 2052.0 7
2402.0 2041.0 7
2371.0 2031.0 7
2360.0 2010.0 7
2350.0 2000.0 7
2360.0 1968.0 7
2392.0 1937.0 7
2423.0 1916.0 7
2465.0 1916.0 7
2496.0 1906.0 7
2527.0 1916.0 7
2673.0 2020.0 8
2663.0 2031.0 8
2642.0 2031.0 8
2610.0 2041.0 8
2590.0 2031.0 8
2569.0 2010.0 8
2548.0 2000.0 8
2548.0 1979.0 8
2558.0 1958.0 8
2590.0 1927.0 8
2621.0 1916.0 8
2673.0 1916.0 8
2735.0 1916.0 8
2788.0 1927.0 8
2871.0 2062.0 9
2881.0 2062.0 9
2881.0 2041.0 9
2892.0 2010.0 9
2892.0 1979.0 9
2902.0 1948.0 9
2933.0 1906.0 9
2944.0 1895.0 9
2954.0 1895.0 9
2777.0 2000.0 10
2788.0 2000.0 10
2829.0 1989.0 10
2892.0 1989.0 10
2965.0 1989.0 10
3006.0 1979.0 10
3027.0 1968.0 10
3038.0 1968.0 10
3079.0 1979.0 11
3079.0 1979.0 11
3100.0 1968.0 11
3121.0 1968.0 11
3142.0 1979.0 11
3152.0 1989.0 11
3163.0 2010.0 11
3163.0 2020.0 11
3152.0 2041.0 11
3142.0 2041.0 11
3100.0 2041.0 11
3069.0 2020.0 11
3058.0 2000.0 11
3058.0 1979.0 11
3069.0 1948.0 11
3110.0 1927.0 11
3173.0 1916.0 11
3246.0 1916.0 11
3360.0 2010.0 12
3350.0 2020.0 12
3340.0 2020.0 12
3308.0 2031.0 12
3277.0 2031.0 12
3246.0 2010.0 12
3235.0 1989.0 12
3235.0 1968.0 12
3246.0 1948.0 12
3298.0 1927.0 12
3319.0 1927.0 12
3340.0 1937.0 12
3360.0 1958.0 12
3381.0 2020.0 12
3392.0 2073.0 12
3402.0 2135.0 12
3402.0 2177.0 12
3392.0 2198.0 12
3371.0 2187.0 12
3340.0 2145.0 12
3319.0 2093.0 12
3329.0 2020.0 12
3371.0 1979.0 12
3423.0 1937.0 12
3485.0 1916.0 12

