294.0 2775.0 1
294.0 2785.0 1
294.0 2795.0 1
283.0 2806.0 1
273.0 2806.0 1
263.0 2795.0 1
242.0 2764.0 1
231.0 2733.0 1
231.0 2702.0 1
231.0 2691.0 1
242.0 2681.0 1
242.0 2691.0 1
263.0 2702.0 1
273.0 2733.0 1
283.0 2764.0 1
294.0 2775.0 1
294.0 2775.0 1
294.0 2733.0 1
294.0 2691.0 1
283.0 2639.0 1
283.0 2598.0 1
283.0 2566.0 1
283.0 2556.0 1
210.0 2618.0 2
210.0 2629.0 2
210.0 2629.0 2
221.0 2629.0 2
252.0 2650.0 2
294.0 2670.0 2
356.0 2691.0 2
377.0 2702.0 2

