2006.0 1583.0 1
1985.0 1604.0 1
1933.0 1614.0 1
1881.0 1583.0 1
1829.0 1510.0 1
1788.0 1406.0 1
1756.0 1250.0 1
1756.0 1145.0 1
1788.0 1073.0 1
1840.0 1020.0 1
1923.0 968.0 1
1975.0 958.0 1
2038.0 958.0 1
2131.0 1229.0 2
2131.0 1239.0 2
2131.0 1270.0 2
2163.0 1281.0 2
2194.0 1270.0 2
2235.0 1208.0 2
2256.0 1135.0 2
2267.0 1093.0 2
2277.0 1073.0 2
2277.0 1062.0 2
2267.0 1073.0 2
2246.0 1104.0 2
2215.0 1135.0 2
2194.0 1145.0 2
2183.0 1125.0 2
2173.0 1104.0 2
2163.0 1083.0 2
2173.0 1073.0 2
2183.0 1073.0 2
2215.0 1083.0 2
2485.0 1468.0 3
2454.0 1510.0 3
2433.0 1562.0 3
2402.0 1593.0 3
2371.0 1614.0 3
2371.0 1614.0 3
2360.0 1593.0 3
2360.0 1531.0 3
2371.0 1448.0 3
2392.0 1302.0 3
2402.0 1218.0 3
2402.0 1156.0 3
2402.0 1104.0 3
2277.0 1198.0 4
2288.0 1187.0 4
2308.0 1187.0 4
2381.0 1198.0 4
2433.0 1218.0 4
2496.0 1229.0 4
2548.0 1250.0 4
2579.0 1270.0 4
2579.0 1270.0 4
2579.0 1281.0 4
2558.0 1281.0 4
2527.0 1260.0 4
2506.0 1218.0 4
2485.0 1187.0 4
2496.0 1156.0 4
2506.0 1135.0 4
2538.0 1135.0 4
2569.0 1156.0 4
2600.0 1177.0 4
2642.0 1229.0 4
2652.0 1270.0 4
2673.0 1323.0 4
2673.0 1375.0 4
2663.0 1437.0 4
2652.0 1468.0 4
2642.0 1489.0 4
2642.0 1468.0 4
2652.0 1395.0 4
2652.0 1333.0 4
2652.0 1250.0 4
2642.0 1187.0 4
2642.0 1145.0 4
2642.0 1125.0 4
2569.0 1302.0 5
2569.0 1302.0 5
2569.0 1302.0 5
2590.0 1302.0 5
2631.0 1323.0 5
2673.0 1333.0 5
2725.0 1250.0 6
2725.0 1229.0 6
2725.0 1239.0 6
2735.0 1239.0 6
2767.0 1250.0 6
2788.0 1260.0 6
2798.0 1281.0 6
2798.0 1291.0 6
2788.0 1291.0 6
2767.0 1291.0 6
2746.0 1260.0 6
2725.0 1218.0 6
2725.0 1198.0 6
2746.0 1177.0 6
2767.0 1166.0 6
2788.0 1177.0 6
2819.0 1198.0 6
2829.0 1218.0 6
2850.0 1250.0 6
2860.0 1302.0 6
2860.0 1323.0 6
2871.0 1323.0 6
2881.0 1302.0 6
2902.0 1250.0 6
2902.0 1208.0 6
2902.0 1166.0 6
2902.0 1145.0 6
2902.0 1135.0 6
2902.0 1135.0 6
2902.0 1156.0 6
2902.0 1187.0 6
2913.0 1229.0 6
2933.0 1270.0 6
2944.0 1281.0 6
2954.0 1291.0 6
2975.0 1291.0 7
2975.0 1302.0 7
2985.0 1291.0 7
2985.0 1270.0 7
2985.0 1239.0 7
2985.0 1198.0 7
2985.0 1156.0 7
2996.0 1135.0 7
2996.0 1125.0 7
2985.0 1448.0 8
2965.0 1448.0 8
2965.0 1427.0 8
2965.0 1406.0 8
2975.0 1395.0 8
2985.0 1395.0 8
2996.0 1416.0 8
3006.0 1448.0 8
3006.0 1458.0 8
2996.0 1468.0 8
2996.0 1458.0 8
3027.0 1260.0 9
3027.0 1281.0 9
3038.0 1302.0 9
3058.0 1333.0 9
3069.0 1343.0 9
3110.0 1343.0 9
3142.0 1323.0 9
3163.0 1291.0 9
3173.0 1250.0 9
3173.0 1218.0 9
3183.0 1187.0 9
3183.0 1177.0 9
3183.0 1187.0 9
3173.0 1208.0 9
3163.0 1229.0 9
3142.0 1239.0 9
3100.0 1239.0 9
3079.0 1229.0 9
3048.0 1198.0 9
3048.0 1177.0 9
3048.0 1166.0 9
3079.0 1166.0 9
3131.0 1177.0 9
3173.0 1198.0 9

