2298.0 2541.0 1
2298.0 2583.0 1
2319.0 2614.0 1
2350.0 2625.0 1
2381.0 2625.0 1
2402.0 2593.0 1
2423.0 2520.0 1
2423.0 2448.0 1
2413.0 2385.0 1
2371.0 2354.0 1
2277.0 2323.0 1
2225.0 2312.0 1
2194.0 2323.0 1
2194.0 2343.0 1
2215.0 2375.0 1
2235.0 2395.0 1
2256.0 2395.0 1
2277.0 2385.0 1
2288.0 2354.0 1
2298.0 2333.0 1
2308.0 2312.0 1
2308.0 2281.0 1
2308.0 2281.0 1
2496.0 2520.0 2
2506.0 2541.0 2
2548.0 2541.0 2
2621.0 2541.0 2
2683.0 2531.0 2
2694.0 2520.0 2
2704.0 2489.0 2
2704.0 2395.0 2
2704.0 2354.0 2
2704.0 2323.0 2
2704.0 2291.0 2
2704.0 2281.0 2
2579.0 2437.0 3
2579.0 2458.0 3
2621.0 2448.0 3
2683.0 2437.0 3
2725.0 2437.0 3
2985.0 2489.0 4
2985.0 2500.0 4
2954.0 2479.0 4
2923.0 2437.0 4
2902.0 2385.0 4
2892.0 2333.0 4
2892.0 2281.0 4
2913.0 2239.0 4
2944.0 2218.0 4
2996.0 2218.0 4
3048.0 2239.0 4
3090.0 2270.0 4
3090.0 2302.0 4
3079.0 2333.0 4
3038.0 2333.0 4
2996.0 2323.0 4
2965.0 2312.0 4
2933.0 2291.0 4
2913.0 2270.0 4
3235.0 2437.0 5
3204.0 2458.0 5
3173.0 2458.0 5
3131.0 2448.0 5
3131.0 2427.0 5
3142.0 2406.0 5
3173.0 2385.0 5
3215.0 2333.0 5
3235.0 2302.0 5
3256.0 2291.0 5
3256.0 2281.0 5
3225.0 2281.0 5
3194.0 2281.0 5
3204.0 2489.0 6
3225.0 2500.0 6
3267.0 2500.0 6
3392.0 2489.0 7
3392.0 2510.0 7
3423.0 2510.0 7
3506.0 2510.0 7
3600.0 2520.0 7
3642.0 2531.0 7
3663.0 2531.0 7
3663.0 2520.0 7
3663.0 2500.0 7
3652.0 2468.0 7
3642.0 2416.0 7
3621.0 2354.0 7
3621.0 2312.0 7
3621.0 2281.0 7
3610.0 2270.0 7
3610.0 2260.0 7
3485.0 2406.0 8
3485.0 2427.0 8
3485.0 2437.0 8
3517.0 2437.0 8
3610.0 2437.0 8
3673.0 2427.0 8
3715.0 2427.0 8
3746.0 2406.0 8

