252.0 2795.0 1
242.0 2806.0 1
231.0 2806.0 1
242.0 2806.0 1
242.0 2785.0 1
252.0 2775.0 1
252.0 2764.0 1
263.0 2743.0 1
273.0 2723.0 1
273.0 2691.0 1
283.0 2670.0 1
294.0 2670.0 1
304.0 2670.0 1
304.0 2670.0 1
367.0 2827.0 2
367.0 2837.0 2
367.0 2837.0 2
367.0 2837.0 2
367.0 2827.0 2
367.0 2816.0 2
346.0 2795.0 2
346.0 2775.0 2
325.0 2743.0 2
315.0 2712.0 2
294.0 2660.0 2
283.0 2629.0 2
273.0 2598.0 2
263.0 2577.0 2
263.0 2566.0 2
263.0 2577.0 2
273.0 2587.0 2

