246.0 2635.0 1
246.0 2635.0 1
246.0 2635.0 1
246.0 2635.0 1
256.0 2645.0 1
256.0 2666.0 1
256.0 2687.0 1
256.0 2729.0 1
256.0 2770.0 1
246.0 2812.0 1
235.0 2833.0 1
235.0 2833.0 1
225.0 2833.0 1
256.0 2698.0 2
256.0 2708.0 2
267.0 2718.0 2
277.0 2729.0 2
298.0 2750.0 2
308.0 2770.0 2
319.0 2791.0 2
319.0 2791.0 2
298.0 2739.0 3
308.0 2729.0 3
319.0 2698.0 3
329.0 2687.0 3
340.0 2677.0 3
350.0 2666.0 3
360.0 2656.0 3
371.0 2656.0 3
433.0 2677.0 4
433.0 2687.0 4
423.0 2687.0 4
423.0 2687.0 4
423.0 2708.0 4
423.0 2718.0 4
402.0 2833.0 5
392.0 2843.0 5
392.0 2833.0 5
392.0 2833.0 5
402.0 2833.0 5
517.0 2698.0 6
506.0 2687.0 6
485.0 2687.0 6
475.0 2698.0 6
465.0 2708.0 6
465.0 2729.0 6
475.0 2739.0 6
496.0 2750.0 6
506.0 2750.0 6
517.0 2729.0 6
538.0 2708.0 6
538.0 2708.0 6
548.0 2708.0 6
548.0 2708.0 6
558.0 2729.0 6
558.0 2750.0 6
548.0 2781.0 6
548.0 2802.0 6
548.0 2812.0 6
548.0 2823.0 6
548.0 2823.0 6
548.0 2833.0 6
631.0 2708.0 7
610.0 2708.0 7
590.0 2708.0 7
579.0 2718.0 7
579.0 2729.0 7
590.0 2750.0 7
600.0 2770.0 7
631.0 2770.0 7
642.0 2760.0 7
652.0 2750.0 7
652.0 2729.0 7
663.0 2729.0 7
663.0 2729.0 7
663.0 2739.0 7
673.0 2739.0 7
673.0 2760.0 7
673.0 2843.0 7
673.0 2854.0 7
725.0 2729.0 8
735.0 2729.0 8
735.0 2750.0 8
725.0 2760.0 8
725.0 2781.0 8
715.0 2895.0 9
715.0 2895.0 9
715.0 2885.0 9
715.0 2885.0 9
715.0 2875.0 9
767.0 2750.0 10
767.0 2760.0 10
767.0 2770.0 10
777.0 2781.0 10
788.0 2781.0 10
798.0 2781.0 10
829.0 2760.0 10
840.0 2750.0 10
850.0 2729.0 10
850.0 2718.0 10
860.0 2708.0 10
860.0 2698.0 10
965.0 2770.0 11
954.0 2781.0 11
954.0 2781.0 11
933.0 2781.0 11
913.0 2760.0 11
913.0 2750.0 11
913.0 2729.0 11
913.0 2718.0 11
933.0 2718.0 11
944.0 2729.0 11
954.0 2750.0 11
954.0 2770.0 11
965.0 2770.0 11
965.0 2770.0 11
965.0 2760.0 11
965.0 2729.0 11
975.0 2708.0 11
985.0 2677.0 11
985.0 2645.0 11
996.0 2604.0 11
996.0 2562.0 11
996.0 2541.0 11
985.0 2520.0 11
975.0 2500.0 11
965.0 2500.0 11
954.0 2500.0 11
933.0 2510.0 11
913.0 2520.0 11
892.0 2531.0 11
892.0 2531.0 11
881.0 2552.0 11
881.0 2552.0 11

