273.0 2795.0 1
273.0 2795.0 1
283.0 2785.0 1
283.0 2754.0 1
283.0 2712.0 1
273.0 2660.0 1
273.0 2629.0 1
273.0 2608.0 1
263.0 2785.0 2
273.0 2795.0 2
294.0 2806.0 2
325.0 2806.0 2
356.0 2816.0 2
377.0 2816.0 2
398.0 2816.0 2
294.0 2712.0 3
304.0 2712.0 3
325.0 2712.0 3
346.0 2723.0 3
367.0 2723.0 3

