506.0 1208.0 1
506.0 1198.0 1
506.0 1177.0 1
506.0 1135.0 1
506.0 989.0 1
517.0 875.0 1
538.0 791.0 1
548.0 708.0 1
558.0 645.0 1
569.0 573.0 1
579.0 531.0 1
590.0 500.0 1
610.0 489.0 1
694.0 468.0 1
767.0 468.0 1
840.0 448.0 1
902.0 437.0 1
944.0 416.0 1
944.0 416.0 1
944.0 416.0 1
1079.0 739.0 2
1079.0 729.0 2
1079.0 718.0 2
1079.0 698.0 2
1069.0 656.0 2
1069.0 625.0 2
1069.0 583.0 2
1079.0 552.0 2
1110.0 520.0 2
1142.0 500.0 2
1163.0 489.0 2
1194.0 510.0 2
1215.0 562.0 2
1225.0 625.0 2
1235.0 666.0 2
1246.0 718.0 2
1246.0 750.0 2
1246.0 770.0 2
1256.0 781.0 2
1371.0 781.0 3
1360.0 770.0 3
1360.0 708.0 3
1360.0 666.0 3
1360.0 625.0 3
1350.0 583.0 3
1350.0 500.0 3
1360.0 510.0 3
1360.0 562.0 3
1371.0 614.0 3
1381.0 666.0 3
1392.0 718.0 3
1402.0 781.0 3
1413.0 802.0 3
1423.0 812.0 3
1433.0 802.0 3
1444.0 760.0 3
1454.0 708.0 3
1454.0 666.0 3
1465.0 614.0 3
1465.0 573.0 3
1475.0 552.0 3
1475.0 541.0 3
1485.0 552.0 3
1506.0 593.0 3
1517.0 645.0 3
1538.0 708.0 3
1548.0 781.0 3
1569.0 823.0 3
1579.0 833.0 3
1579.0 833.0 3
1590.0 791.0 3
1590.0 729.0 3
1600.0 677.0 3
1600.0 635.0 3
1610.0 593.0 3
1621.0 562.0 3
1631.0 541.0 3
1746.0 781.0 4
1746.0 739.0 4
1746.0 677.0 4
1746.0 625.0 4
1756.0 562.0 4
1756.0 510.0 4
1767.0 468.0 4
1777.0 458.0 4
1777.0 479.0 4
1767.0 541.0 4
1756.0 625.0 4
1735.0 729.0 4
1735.0 812.0 4
1735.0 864.0 4
1767.0 895.0 4
1819.0 906.0 4
1860.0 895.0 4
1881.0 854.0 4
1892.0 802.0 4
1871.0 729.0 4
1829.0 687.0 4
1777.0 666.0 4

