481.0 2764.0 1
471.0 2764.0 1
471.0 2587.0 1
471.0 2556.0 1
471.0 2514.0 1
471.0 2535.0 1
471.0 2556.0 1
481.0 2598.0 1
481.0 2650.0 1
492.0 2691.0 1
492.0 2743.0 1
502.0 2785.0 1
502.0 2816.0 1
513.0 2827.0 1
513.0 2837.0 1
513.0 2837.0 1
513.0 2827.0 1
513.0 2827.0 1
523.0 2816.0 1
533.0 2795.0 1
544.0 2785.0 1
554.0 2754.0 1
575.0 2723.0 1
596.0 2702.0 1
606.0 2681.0 1
617.0 2670.0 1
627.0 2670.0 1
648.0 2691.0 1
658.0 2733.0 1
679.0 2764.0 1
679.0 2806.0 1
690.0 2827.0 1
700.0 2858.0 1
700.0 2868.0 1
710.0 2868.0 1
710.0 2795.0 1
700.0 2754.0 1
690.0 2660.0 1
679.0 2598.0 1
679.0 2556.0 1
679.0 2525.0 1
690.0 2504.0 1
690.0 2493.0 1
690.0 2493.0 1
690.0 2493.0 1
794.0 2670.0 2
794.0 2681.0 2
783.0 2681.0 2
783.0 2681.0 2
783.0 2691.0 2
804.0 2702.0 2
815.0 2702.0 2
835.0 2691.0 2
856.0 2681.0 2
867.0 2650.0 2
877.0 2629.0 2
877.0 2608.0 2
877.0 2598.0 2
877.0 2587.0 2
877.0 2587.0 2
877.0 2587.0 2
867.0 2598.0 2
846.0 2608.0 2
815.0 2608.0 2
794.0 2608.0 2
773.0 2598.0 2
763.0 2577.0 2
773.0 2566.0 2
783.0 2556.0 2
825.0 2545.0 2
846.0 2545.0 2
877.0 2545.0 2
929.0 2681.0 3
929.0 2650.0 3
929.0 2629.0 3
929.0 2598.0 3
940.0 2577.0 3
940.0 2545.0 3
940.0 2545.0 3
929.0 2556.0 3
929.0 2587.0 3
929.0 2618.0 3
950.0 2670.0 3
981.0 2691.0 3
1002.0 2702.0 3
1033.0 2702.0 3
1033.0 2702.0 3
1054.0 2691.0 3
1054.0 2691.0 3
1138.0 2795.0 4
1138.0 2806.0 4
1138.0 2795.0 4
1138.0 2775.0 4
1138.0 2743.0 4
1138.0 2712.0 4
1138.0 2566.0 4
1138.0 2556.0 4
1148.0 2556.0 4
1252.0 2795.0 5
1252.0 2795.0 5
1252.0 2795.0 5
1242.0 2785.0 5
1221.0 2775.0 5
1200.0 2764.0 5
1169.0 2743.0 5
1148.0 2712.0 5
1148.0 2702.0 5
1148.0 2702.0 5
1148.0 2702.0 5
1148.0 2691.0 5
1169.0 2691.0 5
1179.0 2670.0 5
1200.0 2660.0 5
1210.0 2639.0 5
1221.0 2618.0 5
1231.0 2598.0 5
1252.0 2598.0 5

