902.0 1979.0 1
850.0 2020.0 1
808.0 2073.0 1
767.0 2156.0 1
735.0 2281.0 1
704.0 2343.0 1
683.0 2364.0 1
642.0 2364.0 1
610.0 2323.0 1
569.0 2250.0 1
548.0 2156.0 1
548.0 2031.0 1
558.0 1937.0 1
600.0 1854.0 1
652.0 1781.0 1
735.0 1729.0 1
808.0 1708.0 1
892.0 1687.0 1
965.0 1677.0 1
1058.0 1625.0 1
1110.0 1573.0 1
1142.0 1500.0 1
1152.0 1427.0 1
1142.0 1312.0 1
1090.0 1229.0 1
1006.0 1145.0 1
923.0 1093.0 1
788.0 1062.0 1
704.0 1062.0 1
631.0 1083.0 1
590.0 1125.0 1
558.0 1187.0 1
558.0 1250.0 1
1100.0 2395.0 2
1100.0 2343.0 2
1121.0 2229.0 2
1152.0 2104.0 2
1194.0 2000.0 2
1246.0 1875.0 2
1298.0 1760.0 2
1319.0 1687.0 2
1319.0 1656.0 2
1319.0 1677.0 2
1319.0 1729.0 2
1340.0 1802.0 2
1350.0 1875.0 2
1371.0 1916.0 2
1392.0 1916.0 2
1423.0 1885.0 2
1465.0 1812.0 2
1506.0 1708.0 2
1538.0 1635.0 2
1569.0 1583.0 2
1600.0 1541.0 2
1829.0 1937.0 3
1798.0 1916.0 3
1777.0 1906.0 3
1767.0 1906.0 3
1756.0 1895.0 3
1746.0 1864.0 3
1725.0 1812.0 3
1704.0 1750.0 3
1694.0 1687.0 3
1704.0 1687.0 3
1725.0 1687.0 3
1756.0 1708.0 3
1788.0 1781.0 3
1808.0 1843.0 3
1819.0 1895.0 3
1829.0 1906.0 3
1829.0 1895.0 3
1840.0 1854.0 3
1860.0 1791.0 3
1881.0 1750.0 3
1933.0 1698.0 3
1965.0 1687.0 3
1985.0 1677.0 3
2173.0 2041.0 4
2142.0 2031.0 4
2100.0 2000.0 4
2079.0 1958.0 4
2069.0 1916.0 4
2058.0 1864.0 4
2058.0 1802.0 4
2079.0 1760.0 4
2100.0 1739.0 4
2131.0 1739.0 4
2183.0 1823.0 4
2215.0 1906.0 4
2246.0 2010.0 4
2267.0 2104.0 4
2267.0 2239.0 4
2246.0 2333.0 4
2225.0 2406.0 4
2204.0 2427.0 4
2204.0 2427.0 4
2204.0 2406.0 4
2215.0 2323.0 4
2246.0 2229.0 4
2298.0 2083.0 4
2319.0 1989.0 4
2350.0 1906.0 4
2371.0 1864.0 4
2381.0 1823.0 4
2600.0 1885.0 5
2527.0 1875.0 5
2496.0 1875.0 5
2475.0 1885.0 5
2465.0 1937.0 5
2465.0 2041.0 5
2485.0 2114.0 5
2496.0 2177.0 5
2517.0 2198.0 5
2538.0 2198.0 5
2558.0 2156.0 5
2579.0 2093.0 5
2610.0 2000.0 5
2621.0 1948.0 5
2642.0 1906.0 5
2746.0 2260.0 6
2746.0 2229.0 6
2725.0 2166.0 6
2725.0 2093.0 6
2735.0 2020.0 6
2767.0 1958.0 6
2798.0 1948.0 6
2808.0 1958.0 6
2829.0 1989.0 6
2860.0 2052.0 6
2881.0 2114.0 6
2892.0 2177.0 6
2902.0 2229.0 6
2902.0 2218.0 6
2923.0 2166.0 6
2954.0 2093.0 6
2996.0 2031.0 6
3069.0 1989.0 6
3152.0 1989.0 6
3204.0 2020.0 6
3235.0 2073.0 6
3246.0 2145.0 6
3215.0 2229.0 6
3183.0 2312.0 6
3142.0 2416.0 6
3110.0 2458.0 6
3100.0 2458.0 6

