388.0 2848.0 1
367.0 2848.0 1
367.0 2837.0 1
367.0 2827.0 1
367.0 2806.0 1
356.0 2785.0 1
346.0 2754.0 1
325.0 2712.0 1
325.0 2691.0 1
325.0 2681.0 1
325.0 2660.0 1
325.0 2650.0 1
346.0 2650.0 1
367.0 2650.0 1
377.0 2650.0 1
419.0 2660.0 1
440.0 2670.0 1
460.0 2670.0 1

