996.0 2229.0 1
996.0 2229.0 1
996.0 2208.0 1
1006.0 2177.0 1
1017.0 2093.0 1
1017.0 2041.0 1
1017.0 1968.0 1
1017.0 1916.0 1
1017.0 1885.0 1
1017.0 1906.0 1
1017.0 1948.0 1
1017.0 2010.0 1
1027.0 2073.0 1
1038.0 2125.0 1
1038.0 2187.0 1
1058.0 2229.0 1
1069.0 2239.0 1
1069.0 2229.0 1
1090.0 2177.0 1
1090.0 2125.0 1
1100.0 2083.0 1
1110.0 2052.0 1
1121.0 2031.0 1
1131.0 2031.0 1
1142.0 2052.0 1
1152.0 2073.0 1
1173.0 2125.0 1
1183.0 2166.0 1
1194.0 2208.0 1
1204.0 2218.0 1
1204.0 2177.0 1
1194.0 2125.0 1
1194.0 2073.0 1
1194.0 2000.0 1
1204.0 1958.0 1
1215.0 1927.0 1
1340.0 1989.0 2
1329.0 2000.0 2
1329.0 2000.0 2
1319.0 2010.0 2
1298.0 2010.0 2
1277.0 1989.0 2
1267.0 1979.0 2
1256.0 1968.0 2
1256.0 1948.0 2
1267.0 1937.0 2
1277.0 1937.0 2
1288.0 1948.0 2
1319.0 1968.0 2
1319.0 1979.0 2
1319.0 1989.0 2
1319.0 1979.0 2
1319.0 1968.0 2
1319.0 1948.0 2
1329.0 1937.0 2
1340.0 1927.0 2
1475.0 2177.0 3
1475.0 2177.0 3
1465.0 2145.0 3
1444.0 2093.0 3
1433.0 2041.0 3
1433.0 1989.0 3
1433.0 1958.0 3
1433.0 1916.0 3
1506.0 1979.0 4
1517.0 1979.0 4
1538.0 1979.0 4
1558.0 1979.0 4
1579.0 1979.0 4
1600.0 1989.0 4
1621.0 2010.0 4
1621.0 2020.0 4
1610.0 2020.0 4
1600.0 2020.0 4
1569.0 2010.0 4
1538.0 2000.0 4
1517.0 1968.0 4
1517.0 1958.0 4
1517.0 1927.0 4
1548.0 1927.0 4
1579.0 1927.0 4
1600.0 1937.0 4
1298.0 2104.0 5
1298.0 2104.0 5
1340.0 2104.0 5
1423.0 2125.0 5
1538.0 2135.0 5

