1444.0 1125.0 1
1423.0 1135.0 1
1423.0 1135.0 1
1402.0 1104.0 1
1381.0 1052.0 1
1381.0 948.0 1
1413.0 833.0 1
1485.0 729.0 1
1558.0 729.0 1
1631.0 781.0 1
1704.0 875.0 1
1756.0 1031.0 1
1767.0 1114.0 1
1746.0 1187.0 1
1715.0 1239.0 1
1683.0 1270.0 1
1673.0 1270.0 1
1860.0 927.0 2
1860.0 927.0 2
1850.0 937.0 2
1850.0 979.0 2
1850.0 1031.0 2
1860.0 1083.0 2
1860.0 1125.0 2
1881.0 1156.0 2
1902.0 1145.0 2
1913.0 1114.0 2
1923.0 1093.0 2
1944.0 1062.0 2
1954.0 1052.0 2
2110.0 1333.0 3
2110.0 1333.0 3
2100.0 1333.0 3
2090.0 1333.0 3
2058.0 1323.0 3
2027.0 1291.0 3
2006.0 1260.0 3
2006.0 1208.0 3
2017.0 1135.0 3
2038.0 1114.0 3
2069.0 1114.0 3
2100.0 1135.0 3
2142.0 1208.0 3
2298.0 1395.0 4
2267.0 1395.0 4
2246.0 1395.0 4
2235.0 1375.0 4
2225.0 1333.0 4
2225.0 1291.0 4
2235.0 1270.0 4
2256.0 1270.0 4
2288.0 1281.0 4
2298.0 1312.0 4
2298.0 1354.0 4
2298.0 1375.0 4
2288.0 1385.0 4
2277.0 1385.0 4
2277.0 1395.0 4
2381.0 1291.0 5
2381.0 1291.0 5
2381.0 1312.0 5
2381.0 1354.0 5
2381.0 1500.0 5
2381.0 1489.0 5
2402.0 1468.0 5
2402.0 1458.0 5
2433.0 1468.0 5
2454.0 1500.0 5
2465.0 1562.0 5
2485.0 1583.0 5
2485.0 1583.0 5
2506.0 1573.0 5
2527.0 1531.0 5
2548.0 1500.0 5
2569.0 1479.0 5
2590.0 1479.0 5
2683.0 1489.0 6
2683.0 1489.0 6
2683.0 1520.0 6
2683.0 1573.0 6
2673.0 1614.0 6
2673.0 1666.0 6
2663.0 1739.0 6
2652.0 1854.0 6
2652.0 1927.0 6
2652.0 1989.0 6
2673.0 2020.0 6
2694.0 2031.0 6
2725.0 2010.0 6
2725.0 1948.0 6
2725.0 1875.0 6
2538.0 1635.0 7
2538.0 1635.0 7
2569.0 1645.0 7
2600.0 1656.0 7
2652.0 1677.0 7
2694.0 1698.0 7
2735.0 1708.0 7
2788.0 1750.0 8
2767.0 1698.0 8
2756.0 1656.0 8
2756.0 1625.0 8
2756.0 1625.0 8
2788.0 1645.0 8
2788.0 1687.0 8
2798.0 1729.0 8
2798.0 1760.0 8
2788.0 1770.0 8
2892.0 1708.0 9
2902.0 1698.0 9
2913.0 1698.0 9
2913.0 1708.0 9
2913.0 1729.0 9
2902.0 1770.0 9
2902.0 1823.0 9
2902.0 1854.0 9
2913.0 1885.0 9
2923.0 1895.0 9
2933.0 1895.0 9
2944.0 1895.0 9
2954.0 1895.0 9
3038.0 2135.0 10
3027.0 2114.0 10
3017.0 2031.0 10
3017.0 1937.0 10
3017.0 1854.0 10
3027.0 1802.0 10
3048.0 1791.0 10
2954.0 1906.0 11
2954.0 1906.0 11
3006.0 1895.0 11
3058.0 1906.0 11
3100.0 1927.0 11
3142.0 1958.0 11
3194.0 1958.0 11
3204.0 2010.0 12
3183.0 1979.0 12
3163.0 1937.0 12
3152.0 1895.0 12
3163.0 1895.0 12
3183.0 1906.0 12
3204.0 1948.0 12
3225.0 1989.0 12
3235.0 2000.0 12
3246.0 1979.0 12
3246.0 1958.0 12
3267.0 1927.0 12
3288.0 1927.0 12
3308.0 1948.0 12
3350.0 2364.0 13
3350.0 2364.0 13
3350.0 2343.0 13
3350.0 2281.0 13
3371.0 2166.0 13
3381.0 2083.0 13
3392.0 2020.0 13
3402.0 2000.0 13
3402.0 1989.0 13
3413.0 2020.0 13
3413.0 2104.0 13
3413.0 2125.0 13
3423.0 2125.0 13
3444.0 2104.0 13
3465.0 2073.0 13
3475.0 2041.0 13
3465.0 2031.0 13
3433.0 2020.0 13
3413.0 2020.0 13
3402.0 2031.0 13
3413.0 2062.0 13
3538.0 2520.0 14
3538.0 2500.0 14
3548.0 2437.0 14
3558.0 2333.0 14
3579.0 2208.0 14
3590.0 2145.0 14
3600.0 2114.0 14
3610.0 2104.0 14
3715.0 2354.0 15
3735.0 2312.0 15
3746.0 2291.0 15
3756.0 2281.0 15
3767.0 2281.0 15
3798.0 2312.0 15
3944.0 2531.0 16
3933.0 2520.0 16
3902.0 2416.0 16
3871.0 2177.0 16
3850.0 1927.0 16
3840.0 1750.0 16
3850.0 1677.0 16
3871.0 1656.0 16

