1798.0 843.0 1
1798.0 843.0 1
1788.0 843.0 1
1788.0 833.0 1
1788.0 791.0 1
1788.0 760.0 1
1788.0 687.0 1
1788.0 677.0 1
1975.0 843.0 2
1965.0 833.0 2
1944.0 823.0 2
1923.0 802.0 2
1902.0 760.0 2
1902.0 698.0 2
1923.0 687.0 2
1944.0 677.0 2
1965.0 687.0 2
1975.0 698.0 2
1985.0 708.0 2
1975.0 729.0 2
1965.0 729.0 2
1933.0 718.0 2
1933.0 708.0 2
2048.0 770.0 3
2038.0 781.0 3
2038.0 791.0 3
2048.0 802.0 3
2079.0 812.0 3
2110.0 812.0 3
2142.0 802.0 3
2142.0 791.0 3
2142.0 791.0 3
2121.0 781.0 3
2100.0 760.0 3
2100.0 760.0 3
2090.0 750.0 3
2090.0 750.0 3
2100.0 739.0 3
2121.0 729.0 3
2142.0 729.0 3
2163.0 729.0 3
2173.0 718.0 3
2163.0 708.0 3
2163.0 698.0 3
2142.0 698.0 3
2121.0 687.0 3
2121.0 687.0 3
2121.0 687.0 3
2298.0 791.0 4
2288.0 802.0 4
2256.0 802.0 4
2225.0 802.0 4
2204.0 791.0 4
2204.0 781.0 4
2215.0 770.0 4
2235.0 760.0 4
2267.0 750.0 4
2308.0 729.0 4
2319.0 718.0 4
2329.0 708.0 4
2319.0 708.0 4
2298.0 698.0 4
2288.0 698.0 4
2277.0 708.0 4
2267.0 708.0 4
2267.0 739.0 4
2288.0 760.0 4
2308.0 770.0 4
2329.0 770.0 4
2413.0 781.0 5
2402.0 770.0 5
2402.0 750.0 5
2381.0 729.0 5
2381.0 718.0 5
2392.0 708.0 5
2413.0 698.0 5
2444.0 708.0 5
2485.0 718.0 5
2506.0 729.0 5
2506.0 739.0 5
2496.0 760.0 5
2475.0 770.0 5
2444.0 770.0 5
2423.0 770.0 5

