325.0 2754.0 1
315.0 2754.0 1
304.0 2764.0 1
283.0 2764.0 1
273.0 2754.0 1
252.0 2733.0 1
242.0 2712.0 1
242.0 2681.0 1
252.0 2670.0 1
263.0 2660.0 1
294.0 2660.0 1
335.0 2681.0 1
356.0 2691.0 1
367.0 2691.0 1

