1433.0 1239.0 1
1423.0 1239.0 1
1423.0 1229.0 1
1402.0 1198.0 1
1392.0 1104.0 1
1402.0 1052.0 1
1413.0 1031.0 1
1423.0 1020.0 1
1444.0 1020.0 1
1465.0 1031.0 1
1485.0 1052.0 1
1496.0 1073.0 1
1506.0 1114.0 1
1506.0 1114.0 1
1496.0 1104.0 1
1496.0 1073.0 1
1506.0 1041.0 1
1527.0 1041.0 1
1558.0 1041.0 1
1590.0 1052.0 1
1652.0 1083.0 1
1673.0 1114.0 1
1673.0 1156.0 1
1663.0 1198.0 1
1642.0 1229.0 1
1621.0 1229.0 1
1610.0 1229.0 1
1610.0 1208.0 1
1767.0 1135.0 2
1746.0 1125.0 2
1725.0 1114.0 2
1704.0 1093.0 2
1704.0 1062.0 2
1715.0 1052.0 2
1735.0 1041.0 2
1777.0 1041.0 2
1808.0 1062.0 2
1819.0 1073.0 2
1819.0 1104.0 2
1819.0 1125.0 2
1788.0 1156.0 2
1767.0 1156.0 2
1767.0 1145.0 2
1767.0 1145.0 2
1892.0 1239.0 3
1892.0 1239.0 3
1892.0 1239.0 3
1871.0 1208.0 3
1860.0 1166.0 3
1850.0 1135.0 3
1850.0 1104.0 3
1860.0 1093.0 3
1860.0 1083.0 3
1871.0 1083.0 3
1892.0 1093.0 3
1923.0 1114.0 3
1954.0 1125.0 3
1965.0 1125.0 3
1965.0 1104.0 3
1965.0 1083.0 3
1954.0 1062.0 3
1944.0 1052.0 3
1933.0 1041.0 3
1902.0 1041.0 3
1902.0 1041.0 3
1902.0 1052.0 3
2048.0 1239.0 4
2027.0 1229.0 4
2027.0 1198.0 4
2017.0 1145.0 4
2017.0 1093.0 4
2017.0 1062.0 4
2017.0 1052.0 4
2027.0 1052.0 4
2027.0 1052.0 4
2058.0 1083.0 4
2079.0 1125.0 4
2100.0 1135.0 4
2110.0 1135.0 4
2121.0 1125.0 4
2121.0 1093.0 4
2121.0 1062.0 4
2121.0 1052.0 4
2090.0 1031.0 4
2069.0 1031.0 4
2058.0 1031.0 4
2048.0 1031.0 4
2038.0 1052.0 4
2204.0 1260.0 5
2204.0 1260.0 5
2194.0 1250.0 5
2183.0 1198.0 5
2173.0 1145.0 5
2173.0 1093.0 5
2173.0 1041.0 5
2173.0 1020.0 5
2183.0 1020.0 5
2183.0 1020.0 5
2256.0 1052.0 6
2256.0 1052.0 6
2267.0 1073.0 6
2298.0 1083.0 6
2319.0 1104.0 6
2329.0 1114.0 6
2329.0 1135.0 6
2319.0 1145.0 6
2298.0 1145.0 6
2267.0 1125.0 6
2246.0 1093.0 6
2246.0 1073.0 6
2246.0 1052.0 6
2246.0 1041.0 6
2288.0 1031.0 6
2381.0 1031.0 6

