1652.0 1448.0 1
1652.0 1448.0 1
1663.0 1385.0 1
1663.0 1270.0 1
1663.0 1052.0 1
1663.0 864.0 1
1673.0 718.0 1
1694.0 645.0 1
1704.0 562.0 1
1715.0 541.0 1
1579.0 1250.0 2
1642.0 1260.0 2
1704.0 1250.0 2
1756.0 1239.0 2
1798.0 1208.0 2
1808.0 1156.0 2
1808.0 1125.0 2
1788.0 1083.0 2
1746.0 1052.0 2
1694.0 1031.0 2
1673.0 1020.0 2
1923.0 1291.0 3
1923.0 1281.0 3
1913.0 1229.0 3
1913.0 1166.0 3
1923.0 1073.0 3
1933.0 1031.0 3
1954.0 1020.0 3
1975.0 1020.0 3
1996.0 1062.0 3
2027.0 1125.0 3
2048.0 1208.0 3
2058.0 1312.0 3
2079.0 1343.0 3
2079.0 1343.0 3
2100.0 1291.0 3
2121.0 1208.0 3
2152.0 1145.0 3
2173.0 1083.0 3
2194.0 1052.0 3
2194.0 1031.0 3
2600.0 1593.0 4
2558.0 1666.0 4
2506.0 1687.0 4
2433.0 1687.0 4
2381.0 1635.0 4
2360.0 1562.0 4
2350.0 1479.0 4
2360.0 1364.0 4
2381.0 1281.0 4
2402.0 1218.0 4
2402.0 1125.0 4
2423.0 1041.0 4
2423.0 1000.0 4
2423.0 979.0 4
2413.0 968.0 4
2225.0 1302.0 5
2225.0 1302.0 5
2256.0 1302.0 5
2329.0 1291.0 5
2392.0 1291.0 5
2892.0 1520.0 6
2840.0 1614.0 6
2777.0 1614.0 6
2715.0 1593.0 6
2673.0 1510.0 6
2663.0 1437.0 6
2673.0 1354.0 6
2683.0 1281.0 6
2694.0 1187.0 6
2694.0 1125.0 6
2694.0 1073.0 6
2673.0 1041.0 6
2652.0 1010.0 6
2569.0 1270.0 7
2600.0 1323.0 7
2652.0 1343.0 7
2725.0 1354.0 7
2829.0 1354.0 7
2902.0 1343.0 7
2288.0 1333.0 8
2298.0 1333.0 8
2340.0 1333.0 8
2360.0 1343.0 8
2423.0 1343.0 8
2433.0 1343.0 8
2444.0 1354.0 8
2454.0 1364.0 8
2465.0 1364.0 8

