913.0 1041.0 1
913.0 1041.0 1
913.0 1052.0 1
923.0 1073.0 1
933.0 1093.0 1
954.0 1145.0 1
975.0 1198.0 1
985.0 1250.0 1
996.0 1302.0 1
996.0 1364.0 1
985.0 1395.0 1
985.0 1416.0 1
975.0 1416.0 1
975.0 1427.0 1
975.0 1406.0 1
985.0 1375.0 1
1017.0 1312.0 1
1027.0 1260.0 1
1038.0 1229.0 1
1048.0 1166.0 1
1058.0 1156.0 1
1058.0 1156.0 1
1058.0 1166.0 1
1079.0 1208.0 1
1110.0 1260.0 1
1152.0 1333.0 1
1194.0 1448.0 1
1225.0 1541.0 1
1267.0 1656.0 1
1288.0 1760.0 1
1288.0 1864.0 1
1298.0 1885.0 1
1298.0 1895.0 1
1298.0 1895.0 1
1298.0 1885.0 1
1298.0 1854.0 1
1308.0 1802.0 1
1298.0 1729.0 1
1277.0 1604.0 1
1267.0 1500.0 1
1246.0 1385.0 1
1235.0 1270.0 1
1215.0 1166.0 1
1215.0 1104.0 1
1225.0 1073.0 1
1235.0 1041.0 1
1267.0 1031.0 1
1288.0 1031.0 1
1308.0 1041.0 1
1329.0 1062.0 1
1340.0 1073.0 1
1600.0 1208.0 2
1600.0 1229.0 2
1600.0 1239.0 2
1590.0 1250.0 2
1579.0 1250.0 2
1548.0 1250.0 2
1517.0 1229.0 2
1496.0 1187.0 2
1475.0 1156.0 2
1465.0 1104.0 2
1465.0 1083.0 2
1485.0 1073.0 2
1506.0 1073.0 2
1558.0 1083.0 2
1590.0 1093.0 2
1610.0 1114.0 2
1621.0 1125.0 2
1631.0 1125.0 2
1631.0 1125.0 2
1569.0 1218.0 3
1569.0 1218.0 3
1558.0 1218.0 3
1548.0 1208.0 3
1538.0 1187.0 3
1527.0 1166.0 3
1506.0 1135.0 3
1485.0 1125.0 3
1475.0 1104.0 3
1704.0 1208.0 4
1694.0 1208.0 4
1694.0 1198.0 4
1704.0 1177.0 4
1704.0 1166.0 4
1715.0 1135.0 4
1715.0 1114.0 4
1715.0 1093.0 4
1704.0 1093.0 4
1704.0 1104.0 4
1715.0 1114.0 4
1715.0 1145.0 4
1725.0 1187.0 4
1735.0 1218.0 4
1746.0 1239.0 4
1767.0 1250.0 4
1788.0 1250.0 4
1819.0 1239.0 4
1840.0 1218.0 4
1850.0 1198.0 4
1860.0 1145.0 4
1860.0 1125.0 4
1860.0 1104.0 4
1933.0 1239.0 5
1933.0 1239.0 5
1933.0 1239.0 5
1933.0 1177.0 5
1923.0 1145.0 5
1923.0 1125.0 5
1933.0 1114.0 5
1965.0 1104.0 5
1985.0 1104.0 5
2027.0 1114.0 5
2048.0 1125.0 5
2079.0 1156.0 5
2079.0 1177.0 5
2090.0 1208.0 5
2079.0 1229.0 5
2079.0 1260.0 5
2079.0 1260.0 5
2079.0 1260.0 5
2079.0 1260.0 5
2079.0 1239.0 5
2079.0 1208.0 5
2079.0 1177.0 5
2079.0 1156.0 5
2079.0 1145.0 5
2100.0 1135.0 5
2142.0 1114.0 5
2215.0 1114.0 5

