673.0 1573.0 1
673.0 1562.0 1
673.0 1541.0 1
673.0 1468.0 1
673.0 1416.0 1
663.0 1364.0 1
652.0 1312.0 1
652.0 1270.0 1
652.0 1208.0 1
465.0 1093.0 2
444.0 1093.0 2
444.0 1104.0 2
444.0 1104.0 2
465.0 1125.0 2
517.0 1156.0 2
579.0 1198.0 2
631.0 1239.0 2
704.0 1281.0 2
735.0 1302.0 2
777.0 1323.0 2
788.0 1343.0 2
808.0 1364.0 2
819.0 1375.0 2
819.0 1385.0 2
548.0 1395.0 3
548.0 1395.0 3
558.0 1395.0 3
569.0 1427.0 3
621.0 1479.0 3
673.0 1531.0 3
715.0 1573.0 3
746.0 1614.0 3
767.0 1666.0 3
756.0 1698.0 3
756.0 1708.0 3
975.0 1395.0 4
965.0 1406.0 4
965.0 1406.0 4
965.0 1395.0 4
965.0 1385.0 4
965.0 1343.0 4
965.0 1270.0 4
965.0 1270.0 4
954.0 1302.0 4
954.0 1333.0 4
965.0 1375.0 4
975.0 1406.0 4
1017.0 1437.0 4
1038.0 1448.0 4
1058.0 1437.0 4
1079.0 1416.0 4
1090.0 1385.0 4
1100.0 1354.0 4
1100.0 1333.0 4
1100.0 1312.0 4
1100.0 1302.0 4
1110.0 1291.0 4
1110.0 1281.0 4
1121.0 1281.0 4
1215.0 1427.0 5
1204.0 1437.0 5
1204.0 1448.0 5
1204.0 1448.0 5
1204.0 1448.0 5
1204.0 1437.0 5
1215.0 1406.0 5
1235.0 1375.0 5
1256.0 1343.0 5
1277.0 1323.0 5
1288.0 1302.0 5
1288.0 1291.0 5
1288.0 1291.0 5
1298.0 1291.0 5
1298.0 1291.0 5
1298.0 1354.0 5
1298.0 1395.0 5
1308.0 1437.0 5
1308.0 1458.0 5
1308.0 1468.0 5
1308.0 1468.0 5
1423.0 1448.0 6
1423.0 1448.0 6
1423.0 1448.0 6
1423.0 1437.0 6
1423.0 1385.0 6
1423.0 1375.0 6
1423.0 1343.0 6
1433.0 1333.0 6
1454.0 1312.0 6
1506.0 1312.0 6
1538.0 1333.0 6
1569.0 1354.0 6
1579.0 1375.0 6
1579.0 1406.0 6
1569.0 1416.0 6
1569.0 1427.0 6
1558.0 1437.0 6
1558.0 1437.0 6
1558.0 1437.0 6
1558.0 1406.0 6
1569.0 1375.0 6
1579.0 1354.0 6
1579.0 1333.0 6
1579.0 1323.0 6
1590.0 1312.0 6
1600.0 1312.0 6
1663.0 1593.0 7
1663.0 1593.0 7
1663.0 1583.0 7
1673.0 1541.0 7
1683.0 1479.0 7
1694.0 1437.0 7
1704.0 1395.0 7
1704.0 1375.0 7
1715.0 1333.0 7
1715.0 1323.0 7
1725.0 1312.0 7
1725.0 1302.0 7
1725.0 1302.0 7
1725.0 1312.0 7
1829.0 1416.0 8
1829.0 1416.0 8
1819.0 1416.0 8
1819.0 1406.0 8
1829.0 1385.0 8
1829.0 1354.0 8
1840.0 1333.0 8
1840.0 1323.0 8
1840.0 1302.0 8
1840.0 1302.0 8
1840.0 1312.0 8
1840.0 1343.0 8
1840.0 1375.0 8
1840.0 1406.0 8
1850.0 1437.0 8
1881.0 1448.0 8
1902.0 1448.0 8
1923.0 1437.0 8
1954.0 1416.0 8
1975.0 1375.0 8
1975.0 1354.0 8
1975.0 1333.0 8
1985.0 1323.0 8
1985.0 1302.0 8
1985.0 1302.0 8
2215.0 1406.0 9
2204.0 1416.0 9
2204.0 1427.0 9
2204.0 1437.0 9
2183.0 1448.0 9
2173.0 1448.0 9
2121.0 1437.0 9
2090.0 1427.0 9
2069.0 1395.0 9
2048.0 1375.0 9
2038.0 1333.0 9
2038.0 1323.0 9
2069.0 1291.0 9
2100.0 1281.0 9
2163.0 1281.0 9
2194.0 1291.0 9
2225.0 1302.0 9
2235.0 1323.0 9
2246.0 1323.0 9
2246.0 1333.0 9
2183.0 1437.0 10
2183.0 1437.0 10
2173.0 1437.0 10
2152.0 1416.0 10
2131.0 1385.0 10
2100.0 1354.0 10
2069.0 1333.0 10
2058.0 1312.0 10
2058.0 1291.0 10
2277.0 1416.0 11
2277.0 1416.0 11
2277.0 1416.0 11
2288.0 1395.0 11
2288.0 1385.0 11
2298.0 1364.0 11
2308.0 1343.0 11
2319.0 1312.0 11
2319.0 1302.0 11
2319.0 1291.0 11
2319.0 1291.0 11
2308.0 1354.0 11
2308.0 1385.0 11
2319.0 1416.0 11
2329.0 1437.0 11
2340.0 1448.0 11
2350.0 1448.0 11
2360.0 1458.0 11
2371.0 1458.0 11
2381.0 1448.0 11
2381.0 1448.0 11
2392.0 1448.0 11
2392.0 1437.0 11
2663.0 1406.0 12
2663.0 1406.0 12
2663.0 1406.0 12
2663.0 1416.0 12
2652.0 1427.0 12
2652.0 1437.0 12
2642.0 1448.0 12
2621.0 1448.0 12
2590.0 1458.0 12
2569.0 1458.0 12
2538.0 1437.0 12
2496.0 1416.0 12
2485.0 1395.0 12
2485.0 1364.0 12
2496.0 1343.0 12
2517.0 1323.0 12
2548.0 1312.0 12
2579.0 1323.0 12
2590.0 1333.0 12
2621.0 1354.0 12
2621.0 1364.0 12
2621.0 1395.0 12
2621.0 1406.0 12
2610.0 1416.0 12
2610.0 1416.0 12
2610.0 1406.0 12
2610.0 1395.0 12
2621.0 1375.0 12
2621.0 1364.0 12
2631.0 1333.0 12
2642.0 1323.0 12
2663.0 1312.0 12
2683.0 1312.0 12
2725.0 1312.0 12
2819.0 1625.0 13
2819.0 1635.0 13
2808.0 1635.0 13
2808.0 1614.0 13
2819.0 1573.0 13
2829.0 1500.0 13
2850.0 1448.0 13
2850.0 1406.0 13
2850.0 1375.0 13
2850.0 1333.0 13
2850.0 1312.0 13
2850.0 1312.0 13
2850.0 1323.0 13
2860.0 1354.0 13
2871.0 1385.0 13
2892.0 1406.0 13
2913.0 1427.0 13
2933.0 1437.0 13
2954.0 1437.0 13
2996.0 1416.0 13
3017.0 1395.0 13
3027.0 1364.0 13
3027.0 1343.0 13
3027.0 1323.0 13
3017.0 1302.0 13
2996.0 1291.0 13
2965.0 1291.0 13
2892.0 1291.0 13
2860.0 1291.0 13
2840.0 1302.0 13
2819.0 1312.0 13
2819.0 1312.0 13
3058.0 1614.0 14
3058.0 1583.0 14
3058.0 1552.0 14
3079.0 1479.0 14
3100.0 1437.0 14
3110.0 1395.0 14
3110.0 1364.0 14
3121.0 1333.0 14
3121.0 1312.0 14
3121.0 1312.0 14
3121.0 1312.0 14
3131.0 1312.0 14
3360.0 1416.0 15
3360.0 1427.0 15
3360.0 1437.0 15
3360.0 1448.0 15
3360.0 1458.0 15
3350.0 1468.0 15
3329.0 1468.0 15
3277.0 1468.0 15
3256.0 1448.0 15
3225.0 1427.0 15
3204.0 1406.0 15
3204.0 1364.0 15
3204.0 1343.0 15
3215.0 1323.0 15
3246.0 1312.0 15
3308.0 1302.0 15
3360.0 1312.0 15
3392.0 1323.0 15
3413.0 1333.0 15
3433.0 1333.0 15
3433.0 1333.0 15
3423.0 1333.0 15
3350.0 1458.0 16
3350.0 1468.0 16
3350.0 1468.0 16
3340.0 1458.0 16
3340.0 1448.0 16
3319.0 1427.0 16
3277.0 1385.0 16
3246.0 1364.0 16
3225.0 1333.0 16
3204.0 1323.0 16
3183.0 1312.0 16
3173.0 1302.0 16
3173.0 1291.0 16

