398.0 2514.0 1
388.0 2514.0 1
377.0 2504.0 1
377.0 2504.0 1
377.0 2514.0 1
388.0 2514.0 1
398.0 2535.0 1
398.0 2556.0 1
408.0 2577.0 1
419.0 2608.0 1
419.0 2639.0 1
429.0 2670.0 1
429.0 2712.0 1
429.0 2733.0 1
429.0 2723.0 1
440.0 2723.0 1
450.0 2702.0 1
460.0 2681.0 1
471.0 2650.0 1
481.0 2618.0 1
502.0 2587.0 1
513.0 2566.0 1
523.0 2545.0 1
533.0 2535.0 1
533.0 2525.0 1
533.0 2514.0 1
533.0 2514.0 1
533.0 2525.0 1
544.0 2545.0 1
554.0 2566.0 1
554.0 2587.0 1
565.0 2608.0 1
575.0 2639.0 1
575.0 2691.0 1
575.0 2733.0 1
575.0 2754.0 1
565.0 2764.0 1
565.0 2764.0 1
554.0 2775.0 1
554.0 2764.0 1
669.0 2598.0 2
669.0 2598.0 2
669.0 2598.0 2
658.0 2598.0 2
658.0 2577.0 2
669.0 2566.0 2
669.0 2556.0 2
669.0 2514.0 2
638.0 2691.0 3
638.0 2691.0 3
752.0 2577.0 4
752.0 2587.0 4
752.0 2577.0 4
752.0 2577.0 4
752.0 2556.0 4
763.0 2545.0 4
763.0 2535.0 4
763.0 2535.0 4
763.0 2535.0 4
763.0 2535.0 4
763.0 2556.0 4
763.0 2577.0 4
773.0 2598.0 4
794.0 2598.0 4
804.0 2598.0 4
815.0 2598.0 4
835.0 2587.0 4
835.0 2577.0 4
846.0 2556.0 4
846.0 2535.0 4
846.0 2525.0 4
846.0 2525.0 4
846.0 2525.0 4
846.0 2535.0 4
846.0 2556.0 4
846.0 2577.0 4
846.0 2587.0 4
856.0 2598.0 4
867.0 2618.0 4
888.0 2618.0 4
898.0 2608.0 4
908.0 2598.0 4
908.0 2587.0 4
919.0 2577.0 4
919.0 2566.0 4
919.0 2556.0 4
919.0 2545.0 4
929.0 2535.0 4
929.0 2525.0 4
971.0 2598.0 5
960.0 2598.0 5
960.0 2608.0 5
960.0 2598.0 5
960.0 2598.0 5
960.0 2577.0 5
971.0 2556.0 5
971.0 2535.0 5
971.0 2535.0 5
971.0 2525.0 5
929.0 2670.0 6
929.0 2670.0 6
1127.0 2618.0 7
1127.0 2629.0 7
1117.0 2629.0 7
1117.0 2639.0 7
1106.0 2639.0 7
1085.0 2639.0 7
1065.0 2629.0 7
1054.0 2618.0 7
1044.0 2618.0 7
1033.0 2598.0 7
1023.0 2598.0 7
1023.0 2587.0 7
1023.0 2587.0 7
1033.0 2577.0 7
1054.0 2577.0 7
1065.0 2587.0 7
1085.0 2587.0 7
1106.0 2587.0 7
1127.0 2587.0 7
1138.0 2577.0 7
1148.0 2577.0 7
1148.0 2577.0 7
1148.0 2566.0 7
1148.0 2556.0 7
1138.0 2556.0 7
1127.0 2535.0 7
1117.0 2525.0 7
1106.0 2525.0 7
1085.0 2514.0 7
1075.0 2514.0 7
1054.0 2514.0 7
1044.0 2514.0 7
1179.0 2733.0 8
1179.0 2733.0 8
1179.0 2723.0 8
1190.0 2691.0 8
1190.0 2670.0 8
1200.0 2639.0 8
1210.0 2598.0 8
1221.0 2577.0 8
1221.0 2556.0 8
1221.0 2535.0 8
1231.0 2525.0 8
1231.0 2514.0 8
1231.0 2514.0 8
1231.0 2525.0 8
1221.0 2545.0 8
1221.0 2556.0 8
1231.0 2577.0 8
1242.0 2598.0 8
1263.0 2608.0 8
1273.0 2618.0 8
1294.0 2618.0 8
1315.0 2598.0 8
1325.0 2587.0 8
1335.0 2566.0 8
1335.0 2556.0 8
1346.0 2545.0 8
1346.0 2535.0 8
1346.0 2525.0 8
1450.0 2545.0 9
1450.0 2556.0 9
1460.0 2566.0 9
1460.0 2577.0 9
1471.0 2587.0 9
1471.0 2608.0 9
1460.0 2629.0 9
1460.0 2639.0 9
1450.0 2650.0 9
1419.0 2650.0 9
1408.0 2629.0 9
1388.0 2608.0 9
1388.0 2587.0 9
1377.0 2566.0 9
1388.0 2556.0 9
1388.0 2545.0 9
1408.0 2535.0 9
1429.0 2535.0 9
1440.0 2545.0 9
1450.0 2545.0 9
1460.0 2556.0 9
1460.0 2566.0 9
1460.0 2587.0 9
1471.0 2587.0 9
1471.0 2587.0 9
1471.0 2587.0 9
1471.0 2577.0 9
1471.0 2566.0 9
1481.0 2556.0 9
1481.0 2535.0 9
1492.0 2535.0 9
1492.0 2525.0 9
1502.0 2525.0 9
1523.0 2525.0 9
1533.0 2525.0 9

