1235.0 1718.0 1
1204.0 1729.0 1
1204.0 1729.0 1
1215.0 1739.0 1
1235.0 1760.0 1
1256.0 1770.0 1
1298.0 1770.0 1
1319.0 1760.0 1
1319.0 1750.0 1
1308.0 1718.0 1
1277.0 1677.0 1
1246.0 1635.0 1
1235.0 1625.0 1
1235.0 1614.0 1
1235.0 1614.0 1
1267.0 1625.0 1
1308.0 1635.0 1
1340.0 1635.0 1
1360.0 1625.0 1
1381.0 1614.0 1
1381.0 1604.0 1
1381.0 1593.0 1
1350.0 1562.0 1
1319.0 1531.0 1
1298.0 1510.0 1
1288.0 1500.0 1
1715.0 1750.0 2
1715.0 1750.0 2
1715.0 1770.0 2
1704.0 1770.0 2
1683.0 1770.0 2
1673.0 1760.0 2
1642.0 1718.0 2
1621.0 1666.0 2
1621.0 1635.0 2
1642.0 1614.0 2
1683.0 1614.0 2
1725.0 1635.0 2
1767.0 1666.0 2
1767.0 1698.0 2
1767.0 1718.0 2
1746.0 1739.0 2
1715.0 1750.0 2
1704.0 1750.0 2
2017.0 1823.0 3
2027.0 1823.0 3
2027.0 1823.0 3
2038.0 1833.0 3
2038.0 1812.0 3
2027.0 1791.0 3
2017.0 1739.0 3
2017.0 1718.0 3
2017.0 1698.0 3
2017.0 1687.0 3
2048.0 1677.0 3
2069.0 1677.0 3
2090.0 1687.0 3
2110.0 1687.0 3
2131.0 1698.0 3
2142.0 1708.0 3
2142.0 1708.0 3
2173.0 1854.0 4
2173.0 1854.0 4
2173.0 1854.0 4
2173.0 1823.0 4
2152.0 1770.0 4
2142.0 1708.0 4
2131.0 1656.0 4
2131.0 1635.0 4
2131.0 1614.0 4
2423.0 1833.0 5
2423.0 1854.0 5
2423.0 1864.0 5
2423.0 1864.0 5
2423.0 1864.0 5
2423.0 1864.0 5
2392.0 1833.0 5
2371.0 1791.0 5
2350.0 1729.0 5
2340.0 1698.0 5
2350.0 1677.0 5
2371.0 1656.0 5
2413.0 1666.0 5
2444.0 1677.0 5
2454.0 1698.0 5
2465.0 1708.0 5
2465.0 1729.0 5
2444.0 1739.0 5
2423.0 1729.0 5
2402.0 1718.0 5
2392.0 1708.0 5
2402.0 1698.0 5
2610.0 1864.0 6
2610.0 1875.0 6
2610.0 1885.0 6
2610.0 1875.0 6
2600.0 1833.0 6
2590.0 1791.0 6
2579.0 1760.0 6
2590.0 1750.0 6
2600.0 1729.0 6
2621.0 1729.0 6
2652.0 1729.0 6
2673.0 1739.0 6
2683.0 1750.0 6
2694.0 1760.0 6
2694.0 1760.0 6
2725.0 1885.0 7
2715.0 1885.0 7
2715.0 1875.0 7
2704.0 1854.0 7
2683.0 1781.0 7
2673.0 1729.0 7
2673.0 1677.0 7
2663.0 1645.0 7
2663.0 1614.0 7
2663.0 1604.0 7
2673.0 1593.0 7

