277.0 2802.0 1
267.0 2812.0 1
267.0 2802.0 1
277.0 2781.0 1
277.0 2739.0 1
277.0 2687.0 1
277.0 2666.0 1
277.0 2645.0 1
288.0 2635.0 1
288.0 2635.0 1
277.0 2645.0 1
277.0 2666.0 1
277.0 2698.0 1
277.0 2750.0 1
277.0 2802.0 1
277.0 2843.0 1
267.0 2864.0 1
267.0 2875.0 1
267.0 2875.0 1
277.0 2875.0 1
288.0 2875.0 1
319.0 2885.0 1
340.0 2906.0 1
371.0 2916.0 1
381.0 2916.0 1
350.0 2791.0 2
298.0 2781.0 2
267.0 2760.0 2
235.0 2750.0 2
215.0 2739.0 2
485.0 2770.0 3
475.0 2791.0 3
465.0 2791.0 3
454.0 2791.0 3
423.0 2781.0 3
402.0 2750.0 3
392.0 2708.0 3
392.0 2687.0 3
402.0 2677.0 3
413.0 2666.0 3
423.0 2666.0 3
433.0 2666.0 3
454.0 2687.0 3
465.0 2708.0 3
475.0 2739.0 3
496.0 2750.0 3
496.0 2739.0 3
506.0 2718.0 3
506.0 2708.0 3
527.0 2687.0 3
548.0 2687.0 3
600.0 2895.0 4
579.0 2895.0 4
579.0 2895.0 4
590.0 2854.0 4
600.0 2812.0 4
600.0 2760.0 4
600.0 2729.0 4
600.0 2698.0 4
683.0 2864.0 5
673.0 2854.0 5
663.0 2823.0 5
631.0 2802.0 5
610.0 2760.0 5
590.0 2729.0 5
590.0 2729.0 5
610.0 2718.0 5
652.0 2708.0 5
694.0 2698.0 5
735.0 2698.0 5
756.0 2729.0 6
777.0 2739.0 6
808.0 2760.0 6
829.0 2781.0 6
850.0 2802.0 6
850.0 2823.0 6
840.0 2833.0 6
829.0 2833.0 6
808.0 2823.0 6
798.0 2802.0 6
777.0 2770.0 6
777.0 2729.0 6
777.0 2698.0 6
819.0 2666.0 6
860.0 2656.0 6
913.0 2656.0 6
944.0 2666.0 6
975.0 2677.0 6

