1308.0 1895.0 1
1308.0 1895.0 1
1308.0 1906.0 1
1308.0 1916.0 1
1308.0 1927.0 1
1288.0 1937.0 1
1256.0 1937.0 1
1215.0 1916.0 1
1173.0 1885.0 1
1142.0 1823.0 1
1131.0 1770.0 1
1131.0 1718.0 1
1152.0 1687.0 1
1194.0 1666.0 1
1215.0 1666.0 1
1235.0 1687.0 1
1235.0 1708.0 1
1225.0 1739.0 1
1215.0 1760.0 1
1204.0 1770.0 1
1204.0 1770.0 1
1204.0 1770.0 1
1225.0 1781.0 1
1246.0 1781.0 1
1267.0 1781.0 1
1277.0 1781.0 1
1277.0 1781.0 1
1277.0 1781.0 1
1277.0 1770.0 1
1350.0 1791.0 2
1350.0 1791.0 2
1350.0 1791.0 2
1340.0 1770.0 2
1319.0 1739.0 2
1319.0 1718.0 2
1329.0 1687.0 2
1371.0 1687.0 2
1392.0 1708.0 2
1402.0 1739.0 2
1402.0 1770.0 2
1392.0 1781.0 2
1371.0 1791.0 2
1340.0 1802.0 2
1329.0 1791.0 2
1319.0 1781.0 2
1444.0 1802.0 3
1444.0 1812.0 3
1454.0 1802.0 3
1465.0 1760.0 3
1485.0 1729.0 3
1485.0 1708.0 3
1485.0 1698.0 3
1496.0 1698.0 3
1496.0 1708.0 3
1506.0 1729.0 3
1527.0 1760.0 3
1548.0 1802.0 3
1548.0 1812.0 3
1548.0 1823.0 3
1548.0 1812.0 3
1600.0 1770.0 4
1590.0 1781.0 4
1590.0 1770.0 4
1610.0 1770.0 4
1631.0 1760.0 4
1663.0 1760.0 4
1673.0 1770.0 4
1683.0 1781.0 4
1683.0 1791.0 4
1694.0 1812.0 4
1683.0 1812.0 4
1663.0 1823.0 4
1631.0 1812.0 4
1600.0 1791.0 4
1590.0 1770.0 4
1579.0 1739.0 4
1590.0 1718.0 4
1631.0 1708.0 4
1652.0 1708.0 4
1683.0 1708.0 4
1694.0 1718.0 4
1746.0 1823.0 5
1746.0 1823.0 5
1746.0 1791.0 5
1746.0 1760.0 5
1746.0 1729.0 5
1746.0 1718.0 5
1746.0 1739.0 5
1746.0 1760.0 5
1767.0 1781.0 5
1788.0 1802.0 5
1808.0 1812.0 5
1819.0 1823.0 5
1819.0 1812.0 5
1819.0 1812.0 5
1892.0 1833.0 6
1892.0 1833.0 6
1892.0 1791.0 6
1892.0 1760.0 6
1881.0 1718.0 6
1881.0 1708.0 6
1881.0 1718.0 6
1881.0 1739.0 6
1902.0 1781.0 6
1923.0 1802.0 6
1944.0 1823.0 6
1965.0 1823.0 6
1975.0 1812.0 6
1975.0 1791.0 6
1975.0 1760.0 6
1965.0 1739.0 6
1965.0 1729.0 6
1965.0 1729.0 6
2058.0 1823.0 7
2058.0 1823.0 7
2058.0 1802.0 7
2048.0 1760.0 7
2048.0 1729.0 7
2048.0 1718.0 7
2048.0 1708.0 7
2069.0 1875.0 8
2069.0 1875.0 8
2069.0 1875.0 8
2069.0 1875.0 8
2069.0 1875.0 8
2079.0 1864.0 8
2163.0 1823.0 9
2163.0 1823.0 9
2163.0 1812.0 9
2163.0 1791.0 9
2142.0 1760.0 9
2142.0 1739.0 9
2131.0 1718.0 9
2131.0 1708.0 9
2131.0 1718.0 9
2131.0 1750.0 9
2152.0 1770.0 9
2173.0 1812.0 9
2194.0 1833.0 9
2204.0 1833.0 9
2225.0 1833.0 9
2225.0 1791.0 9
2225.0 1760.0 9
2215.0 1739.0 9
2204.0 1729.0 9
2204.0 1729.0 9
2350.0 1770.0 10
2350.0 1781.0 10
2360.0 1781.0 10
2360.0 1802.0 10
2360.0 1823.0 10
2329.0 1823.0 10
2308.0 1823.0 10
2288.0 1812.0 10
2267.0 1781.0 10
2267.0 1760.0 10
2277.0 1739.0 10
2288.0 1739.0 10
2308.0 1739.0 10
2319.0 1750.0 10
2340.0 1770.0 10
2360.0 1791.0 10
2360.0 1781.0 10
2371.0 1770.0 10
2371.0 1708.0 10
2360.0 1656.0 10
2350.0 1625.0 10
2340.0 1614.0 10
2308.0 1593.0 10
2277.0 1593.0 10
2256.0 1593.0 10
2246.0 1593.0 10
2246.0 1593.0 10
2246.0 1593.0 10

