1600.0 1937.0 1
1600.0 1937.0 1
1610.0 1927.0 1
1610.0 1906.0 1
1621.0 1864.0 1
1621.0 1760.0 1
1610.0 1656.0 1
1600.0 1562.0 1
1590.0 1489.0 1
1590.0 1468.0 1
1590.0 1468.0 1
1590.0 1479.0 1
1600.0 1489.0 1
1631.0 1541.0 1
1652.0 1593.0 1
1683.0 1645.0 1
1715.0 1698.0 1
1746.0 1729.0 1
1767.0 1750.0 1
1683.0 1656.0 2
1683.0 1645.0 2
1683.0 1635.0 2
1694.0 1604.0 2
1715.0 1573.0 2
1725.0 1531.0 2
1735.0 1510.0 2
1819.0 1614.0 3
1808.0 1583.0 3
1808.0 1520.0 3
1829.0 1718.0 4
1829.0 1708.0 4
1829.0 1687.0 4
2017.0 1604.0 5
2006.0 1604.0 5
1996.0 1614.0 5
1985.0 1625.0 5
1944.0 1625.0 5
1923.0 1604.0 5
1892.0 1573.0 5
1892.0 1552.0 5
1892.0 1531.0 5
1913.0 1510.0 5
1944.0 1510.0 5
1975.0 1531.0 5
1996.0 1573.0 5
2027.0 1625.0 5
2038.0 1666.0 5
2048.0 1718.0 5
2058.0 1781.0 5
2079.0 1833.0 5
2079.0 1843.0 5
2069.0 1833.0 5
2069.0 1770.0 5
2048.0 1698.0 5
2038.0 1645.0 5
2038.0 1604.0 5
2038.0 1562.0 5
2183.0 1625.0 6
2173.0 1625.0 6
2173.0 1635.0 6
2173.0 1645.0 6
2163.0 1645.0 6
2152.0 1656.0 6
2131.0 1645.0 6
2110.0 1635.0 6
2100.0 1604.0 6
2079.0 1573.0 6
2079.0 1552.0 6
2090.0 1541.0 6
2110.0 1541.0 6
2142.0 1562.0 6
2173.0 1593.0 6
2204.0 1645.0 6
2215.0 1687.0 6
2235.0 1750.0 6
2246.0 1791.0 6
2246.0 1823.0 6
2246.0 1833.0 6
2235.0 1833.0 6
2235.0 1802.0 6
2225.0 1750.0 6
2204.0 1687.0 6
2194.0 1604.0 6
2183.0 1552.0 6
2183.0 1531.0 6
2308.0 1656.0 7
2298.0 1645.0 7
2298.0 1635.0 7
2288.0 1604.0 7
2288.0 1583.0 7
2288.0 1583.0 7
2340.0 1791.0 8
2340.0 1791.0 8
2329.0 1770.0 8
2329.0 1760.0 8
2329.0 1739.0 8
2329.0 1687.0 8
2371.0 1625.0 9
2371.0 1604.0 9
2360.0 1573.0 9
2360.0 1562.0 9
2360.0 1562.0 9
2360.0 1562.0 9
2360.0 1583.0 9
2371.0 1593.0 9
2381.0 1614.0 9
2402.0 1635.0 9
2413.0 1635.0 9
2413.0 1635.0 9
2413.0 1635.0 9
2423.0 1614.0 9
2413.0 1583.0 9
2413.0 1552.0 9
2413.0 1531.0 9
2569.0 1645.0 10
2569.0 1656.0 10
2569.0 1656.0 10
2548.0 1656.0 10
2527.0 1635.0 10
2506.0 1625.0 10
2506.0 1604.0 10
2496.0 1583.0 10
2506.0 1552.0 10
2517.0 1552.0 10
2548.0 1552.0 10
2569.0 1573.0 10
2590.0 1604.0 10
2590.0 1635.0 10
2590.0 1656.0 10
2590.0 1656.0 10
2579.0 1635.0 10
2579.0 1625.0 10
2590.0 1593.0 10
2590.0 1541.0 10
2600.0 1500.0 10
2610.0 1448.0 10
2610.0 1406.0 10
2610.0 1364.0 10
2590.0 1354.0 10
2538.0 1354.0 10
2485.0 1375.0 10

