621.0 1895.0 1
610.0 1906.0 1
610.0 1895.0 1
610.0 1885.0 1
621.0 1843.0 1
642.0 1739.0 1
663.0 1666.0 1
683.0 1593.0 1
694.0 1541.0 1
704.0 1510.0 1
715.0 1500.0 1
715.0 1500.0 1
715.0 1500.0 1
496.0 1885.0 2
485.0 1895.0 2
485.0 1906.0 2
485.0 1906.0 2
485.0 1916.0 2
527.0 1916.0 2
590.0 1927.0 2
694.0 1916.0 2
808.0 1885.0 2
933.0 1739.0 2
975.0 1645.0 2
985.0 1573.0 2
975.0 1510.0 2
933.0 1458.0 2
850.0 1427.0 2
767.0 1427.0 2
715.0 1427.0 2
673.0 1448.0 2
985.0 1625.0 3
985.0 1625.0 3
1006.0 1593.0 3
1038.0 1552.0 3
1048.0 1510.0 3
1058.0 1489.0 3
1069.0 1479.0 3
975.0 1718.0 4
975.0 1729.0 4
985.0 1718.0 4
1215.0 1635.0 5
1204.0 1645.0 5
1204.0 1645.0 5
1215.0 1645.0 5
1204.0 1645.0 5
1204.0 1656.0 5
1194.0 1666.0 5
1183.0 1666.0 5
1163.0 1666.0 5
1142.0 1666.0 5
1100.0 1656.0 5
1069.0 1656.0 5
1058.0 1645.0 5
1058.0 1635.0 5
1079.0 1625.0 5
1121.0 1604.0 5
1173.0 1583.0 5
1204.0 1552.0 5
1235.0 1510.0 5
1246.0 1489.0 5
1235.0 1479.0 5
1215.0 1468.0 5
1173.0 1479.0 5
1131.0 1479.0 5
1110.0 1489.0 5
1423.0 1583.0 6
1413.0 1593.0 6
1402.0 1604.0 6
1392.0 1625.0 6
1371.0 1635.0 6
1350.0 1645.0 6
1319.0 1635.0 6
1288.0 1614.0 6
1277.0 1583.0 6
1288.0 1552.0 6
1329.0 1520.0 6
1371.0 1510.0 6
1392.0 1510.0 6
1413.0 1520.0 6
1423.0 1541.0 6
1423.0 1552.0 6
1413.0 1552.0 6
1413.0 1552.0 6
1413.0 1552.0 6
1413.0 1541.0 6
1423.0 1510.0 6
1454.0 1448.0 6
1485.0 1375.0 6
1496.0 1312.0 6
1517.0 1270.0 6
1517.0 1229.0 6
1517.0 1218.0 6
1517.0 1218.0 6
1496.0 1229.0 6
1475.0 1250.0 6
1454.0 1291.0 6
1454.0 1333.0 6
1475.0 1375.0 6
1506.0 1406.0 6
1538.0 1416.0 6
1496.0 1604.0 7
1496.0 1593.0 7
1496.0 1562.0 7
1538.0 1520.0 7
1579.0 1489.0 7
1642.0 1479.0 7
1694.0 1479.0 7
1704.0 1489.0 7
1715.0 1510.0 7
1683.0 1541.0 7
1642.0 1583.0 7
1610.0 1614.0 7
1610.0 1625.0 7
1621.0 1614.0 7
1829.0 1573.0 8
1829.0 1583.0 8
1829.0 1604.0 8
1819.0 1614.0 8
1808.0 1614.0 8
1777.0 1614.0 8
1767.0 1583.0 8
1746.0 1552.0 8
1746.0 1531.0 8
1767.0 1500.0 8
1788.0 1489.0 8
1808.0 1489.0 8
1819.0 1500.0 8
1829.0 1520.0 8
1819.0 1541.0 8
1808.0 1583.0 8
1798.0 1593.0 8
1798.0 1593.0 8
1808.0 1573.0 8
1840.0 1520.0 8
1881.0 1489.0 8
1902.0 1479.0 8
1892.0 1802.0 9
1892.0 1802.0 9
1892.0 1802.0 9
1892.0 1781.0 9
1902.0 1750.0 9
1923.0 1677.0 9
1933.0 1604.0 9
1944.0 1531.0 9
1944.0 1489.0 9
1944.0 1458.0 9
1954.0 1448.0 9
1954.0 1458.0 9
2048.0 1645.0 10
2048.0 1635.0 10
2048.0 1625.0 10
2048.0 1593.0 10
2069.0 1552.0 10
2069.0 1520.0 10
2069.0 1500.0 10
2069.0 1500.0 10
2069.0 1500.0 10
1996.0 1750.0 11
1996.0 1760.0 11
2267.0 1760.0 12
2267.0 1781.0 12
2256.0 1802.0 12
2235.0 1812.0 12
2225.0 1823.0 12
2204.0 1812.0 12
2173.0 1770.0 12
2163.0 1718.0 12
2163.0 1614.0 12
2173.0 1562.0 12
2173.0 1541.0 12
2173.0 1531.0 12
2173.0 1520.0 12
2038.0 1645.0 13
2048.0 1645.0 13
2090.0 1645.0 13
2152.0 1635.0 13
2204.0 1635.0 13
2256.0 1645.0 13
2329.0 1656.0 14
2340.0 1635.0 14
2340.0 1593.0 14
2350.0 1562.0 14
2350.0 1520.0 14
2350.0 1520.0 14
2350.0 1531.0 14
2329.0 1729.0 15
2329.0 1739.0 15
2329.0 1739.0 15
2413.0 1614.0 16
2413.0 1614.0 16
2423.0 1604.0 16
2444.0 1604.0 16
2485.0 1614.0 16
2496.0 1625.0 16
2496.0 1635.0 16
2496.0 1656.0 16
2496.0 1677.0 16
2485.0 1687.0 16
2465.0 1687.0 16
2444.0 1698.0 16
2413.0 1677.0 16
2392.0 1656.0 16
2392.0 1625.0 16
2402.0 1583.0 16
2423.0 1531.0 16
2454.0 1510.0 16
2506.0 1510.0 16
2548.0 1510.0 16
2673.0 1635.0 17
2663.0 1635.0 17
2663.0 1645.0 17
2642.0 1656.0 17
2610.0 1656.0 17
2590.0 1645.0 17
2569.0 1614.0 17
2569.0 1573.0 17
2579.0 1531.0 17
2600.0 1510.0 17
2642.0 1500.0 17
2704.0 1500.0 17
2735.0 1510.0 17
2756.0 1531.0 17
2663.0 1812.0 18
2652.0 1812.0 18
2663.0 1812.0 18
2663.0 1802.0 18
2663.0 1739.0 18
2683.0 1666.0 18
2683.0 1593.0 18
2683.0 1531.0 18
2683.0 1479.0 18
2673.0 1468.0 18
2673.0 1468.0 18

