263.0 2837.0 1
263.0 2837.0 1
263.0 2837.0 1
263.0 2837.0 1
263.0 2837.0 1
252.0 2837.0 1
252.0 2837.0 1
252.0 2837.0 1
252.0 2837.0 1
252.0 2837.0 1
252.0 2837.0 1
252.0 2837.0 1
252.0 2837.0 1
252.0 2816.0 1
252.0 2795.0 1
252.0 2775.0 1
252.0 2743.0 1
263.0 2712.0 1
263.0 2681.0 1
263.0 2670.0 1
263.0 2660.0 1
263.0 2660.0 1
263.0 2660.0 1
263.0 2660.0 1
263.0 2660.0 1
273.0 2660.0 1
294.0 2670.0 1
356.0 2670.0 1
377.0 2660.0 1
388.0 2660.0 1
388.0 2660.0 1
388.0 2660.0 1
388.0 2660.0 1

