273.0 2754.0 1
283.0 2754.0 1
294.0 2733.0 1
304.0 2712.0 1
325.0 2702.0 1
325.0 2691.0 1
335.0 2691.0 1
346.0 2712.0 1
346.0 2733.0 1
356.0 2754.0 1
356.0 2775.0 1
356.0 2754.0 1
346.0 2723.0 1
335.0 2681.0 1
335.0 2639.0 1
335.0 2598.0 1
335.0 2587.0 1

