1444.0 2198.0 1
1433.0 2198.0 1
1433.0 2198.0 1
1433.0 2187.0 1
1423.0 2166.0 1
1423.0 2135.0 1
1392.0 2093.0 1
1381.0 2062.0 1
1350.0 2020.0 1
1329.0 1989.0 1
1298.0 1968.0 1
1288.0 1958.0 1
1538.0 2229.0 2
1538.0 2229.0 2
1538.0 2229.0 2
1527.0 2229.0 2
1506.0 2218.0 2
1475.0 2218.0 2
1454.0 2208.0 2
1423.0 2198.0 2
1413.0 2198.0 2
1402.0 2198.0 2
1402.0 2198.0 2
1402.0 2198.0 2
1402.0 2198.0 2
1402.0 2187.0 2
1402.0 2177.0 2
1402.0 2177.0 2
1402.0 2166.0 2
1392.0 2156.0 2
1381.0 2135.0 2
1371.0 2104.0 2
1360.0 2093.0 2
1350.0 2073.0 2
1340.0 2052.0 2
1329.0 2041.0 2
1319.0 2031.0 2
1308.0 2020.0 2
1308.0 2010.0 2
1298.0 2000.0 2
1298.0 1989.0 2
1288.0 1989.0 2
1288.0 1989.0 2
1288.0 1989.0 2
1288.0 2000.0 2
1288.0 1989.0 2
1288.0 1989.0 2
1308.0 2000.0 2
1319.0 2000.0 2
1340.0 2010.0 2
1360.0 2020.0 2
1381.0 2020.0 2
1392.0 2020.0 2
1402.0 2010.0 2
1413.0 1989.0 2
1413.0 1968.0 2
1413.0 1937.0 2
1402.0 1916.0 2
1381.0 1885.0 2
1371.0 1864.0 2
1340.0 1843.0 2
1319.0 1833.0 2
1267.0 1812.0 2
1225.0 1812.0 2
1194.0 1802.0 2
1163.0 1812.0 2
1131.0 1812.0 2
1131.0 1812.0 2
1131.0 1812.0 2
1131.0 1812.0 2
1735.0 2177.0 3
1735.0 2187.0 3
1735.0 2177.0 3
1735.0 2156.0 3
1725.0 2125.0 3
1673.0 2062.0 3
1652.0 2031.0 3
1631.0 2000.0 3
1631.0 1989.0 3
1631.0 1979.0 3
1642.0 1979.0 3
1673.0 1989.0 3
1704.0 2000.0 3
1746.0 2000.0 3
1777.0 2000.0 3
1798.0 2000.0 3
1808.0 2000.0 3
1819.0 1989.0 3
1902.0 2135.0 4
1892.0 2135.0 4
1892.0 2135.0 4
1871.0 2114.0 4
1860.0 2073.0 4
1840.0 2020.0 4
1808.0 1958.0 4
1788.0 1906.0 4
1756.0 1854.0 4
1735.0 1833.0 4
1735.0 1823.0 4
1735.0 1823.0 4
1735.0 1823.0 4
1735.0 1823.0 4
2121.0 2114.0 5
2121.0 2114.0 5
2121.0 2135.0 5
2152.0 2145.0 5
2204.0 2145.0 5
2256.0 2145.0 5
2298.0 2125.0 5
2298.0 2114.0 5
2298.0 2093.0 5
2267.0 2073.0 5
2225.0 2052.0 5
2194.0 2041.0 5
2183.0 2031.0 5
2183.0 2020.0 5
2194.0 2020.0 5
2215.0 2010.0 5
2235.0 2000.0 5
2246.0 1989.0 5
2246.0 1979.0 5
2246.0 1958.0 5
2225.0 1927.0 5
2183.0 1906.0 5
2142.0 1885.0 5
2100.0 1885.0 5
2079.0 1885.0 5
2058.0 1885.0 5
2069.0 1895.0 5
2090.0 1906.0 5
2423.0 2114.0 6
2413.0 2125.0 6
2423.0 2135.0 6
2444.0 2135.0 6
2475.0 2135.0 6
2517.0 2135.0 6
2548.0 2125.0 6
2558.0 2125.0 6
2548.0 2104.0 6
2517.0 2083.0 6
2475.0 2073.0 6
2444.0 2062.0 6
2433.0 2052.0 6
2423.0 2041.0 6
2433.0 2031.0 6
2465.0 2031.0 6
2496.0 2020.0 6
2538.0 2000.0 6
2548.0 1979.0 6
2548.0 1968.0 6
2538.0 1937.0 6
2496.0 1895.0 6
2454.0 1875.0 6
2413.0 1875.0 6
2392.0 1875.0 6
2381.0 1875.0 6
2381.0 1885.0 6
2392.0 1895.0 6
2798.0 2125.0 7
2798.0 2125.0 7
2788.0 2125.0 7
2788.0 2114.0 7
2788.0 2104.0 7
2788.0 2073.0 7
2777.0 2041.0 7
2756.0 2010.0 7
2735.0 1958.0 7
2715.0 1927.0 7
2704.0 1895.0 7
2694.0 1864.0 7
2694.0 1864.0 7
2694.0 1864.0 7

