1538.0 2156.0 1
1527.0 2156.0 1
1527.0 2145.0 1
1527.0 2135.0 1
1538.0 2104.0 1
1538.0 2062.0 1
1548.0 1979.0 1
1548.0 1916.0 1
1558.0 1875.0 1
1558.0 1833.0 1
1558.0 1802.0 1
1558.0 1791.0 1
1402.0 2041.0 2
1433.0 2062.0 2
1465.0 2093.0 2
1506.0 2125.0 2
1558.0 2156.0 2
1610.0 2198.0 2
1652.0 2218.0 2
1673.0 2229.0 2
1683.0 2218.0 2
1413.0 1937.0 3
1444.0 1948.0 3
1485.0 1979.0 3
1548.0 2010.0 3
1600.0 2041.0 3
1642.0 2073.0 3
1673.0 2083.0 3
1704.0 2104.0 3
1704.0 2104.0 3
1829.0 2062.0 4
1829.0 2062.0 4
1819.0 2073.0 4
1798.0 2073.0 4
1798.0 2073.0 4
1788.0 2073.0 4
1777.0 2052.0 4
1767.0 2020.0 4
1756.0 1989.0 4
1746.0 1937.0 4
1746.0 1895.0 4
1746.0 1875.0 4
1746.0 1854.0 4
1756.0 1843.0 4
1767.0 1843.0 4
1777.0 1843.0 4
1788.0 1854.0 4
1798.0 1885.0 4
1808.0 1916.0 4
1819.0 1948.0 4
1819.0 1989.0 4
1829.0 2010.0 4
1829.0 2020.0 4
1819.0 2020.0 4
1819.0 2020.0 4
1819.0 2010.0 4
1819.0 1989.0 4
1829.0 1948.0 4
1840.0 1937.0 4
1850.0 1916.0 4
1871.0 1895.0 4
1881.0 1895.0 4
1965.0 2260.0 5
1965.0 2260.0 5
1965.0 2260.0 5
1965.0 2229.0 5
1965.0 2187.0 5
1975.0 2125.0 5
1985.0 2062.0 5
1985.0 2000.0 5
1996.0 1937.0 5
2006.0 1906.0 5
2006.0 1885.0 5
2006.0 1875.0 5
1996.0 1864.0 5
2142.0 2093.0 6
2100.0 2083.0 6
2079.0 2073.0 6
2038.0 2052.0 6
1996.0 2031.0 6
1965.0 2020.0 6
1944.0 2000.0 6
1944.0 1989.0 6
1944.0 1979.0 6
1965.0 1968.0 6
1996.0 1968.0 6
2027.0 1958.0 6
2079.0 1937.0 6
2131.0 1927.0 6
2163.0 1916.0 6
2194.0 1895.0 6
2194.0 1895.0 6
2194.0 1895.0 6
2225.0 1916.0 7
2225.0 1916.0 7
2225.0 1927.0 7
2225.0 1927.0 7
2235.0 1937.0 7
2246.0 1948.0 7
2277.0 1979.0 7
2298.0 2000.0 7
2319.0 2020.0 7
2329.0 2062.0 7
2329.0 2083.0 7
2319.0 2093.0 7
2298.0 2093.0 7
2277.0 2073.0 7
2246.0 2052.0 7
2225.0 2020.0 7
2204.0 1989.0 7
2194.0 1948.0 7
2194.0 1906.0 7
2215.0 1895.0 7
2246.0 1875.0 7
2288.0 1875.0 7
2350.0 1885.0 7
2413.0 1895.0 7
2465.0 1916.0 7
2506.0 1937.0 7
2558.0 1948.0 7
2579.0 1958.0 7
2590.0 1958.0 7
2590.0 1958.0 7
2579.0 1958.0 7
2569.0 1958.0 7
2558.0 1958.0 7
2558.0 1958.0 7

