1131.0 2114.0 1
1121.0 2093.0 1
1121.0 2052.0 1
1131.0 1989.0 1
1142.0 1906.0 1
1152.0 1802.0 1
1163.0 1677.0 1
1163.0 1604.0 1
1163.0 1541.0 1
1173.0 1500.0 1
1173.0 1489.0 1
1173.0 1489.0 1
881.0 1875.0 2
881.0 1875.0 2
892.0 1885.0 2
944.0 1916.0 2
1058.0 1989.0 2
1152.0 2052.0 2
1246.0 2093.0 2
1329.0 2156.0 2
1413.0 2198.0 2
1465.0 2218.0 2
1485.0 1854.0 3
1475.0 1875.0 3
1465.0 1916.0 3
1444.0 1937.0 3
1433.0 1937.0 3
1402.0 1916.0 3
1360.0 1833.0 3
1340.0 1750.0 3
1319.0 1677.0 3
1319.0 1625.0 3
1319.0 1583.0 3
1340.0 1583.0 3
1360.0 1593.0 3
1392.0 1635.0 3
1433.0 1687.0 3
1454.0 1760.0 3
1465.0 1823.0 3
1465.0 1906.0 3
1465.0 1906.0 3
1465.0 1864.0 3
1485.0 1791.0 3
1517.0 1739.0 3
1538.0 1698.0 3
1579.0 1677.0 3
1621.0 1645.0 3
1652.0 1645.0 3
1704.0 2000.0 4
1704.0 1989.0 4
1715.0 1968.0 4
1735.0 1916.0 4
1777.0 1854.0 4
1808.0 1791.0 4
1850.0 1739.0 4
1881.0 1687.0 4
1923.0 1656.0 4
1944.0 1656.0 4
1954.0 1656.0 4
1923.0 2020.0 5
1871.0 1948.0 5
1850.0 1885.0 5
1819.0 1812.0 5
1788.0 1729.0 5
1746.0 1635.0 5
1725.0 1593.0 5
1725.0 1562.0 5
2100.0 1958.0 6
2100.0 1937.0 6
2121.0 1895.0 6
2152.0 1823.0 6
2173.0 1750.0 6
2183.0 1698.0 6
2183.0 1656.0 6
2173.0 1625.0 6
2173.0 1614.0 6
2163.0 1625.0 6
2163.0 1645.0 6
2100.0 2218.0 7
2069.0 2187.0 7
2069.0 2177.0 7
2079.0 2156.0 7

