579.0 1291.0 1
579.0 1312.0 1
569.0 1323.0 1
558.0 1323.0 1
548.0 1312.0 1
496.0 1270.0 1
454.0 1208.0 1
433.0 1114.0 1
423.0 1000.0 1
433.0 916.0 1
454.0 854.0 1
485.0 812.0 1
548.0 791.0 1
621.0 812.0 1
715.0 854.0 1
777.0 906.0 1
819.0 968.0 1
819.0 989.0 1
788.0 1010.0 1
746.0 1031.0 1
673.0 1052.0 1
652.0 1052.0 1
673.0 1041.0 1
954.0 958.0 2
944.0 958.0 2
944.0 948.0 2
965.0 948.0 2
1017.0 968.0 2
1079.0 1000.0 2
1110.0 1031.0 2
1100.0 1052.0 2
1048.0 1052.0 2
985.0 1041.0 2
933.0 979.0 2
923.0 927.0 2
923.0 885.0 2
944.0 843.0 2
1027.0 812.0 2
1100.0 802.0 2
1183.0 802.0 2
1350.0 1010.0 3
1277.0 1000.0 3
1225.0 937.0 3
1194.0 875.0 3
1204.0 812.0 3
1267.0 781.0 3
1350.0 781.0 3
1433.0 812.0 3
1485.0 864.0 3
1485.0 885.0 3
1433.0 927.0 3
1371.0 968.0 3
1756.0 916.0 4
1746.0 927.0 4
1725.0 937.0 4
1673.0 927.0 4
1590.0 875.0 4
1558.0 833.0 4
1558.0 812.0 4
1590.0 781.0 4
1683.0 791.0 4
1746.0 802.0 4
1788.0 802.0 4
1819.0 770.0 4
1850.0 677.0 4
1850.0 593.0 4
1850.0 520.0 4
1840.0 458.0 4
1840.0 458.0 4
1819.0 468.0 4
1788.0 500.0 4
1913.0 895.0 5
1902.0 875.0 5
1902.0 833.0 5
1902.0 770.0 5
1923.0 729.0 5
1933.0 708.0 5
1944.0 698.0 5
1944.0 718.0 5
1933.0 750.0 5
1923.0 802.0 5
1923.0 875.0 5
1933.0 916.0 5
1944.0 948.0 5
1965.0 958.0 5
2006.0 958.0 5
2069.0 958.0 5
2235.0 885.0 6
2225.0 885.0 6
2194.0 864.0 6
2163.0 843.0 6
2131.0 791.0 6
2131.0 770.0 6
2163.0 760.0 6
2194.0 760.0 6
2235.0 781.0 6
2246.0 812.0 6
2246.0 833.0 6
2225.0 843.0 6
2225.0 843.0 6
2225.0 833.0 6
2235.0 812.0 6
2267.0 770.0 6
2319.0 750.0 6
2371.0 750.0 6
2444.0 812.0 7
2423.0 760.0 7
2413.0 698.0 7
2413.0 635.0 7
2402.0 593.0 7
2413.0 573.0 7
2413.0 604.0 7
2413.0 666.0 7
2413.0 770.0 7
2423.0 864.0 7
2454.0 948.0 7
2506.0 979.0 7
2579.0 958.0 7
2600.0 895.0 7
2600.0 833.0 7
2569.0 781.0 7
2506.0 729.0 7
2496.0 729.0 7
2496.0 750.0 7
2694.0 1135.0 8
2673.0 1114.0 8
2642.0 1020.0 8
2631.0 937.0 8
2631.0 864.0 8
2652.0 812.0 8
2683.0 781.0 8
2704.0 770.0 8
2715.0 781.0 8
2767.0 833.0 8
2808.0 875.0 8
2840.0 906.0 8
2860.0 906.0 8
2871.0 864.0 8
2881.0 833.0 8
2892.0 791.0 8
2913.0 770.0 8
2954.0 760.0 8
3017.0 770.0 8
3256.0 927.0 9
3215.0 854.0 9
3163.0 760.0 9
3110.0 656.0 9
3069.0 562.0 9
3048.0 458.0 9
3048.0 437.0 9
3058.0 437.0 9
2996.0 823.0 10
2996.0 833.0 10
2996.0 833.0 10
3027.0 802.0 10
3069.0 760.0 10
3131.0 708.0 10

