538.0 1020.0 1
527.0 1062.0 1
527.0 1062.0 1
527.0 1010.0 1
527.0 937.0 1
527.0 833.0 1
548.0 729.0 1
558.0 625.0 1
579.0 573.0 1
610.0 552.0 1
631.0 552.0 1
663.0 583.0 1
704.0 656.0 1
725.0 739.0 1
725.0 833.0 1
694.0 958.0 1
683.0 1010.0 1
683.0 979.0 1
715.0 854.0 1
725.0 781.0 1
746.0 708.0 1
767.0 656.0 1
819.0 625.0 1
850.0 625.0 1
892.0 625.0 1
985.0 635.0 2
985.0 593.0 2
985.0 583.0 2
985.0 573.0 2
985.0 583.0 2
1006.0 625.0 2
1058.0 687.0 2
1100.0 739.0 2
1131.0 770.0 2
1163.0 760.0 2
1183.0 708.0 2
1204.0 656.0 2
1215.0 593.0 2
1235.0 562.0 2
1256.0 552.0 2
1590.0 739.0 3
1569.0 750.0 3
1506.0 739.0 3
1423.0 698.0 3
1381.0 645.0 3
1371.0 614.0 3
1402.0 573.0 3
1465.0 552.0 3
1548.0 541.0 3
1631.0 552.0 3
1735.0 666.0 4
1683.0 666.0 4
1621.0 625.0 4
1600.0 583.0 4
1600.0 562.0 4
1642.0 552.0 4
1715.0 552.0 4
1756.0 583.0 4
1756.0 593.0 4
1756.0 614.0 4
1735.0 645.0 4
1850.0 593.0 5
1840.0 573.0 5
1840.0 583.0 5
1850.0 625.0 5
1892.0 677.0 5
1902.0 687.0 5
1923.0 687.0 5
1954.0 656.0 5
1975.0 625.0 5
1985.0 604.0 5
1985.0 593.0 5
1985.0 583.0 5
1985.0 593.0 5
2006.0 625.0 5
2048.0 666.0 5
2079.0 677.0 5
2100.0 677.0 5
2121.0 666.0 5
2142.0 625.0 5
2152.0 593.0 5
2152.0 573.0 5
2152.0 562.0 5
2163.0 562.0 5
2465.0 854.0 6
2475.0 895.0 6
2465.0 916.0 6
2433.0 937.0 6
2381.0 937.0 6
2329.0 895.0 6
2298.0 854.0 6
2298.0 791.0 6
2329.0 698.0 6
2360.0 604.0 6
2381.0 562.0 6
2392.0 531.0 6
2392.0 531.0 6
2392.0 552.0 6
2235.0 677.0 7
2235.0 677.0 7
2235.0 687.0 7
2298.0 708.0 7
2392.0 708.0 7
2485.0 698.0 7
2548.0 677.0 7
2590.0 645.0 7
2579.0 625.0 7
2569.0 593.0 7
2548.0 562.0 7
2558.0 541.0 7
2579.0 541.0 7
2642.0 562.0 7
2683.0 583.0 7
2683.0 614.0 7
2652.0 635.0 7
2600.0 645.0 7
2579.0 645.0 7
2590.0 656.0 7
2756.0 552.0 8
2756.0 531.0 8
2756.0 531.0 8
2756.0 541.0 8
2767.0 562.0 8
2767.0 604.0 8
2767.0 635.0 8
2777.0 687.0 8
2798.0 718.0 8
2850.0 729.0 8
3017.0 895.0 9
3017.0 906.0 9
3017.0 906.0 9
3017.0 875.0 9
3027.0 812.0 9
3038.0 739.0 9
3048.0 666.0 9
3048.0 583.0 9
3038.0 531.0 9
3038.0 500.0 9
2944.0 656.0 10
2933.0 666.0 10
2933.0 677.0 10
2985.0 698.0 10
3069.0 708.0 10
3131.0 708.0 10
3183.0 698.0 10
3288.0 656.0 11
3246.0 635.0 11
3194.0 604.0 11
3173.0 583.0 11
3173.0 562.0 11
3194.0 552.0 11
3235.0 562.0 11
3277.0 583.0 11
3308.0 593.0 11
3308.0 604.0 11
3308.0 604.0 11
3308.0 593.0 11
3329.0 552.0 11
3360.0 520.0 11
3381.0 520.0 11
3413.0 531.0 11
3454.0 875.0 12
3454.0 854.0 12
3475.0 760.0 12
3475.0 677.0 12
3485.0 625.0 12
3485.0 583.0 12
3506.0 573.0 12
3527.0 583.0 12
3579.0 614.0 12
3621.0 645.0 12
3663.0 645.0 12
3694.0 625.0 12
3704.0 593.0 12
3694.0 562.0 12
3642.0 541.0 12
3579.0 531.0 12
3517.0 531.0 12
3506.0 541.0 12
3517.0 541.0 12
3694.0 895.0 13
3704.0 864.0 13
3725.0 770.0 13
3746.0 677.0 13
3746.0 614.0 13
3746.0 562.0 13
3756.0 510.0 13
3767.0 489.0 13
4110.0 666.0 14
4110.0 666.0 14
4079.0 625.0 14
4027.0 541.0 14
4006.0 468.0 14
3975.0 406.0 14
3954.0 343.0 14
3944.0 291.0 14
3954.0 291.0 14
3933.0 604.0 15
3933.0 614.0 15
3933.0 604.0 15
3944.0 573.0 15
3965.0 531.0 15
4006.0 500.0 15
4038.0 468.0 15

