471.0 2795.0 1
471.0 2795.0 1
460.0 2795.0 1
419.0 2795.0 1
377.0 2795.0 1
346.0 2795.0 1
325.0 2795.0 1
325.0 2785.0 1
335.0 2775.0 1
356.0 2743.0 1
388.0 2723.0 1
398.0 2691.0 1
398.0 2660.0 1
388.0 2629.0 1
367.0 2608.0 1
346.0 2608.0 1
335.0 2618.0 1
335.0 2650.0 1
356.0 2691.0 1
388.0 2712.0 1
429.0 2743.0 1
471.0 2754.0 1
492.0 2764.0 1
502.0 2764.0 1
502.0 2764.0 1

