1413.0 1927.0 1
1413.0 1927.0 1
1413.0 1927.0 1
1413.0 1927.0 1
1433.0 1927.0 1
1475.0 1937.0 1
1527.0 1948.0 1
1569.0 1948.0 1
1610.0 1948.0 1
1610.0 1927.0 1
1600.0 1885.0 1
1569.0 1843.0 1
1538.0 1791.0 1
1538.0 1760.0 1
1538.0 1729.0 1
1715.0 1958.0 2
1694.0 1927.0 2
1694.0 1906.0 2
1694.0 1885.0 2
1694.0 1875.0 2
1715.0 1864.0 2
1746.0 1854.0 2
1777.0 1864.0 2
1798.0 1864.0 2
1871.0 1979.0 3
1850.0 1979.0 3
1840.0 1958.0 3
1829.0 1927.0 3
1819.0 1875.0 3
1819.0 1812.0 3
1829.0 1770.0 3
2006.0 2031.0 4
2006.0 2010.0 4
1985.0 1958.0 4
1975.0 1916.0 4
1975.0 1875.0 4
1975.0 1854.0 4
2235.0 1989.0 5
2235.0 2010.0 5
2235.0 2031.0 5
2235.0 2031.0 5
2215.0 2041.0 5
2204.0 2041.0 5
2183.0 2020.0 5
2163.0 2010.0 5
2142.0 1979.0 5
2131.0 1958.0 5
2152.0 1937.0 5
2183.0 1927.0 5
2215.0 1927.0 5
2267.0 1937.0 5
2308.0 1979.0 5
2329.0 2000.0 5
2319.0 2031.0 5
2298.0 2052.0 5
2256.0 2062.0 5
2225.0 2052.0 5
2183.0 2031.0 5
2163.0 2000.0 5
2142.0 1968.0 5
2215.0 1937.0 6
2204.0 1937.0 6
2204.0 1937.0 6
2194.0 1937.0 6
2173.0 1916.0 6
2163.0 1895.0 6
2142.0 1875.0 6
2142.0 1854.0 6
2142.0 1833.0 6
2173.0 1833.0 6
2215.0 1843.0 6
2267.0 1864.0 6
2288.0 1885.0 6
2288.0 1906.0 6
2277.0 1927.0 6
2235.0 1927.0 6
2204.0 1916.0 6
2402.0 2062.0 7
2402.0 2062.0 7
2402.0 2052.0 7
2392.0 2031.0 7
2392.0 2020.0 7
2392.0 1989.0 7
2402.0 1958.0 7
2413.0 1937.0 7
2444.0 1937.0 7
2475.0 1937.0 7
2517.0 1948.0 7
2548.0 1958.0 7
2538.0 2062.0 8
2527.0 2041.0 8
2527.0 2010.0 8
2527.0 1937.0 8
2527.0 1895.0 8
2527.0 1854.0 8
2548.0 1833.0 8

