294.0 2785.0 1
294.0 2785.0 1
294.0 2785.0 1
315.0 2743.0 1
367.0 2691.0 1
419.0 2629.0 1
460.0 2598.0 1
481.0 2598.0 1
440.0 2816.0 2
429.0 2785.0 2
398.0 2733.0 2
377.0 2681.0 2
335.0 2618.0 2
325.0 2598.0 2
325.0 2587.0 2
325.0 2598.0 2
335.0 2598.0 2

