954.0 2395.0 1
954.0 2395.0 1
954.0 2395.0 1
954.0 2395.0 1
954.0 2395.0 1
954.0 2364.0 1
954.0 2333.0 1
954.0 2250.0 1
965.0 2208.0 1
965.0 2187.0 1
965.0 2166.0 1
965.0 2166.0 1
965.0 2187.0 1
756.0 2333.0 2
746.0 2343.0 2
746.0 2354.0 2
777.0 2385.0 2
819.0 2406.0 2
871.0 2427.0 2
944.0 2448.0 2
1017.0 2479.0 2
1058.0 2489.0 2
1079.0 2489.0 2
1079.0 2489.0 2
1079.0 2489.0 2
1079.0 2489.0 2
1038.0 2333.0 3
1038.0 2302.0 3
1038.0 2260.0 3
1048.0 2218.0 3
1058.0 2198.0 3
1058.0 2187.0 3
1058.0 2187.0 3
1058.0 2198.0 3
1048.0 2218.0 3
1048.0 2250.0 3
1038.0 2281.0 3
1048.0 2291.0 3
1069.0 2302.0 3
1090.0 2323.0 3
1131.0 2323.0 3
1152.0 2333.0 3
1163.0 2333.0 3
1163.0 2333.0 3
1173.0 2323.0 3
1256.0 2302.0 4
1246.0 2312.0 4
1246.0 2312.0 4
1235.0 2323.0 4
1225.0 2323.0 4
1215.0 2333.0 4
1204.0 2333.0 4
1194.0 2333.0 4
1183.0 2323.0 4
1163.0 2291.0 4
1152.0 2270.0 4
1152.0 2239.0 4
1152.0 2218.0 4
1173.0 2198.0 4
1183.0 2198.0 4
1204.0 2218.0 4
1225.0 2239.0 4
1235.0 2260.0 4
1235.0 2281.0 4
1225.0 2302.0 4
1225.0 2312.0 4
1225.0 2302.0 4
1225.0 2281.0 4
1235.0 2260.0 4
1256.0 2218.0 4
1267.0 2198.0 4
1277.0 2187.0 4
1288.0 2187.0 4
1308.0 2198.0 4
1319.0 2302.0 5
1308.0 2302.0 5
1308.0 2302.0 5
1319.0 2281.0 5
1329.0 2270.0 5
1329.0 2239.0 5
1329.0 2218.0 5
1329.0 2198.0 5
1329.0 2208.0 5
1319.0 2229.0 5
1319.0 2260.0 5
1319.0 2302.0 5
1319.0 2323.0 5
1329.0 2333.0 5
1340.0 2333.0 5
1360.0 2312.0 5
1371.0 2291.0 5
1392.0 2270.0 5
1392.0 2250.0 5
1402.0 2229.0 5
1402.0 2208.0 5
1485.0 2343.0 6
1485.0 2343.0 6
1475.0 2343.0 6
1454.0 2333.0 6
1433.0 2323.0 6
1423.0 2323.0 6
1413.0 2312.0 6
1423.0 2302.0 6
1444.0 2302.0 6
1465.0 2291.0 6
1485.0 2291.0 6
1506.0 2281.0 6
1527.0 2260.0 6
1538.0 2239.0 6
1538.0 2229.0 6
1527.0 2218.0 6
1506.0 2208.0 6
1475.0 2208.0 6
1465.0 2208.0 6
1465.0 2208.0 6
1652.0 2198.0 7
1652.0 2187.0 7
1652.0 2177.0 7
1652.0 2177.0 7
1642.0 2198.0 7
1642.0 2229.0 7
1631.0 2260.0 7
1631.0 2302.0 7
1631.0 2343.0 7
1610.0 2385.0 7
1610.0 2427.0 7
1610.0 2458.0 7
1621.0 2479.0 7
1631.0 2510.0 7
1652.0 2520.0 7
1673.0 2520.0 7
1694.0 2520.0 7
1715.0 2500.0 7
1715.0 2489.0 7
1569.0 2323.0 8
1569.0 2323.0 8
1590.0 2323.0 8
1610.0 2343.0 8
1631.0 2343.0 8
1652.0 2343.0 8
1683.0 2343.0 8
1683.0 2312.0 9
1683.0 2302.0 9
1673.0 2281.0 9
1683.0 2250.0 9
1683.0 2229.0 9
1694.0 2208.0 9
1715.0 2218.0 9
1746.0 2229.0 9
1756.0 2250.0 9
1767.0 2270.0 9
1756.0 2291.0 9
1735.0 2312.0 9
1715.0 2323.0 9
1694.0 2323.0 9
1683.0 2323.0 9
1683.0 2323.0 9
1788.0 2333.0 10
1788.0 2333.0 10
1788.0 2323.0 10
1798.0 2302.0 10
1808.0 2270.0 10
1819.0 2239.0 10
1829.0 2218.0 10
1829.0 2218.0 10
1829.0 2218.0 10
1819.0 2239.0 10
1808.0 2260.0 10
1808.0 2291.0 10
1808.0 2312.0 10
1829.0 2323.0 10
1840.0 2333.0 10
1871.0 2343.0 10
1923.0 2343.0 10
1913.0 2333.0 10
1944.0 2312.0 11
1954.0 2312.0 11
1954.0 2291.0 11
1965.0 2281.0 11
1965.0 2260.0 11
1965.0 2250.0 11
1965.0 2229.0 11
1975.0 2229.0 11
1975.0 2218.0 11
1975.0 2229.0 11
1965.0 2250.0 11
1965.0 2281.0 11
1965.0 2302.0 11
1975.0 2323.0 11
1975.0 2333.0 11
1996.0 2343.0 11
2006.0 2333.0 11
2027.0 2323.0 11
2048.0 2302.0 11
2058.0 2281.0 11
2069.0 2250.0 11
2069.0 2229.0 11
2079.0 2218.0 11
2079.0 2218.0 11
2079.0 2239.0 11
2079.0 2270.0 11
2090.0 2302.0 11
2100.0 2333.0 11
2110.0 2354.0 11
2121.0 2354.0 11
2131.0 2343.0 11
2152.0 2333.0 11
2173.0 2270.0 11
2183.0 2250.0 11
2194.0 2229.0 11
2194.0 2218.0 11
2194.0 2208.0 11
2194.0 2208.0 11
2194.0 2218.0 11

