340.0 2562.0 1
340.0 2573.0 1
340.0 2552.0 1
350.0 2520.0 1
350.0 2479.0 1
350.0 2437.0 1
360.0 2395.0 1
360.0 2323.0 1
360.0 2323.0 1
360.0 2333.0 1
350.0 2354.0 1
340.0 2385.0 1
340.0 2427.0 1
340.0 2468.0 1
340.0 2520.0 1
350.0 2573.0 1
371.0 2604.0 1
381.0 2625.0 1
402.0 2625.0 1
423.0 2604.0 1
433.0 2573.0 1
444.0 2520.0 1
465.0 2458.0 1
465.0 2427.0 1
465.0 2375.0 1
465.0 2385.0 1
350.0 2468.0 2
350.0 2468.0 2
350.0 2479.0 2
371.0 2479.0 2
433.0 2479.0 2
569.0 2500.0 3
569.0 2500.0 3
569.0 2500.0 3
569.0 2500.0 3
569.0 2500.0 3
569.0 2510.0 3
558.0 2510.0 3
548.0 2500.0 3
527.0 2489.0 3
527.0 2468.0 3
527.0 2448.0 3
527.0 2416.0 3
548.0 2385.0 3
579.0 2385.0 3
610.0 2406.0 3
652.0 2666.0 4
652.0 2666.0 4
652.0 2604.0 4
663.0 2552.0 4
673.0 2489.0 4
694.0 2437.0 4
694.0 2406.0 4
694.0 2385.0 4
694.0 2385.0 4
756.0 2531.0 5
746.0 2531.0 5
735.0 2520.0 5
704.0 2510.0 5
694.0 2479.0 5
683.0 2458.0 5
683.0 2437.0 5
715.0 2416.0 5
746.0 2406.0 5
767.0 2406.0 5
829.0 2500.0 6
829.0 2500.0 6
829.0 2489.0 6
840.0 2468.0 6
850.0 2427.0 6
850.0 2406.0 6
860.0 2385.0 6
860.0 2385.0 6
860.0 2385.0 6
860.0 2458.0 6
860.0 2479.0 6
881.0 2500.0 6
892.0 2500.0 6
902.0 2500.0 6
923.0 2479.0 6
933.0 2458.0 6
944.0 2427.0 6
944.0 2406.0 6
954.0 2385.0 6
965.0 2385.0 6
1006.0 2479.0 7
1006.0 2479.0 7
1006.0 2458.0 7
1006.0 2437.0 7
1017.0 2406.0 7
1027.0 2395.0 7
1038.0 2395.0 7
1058.0 2406.0 7
1079.0 2437.0 7
1079.0 2458.0 7
1069.0 2479.0 7
1048.0 2479.0 7
1027.0 2479.0 7
1163.0 2489.0 8
1163.0 2489.0 8
1152.0 2479.0 8
1142.0 2458.0 8
1142.0 2437.0 8
1152.0 2416.0 8
1163.0 2406.0 8
1183.0 2406.0 8
1183.0 2416.0 8
1194.0 2427.0 8
1204.0 2448.0 8
1204.0 2458.0 8
1194.0 2458.0 8
1194.0 2448.0 8
1194.0 2437.0 8
1204.0 2406.0 8
1215.0 2385.0 8
1246.0 2375.0 8
1277.0 2375.0 8
1308.0 2395.0 8
1319.0 2416.0 8
1319.0 2448.0 8
1308.0 2468.0 8
1288.0 2479.0 8
1277.0 2479.0 8
1267.0 2479.0 8
1381.0 2635.0 9
1371.0 2645.0 9
1371.0 2625.0 9
1371.0 2573.0 9
1371.0 2520.0 9
1381.0 2468.0 9
1392.0 2437.0 9
1413.0 2406.0 9
1444.0 2406.0 9
1475.0 2416.0 9
1506.0 2437.0 9
1527.0 2479.0 9
1538.0 2510.0 9
1538.0 2531.0 9
1527.0 2541.0 9
1506.0 2541.0 9
1485.0 2531.0 9
1475.0 2510.0 9
1475.0 2479.0 9
1496.0 2448.0 9
1517.0 2437.0 9
1548.0 2437.0 9
1694.0 2500.0 10
1694.0 2510.0 10
1683.0 2520.0 10
1673.0 2520.0 10
1663.0 2520.0 10
1642.0 2520.0 10
1610.0 2489.0 10
1610.0 2468.0 10
1610.0 2448.0 10
1621.0 2427.0 10
1652.0 2416.0 10
1673.0 2427.0 10
1694.0 2437.0 10
1715.0 2698.0 11
1694.0 2708.0 11
1683.0 2708.0 11
1673.0 2698.0 11
1663.0 2666.0 11
1673.0 2593.0 11
1694.0 2520.0 11
1715.0 2479.0 11
1725.0 2448.0 11
1746.0 2416.0 11
1840.0 2510.0 12
1829.0 2531.0 12
1819.0 2531.0 12
1798.0 2531.0 12
1777.0 2510.0 12
1777.0 2489.0 12
1767.0 2458.0 12
1767.0 2427.0 12
1788.0 2416.0 12
1798.0 2416.0 12
1819.0 2427.0 12
1829.0 2458.0 12
1840.0 2489.0 12
1840.0 2500.0 12
1829.0 2500.0 12
1829.0 2489.0 12
1829.0 2458.0 12
1829.0 2416.0 12
1840.0 2364.0 12
1850.0 2291.0 12
1871.0 2239.0 12
1871.0 2208.0 12
1871.0 2177.0 12
1860.0 2177.0 12
1829.0 2187.0 12
1798.0 2218.0 12
1767.0 2260.0 12
1756.0 2312.0 12
1756.0 2354.0 12
1767.0 2395.0 12
1788.0 2437.0 12
1840.0 2458.0 12
1881.0 2468.0 12
1913.0 2479.0 12
1944.0 2500.0 12
1975.0 2510.0 12
1985.0 2520.0 12
1985.0 2531.0 12
1975.0 2541.0 12
1944.0 2541.0 12
1923.0 2541.0 12
1902.0 2520.0 12
1902.0 2500.0 12
1913.0 2468.0 12
1944.0 2448.0 12
1985.0 2416.0 12
2017.0 2416.0 12
2027.0 2427.0 12
2038.0 2541.0 13
2027.0 2541.0 13
2017.0 2541.0 13
2017.0 2541.0 13
2017.0 2520.0 13
2017.0 2489.0 13
2027.0 2468.0 13
2027.0 2448.0 13
2027.0 2406.0 13
2038.0 2406.0 13
2038.0 2406.0 13
2038.0 2406.0 13
2027.0 2427.0 13
2017.0 2458.0 13
2017.0 2479.0 13
2027.0 2510.0 13
2027.0 2531.0 13
2027.0 2541.0 13
2038.0 2552.0 13
2048.0 2552.0 13
2058.0 2531.0 13
2069.0 2500.0 13
2079.0 2479.0 13
2090.0 2458.0 13
2100.0 2437.0 13
2100.0 2437.0 13
2100.0 2448.0 13
2090.0 2479.0 13
2090.0 2500.0 13
2090.0 2510.0 13
2100.0 2531.0 13
2121.0 2541.0 13
2142.0 2541.0 13
2152.0 2531.0 13
2173.0 2500.0 13
2183.0 2479.0 13
2183.0 2458.0 13
2194.0 2427.0 13
2194.0 2406.0 13
2204.0 2406.0 13
2204.0 2406.0 13
2215.0 2416.0 13
2246.0 2500.0 14
2246.0 2500.0 14
2246.0 2500.0 14
2246.0 2489.0 14
2256.0 2489.0 14
2277.0 2489.0 14
2319.0 2510.0 14
2329.0 2531.0 14
2319.0 2541.0 14
2308.0 2541.0 14
2298.0 2541.0 14
2277.0 2531.0 14
2267.0 2510.0 14
2267.0 2479.0 14
2267.0 2458.0 14
2288.0 2437.0 14
2308.0 2416.0 14
2340.0 2416.0 14
2360.0 2427.0 14
2381.0 2437.0 14
2402.0 2520.0 15
2392.0 2531.0 15
2392.0 2489.0 15
2392.0 2468.0 15
2402.0 2437.0 15
2402.0 2427.0 15
2402.0 2416.0 15
2402.0 2416.0 15
2402.0 2437.0 15
2413.0 2468.0 15
2423.0 2500.0 15
2433.0 2520.0 15
2444.0 2541.0 15
2465.0 2541.0 15
2485.0 2531.0 15
2496.0 2520.0 15
2506.0 2500.0 15
2527.0 2458.0 15
2527.0 2427.0 15
2527.0 2395.0 15
2527.0 2375.0 15
2538.0 2364.0 15
2538.0 2385.0 15
2600.0 2718.0 16
2590.0 2729.0 16
2590.0 2739.0 16
2590.0 2698.0 16
2600.0 2635.0 16
2610.0 2573.0 16
2631.0 2500.0 16
2642.0 2458.0 16
2642.0 2406.0 16
2642.0 2385.0 16
2642.0 2375.0 16
2642.0 2375.0 16
2642.0 2375.0 16
2642.0 2385.0 16
2715.0 2573.0 17
2683.0 2583.0 17
2642.0 2583.0 17
2590.0 2583.0 17
2538.0 2593.0 17
2485.0 2593.0 17
2454.0 2604.0 17
2433.0 2614.0 17
2433.0 2614.0 17

