242.0 2775.0 1
242.0 2785.0 1
242.0 2785.0 1
252.0 2775.0 1
252.0 2702.0 1
252.0 2660.0 1
252.0 2629.0 1
252.0 2629.0 1
252.0 2639.0 1
263.0 2681.0 1
221.0 2806.0 2
210.0 2806.0 2
210.0 2806.0 2
221.0 2806.0 2
242.0 2816.0 2
283.0 2827.0 2
325.0 2837.0 2
367.0 2837.0 2
356.0 2827.0 2
221.0 2733.0 3
221.0 2733.0 3
242.0 2733.0 3
273.0 2733.0 3
294.0 2733.0 3
315.0 2743.0 3
325.0 2743.0 3

