356.0 2733.0 1
356.0 2733.0 1
356.0 2743.0 1
367.0 2743.0 1
367.0 2754.0 1
367.0 2754.0 1
377.0 2743.0 1
377.0 2723.0 1
388.0 2681.0 1
398.0 2650.0 1
408.0 2608.0 1
408.0 2608.0 1
408.0 2618.0 1
481.0 2733.0 2
481.0 2733.0 2
471.0 2733.0 2
460.0 2723.0 2
460.0 2702.0 2
471.0 2691.0 2
481.0 2681.0 2
502.0 2681.0 2
523.0 2670.0 2
544.0 2660.0 2
544.0 2660.0 2
544.0 2639.0 2
544.0 2629.0 2
533.0 2608.0 2
513.0 2598.0 2
492.0 2598.0 2
471.0 2733.0 3
471.0 2743.0 3
481.0 2754.0 3
481.0 2764.0 3
513.0 2764.0 3
544.0 2764.0 3
575.0 2754.0 3
700.0 2754.0 4
679.0 2743.0 4
658.0 2723.0 4
658.0 2681.0 4
669.0 2650.0 4
721.0 2618.0 4
763.0 2618.0 4
783.0 2639.0 4
794.0 2660.0 4
773.0 2681.0 4
752.0 2691.0 4
731.0 2691.0 4
710.0 2670.0 4

