360.0 2906.0 1
360.0 2843.0 1
360.0 2760.0 1
360.0 2687.0 1
360.0 2635.0 1
371.0 2593.0 1
371.0 2552.0 1
371.0 2541.0 1
371.0 2531.0 1
256.0 2520.0 2
256.0 2520.0 2
256.0 2510.0 2
288.0 2500.0 2
340.0 2489.0 2
381.0 2500.0 2
433.0 2510.0 2
496.0 2510.0 2
496.0 2510.0 2
496.0 2500.0 2
496.0 2500.0 2
215.0 2812.0 3
225.0 2823.0 3
235.0 2823.0 3
288.0 2843.0 3
340.0 2843.0 3
392.0 2843.0 3
413.0 2843.0 3
413.0 2833.0 3
663.0 2708.0 4
663.0 2718.0 4
663.0 2708.0 4
663.0 2687.0 4
652.0 2645.0 4
652.0 2583.0 4
652.0 2541.0 4
652.0 2520.0 4
652.0 2520.0 4
642.0 2541.0 4
642.0 2573.0 4
652.0 2625.0 4
673.0 2687.0 4
683.0 2708.0 4
715.0 2739.0 4
735.0 2729.0 4
767.0 2708.0 4
777.0 2666.0 4
788.0 2614.0 4
788.0 2552.0 4
798.0 2489.0 4
798.0 2468.0 4
1027.0 2823.0 5
1027.0 2823.0 5
1017.0 2791.0 5
1017.0 2750.0 5
1027.0 2698.0 5
1027.0 2614.0 5
1027.0 2541.0 5
1027.0 2510.0 5
1027.0 2500.0 5
1027.0 2500.0 5
1027.0 2520.0 5
1017.0 2552.0 5
1006.0 2604.0 5
985.0 2645.0 5
975.0 2677.0 5
954.0 2698.0 5
944.0 2708.0 5
923.0 2708.0 5
913.0 2698.0 5
892.0 2666.0 5
892.0 2593.0 5
892.0 2541.0 5
913.0 2510.0 5
933.0 2500.0 5
1090.0 2698.0 6
1079.0 2698.0 6
1079.0 2698.0 6
1090.0 2645.0 6
1100.0 2593.0 6
1121.0 2541.0 6
1131.0 2510.0 6
1163.0 2489.0 6
1183.0 2489.0 6
1204.0 2520.0 6
1225.0 2562.0 6
1246.0 2625.0 6
1256.0 2666.0 6
1256.0 2698.0 6
1256.0 2708.0 6
1256.0 2708.0 6
1256.0 2645.0 6
1256.0 2583.0 6
1267.0 2541.0 6
1277.0 2510.0 6
1308.0 2500.0 6
1454.0 2698.0 7
1433.0 2708.0 7
1423.0 2729.0 7
1402.0 2729.0 7
1392.0 2718.0 7
1371.0 2698.0 7
1350.0 2687.0 7
1340.0 2656.0 7
1340.0 2645.0 7
1360.0 2614.0 7
1381.0 2593.0 7
1423.0 2593.0 7
1454.0 2593.0 7
1485.0 2583.0 7
1485.0 2573.0 7
1485.0 2552.0 7
1485.0 2531.0 7
1465.0 2520.0 7
1444.0 2500.0 7
1423.0 2489.0 7
1392.0 2489.0 7
1371.0 2489.0 7
1371.0 2500.0 7
1652.0 2833.0 8
1621.0 2843.0 8
1621.0 2843.0 8
1621.0 2604.0 8
1621.0 2562.0 8
1610.0 2541.0 8
1610.0 2541.0 8
1610.0 2552.0 8
1527.0 2708.0 9
1527.0 2708.0 9
1538.0 2708.0 9
1558.0 2718.0 9
1590.0 2718.0 9
1642.0 2718.0 9
1704.0 2708.0 9
1725.0 2687.0 9
1735.0 2666.0 9
1735.0 2635.0 9
1735.0 2583.0 9
1725.0 2541.0 9
1725.0 2520.0 9
1725.0 2520.0 9
1715.0 2531.0 9
1715.0 2562.0 9
1725.0 2604.0 9
1735.0 2666.0 9
1777.0 2708.0 9
1808.0 2729.0 9
1819.0 2739.0 9
1840.0 2739.0 9
1881.0 2708.0 10
1892.0 2687.0 10
1892.0 2614.0 10
1892.0 2593.0 10
1892.0 2573.0 10
1892.0 2552.0 10
1892.0 2541.0 10
1860.0 2843.0 11
1850.0 2854.0 11
1850.0 2854.0 11
1850.0 2854.0 11
2048.0 2604.0 12
2058.0 2625.0 12
2069.0 2635.0 12
2069.0 2645.0 12
2058.0 2666.0 12
2048.0 2677.0 12
2048.0 2698.0 12
2027.0 2708.0 12
2006.0 2708.0 12
1985.0 2708.0 12
1975.0 2677.0 12
1965.0 2635.0 12
1965.0 2583.0 12
1965.0 2531.0 12
1985.0 2520.0 12
2006.0 2520.0 12
2027.0 2541.0 12
2058.0 2583.0 12
2069.0 2614.0 12
2069.0 2656.0 12
2069.0 2666.0 12
2069.0 2656.0 12
2079.0 2614.0 12
2090.0 2573.0 12
2110.0 2541.0 12
2142.0 2531.0 12
2152.0 2531.0 12
2183.0 2843.0 13
2183.0 2843.0 13
2183.0 2708.0 13
2194.0 2656.0 13
2194.0 2573.0 13
2204.0 2552.0 13
2204.0 2541.0 13
2204.0 2541.0 13
2267.0 2687.0 14
2267.0 2687.0 14
2277.0 2666.0 14
2277.0 2625.0 14
2288.0 2604.0 14
2288.0 2573.0 14
2288.0 2552.0 14
2277.0 2531.0 14
2277.0 2531.0 14
2267.0 2812.0 15
2267.0 2812.0 15
2360.0 2729.0 16
2360.0 2729.0 16
2360.0 2739.0 16
2360.0 2739.0 16
2381.0 2750.0 16
2423.0 2750.0 16
2444.0 2750.0 16
2465.0 2729.0 16
2465.0 2718.0 16
2465.0 2687.0 16
2433.0 2656.0 16
2392.0 2625.0 16
2381.0 2604.0 16
2371.0 2593.0 16
2381.0 2604.0 16
2423.0 2604.0 16
2454.0 2604.0 16
2496.0 2583.0 16
2517.0 2552.0 16
2517.0 2520.0 16
2506.0 2500.0 16
2485.0 2458.0 16
2454.0 2437.0 16
2423.0 2427.0 16
2381.0 2427.0 16
2350.0 2437.0 16
2329.0 2458.0 16
2329.0 2479.0 16
2548.0 2666.0 17
2548.0 2666.0 17
2548.0 2666.0 17
2558.0 2666.0 17
2590.0 2677.0 17
2642.0 2698.0 17
2683.0 2708.0 17
2704.0 2739.0 17
2725.0 2760.0 17
2715.0 2781.0 17
2704.0 2791.0 17
2683.0 2802.0 17
2652.0 2791.0 17
2621.0 2791.0 17
2600.0 2770.0 17
2579.0 2718.0 17
2579.0 2656.0 17
2579.0 2604.0 17
2590.0 2573.0 17
2621.0 2562.0 17
2652.0 2562.0 17
2683.0 2583.0 17
2725.0 2604.0 17
2923.0 2823.0 18
2933.0 2812.0 18
2944.0 2770.0 18
2954.0 2729.0 18
2954.0 2687.0 18
2944.0 2625.0 18
2933.0 2583.0 18
2933.0 2552.0 18
2923.0 2541.0 18
2923.0 2541.0 18
2923.0 2552.0 18
2913.0 2562.0 18
2913.0 2583.0 18
2892.0 2625.0 18
2860.0 2645.0 18
2840.0 2656.0 18
2819.0 2666.0 18
2808.0 2656.0 18
2788.0 2614.0 18
2788.0 2573.0 18
2808.0 2552.0 18
2829.0 2531.0 18
2871.0 2531.0 18
2902.0 2552.0 18

