350.0 2698.0 1
319.0 2718.0 1
319.0 2729.0 1
308.0 2729.0 1
308.0 2729.0 1
308.0 2718.0 1
319.0 2698.0 1
350.0 2645.0 1
381.0 2520.0 1
433.0 2416.0 1
496.0 2302.0 1
538.0 2229.0 1
579.0 2156.0 1
610.0 2125.0 1
621.0 2114.0 1
631.0 2104.0 1
506.0 2708.0 2
506.0 2708.0 2
506.0 2708.0 2
496.0 2677.0 2
475.0 2573.0 2
444.0 2479.0 2
423.0 2333.0 2
392.0 2229.0 2
350.0 2125.0 2
329.0 2083.0 2
319.0 2062.0 2
319.0 2052.0 2
329.0 2041.0 2
642.0 2479.0 3
652.0 2479.0 3
652.0 2437.0 3
663.0 2364.0 3
673.0 2291.0 3
704.0 2208.0 3
725.0 2177.0 3
746.0 2166.0 3
767.0 2166.0 3
808.0 2187.0 3
840.0 2250.0 3
871.0 2312.0 3
892.0 2385.0 3
902.0 2458.0 3
902.0 2468.0 3
902.0 2448.0 3
913.0 2343.0 3
913.0 2239.0 3
902.0 2125.0 3
892.0 1958.0 3
860.0 1875.0 3
829.0 1802.0 3
788.0 1760.0 3
735.0 1739.0 3
673.0 1739.0 3
621.0 1760.0 3
569.0 1802.0 3
527.0 1854.0 3
1048.0 2750.0 4
1048.0 2750.0 4
1048.0 2739.0 4
1069.0 2698.0 4
1090.0 2614.0 4
1100.0 2500.0 4
1100.0 2385.0 4
1079.0 2260.0 4
1058.0 2177.0 4
1058.0 2145.0 4
1058.0 2125.0 4
1215.0 2500.0 5
1194.0 2479.0 5
1173.0 2427.0 5
1173.0 2323.0 5
1173.0 2260.0 5
1183.0 2198.0 5
1194.0 2145.0 5
1225.0 2125.0 5
1256.0 2125.0 5
1288.0 2156.0 5
1319.0 2208.0 5
1350.0 2291.0 5
1360.0 2375.0 5
1360.0 2437.0 5
1340.0 2479.0 5
1277.0 2500.0 5
1215.0 2489.0 5
1173.0 2448.0 5
1152.0 2406.0 5
1569.0 2468.0 6
1569.0 2416.0 6
1558.0 2260.0 6
1558.0 2156.0 6
1548.0 2073.0 6
1538.0 2000.0 6
1506.0 1948.0 6
1506.0 1948.0 6
1506.0 1968.0 6
1517.0 2062.0 6
1527.0 2177.0 6
1548.0 2302.0 6
1579.0 2416.0 6
1621.0 2489.0 6
1642.0 2489.0 6
1652.0 2489.0 6
1683.0 2458.0 6
1694.0 2406.0 6
1694.0 2354.0 6
1683.0 2302.0 6
1652.0 2260.0 6
1600.0 2198.0 6
1558.0 2177.0 6
1538.0 2177.0 6
1871.0 2750.0 7
1860.0 2729.0 7
1850.0 2625.0 7
1850.0 2541.0 7
1819.0 2448.0 7
1798.0 2354.0 7
1767.0 2281.0 7
1767.0 2250.0 7
1767.0 2250.0 7
1767.0 2260.0 7
1777.0 2323.0 7
1798.0 2395.0 7
1829.0 2458.0 7
1860.0 2500.0 7
1902.0 2510.0 7
1933.0 2500.0 7
1965.0 2458.0 7
1965.0 2395.0 7
1954.0 2312.0 7
1954.0 2260.0 7
1944.0 2198.0 7
1944.0 2166.0 7
1954.0 2156.0 7
2110.0 2489.0 8
2090.0 2458.0 8
2069.0 2385.0 8
2069.0 2312.0 8
2069.0 2239.0 8
2079.0 2187.0 8
2100.0 2166.0 8
2152.0 2177.0 8
2183.0 2208.0 8
2225.0 2250.0 8
2256.0 2312.0 8
2267.0 2395.0 8
2267.0 2448.0 8
2225.0 2479.0 8
2183.0 2479.0 8
2090.0 2458.0 8
2319.0 2468.0 9
2308.0 2427.0 9
2288.0 2343.0 9
2277.0 2260.0 9
2246.0 2208.0 9
2235.0 2166.0 9
2225.0 2135.0 9
2215.0 2135.0 9
2215.0 2135.0 9
2235.0 2177.0 9
2256.0 2229.0 9
2298.0 2323.0 9
2340.0 2385.0 9
2381.0 2437.0 9
2413.0 2437.0 9
2454.0 2406.0 9
2475.0 2364.0 9
2485.0 2323.0 9
2485.0 2270.0 9
2485.0 2198.0 9
2485.0 2166.0 9
2475.0 2145.0 9
2558.0 2281.0 10
2569.0 2281.0 10
2590.0 2291.0 10
2642.0 2333.0 10
2694.0 2375.0 10
2735.0 2416.0 10
2767.0 2448.0 10
2777.0 2489.0 10
2777.0 2510.0 10
2756.0 2520.0 10
2735.0 2520.0 10
2683.0 2489.0 10
2621.0 2458.0 10
2590.0 2385.0 10
2548.0 2281.0 10
2517.0 2177.0 10
2517.0 2114.0 10
2527.0 2093.0 10
2558.0 2093.0 10
2652.0 2125.0 10
2746.0 2177.0 10
2840.0 2229.0 10

