485.0 1948.0 1
485.0 1948.0 1
485.0 1916.0 1
475.0 1875.0 1
475.0 1843.0 1
475.0 1802.0 1
475.0 1666.0 1
475.0 1635.0 1
485.0 1604.0 1
496.0 1583.0 1
506.0 1573.0 1
538.0 1573.0 1
558.0 1573.0 1
600.0 1573.0 1
663.0 1573.0 1
683.0 1573.0 1
704.0 1573.0 1
704.0 1573.0 1
683.0 1937.0 2
683.0 1927.0 2
683.0 1916.0 2
683.0 1895.0 2
683.0 1854.0 2
673.0 1802.0 2
673.0 1750.0 2
683.0 1677.0 2
683.0 1635.0 2
694.0 1604.0 2
694.0 1573.0 2
704.0 1552.0 2
704.0 1552.0 2
715.0 1552.0 2
777.0 1677.0 3
777.0 1677.0 3
788.0 1656.0 3
788.0 1625.0 3
798.0 1604.0 3
798.0 1573.0 3
798.0 1573.0 3
798.0 1593.0 3
798.0 1625.0 3
788.0 1645.0 3
798.0 1656.0 3
819.0 1666.0 3
829.0 1677.0 3
860.0 1677.0 3
881.0 1677.0 3
892.0 1666.0 3
902.0 1656.0 3
913.0 1645.0 3
913.0 1614.0 3
913.0 1583.0 3
913.0 1573.0 3
923.0 1552.0 3
923.0 1552.0 3
1100.0 1698.0 4
1100.0 1698.0 4
1090.0 1708.0 4
1069.0 1729.0 4
1058.0 1729.0 4
1038.0 1729.0 4
1017.0 1718.0 4
1006.0 1708.0 4
996.0 1687.0 4
996.0 1656.0 4
996.0 1625.0 4
1006.0 1604.0 4
1027.0 1583.0 4
1069.0 1583.0 4
1100.0 1583.0 4
1131.0 1583.0 4
1142.0 1593.0 4
1215.0 1687.0 5
1215.0 1677.0 5
1215.0 1677.0 5
1225.0 1635.0 5
1225.0 1604.0 5
1246.0 1583.0 5
1256.0 1573.0 5
1288.0 1573.0 5
1298.0 1593.0 5
1319.0 1614.0 5
1329.0 1635.0 5
1329.0 1677.0 5
1308.0 1698.0 5
1308.0 1708.0 5
1288.0 1718.0 5
1246.0 1708.0 5
1215.0 1687.0 5
1204.0 1666.0 5
1204.0 1645.0 5
1392.0 1677.0 6
1392.0 1687.0 6
1392.0 1614.0 6
1402.0 1593.0 6
1402.0 1593.0 6
1402.0 1593.0 6
1402.0 1604.0 6
1402.0 1635.0 6
1402.0 1656.0 6
1402.0 1677.0 6
1413.0 1687.0 6
1454.0 1687.0 6
1465.0 1677.0 6
1475.0 1666.0 6
1485.0 1645.0 6
1496.0 1625.0 6
1496.0 1614.0 6
1485.0 1604.0 6
1485.0 1614.0 6
1485.0 1625.0 6
1485.0 1635.0 6
1496.0 1666.0 6
1506.0 1677.0 6
1527.0 1687.0 6
1548.0 1687.0 6
1558.0 1677.0 6
1569.0 1666.0 6
1579.0 1656.0 6
1579.0 1635.0 6
1579.0 1593.0 6
1767.0 1770.0 7
1767.0 1781.0 7
1777.0 1781.0 7
1777.0 1791.0 7
1777.0 1812.0 7
1777.0 1854.0 7
1767.0 1875.0 7
1756.0 1906.0 7
1735.0 1937.0 7
1704.0 1968.0 7
1704.0 1979.0 7
1694.0 1958.0 7
1694.0 1750.0 7
1694.0 1656.0 7
1715.0 1573.0 7
1725.0 1531.0 7
1725.0 1489.0 7
1735.0 1479.0 7
1735.0 1468.0 7
1735.0 1489.0 7
1610.0 1645.0 8
1652.0 1645.0 8
1694.0 1645.0 8
1756.0 1645.0 8
1808.0 1666.0 9
1808.0 1656.0 9
1819.0 1625.0 9
1819.0 1593.0 9
1829.0 1573.0 9
1840.0 1562.0 9
1871.0 1562.0 9
1892.0 1583.0 9
1902.0 1604.0 9
1913.0 1635.0 9
1913.0 1666.0 9
1892.0 1687.0 9
1881.0 1687.0 9
1850.0 1687.0 9
1819.0 1666.0 9
1808.0 1656.0 9
1944.0 1666.0 10
1944.0 1666.0 10
1944.0 1666.0 10
1944.0 1656.0 10
1944.0 1635.0 10
1954.0 1614.0 10
1954.0 1604.0 10
1975.0 1583.0 10
1975.0 1573.0 10
1975.0 1583.0 10
1975.0 1593.0 10
1975.0 1625.0 10
1965.0 1645.0 10
1965.0 1656.0 10
1965.0 1666.0 10
2006.0 1666.0 10
2058.0 1666.0 10
2090.0 1666.0 10
2121.0 1666.0 10
2204.0 1927.0 11
2204.0 1927.0 11
2204.0 1916.0 11
2215.0 1895.0 11
2215.0 1843.0 11
2225.0 1791.0 11
2225.0 1718.0 11
2225.0 1656.0 11
2235.0 1625.0 11
2246.0 1614.0 11
2246.0 1604.0 11
2246.0 1604.0 11
2173.0 1677.0 12
2183.0 1677.0 12
2194.0 1677.0 12
2225.0 1666.0 12
2256.0 1677.0 12
2288.0 1677.0 12
2433.0 1666.0 13
2444.0 1666.0 13
2444.0 1677.0 13
2444.0 1687.0 13
2433.0 1708.0 13
2433.0 1718.0 13
2423.0 1729.0 13
2402.0 1739.0 13
2381.0 1750.0 13
2371.0 1750.0 13
2350.0 1739.0 13
2329.0 1718.0 13
2308.0 1687.0 13
2308.0 1666.0 13
2319.0 1645.0 13
2340.0 1635.0 13
2371.0 1635.0 13
2402.0 1645.0 13
2423.0 1656.0 13
2444.0 1666.0 13
2444.0 1687.0 13
2444.0 1687.0 13
2444.0 1687.0 13
2444.0 1677.0 13
2444.0 1656.0 13
2454.0 1625.0 13
2465.0 1614.0 13
2475.0 1604.0 13
2579.0 1875.0 14
2579.0 1885.0 14
2579.0 1864.0 14
2569.0 1823.0 14
2569.0 1760.0 14
2558.0 1677.0 14
2558.0 1614.0 14
2558.0 1625.0 14
2569.0 1635.0 14
2569.0 1666.0 14
2579.0 1698.0 14
2600.0 1708.0 14
2621.0 1718.0 14
2642.0 1708.0 14
2663.0 1698.0 14
2683.0 1666.0 14
2694.0 1645.0 14
2694.0 1625.0 14
2694.0 1604.0 14
2673.0 1593.0 14
2652.0 1593.0 14
2621.0 1593.0 14
2600.0 1604.0 14
2569.0 1604.0 14
2548.0 1604.0 14
2538.0 1604.0 14
2746.0 1895.0 15
2746.0 1906.0 15
2746.0 1895.0 15
2756.0 1875.0 15
2756.0 1833.0 15
2767.0 1760.0 15
2767.0 1708.0 15
2767.0 1656.0 15
2777.0 1625.0 15
2777.0 1604.0 15
2777.0 1604.0 15
2788.0 1593.0 15
2788.0 1604.0 15
2798.0 1614.0 15
2881.0 1687.0 16
2881.0 1698.0 16
2881.0 1698.0 16
2881.0 1687.0 16
2881.0 1687.0 16
2881.0 1666.0 16
2881.0 1635.0 16
2881.0 1614.0 16
2902.0 1593.0 16
2933.0 1593.0 16
2975.0 1593.0 16
3006.0 1604.0 16
3027.0 1614.0 16
3038.0 1645.0 16
3048.0 1677.0 16
3048.0 1687.0 16
3048.0 1687.0 16
3058.0 1687.0 16
3048.0 1656.0 16
3048.0 1625.0 16
3048.0 1562.0 16
3048.0 1531.0 16
3058.0 1500.0 16
3069.0 1479.0 16
3069.0 1448.0 16
3058.0 1448.0 16
3027.0 1458.0 16
2985.0 1468.0 16
2933.0 1479.0 16
2871.0 1479.0 16
2819.0 1489.0 16
2756.0 1489.0 16

