1860.0 1812.0 1
1860.0 1823.0 1
1850.0 1843.0 1
1819.0 1864.0 1
1788.0 1875.0 1
1746.0 1875.0 1
1704.0 1875.0 1
1652.0 1854.0 1
1642.0 1823.0 1
1652.0 1781.0 1
1694.0 1739.0 1
1777.0 1687.0 1
1850.0 1656.0 1
1913.0 1635.0 1
1944.0 1614.0 1
1954.0 1593.0 1
1944.0 1593.0 1
1913.0 1583.0 1
1850.0 1583.0 1
1756.0 1573.0 1
1673.0 1573.0 1
1610.0 1562.0 1
1569.0 1562.0 1
1569.0 1552.0 1
1923.0 1635.0 2
1944.0 1635.0 2
1965.0 1635.0 2
1996.0 1625.0 2
2048.0 1625.0 2
2069.0 1625.0 2
2079.0 1635.0 2
2079.0 1645.0 2
2069.0 1666.0 2
2048.0 1687.0 2
2027.0 1698.0 2
2006.0 1698.0 2
1985.0 1698.0 2
1975.0 1666.0 2
1965.0 1645.0 2
1965.0 1604.0 2
1975.0 1573.0 2
2006.0 1562.0 2
2038.0 1562.0 2
2079.0 1562.0 2
2194.0 1625.0 3
2194.0 1625.0 3
2194.0 1625.0 3
2225.0 1614.0 3
2246.0 1614.0 3
2288.0 1614.0 3
2308.0 1614.0 3
2308.0 1625.0 3
2308.0 1645.0 3
2288.0 1656.0 3
2267.0 1677.0 3
2246.0 1677.0 3
2225.0 1677.0 3
2215.0 1666.0 3
2204.0 1635.0 3
2204.0 1593.0 3
2225.0 1562.0 3
2267.0 1552.0 3
2298.0 1552.0 3
2340.0 1552.0 3
2454.0 1843.0 4
2454.0 1843.0 4
2454.0 1843.0 4
2465.0 1812.0 4
2475.0 1718.0 4
2475.0 1656.0 4
2475.0 1604.0 4
2485.0 1562.0 4
2485.0 1531.0 4
2485.0 1531.0 4
2496.0 1541.0 4
2610.0 1666.0 5
2621.0 1677.0 5
2621.0 1677.0 5
2590.0 1677.0 5
2558.0 1656.0 5
2517.0 1635.0 5
2496.0 1614.0 5
2465.0 1593.0 5
2465.0 1573.0 5
2475.0 1562.0 5
2496.0 1552.0 5
2548.0 1552.0 5
2590.0 1552.0 5
2621.0 1562.0 5
2642.0 1562.0 5
2683.0 1635.0 6
2694.0 1635.0 6
2704.0 1635.0 6
2725.0 1635.0 6
2746.0 1635.0 6
2788.0 1635.0 6
2808.0 1635.0 6
2829.0 1635.0 6
2829.0 1656.0 6
2829.0 1666.0 6
2808.0 1687.0 6
2798.0 1698.0 6
2777.0 1708.0 6
2756.0 1698.0 6
2735.0 1687.0 6
2715.0 1656.0 6
2715.0 1625.0 6
2725.0 1583.0 6
2735.0 1552.0 6
2767.0 1541.0 6
2819.0 1552.0 6
2860.0 1562.0 6
2933.0 1645.0 7
2933.0 1656.0 7
2923.0 1656.0 7
2923.0 1614.0 7
2933.0 1593.0 7
2933.0 1573.0 7
2944.0 1552.0 7
2944.0 1562.0 7
2944.0 1573.0 7
2944.0 1614.0 7
2944.0 1656.0 7
2944.0 1677.0 7
2944.0 1677.0 7
2965.0 1687.0 7
2996.0 1687.0 7
3038.0 1677.0 7
3100.0 1677.0 7
3173.0 1666.0 7
3183.0 1666.0 7

