1100.0 1760.0 1
1100.0 1770.0 1
1090.0 1781.0 1
1079.0 1781.0 1
1069.0 1770.0 1
1048.0 1770.0 1
1017.0 1750.0 1
965.0 1698.0 1
933.0 1645.0 1
892.0 1573.0 1
871.0 1500.0 1
871.0 1416.0 1
892.0 1375.0 1
923.0 1354.0 1
975.0 1354.0 1
1027.0 1364.0 1
1069.0 1395.0 1
1090.0 1427.0 1
1090.0 1468.0 1
1079.0 1500.0 1
1058.0 1520.0 1
1027.0 1531.0 1
985.0 1541.0 1
944.0 1531.0 1
923.0 1531.0 1
923.0 1531.0 1
923.0 1531.0 1
954.0 1520.0 1
996.0 1520.0 1
1048.0 1520.0 1
1100.0 1531.0 1
1152.0 1552.0 1
1194.0 1573.0 1
1392.0 1625.0 2
1381.0 1625.0 2
1360.0 1604.0 2
1350.0 1573.0 2
1319.0 1541.0 2
1298.0 1500.0 2
1277.0 1448.0 2
1277.0 1416.0 2
1288.0 1406.0 2
1319.0 1395.0 2
1360.0 1395.0 2
1392.0 1416.0 2
1433.0 1458.0 2
1465.0 1510.0 2
1465.0 1583.0 2
1465.0 1614.0 2
1433.0 1635.0 2
1413.0 1635.0 2
1371.0 1625.0 2
1350.0 1604.0 2
1558.0 1625.0 3
1569.0 1625.0 3
1579.0 1614.0 3
1600.0 1573.0 3
1621.0 1541.0 3
1642.0 1500.0 3
1663.0 1437.0 3
1673.0 1427.0 3
1683.0 1406.0 3
1694.0 1406.0 3
1694.0 1406.0 3
1715.0 1427.0 3
1735.0 1468.0 3
1756.0 1531.0 3
1777.0 1604.0 3
1788.0 1645.0 3
1788.0 1656.0 3
1788.0 1656.0 3
1788.0 1656.0 3
1850.0 1562.0 4
1860.0 1552.0 4
1881.0 1552.0 4
1913.0 1541.0 4
1965.0 1541.0 4
1996.0 1552.0 4
2017.0 1552.0 4
2038.0 1562.0 4
2058.0 1573.0 4
2069.0 1593.0 4
2069.0 1604.0 4
2069.0 1625.0 4
2038.0 1635.0 4
2006.0 1645.0 4
1965.0 1635.0 4
1933.0 1614.0 4
1902.0 1573.0 4
1902.0 1541.0 4
1902.0 1500.0 4
1933.0 1468.0 4
1965.0 1448.0 4
2006.0 1427.0 4
2058.0 1427.0 4
2110.0 1437.0 4
2152.0 1448.0 4
2235.0 1666.0 5
2235.0 1666.0 5
2225.0 1666.0 5
2225.0 1656.0 5
2225.0 1625.0 5
2225.0 1593.0 5
2225.0 1541.0 5
2235.0 1500.0 5
2246.0 1468.0 5
2267.0 1437.0 5
2288.0 1406.0 5
2298.0 1395.0 5
2298.0 1395.0 5
2298.0 1395.0 5
2308.0 1416.0 5
2308.0 1468.0 5
2319.0 1531.0 5
2329.0 1573.0 5
2340.0 1604.0 5
2350.0 1614.0 5
2371.0 1614.0 5
2402.0 1614.0 5
2548.0 1635.0 6
2548.0 1635.0 6
2548.0 1645.0 6
2548.0 1625.0 6
2548.0 1583.0 6
2558.0 1541.0 6
2569.0 1500.0 6
2579.0 1458.0 6
2590.0 1437.0 6
2600.0 1427.0 6
2600.0 1416.0 6
2610.0 1416.0 6
2621.0 1427.0 6
2631.0 1448.0 6
2652.0 1500.0 6
2683.0 1562.0 6
2694.0 1593.0 6
2715.0 1604.0 6
2725.0 1614.0 6
2735.0 1614.0 6
2746.0 1604.0 6
2756.0 1583.0 6
2767.0 1562.0 6
2767.0 1510.0 6
2767.0 1458.0 6
2767.0 1427.0 6
2777.0 1395.0 6
2798.0 1375.0 6
2819.0 1375.0 6
2985.0 1635.0 7
2975.0 1635.0 7
2975.0 1635.0 7
2965.0 1614.0 7
2965.0 1520.0 7
2975.0 1468.0 7
2975.0 1416.0 7
2985.0 1375.0 7
2985.0 1354.0 7
2996.0 1343.0 7
3006.0 1354.0 7
2923.0 1791.0 8
2913.0 1802.0 8
2923.0 1770.0 8
3131.0 1656.0 9
3131.0 1656.0 9
3131.0 1645.0 9
3131.0 1625.0 9
3142.0 1593.0 9
3152.0 1520.0 9
3173.0 1479.0 9
3183.0 1458.0 9
3194.0 1437.0 9
3204.0 1437.0 9
3204.0 1448.0 9
3225.0 1468.0 9
3246.0 1531.0 9
3277.0 1593.0 9
3298.0 1614.0 9
3298.0 1614.0 9
3308.0 1604.0 9
3319.0 1573.0 9
3329.0 1541.0 9
3340.0 1500.0 9
3340.0 1468.0 9
3350.0 1437.0 9
3360.0 1427.0 9
3371.0 1416.0 9
3642.0 1531.0 10
3663.0 1541.0 10
3673.0 1552.0 10
3673.0 1562.0 10
3673.0 1573.0 10
3663.0 1583.0 10
3631.0 1593.0 10
3600.0 1583.0 10
3569.0 1573.0 10
3538.0 1541.0 10
3506.0 1489.0 10
3496.0 1468.0 10
3496.0 1437.0 10
3517.0 1427.0 10
3558.0 1416.0 10
3600.0 1427.0 10
3631.0 1458.0 10
3663.0 1489.0 10
3683.0 1562.0 10
3683.0 1593.0 10
3673.0 1604.0 10
3663.0 1604.0 10
3663.0 1593.0 10
3663.0 1510.0 10
3673.0 1458.0 10
3694.0 1375.0 10
3704.0 1291.0 10
3715.0 1239.0 10
3715.0 1177.0 10
3704.0 1125.0 10
3694.0 1125.0 10
3663.0 1125.0 10
3621.0 1166.0 10
3569.0 1229.0 10
3527.0 1250.0 10
3496.0 1250.0 10

