1058.0 1698.0 1
1058.0 1708.0 1
1058.0 1708.0 1
1058.0 1656.0 1
1058.0 1645.0 1
1058.0 1614.0 1
1048.0 1604.0 1
1048.0 1552.0 1
1058.0 1552.0 1
1058.0 1562.0 1
1058.0 1573.0 1
1058.0 1583.0 1
1058.0 1593.0 1
1058.0 1604.0 1
1058.0 1635.0 1
1058.0 1666.0 1
1069.0 1677.0 1
1069.0 1698.0 1
1069.0 1708.0 1
1069.0 1729.0 1
1079.0 1750.0 1
1079.0 1750.0 1
1079.0 1760.0 1
1090.0 1770.0 1
1090.0 1770.0 1
1090.0 1770.0 1
1090.0 1770.0 1
1100.0 1760.0 1
1100.0 1750.0 1
1110.0 1739.0 1
1110.0 1729.0 1
1110.0 1708.0 1
1110.0 1698.0 1
1110.0 1677.0 1
1121.0 1666.0 1
1121.0 1656.0 1
1131.0 1635.0 1
1131.0 1635.0 1
1142.0 1635.0 1
1142.0 1625.0 1
1152.0 1625.0 1
1163.0 1625.0 1
1173.0 1625.0 1
1173.0 1635.0 1
1194.0 1645.0 1
1194.0 1656.0 1
1204.0 1666.0 1
1204.0 1677.0 1
1215.0 1687.0 1
1225.0 1708.0 1
1225.0 1729.0 1
1235.0 1739.0 1
1235.0 1750.0 1
1246.0 1750.0 1
1246.0 1760.0 1
1256.0 1760.0 1
1256.0 1750.0 1
1256.0 1739.0 1
1267.0 1739.0 1
1267.0 1698.0 1
1267.0 1687.0 1
1267.0 1677.0 1
1267.0 1666.0 1
1267.0 1656.0 1
1277.0 1645.0 1
1288.0 1625.0 1
1288.0 1614.0 1
1288.0 1614.0 1
1423.0 1656.0 2
1423.0 1666.0 2
1423.0 1666.0 2
1413.0 1666.0 2
1413.0 1666.0 2
1413.0 1666.0 2
1413.0 1666.0 2
1402.0 1666.0 2
1402.0 1677.0 2
1392.0 1677.0 2
1392.0 1666.0 2
1381.0 1666.0 2
1381.0 1666.0 2
1381.0 1666.0 2
1371.0 1666.0 2
1371.0 1656.0 2
1371.0 1656.0 2
1360.0 1645.0 2
1360.0 1635.0 2
1371.0 1635.0 2
1371.0 1635.0 2
1381.0 1635.0 2
1381.0 1635.0 2
1392.0 1635.0 2
1392.0 1645.0 2
1402.0 1645.0 2
1413.0 1656.0 2
1413.0 1666.0 2
1423.0 1666.0 2
1433.0 1666.0 2
1444.0 1666.0 2
1444.0 1666.0 2
1454.0 1656.0 2
1454.0 1656.0 2
1465.0 1656.0 2
1465.0 1645.0 2
1517.0 1802.0 3
1517.0 1812.0 3
1517.0 1812.0 3
1517.0 1812.0 3
1517.0 1802.0 3
1517.0 1770.0 3
1517.0 1750.0 3
1517.0 1750.0 3
1517.0 1729.0 3
1517.0 1718.0 3
1517.0 1677.0 3
1527.0 1666.0 3
1527.0 1666.0 3
1527.0 1656.0 3
1527.0 1635.0 3
1506.0 1708.0 4
1506.0 1708.0 4
1538.0 1708.0 4
1548.0 1708.0 4
1569.0 1708.0 4
1610.0 1698.0 5
1610.0 1698.0 5
1610.0 1698.0 5
1610.0 1687.0 5
1610.0 1687.0 5
1621.0 1687.0 5
1621.0 1687.0 5
1631.0 1698.0 5
1631.0 1698.0 5
1642.0 1698.0 5
1642.0 1708.0 5
1642.0 1708.0 5
1652.0 1708.0 5
1652.0 1708.0 5
1652.0 1729.0 5
1642.0 1729.0 5
1642.0 1739.0 5
1642.0 1750.0 5
1642.0 1750.0 5
1631.0 1750.0 5
1631.0 1750.0 5
1631.0 1760.0 5
1610.0 1760.0 5
1610.0 1750.0 5
1610.0 1739.0 5
1600.0 1729.0 5
1600.0 1687.0 5
1610.0 1687.0 5
1610.0 1677.0 5
1631.0 1666.0 5
1642.0 1656.0 5
1663.0 1656.0 5

