860.0 1770.0 1
860.0 1770.0 1
850.0 1770.0 1
850.0 1770.0 1
850.0 1812.0 1
850.0 1823.0 1
840.0 1823.0 1
840.0 1833.0 1
829.0 1843.0 1
829.0 1843.0 1
819.0 1854.0 1
819.0 1854.0 1
808.0 1864.0 1
767.0 1864.0 1
756.0 1854.0 1
735.0 1843.0 1
715.0 1823.0 1
704.0 1802.0 1
683.0 1791.0 1
673.0 1760.0 1
652.0 1729.0 1
631.0 1698.0 1
621.0 1677.0 1
600.0 1645.0 1
579.0 1562.0 1
569.0 1479.0 1
558.0 1448.0 1
548.0 1406.0 1
548.0 1291.0 1
558.0 1260.0 1
569.0 1239.0 1
579.0 1208.0 1
579.0 1177.0 1
600.0 1145.0 1
610.0 1125.0 1
642.0 1083.0 1
652.0 1073.0 1
673.0 1062.0 1
683.0 1052.0 1
704.0 1052.0 1
756.0 1052.0 1
777.0 1062.0 1
798.0 1073.0 1
808.0 1083.0 1
829.0 1114.0 1
860.0 1125.0 1
881.0 1145.0 1
892.0 1166.0 1
902.0 1177.0 1
913.0 1208.0 1
923.0 1218.0 1
933.0 1239.0 1
933.0 1250.0 1
944.0 1270.0 1
944.0 1281.0 1
944.0 1323.0 1
933.0 1333.0 1
933.0 1333.0 1
933.0 1343.0 1
923.0 1354.0 1
923.0 1364.0 1
923.0 1364.0 1
913.0 1375.0 1
913.0 1375.0 1
913.0 1385.0 1
892.0 1385.0 1
892.0 1375.0 1
892.0 1375.0 1
881.0 1375.0 1
871.0 1364.0 1
860.0 1354.0 1
860.0 1354.0 1
850.0 1343.0 1
819.0 1333.0 1
819.0 1323.0 1
808.0 1312.0 1
788.0 1302.0 1
777.0 1302.0 1
767.0 1291.0 1
746.0 1281.0 1
725.0 1270.0 1
715.0 1270.0 1
704.0 1270.0 1
694.0 1270.0 1
683.0 1270.0 1
673.0 1270.0 1
663.0 1270.0 1
663.0 1270.0 1
1058.0 1291.0 2
1038.0 1291.0 2
1027.0 1291.0 2
1027.0 1291.0 2
1048.0 1291.0 2
1048.0 1291.0 2
1069.0 1312.0 2
1090.0 1312.0 2
1100.0 1312.0 2
1121.0 1323.0 2
1131.0 1333.0 2
1142.0 1343.0 2
1152.0 1343.0 2
1163.0 1354.0 2
1173.0 1354.0 2
1173.0 1364.0 2
1173.0 1364.0 2
1173.0 1364.0 2
1173.0 1364.0 2
1173.0 1375.0 2
1163.0 1385.0 2
1152.0 1385.0 2
1152.0 1385.0 2
1110.0 1385.0 2
1100.0 1385.0 2
1079.0 1354.0 2
1069.0 1333.0 2
1058.0 1312.0 2
1048.0 1302.0 2
1038.0 1270.0 2
1027.0 1250.0 2
1017.0 1229.0 2
1017.0 1135.0 2
1027.0 1104.0 2
1038.0 1093.0 2
1048.0 1083.0 2
1058.0 1073.0 2
1069.0 1073.0 2
1131.0 1073.0 2
1142.0 1073.0 2
1173.0 1083.0 2
1371.0 1385.0 3
1350.0 1385.0 3
1340.0 1385.0 3
1329.0 1375.0 3
1319.0 1364.0 3
1308.0 1343.0 3
1308.0 1323.0 3
1288.0 1302.0 3
1267.0 1260.0 3
1267.0 1229.0 3
1256.0 1208.0 3
1256.0 1187.0 3
1256.0 1125.0 3
1256.0 1114.0 3
1267.0 1104.0 3
1277.0 1104.0 3
1298.0 1104.0 3
1329.0 1104.0 3
1340.0 1114.0 3
1350.0 1125.0 3
1360.0 1145.0 3
1371.0 1156.0 3
1381.0 1177.0 3
1392.0 1198.0 3
1402.0 1208.0 3
1402.0 1229.0 3
1402.0 1312.0 3
1392.0 1333.0 3
1381.0 1343.0 3
1371.0 1364.0 3
1371.0 1375.0 3
1360.0 1385.0 3
1350.0 1385.0 3
1319.0 1385.0 3
1319.0 1354.0 3
1329.0 1343.0 3
1756.0 1177.0 4
1746.0 1187.0 4
1746.0 1187.0 4
1735.0 1198.0 4
1735.0 1208.0 4
1735.0 1218.0 4
1725.0 1229.0 4
1725.0 1229.0 4
1725.0 1250.0 4
1725.0 1260.0 4
1725.0 1270.0 4
1715.0 1291.0 4
1715.0 1302.0 4
1704.0 1312.0 4
1704.0 1333.0 4
1694.0 1343.0 4
1694.0 1354.0 4
1683.0 1364.0 4
1673.0 1375.0 4
1663.0 1385.0 4
1631.0 1385.0 4
1621.0 1375.0 4
1600.0 1364.0 4
1590.0 1343.0 4
1579.0 1333.0 4
1569.0 1302.0 4
1569.0 1281.0 4
1558.0 1260.0 4
1558.0 1229.0 4
1558.0 1166.0 4
1558.0 1145.0 4
1558.0 1125.0 4
1569.0 1114.0 4
1600.0 1114.0 4
1610.0 1125.0 4
1621.0 1145.0 4
1631.0 1156.0 4
1631.0 1166.0 4
1642.0 1187.0 4
1642.0 1208.0 4
1652.0 1239.0 4
1652.0 1250.0 4
1652.0 1291.0 4
1652.0 1291.0 4
1663.0 1270.0 4
1673.0 1260.0 4
1683.0 1208.0 4
1694.0 1177.0 4
1704.0 1156.0 4
1715.0 1125.0 4
1725.0 1093.0 4
1725.0 1073.0 4
1735.0 1041.0 4
1746.0 1010.0 4
1746.0 979.0 4
1746.0 864.0 4
1746.0 843.0 4
1725.0 833.0 4
1725.0 812.0 4
1704.0 791.0 4
1683.0 781.0 4
1673.0 770.0 4
1663.0 760.0 4
1652.0 750.0 4
1631.0 739.0 4
1610.0 739.0 4
1600.0 750.0 4
1600.0 760.0 4
1600.0 760.0 4
1600.0 802.0 4
1600.0 823.0 4
1610.0 843.0 4
1621.0 864.0 4
1798.0 1323.0 5
1798.0 1333.0 5
1788.0 1333.0 5
1788.0 1302.0 5
1788.0 1281.0 5
1798.0 1250.0 5
1808.0 1239.0 5
1808.0 1198.0 5
1808.0 1177.0 5
1808.0 1156.0 5
1808.0 1145.0 5
1808.0 1093.0 5
1808.0 1083.0 5
1808.0 1083.0 5
1808.0 1083.0 5
1808.0 1114.0 5
1808.0 1135.0 5
1808.0 1156.0 5
1808.0 1218.0 5
1819.0 1239.0 5
1829.0 1270.0 5
1829.0 1312.0 5
1840.0 1333.0 5
1850.0 1364.0 5
1860.0 1375.0 5
1860.0 1385.0 5
1871.0 1395.0 5
1892.0 1395.0 5
1902.0 1354.0 5
2215.0 1239.0 6
2194.0 1239.0 6
2194.0 1250.0 6
2183.0 1250.0 6
2183.0 1260.0 6
2183.0 1270.0 6
2173.0 1281.0 6
2173.0 1291.0 6
2173.0 1302.0 6
2163.0 1323.0 6
2142.0 1333.0 6
2131.0 1343.0 6
2121.0 1354.0 6
2110.0 1364.0 6
2100.0 1375.0 6
2090.0 1385.0 6
2079.0 1385.0 6
2079.0 1395.0 6
2058.0 1395.0 6
2038.0 1375.0 6
2027.0 1364.0 6
2017.0 1333.0 6
2017.0 1312.0 6
2006.0 1291.0 6
1996.0 1270.0 6
1996.0 1250.0 6
1985.0 1218.0 6
1985.0 1166.0 6
1996.0 1166.0 6
2006.0 1145.0 6
2006.0 1135.0 6
2027.0 1135.0 6
2038.0 1145.0 6
2038.0 1145.0 6
2048.0 1156.0 6
2058.0 1166.0 6
2069.0 1187.0 6
2079.0 1198.0 6
2090.0 1229.0 6
2100.0 1250.0 6
2100.0 1260.0 6
2100.0 1270.0 6
2100.0 1302.0 6
2100.0 1302.0 6
2100.0 1312.0 6
2110.0 1302.0 6
2110.0 1291.0 6
2121.0 1281.0 6
2121.0 1270.0 6
2131.0 1250.0 6
2142.0 1239.0 6
2152.0 1229.0 6
2152.0 1218.0 6
2163.0 1198.0 6
2173.0 1187.0 6
2183.0 1177.0 6
2183.0 1177.0 6
2204.0 1166.0 6
2225.0 1166.0 6
2340.0 1333.0 7
2329.0 1343.0 7
2329.0 1343.0 7
2329.0 1333.0 7
2340.0 1323.0 7
2340.0 1302.0 7
2340.0 1270.0 7
2350.0 1250.0 7
2350.0 1177.0 7
2360.0 1145.0 7
2371.0 1104.0 7
2371.0 1073.0 7
2371.0 1052.0 7
2371.0 1020.0 7
2371.0 937.0 7
2371.0 916.0 7
2371.0 906.0 7
2371.0 885.0 7
2360.0 864.0 7
2360.0 864.0 7
2360.0 864.0 7
2360.0 875.0 7
2360.0 895.0 7
2360.0 927.0 7
2340.0 1239.0 8
2329.0 1260.0 8
2329.0 1281.0 8
2329.0 1343.0 8
2340.0 1364.0 8
2350.0 1364.0 8
2350.0 1385.0 8
2360.0 1385.0 8
2371.0 1395.0 8
2392.0 1395.0 8
2402.0 1385.0 8
2413.0 1375.0 8
2423.0 1354.0 8
2423.0 1302.0 8
2423.0 1281.0 8
2423.0 1239.0 8
2423.0 1218.0 8
2413.0 1198.0 8
2402.0 1177.0 8
2392.0 1156.0 8
2371.0 1125.0 8
2360.0 1114.0 8
2350.0 1114.0 8
2350.0 1114.0 8
2350.0 1125.0 8
2350.0 1135.0 8
2350.0 1156.0 8
2496.0 1593.0 9
2485.0 1593.0 9
2485.0 1593.0 9
2485.0 1573.0 9
2485.0 1552.0 9
2496.0 1500.0 9
2496.0 1427.0 9
2496.0 1395.0 9
2496.0 1354.0 9
2506.0 1312.0 9
2506.0 1281.0 9
2517.0 1250.0 9
2517.0 1229.0 9
2517.0 1208.0 9
2517.0 1125.0 9
2517.0 1125.0 9
2517.0 1135.0 9
2527.0 1145.0 9
2527.0 1166.0 9
2527.0 1187.0 9
2538.0 1208.0 9
2548.0 1229.0 9
2558.0 1281.0 9
2569.0 1302.0 9
2579.0 1333.0 9
2579.0 1364.0 9
2590.0 1375.0 9
2590.0 1385.0 9
2610.0 1385.0 9
2610.0 1385.0 9
2610.0 1364.0 9
2610.0 1323.0 9
2610.0 1302.0 9
2621.0 1270.0 9
2621.0 1218.0 9
2621.0 1187.0 9
2621.0 1177.0 9
2621.0 1177.0 9
2621.0 1166.0 9
2631.0 1166.0 9
2631.0 1177.0 9
2642.0 1187.0 9
2642.0 1198.0 9
2652.0 1198.0 9
2683.0 1291.0 10
2694.0 1302.0 10
2694.0 1312.0 10
2694.0 1312.0 10
2694.0 1312.0 10
2694.0 1312.0 10
2704.0 1302.0 10
2715.0 1281.0 10
2715.0 1270.0 10
2725.0 1260.0 10
2735.0 1239.0 10
2756.0 1218.0 10
2767.0 1208.0 10
2777.0 1187.0 10
2788.0 1177.0 10
2788.0 1166.0 10
2798.0 1166.0 10
2798.0 1156.0 10
2808.0 1156.0 10
2808.0 1156.0 10
2808.0 1156.0 10
2819.0 1166.0 10
2829.0 1177.0 10
2829.0 1198.0 10
2860.0 1364.0 11
2860.0 1437.0 11
2860.0 1437.0 11
2860.0 1437.0 11
2860.0 1416.0 11
2860.0 1364.0 11
2840.0 1333.0 11
2840.0 1302.0 11
2829.0 1270.0 11
2819.0 1229.0 11
2808.0 1177.0 11
2808.0 1135.0 11
2798.0 1093.0 11
2788.0 1052.0 11
2777.0 1020.0 11
2777.0 989.0 11
2767.0 958.0 11
2746.0 895.0 11
2735.0 885.0 11
2735.0 864.0 11
2735.0 843.0 11
2725.0 833.0 11
2725.0 823.0 11
2715.0 812.0 11
2715.0 802.0 11
2715.0 802.0 11
2715.0 802.0 11
2715.0 833.0 11
2725.0 843.0 11

