283.0 2785.0 1
283.0 2785.0 1
273.0 2785.0 1
283.0 2775.0 1
283.0 2712.0 1
273.0 2681.0 1
273.0 2639.0 1
273.0 2618.0 1
263.0 2608.0 1
263.0 2608.0 1
263.0 2618.0 1
273.0 2629.0 1
283.0 2660.0 1
304.0 2702.0 1
325.0 2723.0 1
346.0 2743.0 1
346.0 2743.0 1
346.0 2754.0 1
346.0 2754.0 1
346.0 2754.0 1
367.0 2754.0 1
377.0 2743.0 1
377.0 2723.0 1
377.0 2712.0 1
377.0 2650.0 1
377.0 2639.0 1
377.0 2629.0 1
367.0 2629.0 1
377.0 2629.0 1
377.0 2629.0 1
388.0 2660.0 1
419.0 2712.0 1
440.0 2743.0 1
450.0 2764.0 1
460.0 2775.0 1
460.0 2775.0 1
471.0 2764.0 1
471.0 2712.0 1
471.0 2670.0 1
471.0 2650.0 1
460.0 2639.0 1
471.0 2618.0 1

