683.0 1781.0 1
694.0 1729.0 1
704.0 1666.0 1
715.0 1593.0 1
725.0 1541.0 1
735.0 1500.0 1
746.0 1479.0 1
746.0 1458.0 1
746.0 1458.0 1
746.0 1479.0 1
735.0 1510.0 1
715.0 1552.0 1
694.0 1604.0 1
673.0 1666.0 1
663.0 1729.0 1
652.0 1781.0 1
652.0 1833.0 1
663.0 1875.0 1
683.0 1906.0 1
704.0 1927.0 1
735.0 1927.0 1
777.0 1916.0 1
808.0 1895.0 1
840.0 1864.0 1
860.0 1833.0 1
871.0 1791.0 1
871.0 1760.0 1
850.0 1729.0 1
829.0 1698.0 1
788.0 1687.0 1
767.0 1677.0 1
746.0 1677.0 1
735.0 1677.0 1
735.0 1666.0 1
756.0 1656.0 1
777.0 1625.0 1
860.0 1552.0 1
902.0 1520.0 1
933.0 1489.0 1
965.0 1448.0 1
985.0 1437.0 1
996.0 1427.0 1
1079.0 1614.0 2
1079.0 1614.0 2
1100.0 1625.0 2
1121.0 1625.0 2
1142.0 1625.0 2
1142.0 1635.0 2
1152.0 1656.0 2
1152.0 1666.0 2
1152.0 1677.0 2
1142.0 1698.0 2
1121.0 1708.0 2
1100.0 1708.0 2
1069.0 1708.0 2
1038.0 1687.0 2
1006.0 1666.0 2
996.0 1635.0 2
1006.0 1614.0 2
1017.0 1573.0 2
1048.0 1541.0 2
1079.0 1520.0 2
1110.0 1510.0 2
1152.0 1500.0 2
1194.0 1500.0 2
1329.0 1687.0 3
1350.0 1666.0 3
1371.0 1625.0 3
1392.0 1604.0 3
1402.0 1562.0 3
1423.0 1520.0 3
1444.0 1468.0 3
1454.0 1437.0 3
1475.0 1395.0 3
1475.0 1354.0 3
1475.0 1312.0 3
1465.0 1302.0 3
1454.0 1291.0 3
1433.0 1281.0 3
1402.0 1270.0 3
1371.0 1270.0 3
1350.0 1281.0 3
1329.0 1291.0 3
1298.0 1302.0 3
1277.0 1323.0 3
1277.0 1354.0 3
1288.0 1802.0 4
1288.0 1823.0 4
1277.0 1833.0 4
1277.0 1833.0 4
1527.0 1687.0 5
1538.0 1656.0 5
1548.0 1625.0 5
1569.0 1604.0 5
1579.0 1583.0 5
1600.0 1573.0 5
1642.0 1552.0 5
1663.0 1552.0 5
1683.0 1562.0 5
1704.0 1583.0 5
1725.0 1614.0 5
1725.0 1635.0 5
1715.0 1656.0 5
1704.0 1687.0 5
1798.0 1739.0 6
1819.0 1708.0 6
1840.0 1677.0 6
1860.0 1656.0 6
1892.0 1635.0 6
1913.0 1604.0 6
1933.0 1583.0 6
1954.0 1573.0 6
1965.0 1562.0 6
1965.0 1552.0 6
1965.0 1562.0 6
1965.0 1583.0 6
1965.0 1614.0 6
1954.0 1645.0 6
1944.0 1687.0 6
1933.0 1708.0 6
1933.0 1729.0 6
1933.0 1729.0 6
2131.0 1687.0 7
2142.0 1677.0 7
2152.0 1666.0 7
2163.0 1656.0 7
2173.0 1635.0 7
2173.0 1625.0 7
2173.0 1614.0 7
2183.0 1604.0 7
2183.0 1593.0 7
2079.0 1823.0 8
2277.0 1760.0 9
2288.0 1729.0 9
2308.0 1687.0 9
2319.0 1666.0 9
2329.0 1635.0 9
2329.0 1614.0 9
2329.0 1614.0 9
2329.0 1625.0 9
2319.0 1645.0 9
2319.0 1677.0 9
2319.0 1708.0 9
2319.0 1739.0 9
2329.0 1750.0 9
2350.0 1750.0 9
2371.0 1750.0 9
2402.0 1718.0 9
2413.0 1687.0 9
2433.0 1666.0 9
2444.0 1635.0 9
2465.0 1593.0 9
2465.0 1573.0 9
2485.0 1552.0 9
2631.0 1750.0 10
2610.0 1739.0 10
2579.0 1729.0 10
2569.0 1708.0 10
2558.0 1677.0 10
2558.0 1656.0 10
2569.0 1635.0 10
2569.0 1625.0 10
2579.0 1614.0 10
2590.0 1614.0 10
2600.0 1635.0 10
2610.0 1645.0 10
2621.0 1677.0 10
2621.0 1729.0 10
2621.0 1729.0 10
2621.0 1718.0 10
2642.0 1687.0 10
2652.0 1666.0 10
2673.0 1635.0 10
2694.0 1604.0 10
2715.0 1593.0 10
2735.0 1583.0 10
2756.0 1583.0 10
2840.0 2041.0 11
2850.0 2010.0 11
2871.0 1968.0 11
2881.0 1916.0 11
2892.0 1843.0 11
2913.0 1791.0 11
2923.0 1739.0 11
2933.0 1687.0 11
2944.0 1645.0 11
2954.0 1614.0 11
2965.0 1604.0 11
2965.0 1593.0 11
2819.0 1791.0 12
2819.0 1802.0 12
2829.0 1802.0 12
2871.0 1812.0 12
2933.0 1812.0 12
2965.0 1812.0 12
3090.0 1677.0 13
3079.0 1666.0 13
3090.0 1666.0 13
3017.0 1843.0 14
3006.0 1864.0 14
3194.0 1802.0 15
3215.0 1770.0 15
3225.0 1739.0 15
3225.0 1718.0 15
3235.0 1698.0 15
3235.0 1687.0 15
3235.0 1698.0 15
3225.0 1718.0 15
3225.0 1750.0 15
3225.0 1770.0 15
3225.0 1791.0 15
3246.0 1802.0 15
3267.0 1802.0 15
3288.0 1791.0 15
3308.0 1770.0 15
3340.0 1739.0 15
3350.0 1718.0 15
3371.0 1698.0 15
3381.0 1677.0 15
3413.0 1677.0 15
3465.0 1833.0 16
3444.0 1833.0 16
3433.0 1823.0 16
3423.0 1812.0 16
3423.0 1781.0 16
3433.0 1770.0 16
3444.0 1760.0 16
3454.0 1760.0 16
3485.0 1770.0 16
3496.0 1781.0 16
3506.0 1791.0 16
3517.0 1812.0 16
3517.0 1823.0 16
3527.0 1812.0 16
3527.0 1802.0 16
3548.0 1770.0 16
3579.0 1729.0 16
3600.0 1677.0 16
3631.0 1625.0 16
3673.0 1552.0 16
3704.0 1489.0 16
3715.0 1427.0 16
3725.0 1364.0 16
3715.0 1302.0 16
3694.0 1281.0 16
3663.0 1260.0 16
3621.0 1260.0 16
3548.0 1260.0 16
3485.0 1270.0 16
3423.0 1291.0 16
3381.0 1312.0 16
3340.0 1343.0 16
3340.0 1343.0 16

