1392.0 1520.0 1
1392.0 1510.0 1
1392.0 1510.0 1
1392.0 1510.0 1
1392.0 1541.0 1
1402.0 1604.0 1
1402.0 1656.0 1
1402.0 1708.0 1
1402.0 1729.0 1
1402.0 1718.0 1
1433.0 1666.0 1
1454.0 1604.0 1
1485.0 1520.0 1
1517.0 1489.0 1
1517.0 1489.0 1
1527.0 1510.0 1
1548.0 1573.0 1
1548.0 1625.0 1
1548.0 1666.0 1
1548.0 1656.0 1
1631.0 1573.0 2
1610.0 1562.0 2
1590.0 1541.0 2
1590.0 1510.0 2
1590.0 1489.0 2
1600.0 1489.0 2
1621.0 1489.0 2
1652.0 1510.0 2
1652.0 1531.0 2
1642.0 1541.0 2
1642.0 1552.0 2
1631.0 1552.0 2
1621.0 1552.0 2
1704.0 1541.0 3
1715.0 1520.0 3
1715.0 1500.0 3
1715.0 1489.0 3
1715.0 1500.0 3
1715.0 1520.0 3
1715.0 1541.0 3
1725.0 1552.0 3
1725.0 1573.0 3
1746.0 1573.0 3
1756.0 1573.0 3
1788.0 1552.0 4
1788.0 1531.0 4
1788.0 1510.0 4
1788.0 1500.0 4
1788.0 1500.0 4
1788.0 1510.0 4
1808.0 1531.0 4
1819.0 1552.0 4
1829.0 1552.0 4
1829.0 1552.0 4
1829.0 1541.0 4
1829.0 1520.0 4
1840.0 1500.0 4
1840.0 1500.0 4
1850.0 1510.0 4
1871.0 1531.0 4
1892.0 1552.0 4
1902.0 1541.0 4
1902.0 1531.0 4
1902.0 1510.0 4
1902.0 1500.0 4
1913.0 1500.0 4
1923.0 1510.0 4
1975.0 1541.0 5
1975.0 1541.0 5
1965.0 1531.0 5
1954.0 1520.0 5
1954.0 1531.0 5
1965.0 1531.0 5
1975.0 1531.0 5
1975.0 1520.0 5
1975.0 1510.0 5
1985.0 1510.0 5
1996.0 1520.0 5
2058.0 1729.0 6
2058.0 1729.0 6
2058.0 1708.0 6
2058.0 1666.0 6
2058.0 1625.0 6
2058.0 1573.0 6
2069.0 1500.0 6
2069.0 1479.0 6
2079.0 1479.0 6
2131.0 1552.0 7
2131.0 1531.0 7
2131.0 1510.0 7
2121.0 1510.0 7
2152.0 1625.0 8
2152.0 1625.0 8
2152.0 1625.0 8
2225.0 1562.0 9
2225.0 1562.0 9
2235.0 1562.0 9
2256.0 1573.0 9
2277.0 1573.0 9
2277.0 1562.0 9
2277.0 1562.0 9
2256.0 1541.0 9
2235.0 1510.0 9
2225.0 1500.0 9
2225.0 1500.0 9
2225.0 1489.0 9
2246.0 1489.0 9
2267.0 1489.0 9
2298.0 1500.0 9
2319.0 1510.0 9
2360.0 1531.0 10
2360.0 1531.0 10
2329.0 1520.0 10
2319.0 1500.0 10
2319.0 1489.0 10
2319.0 1489.0 10
2350.0 1520.0 10
2371.0 1531.0 10
2371.0 1541.0 10
2371.0 1531.0 10
2381.0 1510.0 10
2381.0 1500.0 10
2392.0 1510.0 10
2423.0 1541.0 10
2496.0 1645.0 11
2496.0 1687.0 11
2496.0 1604.0 11
2496.0 1562.0 11
2496.0 1510.0 11
2485.0 1489.0 11
2444.0 1552.0 12
2444.0 1552.0 12
2465.0 1562.0 12
2485.0 1562.0 12
2506.0 1562.0 12
2538.0 1562.0 12
2569.0 1562.0 12
2579.0 1531.0 12
2579.0 1468.0 12
2579.0 1468.0 12
2579.0 1604.0 13
2579.0 1614.0 13
2590.0 1614.0 13
2610.0 1625.0 13
2673.0 1573.0 14
2663.0 1531.0 14
2652.0 1510.0 14
2652.0 1489.0 14
2663.0 1489.0 14
2683.0 1510.0 14
2704.0 1531.0 14
2704.0 1541.0 14
2704.0 1552.0 14
2694.0 1562.0 14
2683.0 1562.0 14
2673.0 1562.0 14
2725.0 1562.0 15
2735.0 1552.0 15
2746.0 1520.0 15
2746.0 1510.0 15
2756.0 1500.0 15
2788.0 1531.0 15
2808.0 1552.0 15
2840.0 1552.0 15
2881.0 1531.0 15
2913.0 1510.0 15
2944.0 1500.0 15

