1913.0 1375.0 1
1913.0 1385.0 1
1923.0 1385.0 1
1923.0 1375.0 1
1933.0 1333.0 1
1944.0 1250.0 1
1954.0 1156.0 1
1965.0 1073.0 1
1975.0 1000.0 1
1975.0 968.0 1
1975.0 968.0 1
1975.0 979.0 1
2090.0 1239.0 2
2079.0 1239.0 2
2058.0 1229.0 2
2027.0 1187.0 2
1996.0 1166.0 2
1975.0 1156.0 2
1954.0 1156.0 2
1954.0 1145.0 2
1965.0 1125.0 2
2006.0 1104.0 2
2058.0 1093.0 2
2121.0 1093.0 2
2152.0 1083.0 2
2183.0 1062.0 2
2204.0 1041.0 2
2256.0 1156.0 3
2246.0 1135.0 3
2256.0 1073.0 3
2267.0 1041.0 3
2277.0 1031.0 3
2288.0 1031.0 3
2267.0 1260.0 4
2256.0 1260.0 4
2444.0 1125.0 5
2444.0 1114.0 5
2433.0 1114.0 5
2402.0 1114.0 5
2381.0 1114.0 5
2360.0 1104.0 5
2360.0 1083.0 5
2360.0 1052.0 5
2371.0 1041.0 5
2381.0 1041.0 5
2413.0 1052.0 5
2444.0 1093.0 5
2465.0 1145.0 5
2465.0 1208.0 5
2444.0 1291.0 5
2433.0 1323.0 5
2433.0 1323.0 5
2423.0 1302.0 5
2423.0 1239.0 5
2433.0 1166.0 5
2433.0 1104.0 5
2454.0 1062.0 5
2485.0 1031.0 5
2506.0 1031.0 5
2621.0 1135.0 6
2621.0 1145.0 6
2610.0 1145.0 6
2610.0 1145.0 6
2579.0 1145.0 6
2569.0 1145.0 6
2548.0 1145.0 6
2548.0 1125.0 6
2558.0 1073.0 6
2569.0 1041.0 6
2590.0 1041.0 6
2610.0 1062.0 6
2642.0 1114.0 6
2663.0 1166.0 6
2663.0 1239.0 6
2642.0 1312.0 6
2631.0 1375.0 6
2631.0 1375.0 6
2631.0 1375.0 6
2621.0 1333.0 6
2621.0 1250.0 6
2621.0 1166.0 6
2631.0 1104.0 6
2652.0 1073.0 6
2673.0 1073.0 6
2777.0 1198.0 7
2777.0 1187.0 7
2777.0 1135.0 7
2777.0 1083.0 7
2788.0 1052.0 7
2788.0 1052.0 7
2944.0 1156.0 8
2944.0 1145.0 8
2944.0 1125.0 8
2944.0 1083.0 8
2944.0 1073.0 8
2933.0 1073.0 8
2944.0 1073.0 8
2944.0 1083.0 8
2965.0 1125.0 8
2975.0 1156.0 8
3006.0 1166.0 8
3006.0 1166.0 8
3027.0 1156.0 8
3038.0 1145.0 8
3038.0 1104.0 8
3027.0 1062.0 8
3017.0 1020.0 8
3017.0 1000.0 8
3027.0 1010.0 8
3204.0 1156.0 9
3204.0 1187.0 9
3194.0 1198.0 9
3173.0 1198.0 9
3152.0 1198.0 9
3110.0 1177.0 9
3100.0 1145.0 9
3100.0 1104.0 9
3110.0 1083.0 9
3152.0 1083.0 9
3183.0 1104.0 9
3204.0 1135.0 9
3204.0 1156.0 9
3204.0 1166.0 9
3204.0 1156.0 9
3204.0 1135.0 9
3215.0 1073.0 9
3225.0 1000.0 9
3225.0 906.0 9
3225.0 843.0 9
3215.0 802.0 9
3204.0 791.0 9
3173.0 781.0 9
3142.0 781.0 9
3100.0 781.0 9
3090.0 781.0 9
2663.0 1416.0 10
2642.0 1437.0 10
2652.0 1427.0 10

