450.0 2545.0 1
450.0 2545.0 1
450.0 2556.0 1
450.0 2587.0 1
460.0 2629.0 1
471.0 2650.0 1
471.0 2681.0 1
481.0 2681.0 1
492.0 2681.0 1
502.0 2650.0 1
513.0 2608.0 1
523.0 2577.0 1
533.0 2577.0 1
544.0 2577.0 1
565.0 2629.0 1
585.0 2670.0 1
585.0 2681.0 1
596.0 2681.0 1
606.0 2660.0 1
617.0 2639.0 1
627.0 2598.0 1
648.0 2566.0 1
658.0 2556.0 1

