1694.0 948.0 1
1694.0 958.0 1
1694.0 958.0 1
1704.0 968.0 1
1694.0 979.0 1
1683.0 1020.0 1
1663.0 1073.0 1
1642.0 1156.0 1
1621.0 1291.0 1
1621.0 1364.0 1
1642.0 1385.0 1
1652.0 1395.0 1
1683.0 1385.0 1
1715.0 1364.0 1
1735.0 1312.0 1
1735.0 1260.0 1
1725.0 1208.0 1
1704.0 1177.0 1
1683.0 1166.0 1
1673.0 1166.0 1
1652.0 1177.0 1
1788.0 1125.0 2
1788.0 1114.0 2
1808.0 1083.0 2
1819.0 1052.0 2
1840.0 1031.0 2
1860.0 1020.0 2
1871.0 1031.0 2
1892.0 1073.0 2
1902.0 1125.0 2
1913.0 1156.0 2
1913.0 1145.0 2
1923.0 1114.0 2
1944.0 1052.0 2
1965.0 979.0 2
1985.0 979.0 2
1996.0 979.0 2
2006.0 1125.0 3
2006.0 1125.0 3
2006.0 1135.0 3
2058.0 1166.0 3
2090.0 1177.0 3
2110.0 1177.0 3
2131.0 1166.0 3
2142.0 1156.0 3
2142.0 1135.0 3
2131.0 1093.0 3
2110.0 1062.0 3
2090.0 1010.0 3
2090.0 989.0 3
2100.0 979.0 3
2142.0 1000.0 3
2163.0 1020.0 3
2173.0 1031.0 3
2225.0 1177.0 4
2215.0 1177.0 4
2215.0 1177.0 4
2235.0 1187.0 4
2256.0 1198.0 4
2277.0 1198.0 4
2298.0 1187.0 4
2308.0 1166.0 4
2319.0 1145.0 4
2308.0 1114.0 4
2298.0 1083.0 4
2288.0 1052.0 4
2277.0 1020.0 4
2288.0 1000.0 4
2319.0 1000.0 4
2329.0 1010.0 4
2350.0 1020.0 4
2360.0 1020.0 4
2454.0 1302.0 5
2454.0 1302.0 5
2475.0 1260.0 5
2475.0 1208.0 5
2485.0 1166.0 5
2485.0 1104.0 5
2496.0 1031.0 5
2506.0 979.0 5
2517.0 968.0 5
2610.0 1104.0 6
2631.0 1093.0 6
2663.0 1104.0 6
2673.0 1135.0 6
2673.0 1166.0 6
2673.0 1187.0 6
2652.0 1187.0 6
2631.0 1177.0 6
2610.0 1145.0 6
2610.0 1093.0 6
2621.0 1062.0 6
2621.0 1041.0 6
2642.0 1031.0 6
2683.0 1041.0 6
2704.0 1062.0 6
2788.0 1104.0 7
2788.0 1093.0 7
2788.0 1062.0 7
2788.0 1020.0 7
2788.0 1020.0 7
2798.0 1041.0 7
2819.0 1073.0 7
2840.0 1114.0 7
2850.0 1125.0 7
2860.0 1125.0 7
2881.0 1114.0 7
2892.0 1083.0 7
2902.0 1041.0 7
2913.0 1020.0 7
2923.0 1020.0 7
2944.0 1052.0 7
2954.0 1093.0 7
2954.0 1125.0 7
2965.0 1125.0 7
2975.0 1104.0 7
3006.0 1083.0 7
3027.0 1062.0 7
3038.0 1041.0 7
3038.0 1020.0 7
3038.0 1020.0 7
3100.0 1083.0 8
3100.0 1073.0 8
3121.0 1083.0 8
3163.0 1093.0 8
3183.0 1135.0 8
3194.0 1145.0 8
3183.0 1156.0 8
3163.0 1166.0 8
3142.0 1166.0 8
3131.0 1145.0 8
3110.0 1125.0 8
3100.0 1062.0 8
3100.0 1031.0 8
3121.0 1010.0 8
3152.0 1010.0 8
3183.0 1041.0 8
3204.0 1052.0 8
3267.0 1114.0 9
3267.0 1114.0 9
3267.0 1093.0 9
3267.0 1020.0 9
3277.0 1010.0 9
3298.0 1020.0 9
3308.0 1052.0 9
3319.0 1083.0 9
3329.0 1104.0 9
3340.0 1114.0 9
3360.0 1093.0 9
3381.0 1083.0 9
3402.0 1062.0 9
3423.0 1031.0 9
3423.0 1020.0 9
3433.0 1020.0 9
3433.0 1031.0 9
3517.0 1281.0 10
3506.0 1260.0 10
3496.0 1198.0 10
3506.0 1145.0 10
3527.0 1093.0 10
3548.0 1062.0 10
3548.0 1041.0 10
3527.0 1041.0 10
3465.0 1104.0 11
3444.0 1125.0 11
3454.0 1114.0 11
3475.0 1114.0 11
3506.0 1125.0 11
3548.0 1145.0 11
3590.0 1166.0 11
3610.0 1166.0 11
3631.0 1156.0 11

