913.0 2062.0 1
913.0 2041.0 1
913.0 1989.0 1
913.0 1937.0 1
913.0 1916.0 1
933.0 1885.0 1
819.0 2062.0 2
808.0 2083.0 2
808.0 2083.0 2
892.0 2083.0 2
965.0 2073.0 2
1027.0 2041.0 2
1069.0 2020.0 2
1090.0 1989.0 2
1100.0 1958.0 2
1090.0 1937.0 2
1058.0 1916.0 2
1006.0 1906.0 2
954.0 1895.0 2
871.0 1895.0 2
850.0 1906.0 2
850.0 1906.0 2
1090.0 1916.0 3
1090.0 1927.0 3
1090.0 1927.0 3
1110.0 1937.0 3
1131.0 1948.0 3
1152.0 1958.0 3
1183.0 1968.0 3
1194.0 1979.0 3
1183.0 1979.0 3
1163.0 1979.0 3
1131.0 1968.0 3
1110.0 1958.0 3
1100.0 1937.0 3
1100.0 1927.0 3
1110.0 1916.0 3
1131.0 1906.0 3
1194.0 1906.0 3
1329.0 1979.0 4
1319.0 1989.0 4
1298.0 1989.0 4
1288.0 1979.0 4
1267.0 1968.0 4
1256.0 1958.0 4
1256.0 1937.0 4
1256.0 1927.0 4
1277.0 1916.0 4
1308.0 1916.0 4
1340.0 1916.0 4
1360.0 2114.0 5
1360.0 2114.0 5
1350.0 2114.0 5
1350.0 2093.0 5
1350.0 2052.0 5
1360.0 2010.0 5
1360.0 1979.0 5
1371.0 1948.0 5
1392.0 1916.0 5
1413.0 1979.0 6
1413.0 2000.0 6
1413.0 2000.0 6
1433.0 2010.0 6
1465.0 2020.0 6
1496.0 2020.0 6
1527.0 2020.0 6
1548.0 2010.0 6
1558.0 1989.0 6
1579.0 1968.0 6
1579.0 1937.0 6
1558.0 1937.0 6
1558.0 1937.0 6
1548.0 1937.0 6
1527.0 1948.0 6
1496.0 1958.0 6
1485.0 1958.0 6
1465.0 1958.0 6
1465.0 1937.0 6
1475.0 1927.0 6
1475.0 1916.0 6
1506.0 1906.0 6
1527.0 1906.0 6
1558.0 1906.0 6
1579.0 1916.0 6
1610.0 1979.0 7
1610.0 1979.0 7
1610.0 1979.0 7
1610.0 1979.0 7
1621.0 1958.0 7
1631.0 1937.0 7
1642.0 1916.0 7
1652.0 1906.0 7
1663.0 1906.0 7
1663.0 1906.0 7
1663.0 1906.0 7
1652.0 1927.0 7
1631.0 1948.0 7
1621.0 1968.0 7
1600.0 1989.0 7
1600.0 2000.0 7
1600.0 2010.0 7
1621.0 2010.0 7
1652.0 2010.0 7
1683.0 2010.0 7
1694.0 2010.0 7
1715.0 2010.0 7
1756.0 2010.0 8
1756.0 2000.0 8
1756.0 2000.0 8
1756.0 1979.0 8
1767.0 1958.0 8
1777.0 1927.0 8
1788.0 1916.0 8
1725.0 2114.0 9
1725.0 2114.0 9
1715.0 2114.0 9
1725.0 2093.0 9
1850.0 2010.0 10
1850.0 2010.0 10
1850.0 1979.0 10
1850.0 1937.0 10
1860.0 1937.0 10
1871.0 1937.0 10
1881.0 1958.0 10
1902.0 1989.0 10
1913.0 2000.0 10
1913.0 2010.0 10
1913.0 2000.0 10
1923.0 1989.0 10
1923.0 1979.0 10
1933.0 1968.0 10
1944.0 1948.0 10
1965.0 1937.0 10
2079.0 1989.0 11
2079.0 2010.0 11
2069.0 2020.0 11
2048.0 2031.0 11
2027.0 2031.0 11
2006.0 2020.0 11
1996.0 2020.0 11
1996.0 2010.0 11
1996.0 1989.0 11
2017.0 1979.0 11
2038.0 1979.0 11
2058.0 1979.0 11
2079.0 1979.0 11
2079.0 1989.0 11
2079.0 2000.0 11
2079.0 2010.0 11
2079.0 2010.0 11
2069.0 2000.0 11
2079.0 1979.0 11
2079.0 1937.0 11
2100.0 1895.0 11
2121.0 1864.0 11
2121.0 1823.0 11
2121.0 1791.0 11
2121.0 1770.0 11
2110.0 1750.0 11
2090.0 1750.0 11
2058.0 1750.0 11
2027.0 1750.0 11
1996.0 1760.0 11
1975.0 1760.0 11

