1590.0 1906.0 1
1569.0 1916.0 1
1558.0 1916.0 1
1548.0 1916.0 1
1527.0 1895.0 1
1517.0 1854.0 1
1496.0 1802.0 1
1506.0 1687.0 1
1517.0 1635.0 1
1538.0 1593.0 1
1558.0 1583.0 1
1579.0 1583.0 1
1590.0 1593.0 1
1590.0 1614.0 1
1579.0 1635.0 1
1569.0 1656.0 1
1569.0 1666.0 1
1569.0 1666.0 1
1569.0 1677.0 1
1600.0 1677.0 1
1631.0 1687.0 1
1652.0 1698.0 1
1683.0 1708.0 1
1715.0 1698.0 2
1704.0 1698.0 2
1704.0 1687.0 2
1694.0 1656.0 2
1694.0 1645.0 2
1694.0 1635.0 2
1715.0 1635.0 2
1725.0 1635.0 2
1735.0 1656.0 2
1735.0 1677.0 2
1725.0 1687.0 2
1715.0 1708.0 2
1715.0 1708.0 2
1715.0 1708.0 2
1777.0 1687.0 3
1777.0 1677.0 3
1777.0 1666.0 3
1777.0 1656.0 3
1798.0 1645.0 3
1808.0 1645.0 3
1829.0 1656.0 3
1829.0 1666.0 3
1829.0 1698.0 3
1829.0 1739.0 3
1840.0 1739.0 3
1881.0 1687.0 4
1902.0 1687.0 4
1923.0 1687.0 4
1933.0 1698.0 4
1933.0 1718.0 4
1933.0 1729.0 4
1923.0 1729.0 4
1902.0 1718.0 4
1902.0 1698.0 4
1902.0 1666.0 4
1923.0 1656.0 4
1944.0 1645.0 4
1985.0 1708.0 5
1985.0 1698.0 5
1985.0 1677.0 5
1996.0 1666.0 5
2006.0 1656.0 5
2006.0 1666.0 5
2017.0 1666.0 5
2017.0 1687.0 5
2027.0 1718.0 5
2027.0 1739.0 5
2048.0 1750.0 5
2058.0 1750.0 5
2090.0 1708.0 6
2090.0 1698.0 6
2090.0 1677.0 6
2090.0 1656.0 6
2100.0 1656.0 6
2100.0 1666.0 6
2121.0 1687.0 6
2142.0 1718.0 6
2142.0 1729.0 6
2152.0 1729.0 6
2152.0 1708.0 6
2163.0 1687.0 6
2173.0 1666.0 6
2173.0 1666.0 6
2183.0 1656.0 6
2235.0 1708.0 7
2235.0 1666.0 7
2235.0 1656.0 7
2235.0 1656.0 7
2246.0 1802.0 8
2246.0 1791.0 8
2256.0 1791.0 8
2288.0 1687.0 9
2288.0 1677.0 9
2288.0 1677.0 9
2298.0 1666.0 9
2308.0 1677.0 9
2329.0 1687.0 9
2350.0 1698.0 9
2360.0 1718.0 9
2381.0 1718.0 9
2381.0 1718.0 9
2392.0 1708.0 9
2392.0 1698.0 9
2402.0 1698.0 9
2413.0 1698.0 9
2423.0 1687.0 9
2433.0 1687.0 9
2444.0 1698.0 9
2454.0 1708.0 9
2444.0 1698.0 9
2444.0 1687.0 9
2444.0 1677.0 9
2444.0 1656.0 9
2454.0 1645.0 9
2465.0 1625.0 9
2465.0 1604.0 9
2475.0 1562.0 9
2475.0 1531.0 9
2475.0 1510.0 9
2454.0 1489.0 9
2413.0 1489.0 9
2392.0 1489.0 9
2360.0 1500.0 9
2360.0 1510.0 9
2360.0 1510.0 9

