304.0 2795.0 1
304.0 2806.0 1
304.0 2806.0 1
304.0 2816.0 1
315.0 2816.0 1
315.0 2816.0 1
315.0 2806.0 1
315.0 2806.0 1
315.0 2795.0 1
315.0 2795.0 1
315.0 2785.0 1
315.0 2775.0 1
304.0 2764.0 1
304.0 2764.0 1
304.0 2743.0 1
294.0 2712.0 1
294.0 2702.0 1
294.0 2691.0 1
294.0 2681.0 1
294.0 2670.0 1
294.0 2670.0 1
283.0 2660.0 1
283.0 2650.0 1
283.0 2660.0 1
283.0 2660.0 1
283.0 2670.0 1
283.0 2681.0 1
283.0 2681.0 1
273.0 2691.0 1
273.0 2691.0 1
242.0 2858.0 2
242.0 2868.0 2
231.0 2868.0 2
231.0 2868.0 2
242.0 2868.0 2
252.0 2868.0 2
252.0 2868.0 2
263.0 2868.0 2
283.0 2868.0 2
294.0 2858.0 2
304.0 2858.0 2
325.0 2858.0 2
335.0 2848.0 2
346.0 2848.0 2
346.0 2848.0 2
367.0 2848.0 2
388.0 2848.0 2
388.0 2848.0 2
388.0 2858.0 2
388.0 2858.0 2
398.0 2858.0 2
398.0 2858.0 2
398.0 2858.0 2
398.0 2858.0 2

