892.0 2510.0 1
892.0 2510.0 1
892.0 2500.0 1
860.0 2468.0 1
850.0 2427.0 1
840.0 2385.0 1
840.0 2343.0 1
850.0 2291.0 1
860.0 2281.0 1
881.0 2270.0 1
902.0 2270.0 1
933.0 2302.0 1
933.0 2333.0 1
923.0 2354.0 1
923.0 2354.0 1
892.0 2343.0 1
860.0 2333.0 1
850.0 2312.0 1
850.0 2312.0 1
860.0 2302.0 1
1038.0 2468.0 2
1038.0 2458.0 2
1048.0 2458.0 2
1038.0 2437.0 2
1027.0 2395.0 2
1027.0 2343.0 2
1027.0 2302.0 2
1027.0 2270.0 2
1027.0 2250.0 2
1027.0 2250.0 2
1038.0 2250.0 2
1152.0 2458.0 3
1152.0 2468.0 3
1163.0 2458.0 3
1163.0 2458.0 3
1152.0 2427.0 3
1152.0 2416.0 3
1152.0 2364.0 3
1215.0 2364.0 3
1246.0 2364.0 3
1256.0 2375.0 3
1267.0 2385.0 3
1256.0 2479.0 4
1256.0 2448.0 4
1246.0 2406.0 4
1235.0 2364.0 4
1215.0 2333.0 4
1215.0 2302.0 4
1204.0 2270.0 4
1204.0 2260.0 4
1215.0 2250.0 4
1360.0 2479.0 5
1360.0 2489.0 5
1371.0 2479.0 5
1360.0 2458.0 5
1350.0 2427.0 5
1350.0 2385.0 5
1340.0 2375.0 5
1340.0 2364.0 5
1360.0 2364.0 5
1402.0 2364.0 5
1444.0 2375.0 5
1485.0 2385.0 5
1527.0 2385.0 5
1538.0 2395.0 5
1496.0 2500.0 6
1485.0 2510.0 6
1485.0 2500.0 6
1485.0 2479.0 6
1475.0 2437.0 6
1465.0 2406.0 6
1454.0 2354.0 6
1444.0 2312.0 6
1444.0 2291.0 6
1444.0 2281.0 6
1673.0 2437.0 7
1683.0 2448.0 7
1683.0 2500.0 7
1673.0 2520.0 7
1652.0 2520.0 7
1621.0 2500.0 7
1590.0 2468.0 7
1579.0 2437.0 7
1569.0 2427.0 7
1569.0 2406.0 7
1579.0 2406.0 7
1600.0 2406.0 7
1631.0 2416.0 7
1652.0 2437.0 7
1673.0 2458.0 7
1673.0 2468.0 7
1673.0 2458.0 7
1663.0 2395.0 7
1652.0 2354.0 7
1652.0 2302.0 7
1652.0 2260.0 7
1652.0 2218.0 7
1652.0 2198.0 7

