444.0 2625.0 1
454.0 2635.0 1
444.0 2635.0 1
423.0 2635.0 1
392.0 2614.0 1
371.0 2614.0 1
371.0 2593.0 1
381.0 2573.0 1
444.0 2531.0 1
485.0 2520.0 1
496.0 2500.0 1
506.0 2489.0 1
496.0 2468.0 1
465.0 2458.0 1
423.0 2448.0 1
402.0 2448.0 1
371.0 2458.0 1
371.0 2479.0 1
548.0 2677.0 2
548.0 2666.0 2
548.0 2635.0 2
548.0 2604.0 2
558.0 2531.0 2
558.0 2500.0 2
558.0 2479.0 2
569.0 2510.0 2
579.0 2541.0 2
579.0 2562.0 2
590.0 2562.0 2
610.0 2562.0 2
631.0 2541.0 2
652.0 2520.0 2
652.0 2500.0 2
652.0 2479.0 2
652.0 2468.0 2
767.0 2562.0 3
767.0 2573.0 3
767.0 2583.0 3
756.0 2583.0 3
725.0 2562.0 3
704.0 2541.0 3
694.0 2520.0 3
694.0 2500.0 3
694.0 2479.0 3
704.0 2479.0 3
725.0 2479.0 3
735.0 2489.0 3
756.0 2520.0 3
767.0 2531.0 3
767.0 2541.0 3
767.0 2520.0 3
767.0 2500.0 3
777.0 2479.0 3
777.0 2458.0 3
788.0 2458.0 3
923.0 2541.0 4
923.0 2552.0 4
913.0 2562.0 4
902.0 2562.0 4
871.0 2552.0 4
840.0 2520.0 4
829.0 2500.0 4
829.0 2479.0 4
840.0 2468.0 4
850.0 2448.0 4
871.0 2448.0 4
892.0 2468.0 4
923.0 2500.0 4
944.0 2541.0 4
954.0 2583.0 4
954.0 2635.0 4
944.0 2666.0 4
933.0 2687.0 4
933.0 2687.0 4
933.0 2687.0 4
933.0 2656.0 4
923.0 2614.0 4
923.0 2573.0 4
933.0 2541.0 4
933.0 2510.0 4
933.0 2479.0 4
944.0 2458.0 4
944.0 2448.0 4
954.0 2448.0 4
1017.0 2562.0 5
1027.0 2573.0 5
1038.0 2573.0 5
1048.0 2562.0 5
1058.0 2552.0 5
1069.0 2520.0 5
1069.0 2479.0 5
1069.0 2458.0 5
1048.0 2437.0 5
1027.0 2437.0 5
1006.0 2468.0 5
996.0 2500.0 5
996.0 2531.0 5
996.0 2541.0 5
1006.0 2562.0 5
1027.0 2562.0 5
1100.0 2583.0 6
1100.0 2573.0 6
1100.0 2541.0 6
1100.0 2520.0 6
1100.0 2500.0 6
1110.0 2489.0 6
1121.0 2479.0 6
1131.0 2468.0 6
1142.0 2479.0 6
1163.0 2489.0 6
1173.0 2510.0 6
1173.0 2531.0 6
1173.0 2573.0 6
1173.0 2562.0 6
1183.0 2531.0 6
1183.0 2510.0 6
1204.0 2489.0 6
1215.0 2489.0 6
1235.0 2489.0 6
1235.0 2500.0 6
1246.0 2541.0 6
1235.0 2593.0 6
1225.0 2625.0 6
1215.0 2656.0 6
1194.0 2656.0 6

