335.0 2816.0 1
335.0 2816.0 1
335.0 2806.0 1
315.0 2785.0 1
315.0 2764.0 1
304.0 2733.0 1
304.0 2691.0 1
315.0 2670.0 1
335.0 2660.0 1
356.0 2650.0 1
377.0 2650.0 1
398.0 2660.0 1
398.0 2691.0 1
388.0 2712.0 1
377.0 2723.0 1
356.0 2723.0 1
325.0 2702.0 1
315.0 2702.0 1
315.0 2681.0 1

