673.0 2625.0 1
673.0 2635.0 1
673.0 2625.0 1
673.0 2562.0 1
663.0 2500.0 1
663.0 2458.0 1
663.0 2385.0 1
673.0 2354.0 1
673.0 2343.0 1
673.0 2354.0 1
631.0 2656.0 2
631.0 2666.0 2
631.0 2677.0 2
642.0 2677.0 2
652.0 2666.0 2
694.0 2635.0 2
725.0 2604.0 2
756.0 2573.0 2
777.0 2531.0 2
808.0 2479.0 2
808.0 2437.0 2
788.0 2385.0 2
756.0 2343.0 2
694.0 2323.0 2
663.0 2323.0 2
642.0 2323.0 2
881.0 2500.0 3
881.0 2468.0 3
892.0 2427.0 3
892.0 2395.0 3
902.0 2375.0 3
881.0 2562.0 4
881.0 2573.0 4
1006.0 2520.0 5
1006.0 2531.0 5
996.0 2531.0 5
985.0 2531.0 5
965.0 2520.0 5
954.0 2510.0 5
944.0 2510.0 5
944.0 2489.0 5
954.0 2479.0 5
985.0 2458.0 5
996.0 2458.0 5
1017.0 2458.0 5
1027.0 2448.0 5
1027.0 2437.0 5
1027.0 2406.0 5
1017.0 2395.0 5
985.0 2385.0 5
965.0 2385.0 5
1173.0 2489.0 6
1173.0 2500.0 6
1163.0 2510.0 6
1152.0 2520.0 6
1131.0 2520.0 6
1110.0 2510.0 6
1090.0 2479.0 6
1079.0 2468.0 6
1079.0 2448.0 6
1090.0 2437.0 6
1090.0 2427.0 6
1121.0 2437.0 6
1152.0 2468.0 6
1163.0 2468.0 6
1163.0 2468.0 6
1163.0 2468.0 6
1173.0 2427.0 6
1173.0 2385.0 6
1173.0 2323.0 6
1173.0 2291.0 6
1173.0 2239.0 6
1183.0 2218.0 6
1194.0 2198.0 6
1215.0 2198.0 6
1235.0 2239.0 6
1246.0 2281.0 6
1246.0 2312.0 6
1235.0 2354.0 6
1215.0 2375.0 6
1183.0 2375.0 6
1246.0 2510.0 7
1246.0 2510.0 7
1246.0 2510.0 7
1246.0 2510.0 7
1246.0 2479.0 7
1246.0 2448.0 7
1246.0 2427.0 7
1256.0 2416.0 7
1267.0 2416.0 7
1277.0 2427.0 7
1288.0 2437.0 7
1308.0 2458.0 7
1319.0 2489.0 7
1329.0 2500.0 7
1329.0 2500.0 7
1329.0 2479.0 7
1329.0 2448.0 7
1340.0 2427.0 7
1350.0 2406.0 7
1371.0 2406.0 7
1496.0 2489.0 8
1496.0 2500.0 8
1485.0 2510.0 8
1475.0 2520.0 8
1444.0 2510.0 8
1423.0 2489.0 8
1402.0 2468.0 8
1392.0 2437.0 8
1392.0 2406.0 8
1402.0 2395.0 8
1402.0 2395.0 8
1413.0 2406.0 8
1444.0 2437.0 8
1465.0 2468.0 8
1475.0 2479.0 8
1475.0 2479.0 8
1475.0 2479.0 8
1475.0 2458.0 8
1485.0 2427.0 8
1485.0 2395.0 8
1506.0 2375.0 8
1517.0 2375.0 8
1631.0 2677.0 9
1631.0 2677.0 9
1631.0 2677.0 9
1621.0 2614.0 9
1621.0 2562.0 9
1621.0 2510.0 9
1621.0 2448.0 9
1610.0 2395.0 9
1610.0 2375.0 9
1621.0 2354.0 9
1621.0 2343.0 9
1642.0 2354.0 9
1715.0 2489.0 10
1715.0 2489.0 10
1715.0 2479.0 10
1704.0 2448.0 10
1704.0 2416.0 10
1715.0 2375.0 10
1725.0 2593.0 11
1725.0 2583.0 11
1725.0 2562.0 11
1923.0 2656.0 12
1913.0 2666.0 12
1892.0 2687.0 12
1860.0 2687.0 12
1829.0 2687.0 12
1808.0 2656.0 12
1808.0 2614.0 12
1808.0 2573.0 12
1808.0 2510.0 12
1840.0 2479.0 12
1850.0 2458.0 12
1850.0 2437.0 12
1860.0 2437.0 12
1913.0 2562.0 13
1933.0 2562.0 13
1933.0 2562.0 13
1913.0 2562.0 13
1871.0 2562.0 13
1829.0 2552.0 13
1798.0 2541.0 13
1756.0 2541.0 13
1746.0 2541.0 13
1975.0 2541.0 14
1975.0 2541.0 14
1965.0 2520.0 14
1944.0 2500.0 14
1944.0 2479.0 14
1944.0 2448.0 14
1954.0 2416.0 14
1975.0 2614.0 15
1975.0 2625.0 15
2017.0 2479.0 16
2038.0 2479.0 16
2048.0 2489.0 16
2079.0 2500.0 16
2100.0 2500.0 16
2121.0 2510.0 16
2131.0 2520.0 16
2131.0 2541.0 16
2121.0 2541.0 16
2110.0 2541.0 16
2079.0 2531.0 16
2058.0 2510.0 16
2058.0 2489.0 16
2058.0 2458.0 16
2069.0 2437.0 16
2100.0 2416.0 16
2121.0 2406.0 16
2163.0 2406.0 16
2277.0 2510.0 17
2277.0 2510.0 17
2277.0 2531.0 17
2267.0 2541.0 17
2256.0 2541.0 17
2235.0 2541.0 17
2225.0 2510.0 17
2204.0 2489.0 17
2204.0 2458.0 17
2215.0 2458.0 17
2235.0 2458.0 17
2267.0 2468.0 17
2288.0 2489.0 17
2298.0 2541.0 17
2298.0 2593.0 17
2298.0 2635.0 17
2288.0 2666.0 17
2288.0 2687.0 17
2288.0 2687.0 17
2288.0 2635.0 17
2298.0 2583.0 17
2298.0 2531.0 17
2298.0 2489.0 17
2298.0 2437.0 17
2308.0 2416.0 17
2308.0 2406.0 17
2308.0 2395.0 17

