1485.0 1229.0 1
1485.0 1198.0 1
1485.0 1177.0 1
1485.0 1166.0 1
1496.0 1156.0 1
1485.0 1156.0 1
1485.0 1166.0 1
1475.0 1187.0 1
1465.0 1229.0 1
1454.0 1250.0 1
1454.0 1270.0 1
1465.0 1281.0 1
1475.0 1302.0 1
1496.0 1302.0 1
1506.0 1302.0 1
1538.0 1302.0 1
1558.0 1291.0 1
1558.0 1281.0 1
1558.0 1260.0 1
1548.0 1250.0 1
1527.0 1239.0 1
1569.0 1166.0 2
1569.0 1166.0 2
1558.0 1166.0 2
1558.0 1177.0 2
1548.0 1187.0 2
1548.0 1208.0 2
1558.0 1218.0 2
1569.0 1218.0 2
1569.0 1229.0 2
1579.0 1239.0 2
1590.0 1218.0 2
1642.0 1208.0 3
1642.0 1208.0 3
1642.0 1208.0 3
1631.0 1198.0 3
1631.0 1177.0 3
1631.0 1177.0 3
1631.0 1166.0 3
1642.0 1166.0 3
1652.0 1177.0 3
1663.0 1187.0 3
1673.0 1198.0 3
1673.0 1208.0 3
1652.0 1218.0 3
1642.0 1218.0 3
1631.0 1218.0 3
1631.0 1198.0 3
1746.0 1239.0 4
1746.0 1239.0 4
1735.0 1239.0 4
1735.0 1208.0 4
1746.0 1187.0 4
1756.0 1145.0 4
1767.0 1125.0 4
1767.0 1104.0 4
1756.0 1093.0 4
1746.0 1083.0 4
1735.0 1083.0 4
1715.0 1083.0 4
1715.0 1114.0 4
1725.0 1125.0 4
1725.0 1291.0 5
1725.0 1291.0 5
1788.0 1218.0 6
1788.0 1218.0 6
1798.0 1229.0 6
1808.0 1229.0 6
1819.0 1239.0 6
1819.0 1250.0 6
1808.0 1250.0 6
1798.0 1239.0 6
1788.0 1239.0 6
1788.0 1218.0 6
1777.0 1208.0 6
1777.0 1198.0 6
1788.0 1177.0 6
1808.0 1177.0 6
1829.0 1187.0 6
1923.0 1229.0 7
1923.0 1229.0 7
1923.0 1229.0 7
1923.0 1229.0 7
1902.0 1218.0 7
1892.0 1208.0 7
1892.0 1198.0 7
1892.0 1198.0 7
1892.0 1177.0 7
1902.0 1177.0 7
1923.0 1177.0 7
1954.0 1177.0 7
1985.0 1312.0 8
1985.0 1312.0 8
1985.0 1250.0 8
1996.0 1229.0 8
1996.0 1208.0 8
2006.0 1177.0 8
1975.0 1218.0 9
1975.0 1218.0 9
1975.0 1218.0 9
2006.0 1229.0 9
2048.0 1229.0 9
2069.0 1218.0 9
2069.0 1208.0 9
2069.0 1177.0 9
2058.0 1270.0 10
2058.0 1270.0 10
2058.0 1270.0 10
2121.0 1218.0 11
2121.0 1208.0 11
2121.0 1198.0 11
2121.0 1187.0 11
2142.0 1177.0 11
2152.0 1177.0 11
2163.0 1187.0 11
2173.0 1198.0 11
2173.0 1208.0 11
2173.0 1218.0 11
2163.0 1239.0 11
2152.0 1239.0 11
2142.0 1239.0 11
2121.0 1229.0 11
2121.0 1218.0 11
2215.0 1208.0 12
2215.0 1218.0 12
2215.0 1198.0 12
2225.0 1198.0 12
2225.0 1198.0 12
2235.0 1198.0 12
2246.0 1208.0 12
2256.0 1218.0 12
2256.0 1218.0 12
2256.0 1187.0 12
2267.0 1177.0 12
2267.0 1177.0 12
2350.0 1229.0 13
2350.0 1239.0 13
2340.0 1239.0 13
2340.0 1239.0 13
2319.0 1229.0 13
2308.0 1229.0 13
2298.0 1218.0 13
2298.0 1208.0 13
2308.0 1198.0 13
2329.0 1198.0 13
2350.0 1198.0 13
2371.0 1187.0 13
2371.0 1177.0 13
2350.0 1177.0 13
2329.0 1156.0 13
2329.0 1156.0 13

