1444.0 1135.0 1
1454.0 1114.0 1
1454.0 1083.0 1
1454.0 1052.0 1
1454.0 1010.0 1
1371.0 1114.0 2
1371.0 1114.0 2
1371.0 1125.0 2
1381.0 1125.0 2
1402.0 1135.0 2
1433.0 1135.0 2
1465.0 1135.0 2
1527.0 1010.0 3
1527.0 1010.0 3
1527.0 1020.0 3
1517.0 1031.0 3
1517.0 1041.0 3
1517.0 1052.0 3
1506.0 1052.0 3
1506.0 1062.0 3
1517.0 1062.0 3
1538.0 1062.0 3
1600.0 1062.0 4
1590.0 1062.0 4
1590.0 1062.0 4
1590.0 1052.0 4
1590.0 1052.0 4
1579.0 1041.0 4
1579.0 1031.0 4
1579.0 1031.0 4
1579.0 1020.0 4
1579.0 1020.0 4
1579.0 1020.0 4
1590.0 1031.0 4
1600.0 1041.0 4
1600.0 1052.0 4
1610.0 1052.0 4
1610.0 1052.0 4
1610.0 1031.0 4
1610.0 1020.0 4
1610.0 1020.0 4
1621.0 1010.0 4
1631.0 1020.0 4
1642.0 1020.0 4
1663.0 1031.0 4
1673.0 1041.0 4
1673.0 1041.0 4
1673.0 1031.0 4
1673.0 1031.0 4
1683.0 1020.0 4
1683.0 1010.0 4
1683.0 1010.0 4
1683.0 1010.0 4
1683.0 1010.0 4
1683.0 1010.0 4
1694.0 1010.0 4
1704.0 1020.0 4
1725.0 1020.0 4
1725.0 1020.0 4
1725.0 1010.0 4
1725.0 1010.0 4
1725.0 1010.0 4
1798.0 1052.0 5
1798.0 1062.0 5
1788.0 1062.0 5
1777.0 1062.0 5
1767.0 1052.0 5
1756.0 1041.0 5
1756.0 1031.0 5
1756.0 1031.0 5
1777.0 1031.0 5
1788.0 1031.0 5
1808.0 1031.0 5
1808.0 1020.0 5
1808.0 1020.0 5
1798.0 1010.0 5
1788.0 1010.0 5
1788.0 1010.0 5
1902.0 1125.0 6
1892.0 1135.0 6
1892.0 1135.0 6
1881.0 1125.0 6
1881.0 1125.0 6
1871.0 1104.0 6
1860.0 1073.0 6
1871.0 1052.0 6
1871.0 1020.0 6
1881.0 989.0 6
1881.0 958.0 6
1892.0 937.0 6
1892.0 927.0 6
1850.0 1020.0 7
1840.0 1031.0 7
1840.0 1031.0 7
1850.0 1041.0 7
1902.0 1041.0 7
1923.0 1041.0 7
1923.0 1041.0 7
1923.0 1031.0 7
1923.0 1020.0 7
1923.0 1010.0 7
1923.0 1010.0 7
1933.0 1000.0 7
1944.0 1000.0 7
1954.0 1000.0 7
1965.0 1010.0 7
1944.0 1020.0 8
1944.0 1020.0 8
1944.0 1031.0 8
1944.0 1052.0 8
1913.0 1041.0 9
1902.0 1031.0 9
1902.0 1010.0 9
2006.0 1041.0 10
2006.0 1041.0 10
2006.0 1031.0 10
2017.0 1020.0 10
2017.0 1020.0 10
2017.0 1031.0 10
2006.0 1031.0 10
2006.0 1041.0 10
2017.0 1062.0 10
2038.0 1062.0 10
2048.0 1062.0 10
2100.0 1052.0 11
2100.0 1041.0 11
2100.0 1031.0 11
2100.0 1031.0 11
2100.0 1020.0 11
2100.0 1020.0 11
2110.0 1020.0 11
2110.0 1020.0 11
2121.0 1031.0 11
2131.0 1041.0 11
2142.0 1041.0 11
2142.0 1052.0 11
2142.0 1041.0 11
2142.0 1031.0 11
2142.0 1031.0 11
2152.0 1031.0 11
2173.0 1031.0 11
2173.0 1041.0 11
2194.0 1052.0 11
2194.0 1052.0 11
2194.0 1041.0 11
2204.0 1020.0 11
2215.0 1020.0 11

