1381.0 1541.0 1
1371.0 1541.0 1
1360.0 1552.0 1
1360.0 1552.0 1
1371.0 1552.0 1
1392.0 1573.0 1
1433.0 1583.0 1
1485.0 1593.0 1
1517.0 1593.0 1
1538.0 1573.0 1
1527.0 1552.0 1
1496.0 1510.0 1
1465.0 1468.0 1
1413.0 1427.0 1
1392.0 1395.0 1
1381.0 1375.0 1
1381.0 1364.0 1
1663.0 1635.0 2
1652.0 1635.0 2
1621.0 1625.0 2
1590.0 1604.0 2
1579.0 1593.0 2
1569.0 1573.0 2
1569.0 1552.0 2
1569.0 1541.0 2
1569.0 1541.0 2
1600.0 1552.0 2
1621.0 1573.0 2
1642.0 1593.0 2
1652.0 1593.0 2
1642.0 1593.0 2
1610.0 1531.0 2
1610.0 1489.0 2
1590.0 1448.0 2
1590.0 1427.0 2
1756.0 1656.0 3
1756.0 1645.0 3
1746.0 1614.0 3
1735.0 1541.0 3
1725.0 1489.0 3
1715.0 1448.0 3
1860.0 1656.0 4
1860.0 1656.0 4
1850.0 1645.0 4
1850.0 1625.0 4
1850.0 1593.0 4
1871.0 1583.0 4
1871.0 1552.0 4
1871.0 1541.0 4
1860.0 1500.0 4
1840.0 1479.0 4
1819.0 1479.0 4
1829.0 1593.0 5
1850.0 1614.0 5
1871.0 1635.0 5
1913.0 1656.0 5
1933.0 1656.0 5
2079.0 1698.0 6
2058.0 1729.0 6
2048.0 1729.0 6
2027.0 1708.0 6
2017.0 1677.0 6
2006.0 1635.0 6
2017.0 1604.0 6
2038.0 1573.0 6
2038.0 1531.0 6
2017.0 1479.0 6
1996.0 1448.0 6
1975.0 1448.0 6
1965.0 1458.0 6
1965.0 1510.0 6
1996.0 1583.0 6
2027.0 1656.0 6
2079.0 1729.0 6
2110.0 1770.0 6

