398.0 2775.0 1
398.0 2764.0 1
377.0 2733.0 1
367.0 2691.0 1
356.0 2660.0 1
346.0 2629.0 1
335.0 2618.0 1
325.0 2618.0 1
315.0 2618.0 1
304.0 2629.0 1
294.0 2650.0 1
294.0 2691.0 1
346.0 2795.0 2
356.0 2795.0 2
388.0 2816.0 2
398.0 2827.0 2
408.0 2837.0 2

