506.0 2698.0 1
506.0 2708.0 1
517.0 2708.0 1
517.0 2708.0 1
527.0 2687.0 1
538.0 2666.0 1
538.0 2635.0 1
538.0 2479.0 1
548.0 2458.0 1
402.0 2427.0 2
465.0 2448.0 2
517.0 2458.0 2
558.0 2468.0 2
610.0 2479.0 2
652.0 2479.0 2
683.0 2479.0 2
694.0 2479.0 2
694.0 2489.0 2
350.0 2687.0 3
329.0 2708.0 3
360.0 2708.0 3
413.0 2708.0 3
465.0 2708.0 3
517.0 2718.0 3
590.0 2729.0 3
631.0 2729.0 3
767.0 2604.0 4
767.0 2604.0 4
756.0 2573.0 4
756.0 2541.0 4
746.0 2520.0 4
746.0 2479.0 4
746.0 2468.0 4
756.0 2552.0 5
767.0 2541.0 5
777.0 2531.0 5
798.0 2520.0 5
808.0 2510.0 5
819.0 2500.0 5
829.0 2500.0 5
840.0 2604.0 6
829.0 2604.0 6
829.0 2593.0 6
829.0 2573.0 6
829.0 2552.0 6
829.0 2520.0 6
840.0 2479.0 6
913.0 2583.0 7
913.0 2583.0 7
913.0 2573.0 7
933.0 2562.0 7
933.0 2552.0 7
954.0 2531.0 7
954.0 2531.0 7
954.0 2520.0 7
954.0 2520.0 7
944.0 2520.0 7
892.0 2541.0 8
881.0 2562.0 8
881.0 2573.0 8
892.0 2583.0 8
913.0 2593.0 8
933.0 2593.0 8
954.0 2583.0 8
965.0 2562.0 8
965.0 2541.0 8
965.0 2520.0 8
944.0 2489.0 8
923.0 2468.0 8
996.0 2541.0 9
996.0 2531.0 9
996.0 2520.0 9
1006.0 2520.0 9
1017.0 2520.0 9
1038.0 2520.0 9
1058.0 2541.0 9
1069.0 2552.0 9
1079.0 2562.0 9
1069.0 2573.0 9
1069.0 2520.0 9
1079.0 2500.0 9
1090.0 2500.0 9
1110.0 2500.0 9
1131.0 2510.0 9
1204.0 2614.0 10
1204.0 2614.0 10
1183.0 2614.0 10
1163.0 2604.0 10
1142.0 2583.0 10
1121.0 2562.0 10
1121.0 2552.0 10
1121.0 2552.0 10
1131.0 2552.0 10
1152.0 2541.0 10
1183.0 2541.0 10
1204.0 2541.0 10
1215.0 2541.0 10
1225.0 2531.0 10
1225.0 2520.0 10
1215.0 2510.0 10
1194.0 2510.0 10
1183.0 2510.0 10
1173.0 2510.0 10
1173.0 2510.0 10
1256.0 2583.0 11
1256.0 2562.0 11
1256.0 2552.0 11
1256.0 2531.0 11
1256.0 2520.0 11
1267.0 2500.0 11
1204.0 2593.0 12
1204.0 2593.0 12
1215.0 2604.0 12
1235.0 2604.0 12
1256.0 2604.0 12
1288.0 2593.0 12
1308.0 2593.0 12
1319.0 2583.0 12
1371.0 2604.0 13
1371.0 2583.0 13
1371.0 2562.0 13
1371.0 2541.0 13
1381.0 2520.0 13
1381.0 2520.0 13
1392.0 2510.0 13
1381.0 2614.0 14
1381.0 2614.0 14
1392.0 2614.0 14
1402.0 2604.0 14
1402.0 2583.0 14
1402.0 2573.0 14
1392.0 2562.0 14
1392.0 2541.0 14
1392.0 2541.0 14
1402.0 2531.0 14
1496.0 2531.0 14
1496.0 2614.0 15
1496.0 2614.0 15
1506.0 2604.0 15
1517.0 2573.0 15
1517.0 2541.0 15
1517.0 2531.0 15
1621.0 2604.0 16
1621.0 2604.0 16
1610.0 2593.0 16
1590.0 2583.0 16
1579.0 2562.0 16
1558.0 2541.0 16
1610.0 2625.0 17
1610.0 2625.0 17
1621.0 2625.0 17
1631.0 2625.0 17
1631.0 2604.0 17
1631.0 2573.0 17
1631.0 2531.0 17
1631.0 2500.0 17
1527.0 2541.0 18
1538.0 2552.0 18
1579.0 2562.0 18
1600.0 2562.0 18
1631.0 2552.0 18
1652.0 2541.0 18
1704.0 2625.0 19
1704.0 2614.0 19
1704.0 2593.0 19
1715.0 2583.0 19
1725.0 2562.0 19
1725.0 2552.0 19
1735.0 2541.0 19
1746.0 2541.0 19
1767.0 2531.0 19
1798.0 2531.0 19
1819.0 2531.0 19
1840.0 2520.0 19
1881.0 2614.0 20
1881.0 2614.0 20
1881.0 2604.0 20
1881.0 2583.0 20
1881.0 2541.0 20
1892.0 2520.0 20
1892.0 2500.0 20
1933.0 2614.0 21
1965.0 2614.0 22
1985.0 2614.0 22
2006.0 2625.0 22
2017.0 2625.0 22
2027.0 2614.0 22
2017.0 2583.0 22
2006.0 2562.0 22
1996.0 2541.0 22
1975.0 2520.0 22
1965.0 2510.0 22
1985.0 2510.0 22
2006.0 2520.0 22
2038.0 2531.0 22
2058.0 2531.0 22
1913.0 2552.0 23
1923.0 2541.0 23
1954.0 2541.0 23
1975.0 2541.0 23
2006.0 2541.0 23
2142.0 2614.0 24
2142.0 2614.0 24
2131.0 2593.0 24
2131.0 2583.0 24
2131.0 2573.0 24
2142.0 2552.0 24
2142.0 2552.0 24
2152.0 2541.0 24
2163.0 2541.0 24
2173.0 2531.0 24
2194.0 2531.0 24
2194.0 2520.0 24
2204.0 2520.0 24
2121.0 2573.0 25
2121.0 2573.0 25
2152.0 2573.0 25
2163.0 2562.0 25
2183.0 2562.0 25
2215.0 2562.0 25
2173.0 2635.0 26
2183.0 2635.0 26
2204.0 2635.0 26
2215.0 2635.0 26
2225.0 2625.0 26
2225.0 2614.0 26
2194.0 2625.0 27
2194.0 2625.0 27
2204.0 2614.0 27
2267.0 2614.0 27
2298.0 2614.0 27
2329.0 2614.0 27
2350.0 2604.0 27
2360.0 2604.0 27
2350.0 2593.0 27
2329.0 2583.0 27
2267.0 2562.0 27
2183.0 2541.0 27

