506.0 2708.0 1
506.0 2729.0 1
506.0 2729.0 1
517.0 2729.0 1
527.0 2708.0 1
527.0 2666.0 1
527.0 2614.0 1
538.0 2541.0 1
538.0 2479.0 1
538.0 2448.0 1
548.0 2416.0 1
548.0 2416.0 1
548.0 2416.0 1
610.0 2718.0 2
610.0 2760.0 2
610.0 2770.0 2
610.0 2770.0 2
600.0 2770.0 2
579.0 2770.0 2
548.0 2760.0 2
527.0 2750.0 2
485.0 2739.0 2
433.0 2718.0 2
402.0 2708.0 2
371.0 2698.0 2
340.0 2687.0 2
298.0 2677.0 2
298.0 2677.0 2
298.0 2708.0 2
350.0 2739.0 2
392.0 2760.0 2
433.0 2781.0 2
475.0 2791.0 2
548.0 2802.0 2
590.0 2802.0 2
621.0 2791.0 2
642.0 2760.0 2
642.0 2718.0 2
610.0 2698.0 2
579.0 2677.0 2
538.0 2656.0 2
465.0 2645.0 2
433.0 2625.0 2
746.0 2573.0 3
746.0 2583.0 3
746.0 2583.0 3
756.0 2583.0 3
756.0 2520.0 3
756.0 2500.0 3
788.0 2500.0 3
819.0 2500.0 3
840.0 2510.0 3
860.0 2520.0 3
871.0 2552.0 3
881.0 2562.0 3
881.0 2531.0 3
881.0 2510.0 3
892.0 2510.0 3
902.0 2510.0 3
923.0 2520.0 3
985.0 2614.0 4
985.0 2614.0 4
985.0 2604.0 4
985.0 2593.0 4
975.0 2573.0 4
975.0 2541.0 4
975.0 2520.0 4
975.0 2510.0 4
985.0 2625.0 5
996.0 2625.0 5
1017.0 2625.0 5
1038.0 2625.0 5
1048.0 2625.0 5
1058.0 2625.0 5
1069.0 2614.0 5
975.0 2573.0 6
975.0 2573.0 6
985.0 2562.0 6
1017.0 2562.0 6
1038.0 2562.0 6
1058.0 2562.0 6
1121.0 2614.0 7
1121.0 2604.0 7
1121.0 2583.0 7
1121.0 2573.0 7
1121.0 2562.0 7
1121.0 2541.0 7
1121.0 2520.0 7
1121.0 2520.0 7
1131.0 2635.0 8
1183.0 2635.0 8
1194.0 2625.0 8
1121.0 2583.0 9
1121.0 2583.0 9
1131.0 2593.0 9
1163.0 2593.0 9
1183.0 2593.0 9
1215.0 2583.0 9

