1027.0 1854.0 1
975.0 1875.0 1
944.0 1875.0 1
881.0 1854.0 1
829.0 1823.0 1
788.0 1770.0 1
777.0 1698.0 1
798.0 1614.0 1
850.0 1541.0 1
933.0 1479.0 1
996.0 1416.0 1
1038.0 1343.0 1
1038.0 1291.0 1
1017.0 1239.0 1
954.0 1198.0 1
860.0 1156.0 1
777.0 1156.0 1
725.0 1166.0 1
683.0 1198.0 1
1194.0 1812.0 2
1183.0 1833.0 2
1183.0 1823.0 2
1194.0 1781.0 2
1215.0 1687.0 2
1246.0 1562.0 2
1277.0 1406.0 2
1288.0 1312.0 2
1288.0 1281.0 2
1288.0 1270.0 2
1288.0 1270.0 2
1288.0 1302.0 2
1288.0 1385.0 2
1308.0 1458.0 2
1340.0 1520.0 2
1371.0 1531.0 2
1402.0 1520.0 2
1444.0 1479.0 2
1475.0 1406.0 2
1485.0 1343.0 2
1496.0 1291.0 2
1496.0 1260.0 2
1777.0 1489.0 3
1767.0 1500.0 3
1756.0 1510.0 3
1725.0 1520.0 3
1694.0 1510.0 3
1673.0 1468.0 3
1663.0 1385.0 3
1673.0 1281.0 3
1704.0 1239.0 3
1746.0 1239.0 3
1777.0 1260.0 3
1808.0 1333.0 3
1819.0 1406.0 3
1819.0 1468.0 3
1808.0 1479.0 3
1808.0 1468.0 3
1808.0 1416.0 3
1819.0 1343.0 3
1850.0 1291.0 3
1881.0 1270.0 3
2204.0 1500.0 4
2163.0 1531.0 4
2131.0 1552.0 4
2090.0 1562.0 4
2058.0 1541.0 4
2027.0 1489.0 4
2027.0 1416.0 4
2038.0 1323.0 4
2069.0 1302.0 4
2121.0 1302.0 4
2163.0 1333.0 4
2194.0 1406.0 4
2204.0 1479.0 4
2194.0 1604.0 4
2183.0 1729.0 4
2152.0 1843.0 4
2152.0 1843.0 4
2152.0 1833.0 4
2163.0 1708.0 4
2183.0 1583.0 4
2194.0 1468.0 4
2215.0 1385.0 4
2246.0 1323.0 4
2256.0 1302.0 4
2381.0 1583.0 5
2360.0 1583.0 5
2350.0 1520.0 5
2329.0 1437.0 5
2329.0 1364.0 5
2340.0 1312.0 5
2371.0 1291.0 5
2413.0 1302.0 5
2433.0 1333.0 5
2444.0 1395.0 5
2444.0 1448.0 5
2392.0 1500.0 5
2371.0 1520.0 5
2340.0 1531.0 5
2329.0 1531.0 5
2527.0 1468.0 6
2527.0 1448.0 6
2538.0 1385.0 6
2558.0 1333.0 6
2558.0 1291.0 6
2579.0 1281.0 6
2590.0 1281.0 6
2600.0 1291.0 6
2600.0 1333.0 6
2610.0 1427.0 6
2621.0 1468.0 6
2631.0 1468.0 6
2642.0 1458.0 6
2663.0 1395.0 6
2683.0 1343.0 6
2704.0 1312.0 6
2725.0 1302.0 6
2746.0 1312.0 6
2767.0 1364.0 6
2777.0 1437.0 6
2788.0 1520.0 6
2788.0 1573.0 6

