294.0 2785.0 1
294.0 2775.0 1
294.0 2754.0 1
294.0 2712.0 1
283.0 2670.0 1
273.0 2639.0 1
273.0 2629.0 1
388.0 2795.0 2
377.0 2795.0 2
377.0 2775.0 2
377.0 2754.0 2
377.0 2723.0 2
367.0 2681.0 2
356.0 2650.0 2
356.0 2650.0 2
325.0 2723.0 3
315.0 2723.0 3
315.0 2723.0 3
325.0 2723.0 3
325.0 2723.0 3
356.0 2723.0 3

