2069.0 1385.0 1
2069.0 1385.0 1
2069.0 1354.0 1
2069.0 1323.0 1
2079.0 1270.0 1
2079.0 1208.0 1
2069.0 1156.0 1
2069.0 1125.0 1
2079.0 1125.0 1
2069.0 1364.0 2
2069.0 1385.0 2
2069.0 1395.0 2
2090.0 1395.0 2
2100.0 1395.0 2
2131.0 1395.0 2
2152.0 1375.0 2
2152.0 1343.0 2
2142.0 1312.0 2
2131.0 1291.0 2
2100.0 1270.0 2
2090.0 1270.0 2
2079.0 1270.0 2
2163.0 1250.0 3
2163.0 1218.0 3
2163.0 1198.0 3
2163.0 1177.0 3
2183.0 1166.0 3
2204.0 1177.0 3
2215.0 1187.0 3
2235.0 1218.0 3
2235.0 1250.0 3
2235.0 1260.0 3
2235.0 1260.0 3
2298.0 1270.0 4
2288.0 1270.0 4
2288.0 1270.0 4
2298.0 1270.0 4
2319.0 1270.0 4
2350.0 1270.0 4
2371.0 1270.0 4
2381.0 1270.0 4
2381.0 1260.0 4
2381.0 1239.0 4
2360.0 1208.0 4
2340.0 1177.0 4
2329.0 1166.0 4
2329.0 1156.0 4
2340.0 1156.0 4
2360.0 1166.0 4
2381.0 1187.0 4
2319.0 1229.0 5
2319.0 1229.0 5
2319.0 1229.0 5
2329.0 1229.0 5
2350.0 1239.0 5
2381.0 1239.0 5
2413.0 1281.0 6
2402.0 1281.0 6
2402.0 1281.0 6
2433.0 1281.0 6
2465.0 1281.0 6
2485.0 1291.0 6
2496.0 1291.0 6
2506.0 1291.0 6
2506.0 1281.0 6
2506.0 1270.0 6
2506.0 1270.0 6
2496.0 1270.0 6
2496.0 1270.0 6
2496.0 1270.0 6
2485.0 1270.0 6
2475.0 1260.0 6
2454.0 1239.0 6
2444.0 1229.0 6
2444.0 1218.0 6
2475.0 1218.0 6
2496.0 1218.0 6
2517.0 1229.0 6
2538.0 1229.0 6
2558.0 1239.0 6
2444.0 1270.0 7
2444.0 1270.0 7
2444.0 1270.0 7
2454.0 1270.0 7
2485.0 1270.0 7
2506.0 1270.0 7
2527.0 1281.0 7
2569.0 1416.0 8
2569.0 1395.0 8
2579.0 1364.0 8
2579.0 1260.0 8
2579.0 1250.0 8
2590.0 1250.0 8
2642.0 1291.0 9
2642.0 1291.0 9
2652.0 1291.0 9
2663.0 1302.0 9
2673.0 1312.0 9
2673.0 1323.0 9
2673.0 1333.0 9
2652.0 1323.0 9
2652.0 1302.0 9
2642.0 1281.0 9
2642.0 1270.0 9
2663.0 1260.0 9
2673.0 1260.0 9
2746.0 1281.0 10
2746.0 1291.0 10
2735.0 1312.0 10
2735.0 1312.0 10
2725.0 1312.0 10
2725.0 1291.0 10
2735.0 1281.0 10
2735.0 1270.0 10
2746.0 1270.0 10
2746.0 1281.0 10
2767.0 1302.0 10
2777.0 1312.0 10
2777.0 1323.0 10
2777.0 1312.0 10
2788.0 1302.0 10
2788.0 1281.0 10
2788.0 1281.0 10
2798.0 1281.0 10
2808.0 1291.0 10
2819.0 1302.0 10
2819.0 1323.0 10
2829.0 1333.0 10
2829.0 1333.0 10
2840.0 1312.0 10
2850.0 1302.0 10
2860.0 1291.0 10
2881.0 1291.0 10
2892.0 1291.0 10
2902.0 1291.0 10
2913.0 1291.0 10
2923.0 1302.0 10
2933.0 1302.0 10
2944.0 1302.0 10
2954.0 1312.0 10
2975.0 1323.0 10
2975.0 1343.0 10
2965.0 1343.0 10
2944.0 1333.0 10
2944.0 1312.0 10
2944.0 1291.0 10
2944.0 1291.0 10
2965.0 1281.0 10
3038.0 1291.0 11
3038.0 1291.0 11
3038.0 1323.0 11
3038.0 1323.0 11
3038.0 1312.0 11
3027.0 1291.0 11
3027.0 1281.0 11
3038.0 1281.0 11
3048.0 1281.0 11
3058.0 1302.0 11
3079.0 1323.0 11
3090.0 1333.0 11
3100.0 1333.0 11
3110.0 1323.0 11
3121.0 1291.0 11
3131.0 1291.0 11
3142.0 1281.0 11
3142.0 1281.0 11
3163.0 1302.0 11
3225.0 1479.0 12
3225.0 1448.0 12
3235.0 1406.0 12
3235.0 1281.0 12
3225.0 1281.0 12
3173.0 1343.0 13
3173.0 1343.0 13
3173.0 1354.0 13
3215.0 1354.0 13
3246.0 1354.0 13
3277.0 1364.0 13
3298.0 1375.0 13

