273.0 2691.0 1
273.0 2681.0 1
273.0 2639.0 1
273.0 2598.0 1
273.0 2556.0 1
263.0 2504.0 1
263.0 2483.0 1
263.0 2483.0 1
263.0 2493.0 1
263.0 2535.0 1
263.0 2577.0 1
273.0 2629.0 1
273.0 2681.0 1
294.0 2712.0 1
304.0 2733.0 1
315.0 2733.0 1
325.0 2733.0 1
325.0 2723.0 1
325.0 2702.0 1
325.0 2681.0 1
304.0 2660.0 1
283.0 2660.0 1

