1319.0 1698.0 1
1308.0 1698.0 1
1308.0 1687.0 1
1298.0 1687.0 1
1288.0 1687.0 1
1288.0 1687.0 1
1288.0 1687.0 1
1277.0 1708.0 1
1267.0 1739.0 1
1256.0 1770.0 1
1235.0 1791.0 1
1194.0 1791.0 1
1163.0 1770.0 1
1131.0 1750.0 1
1100.0 1698.0 1
1090.0 1645.0 1
1090.0 1593.0 1
1100.0 1552.0 1
1142.0 1510.0 1
1173.0 1479.0 1
1423.0 1656.0 2
1413.0 1656.0 2
1392.0 1656.0 2
1381.0 1645.0 2
1371.0 1635.0 2
1350.0 1604.0 2
1329.0 1593.0 2
1329.0 1573.0 2
1340.0 1541.0 2
1381.0 1520.0 2
1413.0 1510.0 2
1444.0 1531.0 2
1475.0 1541.0 2
1496.0 1573.0 2
1496.0 1604.0 2
1485.0 1625.0 2
1454.0 1656.0 2
1413.0 1666.0 2
1402.0 1666.0 2
1569.0 1645.0 3
1569.0 1656.0 3
1558.0 1645.0 3
1558.0 1604.0 3
1569.0 1573.0 3
1569.0 1541.0 3
1569.0 1531.0 3
1569.0 1541.0 3
1569.0 1552.0 3
1558.0 1593.0 3
1569.0 1635.0 3
1579.0 1666.0 3
1610.0 1677.0 3
1621.0 1677.0 3
1642.0 1645.0 3
1652.0 1635.0 3
1652.0 1593.0 3
1652.0 1593.0 3
1652.0 1593.0 3
1652.0 1604.0 3
1663.0 1625.0 3
1673.0 1656.0 3
1694.0 1677.0 3
1715.0 1677.0 3
1725.0 1666.0 3
1735.0 1635.0 3
1735.0 1604.0 3
1735.0 1583.0 3
1871.0 1645.0 4
1871.0 1625.0 4
1871.0 1583.0 4
1871.0 1541.0 4
1881.0 1489.0 4
1881.0 1448.0 4
1881.0 1406.0 4
1892.0 1385.0 4
1892.0 1385.0 4
1881.0 1385.0 4
1871.0 1437.0 4
1850.0 1500.0 4
1850.0 1573.0 4
1850.0 1656.0 4
1871.0 1698.0 4
1892.0 1698.0 4
1913.0 1698.0 4
1933.0 1677.0 4
1944.0 1635.0 4
1944.0 1604.0 4
1954.0 1593.0 4
1944.0 1573.0 4
1913.0 1562.0 4
1902.0 1552.0 4
2194.0 1666.0 5
2194.0 1687.0 5
2183.0 1708.0 5
2173.0 1708.0 5
2163.0 1718.0 5
2152.0 1729.0 5
2131.0 1729.0 5
2121.0 1718.0 5
2100.0 1708.0 5
2079.0 1677.0 5
2079.0 1635.0 5
2079.0 1604.0 5
2100.0 1593.0 5
2131.0 1583.0 5
2163.0 1593.0 5
2183.0 1625.0 5
2194.0 1656.0 5
2194.0 1687.0 5
2194.0 1708.0 5
2183.0 1708.0 5
2173.0 1677.0 5
2183.0 1645.0 5
2183.0 1625.0 5
2194.0 1604.0 5
2256.0 1687.0 6
2256.0 1708.0 6
2267.0 1698.0 6
2277.0 1677.0 6
2277.0 1656.0 6
2288.0 1635.0 6
2298.0 1614.0 6
2298.0 1604.0 6
2288.0 1604.0 6
2288.0 1614.0 6
2277.0 1625.0 6
2277.0 1656.0 6
2288.0 1698.0 6
2308.0 1739.0 6
2329.0 1750.0 6
2340.0 1750.0 6
2360.0 1739.0 6
2371.0 1729.0 6
2558.0 1708.0 7
2558.0 1718.0 7
2548.0 1718.0 7
2527.0 1729.0 7
2485.0 1729.0 7
2465.0 1708.0 7
2433.0 1687.0 7
2413.0 1656.0 7
2413.0 1625.0 7
2413.0 1614.0 7
2433.0 1604.0 7
2465.0 1614.0 7
2496.0 1635.0 7
2517.0 1656.0 7
2517.0 1677.0 7
2527.0 1687.0 7
2527.0 1677.0 7
2538.0 1666.0 7
2538.0 1635.0 7
2548.0 1614.0 7
2548.0 1604.0 7
2683.0 1864.0 8
2683.0 1885.0 8
2683.0 1875.0 8
2683.0 1854.0 8
2694.0 1812.0 8
2694.0 1760.0 8
2704.0 1698.0 8
2704.0 1666.0 8
2704.0 1635.0 8
2642.0 1729.0 9
2642.0 1750.0 9
2663.0 1760.0 9
2683.0 1770.0 9
2704.0 1770.0 9
2735.0 1770.0 9
2756.0 1770.0 9
2756.0 1770.0 9
2808.0 1760.0 10
2808.0 1781.0 10
2829.0 1770.0 10
2829.0 1750.0 10
2829.0 1729.0 10
2819.0 1698.0 10
2819.0 1666.0 10
2944.0 1791.0 11
2944.0 1781.0 11
2954.0 1750.0 11
2954.0 1718.0 11
2965.0 1687.0 11
2965.0 1677.0 11
2975.0 1666.0 11
2985.0 1666.0 11
2985.0 1666.0 11
2996.0 1687.0 11
3006.0 1708.0 11
3017.0 1760.0 11
3017.0 1791.0 11
3027.0 1802.0 11
3100.0 1770.0 12
3110.0 1770.0 12
3131.0 1770.0 12
3152.0 1770.0 12
3183.0 1760.0 12
3194.0 1760.0 12
3215.0 1760.0 12
3235.0 1770.0 12
3246.0 1791.0 12
3246.0 1812.0 12
3235.0 1833.0 12
3204.0 1843.0 12
3183.0 1833.0 12
3152.0 1823.0 12
3131.0 1791.0 12
3110.0 1750.0 12
3110.0 1708.0 12
3131.0 1687.0 12
3163.0 1687.0 12
3204.0 1687.0 12
3319.0 1937.0 13
3319.0 1937.0 13
3329.0 1937.0 13
3329.0 1916.0 13
3329.0 1854.0 13
3308.0 1791.0 13
3308.0 1750.0 13
3308.0 1729.0 13
3308.0 1687.0 13
3308.0 1677.0 13
3413.0 1802.0 14
3413.0 1812.0 14
3413.0 1812.0 14
3413.0 1802.0 14
3413.0 1770.0 14
3413.0 1708.0 14
3413.0 1698.0 14
3433.0 1698.0 14
3465.0 1698.0 14
3485.0 1708.0 14
3506.0 1739.0 14
3527.0 1750.0 14
3527.0 1750.0 14
3538.0 1729.0 14
3538.0 1698.0 14
3538.0 1656.0 14
3517.0 1604.0 14
3475.0 1510.0 14
3454.0 1479.0 14
3423.0 1468.0 14
3392.0 1468.0 14
2777.0 2000.0 15
2767.0 2020.0 15
2777.0 2010.0 15
2777.0 2010.0 15
2777.0 2000.0 15

