335.0 2785.0 1
335.0 2795.0 1
346.0 2795.0 1
346.0 2806.0 1
335.0 2816.0 1
335.0 2827.0 1
325.0 2827.0 1
315.0 2827.0 1
283.0 2816.0 1
273.0 2795.0 1
252.0 2764.0 1
242.0 2733.0 1
242.0 2691.0 1
252.0 2670.0 1
283.0 2650.0 1
315.0 2650.0 1
367.0 2660.0 1
388.0 2670.0 1

