1600.0 1770.0 1
1600.0 1770.0 1
1600.0 1750.0 1
1600.0 1729.0 1
1590.0 1677.0 1
1569.0 1614.0 1
1538.0 1562.0 1
1527.0 1520.0 1
1517.0 1500.0 1
1517.0 1500.0 1
1517.0 1520.0 1
1548.0 1593.0 1
1579.0 1687.0 1
1600.0 1750.0 1
1621.0 1823.0 1
1621.0 1833.0 1
1631.0 1823.0 1
1663.0 1802.0 1
1683.0 1770.0 1
1683.0 1708.0 1
1663.0 1666.0 1
1621.0 1635.0 1
1579.0 1614.0 1
1548.0 1614.0 1
1548.0 1614.0 1
1558.0 1614.0 1
1590.0 1583.0 1
1621.0 1552.0 1
1642.0 1520.0 1
1663.0 1489.0 1
1683.0 1468.0 1
1777.0 1614.0 2
1777.0 1604.0 2
1798.0 1604.0 2
1829.0 1625.0 2
1860.0 1645.0 2
1860.0 1656.0 2
1850.0 1656.0 2
1829.0 1656.0 2
1798.0 1666.0 2
1788.0 1656.0 2
1777.0 1625.0 2
1767.0 1593.0 2
1767.0 1552.0 2
1798.0 1520.0 2
1840.0 1520.0 2
1892.0 1531.0 2
1975.0 1625.0 3
1985.0 1614.0 3
2017.0 1573.0 3
2027.0 1552.0 3
2048.0 1520.0 3
2048.0 1531.0 3
2069.0 1573.0 3
2100.0 1614.0 3
2100.0 1635.0 3
2100.0 1635.0 3
2100.0 1645.0 3
2100.0 1645.0 3
2163.0 1604.0 4
2163.0 1604.0 4
2173.0 1593.0 4
2183.0 1573.0 4
2194.0 1541.0 4
2194.0 1500.0 4
2194.0 1489.0 4
2204.0 1489.0 4
2215.0 1489.0 4
2225.0 1520.0 4
2246.0 1573.0 4
2256.0 1614.0 4
2267.0 1656.0 4
2267.0 1656.0 4
2267.0 1666.0 4
2267.0 1656.0 4
2360.0 1645.0 5
2360.0 1635.0 5
2360.0 1625.0 5
2350.0 1593.0 5
2350.0 1562.0 5
2340.0 1541.0 5
2371.0 1823.0 6
2371.0 1823.0 6
2371.0 1823.0 6
2371.0 1812.0 6
2433.0 1656.0 7
2423.0 1656.0 7
2423.0 1656.0 7
2433.0 1635.0 7
2433.0 1604.0 7
2433.0 1573.0 7
2433.0 1552.0 7
2433.0 1552.0 7
2444.0 1583.0 7
2465.0 1614.0 7
2485.0 1635.0 7
2485.0 1635.0 7
2496.0 1625.0 7
2506.0 1593.0 7
2517.0 1562.0 7
2527.0 1541.0 7
2735.0 1625.0 8
2725.0 1635.0 8
2715.0 1645.0 8
2704.0 1656.0 8
2694.0 1666.0 8
2673.0 1656.0 8
2631.0 1635.0 8
2621.0 1614.0 8
2621.0 1583.0 8
2631.0 1573.0 8
2642.0 1573.0 8
2683.0 1583.0 8
2694.0 1614.0 8
2704.0 1614.0 8
2704.0 1614.0 8
2704.0 1593.0 8
2715.0 1552.0 8
2715.0 1500.0 8
2704.0 1448.0 8
2673.0 1364.0 8
2631.0 1312.0 8
2600.0 1281.0 8
2558.0 1281.0 8
2506.0 1291.0 8
2496.0 1312.0 8

