1756.0 2083.0 1
1746.0 2083.0 1
1746.0 2041.0 1
1746.0 2000.0 1
1746.0 1906.0 1
1746.0 1823.0 1
1735.0 1739.0 1
1725.0 1698.0 1
1725.0 1666.0 1
1715.0 1666.0 1
1496.0 2062.0 2
1496.0 2073.0 2
1496.0 2073.0 2
1506.0 2083.0 2
1558.0 2093.0 2
1631.0 2125.0 2
1756.0 2156.0 2
1829.0 2166.0 2
1881.0 2166.0 2
1923.0 2166.0 2
1954.0 2166.0 2
1954.0 2166.0 2
1954.0 2166.0 2
1965.0 1875.0 3
1954.0 1885.0 3
1954.0 1854.0 3
1944.0 1781.0 3
1944.0 1739.0 3
1933.0 1718.0 3
1933.0 1708.0 3
1933.0 1718.0 3
1933.0 1760.0 3
1944.0 1812.0 3
1954.0 1885.0 3
1975.0 1937.0 3
1996.0 1979.0 3
2006.0 2010.0 3
2038.0 2020.0 3
2038.0 2010.0 3
2058.0 1989.0 3
2069.0 1948.0 3
2069.0 1875.0 3
2069.0 1823.0 3
2069.0 1791.0 3
2079.0 1760.0 3
2079.0 1750.0 3
2079.0 1750.0 3
2079.0 1750.0 3
2079.0 1750.0 3
2069.0 1760.0 3
1923.0 1864.0 4
1944.0 1854.0 4
1965.0 1854.0 4
1985.0 1843.0 4
2017.0 1843.0 4
2194.0 1958.0 5
2194.0 1958.0 5
2194.0 1958.0 5
2225.0 1927.0 5
2256.0 1895.0 5
2288.0 1864.0 5
2308.0 1823.0 5
2350.0 1791.0 5
2371.0 1770.0 5
2371.0 1760.0 5
2381.0 1760.0 5
2371.0 1760.0 5
2371.0 1760.0 5
2215.0 1750.0 6
2204.0 1750.0 6
2204.0 1770.0 6
2235.0 1833.0 6
2277.0 1895.0 6
2308.0 1937.0 6
2350.0 1989.0 6
2360.0 2020.0 6
2371.0 2041.0 6
2371.0 2041.0 6
2371.0 2041.0 6
2381.0 2031.0 6
2569.0 2010.0 7
2569.0 2010.0 7
2579.0 2000.0 7
2579.0 1948.0 7
2569.0 1875.0 7
2558.0 1802.0 7
2548.0 1739.0 7
2548.0 1708.0 7
2558.0 1687.0 7
2558.0 1677.0 7
2558.0 1687.0 7
2558.0 1708.0 7

