304.0 2764.0 1
294.0 2764.0 1
294.0 2775.0 1
294.0 2775.0 1
294.0 2775.0 1
294.0 2775.0 1
294.0 2764.0 1
294.0 2733.0 1
294.0 2702.0 1
294.0 2608.0 1
294.0 2608.0 1
304.0 2764.0 2
304.0 2775.0 2
304.0 2775.0 2
304.0 2775.0 2
315.0 2775.0 2
315.0 2754.0 2
325.0 2723.0 2
335.0 2702.0 2
346.0 2691.0 2
356.0 2681.0 2
377.0 2702.0 2
398.0 2723.0 2
408.0 2754.0 2
408.0 2785.0 2
408.0 2785.0 2
408.0 2785.0 2
419.0 2785.0 2
419.0 2775.0 2
419.0 2764.0 2
419.0 2754.0 2
419.0 2723.0 2
419.0 2702.0 2
419.0 2629.0 2
419.0 2598.0 2
419.0 2587.0 2
419.0 2587.0 2
429.0 2598.0 2

