356.0 2785.0 1
367.0 2785.0 1
367.0 2775.0 1
367.0 2764.0 1
377.0 2733.0 1
377.0 2733.0 1
388.0 2733.0 1
388.0 2764.0 1
367.0 2785.0 1
356.0 2785.0 1
346.0 2785.0 1
346.0 2785.0 1
335.0 2775.0 1
325.0 2764.0 1
304.0 2723.0 1
304.0 2670.0 1
325.0 2629.0 1
367.0 2608.0 1
408.0 2608.0 1
450.0 2639.0 1

