548.0 1458.0 1
538.0 1437.0 1
538.0 1416.0 1
538.0 1416.0 1
548.0 1416.0 1
558.0 1458.0 1
579.0 1510.0 1
610.0 1614.0 1
631.0 1687.0 1
652.0 1760.0 1
673.0 1823.0 1
694.0 1854.0 1
704.0 1854.0 1
715.0 1833.0 1
735.0 1802.0 1
756.0 1729.0 1
767.0 1677.0 1
777.0 1614.0 1
788.0 1573.0 1
788.0 1531.0 1
788.0 1510.0 1
798.0 1489.0 1
798.0 1479.0 1
652.0 1604.0 2
642.0 1604.0 2
652.0 1604.0 2
663.0 1614.0 2
694.0 1604.0 2
715.0 1604.0 2
756.0 1604.0 2
777.0 1604.0 2
965.0 1635.0 3
933.0 1635.0 3
923.0 1635.0 3
902.0 1614.0 3
881.0 1583.0 3
881.0 1552.0 3
881.0 1531.0 3
881.0 1510.0 3
902.0 1489.0 3
923.0 1489.0 3
1142.0 1666.0 4
1110.0 1656.0 4
1090.0 1645.0 4
1058.0 1625.0 4
1038.0 1593.0 4
1027.0 1541.0 4
1027.0 1520.0 4
1027.0 1489.0 4
1048.0 1489.0 4
1090.0 1489.0 4
1256.0 1635.0 5
1256.0 1635.0 5
1256.0 1635.0 5
1246.0 1625.0 5
1215.0 1593.0 5
1204.0 1552.0 5
1204.0 1520.0 5
1204.0 1500.0 5
1225.0 1510.0 5
1246.0 1510.0 5
1277.0 1531.0 5
1288.0 1541.0 5
1298.0 1573.0 5
1288.0 1593.0 5
1277.0 1614.0 5
1267.0 1625.0 5
1360.0 1656.0 6
1360.0 1656.0 6
1350.0 1625.0 6
1350.0 1562.0 6
1360.0 1541.0 6
1381.0 1541.0 6
1402.0 1541.0 6
1423.0 1562.0 6
1444.0 1573.0 6
1444.0 1604.0 6
1444.0 1625.0 6
1433.0 1635.0 6
1433.0 1645.0 6
1475.0 1510.0 7
1475.0 1520.0 7
1475.0 1541.0 7
1485.0 1562.0 7
1496.0 1604.0 7
1517.0 1625.0 7
1538.0 1635.0 7
1548.0 1625.0 7
1548.0 1604.0 7
1548.0 1573.0 7
1548.0 1541.0 7
1683.0 1864.0 8
1683.0 1875.0 8
1683.0 1864.0 8
1683.0 1823.0 8
1673.0 1770.0 8
1673.0 1718.0 8
1663.0 1656.0 8
1652.0 1593.0 8
1652.0 1562.0 8
1652.0 1541.0 8
1652.0 1541.0 8
1652.0 1541.0 8
1558.0 1729.0 9
1558.0 1729.0 9
1579.0 1739.0 9
1621.0 1739.0 9
1652.0 1739.0 9
1673.0 1729.0 9
1683.0 1729.0 9
1840.0 1666.0 10
1840.0 1677.0 10
1819.0 1677.0 10
1808.0 1677.0 10
1798.0 1666.0 10
1767.0 1635.0 10
1756.0 1604.0 10
1756.0 1573.0 10
1756.0 1562.0 10
1777.0 1562.0 10
1798.0 1573.0 10
1829.0 1593.0 10
1850.0 1614.0 10
1871.0 1635.0 10
1871.0 1625.0 10
1860.0 1604.0 10
1850.0 1573.0 10
1850.0 1562.0 10
1850.0 1552.0 10
1871.0 1552.0 10
1965.0 1916.0 11
1965.0 1916.0 11
1965.0 1843.0 11
1954.0 1781.0 11
1944.0 1687.0 11
1944.0 1593.0 11
1944.0 1604.0 11
1954.0 1604.0 11
1965.0 1635.0 11
1985.0 1666.0 11
2006.0 1677.0 11
2017.0 1677.0 11
2027.0 1677.0 11
2027.0 1645.0 11
2027.0 1635.0 11
2027.0 1614.0 11
2017.0 1593.0 11
1985.0 1583.0 11
1975.0 1573.0 11
1954.0 1573.0 11
1944.0 1583.0 11
1933.0 1593.0 11
1944.0 1593.0 11
2079.0 1687.0 12
2079.0 1687.0 12
2079.0 1677.0 12
2079.0 1666.0 12
2079.0 1645.0 12
2079.0 1625.0 12
2079.0 1614.0 12
2069.0 1604.0 12
2069.0 1604.0 12
2069.0 1604.0 12
2079.0 1760.0 13
2069.0 1770.0 13
2069.0 1770.0 13
2079.0 1770.0 13
2235.0 1979.0 14
2235.0 1979.0 14
2225.0 1948.0 14
2225.0 1885.0 14
2204.0 1823.0 14
2183.0 1729.0 14
2173.0 1677.0 14
2173.0 1645.0 14
2173.0 1625.0 14
2163.0 1604.0 14
2163.0 1604.0 14
2163.0 1604.0 14
2215.0 1698.0 15
2215.0 1677.0 15
2204.0 1666.0 15
2204.0 1635.0 15
2204.0 1625.0 15
2225.0 1770.0 16
2215.0 1781.0 16
2215.0 1781.0 16
2225.0 1781.0 16
2340.0 1937.0 17
2340.0 1937.0 17
2340.0 1937.0 17
2329.0 1885.0 17
2319.0 1843.0 17
2319.0 1791.0 17
2308.0 1739.0 17
2308.0 1687.0 17
2298.0 1656.0 17
2288.0 1635.0 17
2288.0 1625.0 17
2277.0 1614.0 17
2267.0 1760.0 18
2267.0 1760.0 18
2267.0 1760.0 18
2288.0 1760.0 18
2319.0 1760.0 18
2433.0 1770.0 19
2423.0 1770.0 19
2402.0 1750.0 19
2392.0 1729.0 19
2392.0 1698.0 19
2402.0 1698.0 19
2413.0 1687.0 19
2433.0 1698.0 19
2465.0 1718.0 19
2485.0 1739.0 19
2506.0 1770.0 19
2517.0 1781.0 19
2517.0 1781.0 19
2506.0 1760.0 19
2496.0 1708.0 19
2485.0 1625.0 19
2475.0 1552.0 19
2454.0 1489.0 19
2444.0 1448.0 19
2444.0 1395.0 19
2444.0 1395.0 19

