725.0 1916.0 1
725.0 1927.0 1
725.0 1854.0 1
735.0 1729.0 1
746.0 1625.0 1
767.0 1562.0 1
808.0 1531.0 1
850.0 1510.0 1
881.0 1510.0 1
913.0 1531.0 1
944.0 1562.0 1
965.0 1625.0 1
975.0 1677.0 1
975.0 1739.0 1
965.0 1812.0 1
933.0 1885.0 1
923.0 1906.0 1
1027.0 1687.0 2
1027.0 1541.0 2
1027.0 1573.0 2
1038.0 1614.0 2
1048.0 1666.0 2
1058.0 1708.0 2
1090.0 1750.0 2
1110.0 1750.0 2
1121.0 1729.0 2
1131.0 1698.0 2
1131.0 1645.0 2
1131.0 1625.0 2
1131.0 1593.0 2
1277.0 1739.0 3
1267.0 1739.0 3
1256.0 1739.0 3
1225.0 1729.0 3
1204.0 1708.0 3
1194.0 1677.0 3
1194.0 1645.0 3
1183.0 1604.0 3
1204.0 1583.0 3
1225.0 1583.0 3
1246.0 1583.0 3
1350.0 1729.0 4
1340.0 1739.0 4
1319.0 1729.0 4
1308.0 1698.0 4
1288.0 1666.0 4
1288.0 1635.0 4
1298.0 1604.0 4
1319.0 1604.0 4
1340.0 1604.0 4
1371.0 1614.0 4
1381.0 1635.0 4
1381.0 1656.0 4
1381.0 1677.0 4
1371.0 1698.0 4
1360.0 1708.0 4
1475.0 1593.0 5
1465.0 1593.0 5
1454.0 1604.0 5
1444.0 1614.0 5
1444.0 1645.0 5
1454.0 1687.0 5
1475.0 1708.0 5
1496.0 1718.0 5
1517.0 1718.0 5
1527.0 1698.0 5
1527.0 1645.0 5
1517.0 1635.0 5
1517.0 1635.0 5
1517.0 1645.0 5
1538.0 1687.0 5
1548.0 1708.0 5
1569.0 1729.0 5
1579.0 1729.0 5
1590.0 1708.0 5
1590.0 1687.0 5
1600.0 1666.0 5
1600.0 1645.0 5
1610.0 1635.0 5
1746.0 1916.0 6
1715.0 1916.0 6
1704.0 1906.0 6
1683.0 1864.0 6
1673.0 1812.0 6
1673.0 1729.0 6
1673.0 1677.0 6
1683.0 1625.0 6
1683.0 1593.0 6
1683.0 1573.0 6
1600.0 1739.0 7
1610.0 1750.0 7
1621.0 1750.0 7
1652.0 1750.0 7
1673.0 1750.0 7
1694.0 1750.0 7
1715.0 1729.0 7
1715.0 1708.0 7
1715.0 1656.0 7
1715.0 1645.0 7
1725.0 1635.0 7
1746.0 1635.0 7
1756.0 1645.0 7
1777.0 1656.0 7
1777.0 1677.0 7
1788.0 1698.0 7
1767.0 1708.0 7
1756.0 1718.0 7
1735.0 1718.0 7
1808.0 1635.0 8
1808.0 1645.0 8
1808.0 1677.0 8
1808.0 1708.0 8
1819.0 1729.0 8
1829.0 1739.0 8
1840.0 1750.0 8
1850.0 1750.0 8
1965.0 1958.0 9
1965.0 1958.0 9
1965.0 1895.0 9
1965.0 1833.0 9
1975.0 1760.0 9
1985.0 1687.0 9
1985.0 1656.0 9
1985.0 1635.0 9
1933.0 1781.0 10
1933.0 1802.0 10
1944.0 1802.0 10
1975.0 1791.0 10
1996.0 1791.0 10
2038.0 1791.0 10
2079.0 1791.0 10
2142.0 1802.0 11
2121.0 1791.0 11
2079.0 1770.0 11
2058.0 1729.0 11
2048.0 1718.0 11
2048.0 1698.0 11
2058.0 1698.0 11
2090.0 1698.0 11
2110.0 1718.0 11
2131.0 1729.0 11
2152.0 1739.0 11
2152.0 1739.0 11
2152.0 1729.0 11
2152.0 1708.0 11
2142.0 1687.0 11
2142.0 1687.0 11
2152.0 1687.0 11
2225.0 2020.0 12
2225.0 2031.0 12
2225.0 2020.0 12
2225.0 1968.0 12
2225.0 1895.0 12
2225.0 1823.0 12
2225.0 1750.0 12
2225.0 1718.0 12
2225.0 1698.0 12
2225.0 1708.0 12
2235.0 1718.0 12
2256.0 1750.0 12
2277.0 1770.0 12
2288.0 1770.0 12
2298.0 1770.0 12
2308.0 1750.0 12
2308.0 1729.0 12
2298.0 1698.0 12
2288.0 1677.0 12
2267.0 1666.0 12
2246.0 1666.0 12
2235.0 1666.0 12
2225.0 1677.0 12
2215.0 1687.0 12
2350.0 2041.0 13
2350.0 1843.0 13
2350.0 1781.0 13
2340.0 1739.0 13
2340.0 1718.0 13
2329.0 1708.0 13
2329.0 1708.0 13
2371.0 1843.0 14
2371.0 1823.0 14
2371.0 1802.0 14
2371.0 1770.0 14
2381.0 1750.0 14
2402.0 1750.0 14
2413.0 1750.0 14
2423.0 1760.0 14
2454.0 1791.0 14
2475.0 1812.0 14
2485.0 1833.0 14
2485.0 1843.0 14
2496.0 1843.0 14
2496.0 1823.0 14
2496.0 1770.0 14
2485.0 1708.0 14
2475.0 1645.0 14
2454.0 1552.0 14
2454.0 1489.0 14
2444.0 1458.0 14
2444.0 1427.0 14
2444.0 1406.0 14

