1121.0 2635.0 1
1121.0 2635.0 1
1131.0 2625.0 1
1142.0 2593.0 1
1142.0 2562.0 1
1152.0 2510.0 1
1152.0 2458.0 1
1163.0 2427.0 1
1163.0 2406.0 1
1163.0 2395.0 1
1163.0 2427.0 1
1069.0 2635.0 2
1069.0 2635.0 2
1079.0 2635.0 2
1110.0 2645.0 2
1152.0 2656.0 2
1204.0 2666.0 2
1235.0 2666.0 2
1256.0 2666.0 2
1277.0 2666.0 2
1277.0 2666.0 2
1277.0 2666.0 2
1131.0 2520.0 3
1131.0 2510.0 3
1152.0 2510.0 3
1183.0 2520.0 3
1215.0 2531.0 3
1225.0 2531.0 3
1246.0 2531.0 3
1256.0 2541.0 3
1256.0 2531.0 3
1350.0 2583.0 4
1340.0 2583.0 4
1340.0 2573.0 4
1350.0 2531.0 4
1350.0 2500.0 4
1360.0 2479.0 4
1381.0 2458.0 4
1402.0 2458.0 4
1423.0 2458.0 4
1433.0 2458.0 4
1444.0 2479.0 4
1444.0 2531.0 4
1433.0 2552.0 4
1433.0 2583.0 4
1423.0 2593.0 4
1423.0 2604.0 4
1413.0 2614.0 4
1475.0 2593.0 5
1475.0 2593.0 5
1475.0 2593.0 5
1506.0 2583.0 5
1538.0 2583.0 5
1569.0 2583.0 5
1600.0 2583.0 5
1610.0 2583.0 5
1610.0 2573.0 5
1610.0 2573.0 5
1610.0 2573.0 5
1610.0 2562.0 5
1610.0 2552.0 5
1600.0 2531.0 5
1590.0 2520.0 5
1569.0 2489.0 5
1558.0 2479.0 5
1558.0 2458.0 5
1558.0 2437.0 5
1569.0 2437.0 5
1579.0 2437.0 5
1600.0 2427.0 5
1621.0 2427.0 5
1663.0 2427.0 5
1663.0 2427.0 5
1673.0 2427.0 5
1673.0 2437.0 5
1673.0 2437.0 5
1683.0 2593.0 6
1683.0 2593.0 6
1694.0 2593.0 6
1704.0 2604.0 6
1725.0 2604.0 6
1767.0 2625.0 6
1788.0 2625.0 6
1819.0 2625.0 6
1819.0 2625.0 6
1819.0 2625.0 6
1819.0 2625.0 6
1819.0 2614.0 6
1819.0 2593.0 6
1808.0 2573.0 6
1788.0 2552.0 6
1777.0 2510.0 6
1767.0 2489.0 6
1756.0 2479.0 6
1756.0 2458.0 6
1767.0 2458.0 6
1777.0 2458.0 6
1808.0 2458.0 6
1850.0 2468.0 6
1892.0 2468.0 6
1913.0 2468.0 6
1923.0 2468.0 6
1923.0 2458.0 6

