1392.0 2510.0 1
1392.0 2531.0 1
1392.0 2520.0 1
1392.0 2489.0 1
1392.0 2437.0 1
1392.0 2354.0 1
1392.0 2270.0 1
1381.0 2156.0 1
1371.0 2093.0 1
1371.0 2073.0 1
1381.0 2073.0 1
1381.0 2125.0 1
1277.0 2531.0 2
1298.0 2531.0 2
1350.0 2541.0 2
1413.0 2573.0 2
1527.0 2625.0 2
1590.0 2666.0 2
1652.0 2687.0 2
1694.0 2718.0 2
1725.0 2718.0 2
1329.0 2312.0 3
1329.0 2312.0 3
1350.0 2312.0 3
1423.0 2333.0 3
1496.0 2385.0 3
1569.0 2448.0 3
1621.0 2500.0 3
1642.0 2510.0 3
1756.0 2458.0 4
1746.0 2468.0 4
1746.0 2468.0 4
1735.0 2458.0 4
1715.0 2427.0 4
1694.0 2375.0 4
1673.0 2312.0 4
1673.0 2250.0 4
1694.0 2218.0 4
1704.0 2208.0 4
1715.0 2218.0 4
1746.0 2281.0 4
1746.0 2343.0 4
1746.0 2406.0 4
1735.0 2427.0 4
1735.0 2406.0 4
1746.0 2375.0 4
1756.0 2323.0 4
1777.0 2270.0 4
1798.0 2229.0 4
1808.0 2208.0 4
1829.0 2208.0 4
1850.0 2208.0 4
1860.0 2239.0 4
1892.0 2635.0 5
1892.0 2635.0 5
1892.0 2614.0 5
1902.0 2541.0 5
1923.0 2468.0 5
1923.0 2395.0 5
1923.0 2312.0 5
1923.0 2281.0 5
1923.0 2281.0 5
1923.0 2291.0 5
2027.0 2593.0 6
2027.0 2562.0 6
2027.0 2531.0 6
2017.0 2479.0 6
1985.0 2448.0 6
1965.0 2427.0 6
1923.0 2406.0 6
1902.0 2395.0 6
1902.0 2395.0 6
1933.0 2385.0 6
1965.0 2375.0 6
1985.0 2364.0 6
2048.0 2343.0 6
2090.0 2343.0 6
2131.0 2343.0 6
2079.0 2458.0 7
2090.0 2448.0 7
2121.0 2427.0 7
2163.0 2427.0 7
2246.0 2448.0 7
2298.0 2489.0 7
2340.0 2531.0 7
2350.0 2573.0 7
2340.0 2604.0 7
2319.0 2604.0 7
2267.0 2573.0 7
2204.0 2479.0 7
2183.0 2406.0 7
2173.0 2343.0 7
2194.0 2302.0 7
2256.0 2291.0 7
2329.0 2343.0 7
2402.0 2385.0 7
2485.0 2427.0 7

