1194.0 1958.0 1
1194.0 1927.0 1
1215.0 1843.0 1
1225.0 1739.0 1
1246.0 1583.0 1
1256.0 1489.0 1
1256.0 1395.0 1
1246.0 1395.0 1
1225.0 1437.0 1
1204.0 1500.0 1
1017.0 1833.0 2
1017.0 1843.0 2
1048.0 1864.0 2
1110.0 1906.0 2
1215.0 1979.0 2
1371.0 2083.0 2
1496.0 2177.0 2
1621.0 2250.0 2
1725.0 2302.0 2
1788.0 2312.0 2
1788.0 2291.0 2
1767.0 2260.0 2
1246.0 1656.0 3
1267.0 1656.0 3
1298.0 1656.0 3
1350.0 1656.0 3
1423.0 1708.0 3
1485.0 1781.0 3
1558.0 1843.0 3
1600.0 1875.0 3
1642.0 1895.0 3
1663.0 1895.0 3
1683.0 1885.0 3
1860.0 1791.0 4
1860.0 1781.0 4
1860.0 1770.0 4
1871.0 1739.0 4
1871.0 1656.0 4
1881.0 1604.0 4
1892.0 1573.0 4
1933.0 1562.0 4
1954.0 1573.0 4
1975.0 1635.0 4
2017.0 1729.0 4
2027.0 1812.0 4
2027.0 1875.0 4
2027.0 1895.0 4
2027.0 1895.0 4
2027.0 1885.0 4
2048.0 1864.0 4
2131.0 1833.0 5
2121.0 1854.0 5
2121.0 1854.0 5
2131.0 1854.0 5
2152.0 1854.0 5
2173.0 1854.0 5
2215.0 1864.0 5
2256.0 1864.0 5
2288.0 1854.0 5
2319.0 1833.0 5
2319.0 1791.0 5
2288.0 1729.0 5
2246.0 1666.0 5
2215.0 1593.0 5
2215.0 1573.0 5
2246.0 1573.0 5
2319.0 1593.0 5
2433.0 1635.0 5
2517.0 1666.0 5
2569.0 1677.0 5
2600.0 1708.0 5
2569.0 1854.0 6
2579.0 1854.0 6
2610.0 1864.0 6
2694.0 1885.0 6
2767.0 1906.0 6
2808.0 1906.0 6
2829.0 1895.0 6
2829.0 1864.0 6
2819.0 1812.0 6
2808.0 1760.0 6
2788.0 1708.0 6
2788.0 1677.0 6
2808.0 1677.0 6
2881.0 1698.0 6
2985.0 1750.0 6
3131.0 1781.0 6

