263.0 2816.0 1
263.0 2827.0 1
263.0 2837.0 1
263.0 2827.0 1
263.0 2827.0 1
263.0 2806.0 1
273.0 2795.0 1
283.0 2775.0 1
283.0 2754.0 1
283.0 2733.0 1
283.0 2712.0 1
294.0 2691.0 1
315.0 2660.0 1
325.0 2660.0 1
325.0 2650.0 1
325.0 2650.0 1
325.0 2650.0 1
325.0 2650.0 1
388.0 2858.0 2
388.0 2868.0 2
388.0 2858.0 2
388.0 2848.0 2
377.0 2827.0 2
367.0 2775.0 2
335.0 2702.0 2
294.0 2618.0 2
252.0 2556.0 2
242.0 2514.0 2
242.0 2504.0 2
242.0 2504.0 2
242.0 2514.0 2
242.0 2514.0 2
242.0 2514.0 2

