1381.0 1760.0 1
1371.0 1718.0 1
1371.0 1656.0 1
1360.0 1573.0 1
1340.0 1500.0 1
1319.0 1437.0 1
1288.0 1354.0 1
1256.0 1302.0 1
1235.0 1270.0 1
1225.0 1260.0 1
1027.0 1541.0 2
1017.0 1541.0 2
1017.0 1541.0 2
1027.0 1562.0 2
1100.0 1604.0 2
1183.0 1666.0 2
1277.0 1729.0 2
1381.0 1791.0 2
1538.0 1875.0 2
1610.0 1927.0 2
1683.0 1968.0 2
1725.0 1989.0 2
1746.0 2000.0 2
1454.0 1500.0 3
1454.0 1500.0 3
1454.0 1468.0 3
1454.0 1427.0 3
1454.0 1385.0 3
1454.0 1354.0 3
1454.0 1395.0 3
1475.0 1458.0 3
1506.0 1500.0 3
1538.0 1541.0 3
1558.0 1562.0 3
1579.0 1573.0 3
1579.0 1573.0 3
1683.0 1583.0 4
1673.0 1583.0 4
1652.0 1562.0 4
1621.0 1510.0 4
1590.0 1448.0 4
1590.0 1416.0 4
1590.0 1416.0 4
1610.0 1427.0 4
1642.0 1468.0 4
1663.0 1500.0 4
1673.0 1531.0 4
1673.0 1531.0 4
1673.0 1520.0 4
1663.0 1500.0 4
1663.0 1468.0 4
1663.0 1458.0 4
1683.0 1458.0 4
1704.0 1489.0 4
1725.0 1531.0 4
1767.0 1593.0 4
1777.0 1614.0 4
1777.0 1604.0 4
1767.0 1541.0 4
1767.0 1500.0 4
1756.0 1468.0 4
1756.0 1458.0 4
1767.0 1468.0 4
1777.0 1500.0 4
1788.0 1531.0 4
1808.0 1573.0 4
1808.0 1583.0 4
1808.0 1583.0 4
1808.0 1562.0 4
1808.0 1531.0 4
1808.0 1489.0 4
1808.0 1468.0 4
1808.0 1448.0 4
1819.0 1448.0 4
1965.0 1656.0 5
1965.0 1666.0 5
1965.0 1656.0 5
1944.0 1625.0 5
1923.0 1583.0 5
1892.0 1552.0 5
1881.0 1531.0 5
1871.0 1520.0 5
1881.0 1520.0 5
1881.0 1520.0 5
1892.0 1531.0 5
1902.0 1520.0 5
1902.0 1520.0 5
1913.0 1510.0 5
1913.0 1489.0 5
1913.0 1468.0 5
1902.0 1458.0 5
1881.0 1437.0 5
1860.0 1427.0 5
1840.0 1427.0 5
1819.0 1427.0 5
1819.0 1427.0 5
1829.0 1427.0 5
2256.0 1750.0 6
2235.0 1791.0 6
2215.0 1823.0 6
2183.0 1833.0 6
2163.0 1833.0 6
2131.0 1791.0 6
2110.0 1729.0 6
2090.0 1604.0 6
2069.0 1510.0 6
2069.0 1437.0 6
2058.0 1385.0 6
2058.0 1375.0 6
2058.0 1375.0 6
2048.0 1395.0 6
2048.0 1437.0 6
1996.0 1531.0 7
1996.0 1531.0 7
2006.0 1531.0 7
2027.0 1520.0 7
2069.0 1541.0 7
2131.0 1583.0 7
2173.0 1614.0 7
2194.0 1625.0 7
2204.0 1625.0 7
2194.0 1604.0 7
2183.0 1562.0 7
2163.0 1510.0 7
2152.0 1468.0 7
2163.0 1437.0 7
2183.0 1437.0 7
2194.0 1448.0 7
2215.0 1479.0 7
2225.0 1520.0 7
2225.0 1552.0 7
2204.0 1573.0 7
2194.0 1593.0 7
2183.0 1593.0 7
2183.0 1593.0 7
2298.0 1583.0 8
2298.0 1541.0 8
2298.0 1510.0 8
2298.0 1479.0 8
2298.0 1479.0 8
2298.0 1500.0 8
2308.0 1531.0 8
2319.0 1573.0 8
2329.0 1604.0 8
2340.0 1625.0 8
2350.0 1635.0 8
2360.0 1645.0 8
2465.0 1656.0 9
2465.0 1635.0 9
2454.0 1593.0 9
2454.0 1552.0 9
2444.0 1510.0 9
2454.0 1500.0 9
2454.0 1500.0 9
2475.0 1531.0 9
2485.0 1573.0 9
2517.0 1614.0 9
2538.0 1666.0 9
2548.0 1666.0 9
2548.0 1666.0 9
2548.0 1645.0 9
2548.0 1583.0 9
2548.0 1552.0 9
2548.0 1531.0 9
2548.0 1531.0 9
2558.0 1541.0 9
2579.0 1583.0 9
2590.0 1625.0 9
2610.0 1656.0 9
2610.0 1666.0 9
2621.0 1656.0 9
2631.0 1625.0 9
2642.0 1573.0 9
2663.0 1552.0 9
2683.0 1541.0 9
2704.0 1520.0 9
2715.0 1520.0 9
2725.0 1520.0 9

