944.0 1020.0 1
944.0 1031.0 1
944.0 1020.0 1
933.0 1000.0 1
923.0 968.0 1
902.0 906.0 1
860.0 812.0 1
829.0 739.0 1
808.0 687.0 1
798.0 656.0 1
798.0 656.0 1
798.0 666.0 1
819.0 698.0 1
892.0 1000.0 2
892.0 1000.0 2
892.0 1000.0 2
902.0 989.0 2
913.0 958.0 2
933.0 927.0 2
954.0 864.0 2
996.0 791.0 2
1017.0 739.0 2
1038.0 708.0 2
1038.0 698.0 2
1038.0 687.0 2
1038.0 687.0 2
1027.0 698.0 2
829.0 760.0 3
829.0 760.0 3
840.0 760.0 3
871.0 760.0 3
923.0 760.0 3
985.0 770.0 3
1017.0 781.0 3
1038.0 791.0 3
1131.0 802.0 4
1131.0 791.0 4
1142.0 760.0 4
1152.0 718.0 4
1163.0 698.0 4
1173.0 698.0 4
1173.0 708.0 4
1173.0 739.0 4
1194.0 770.0 4
1215.0 781.0 4
1225.0 770.0 4
1246.0 750.0 4
1256.0 729.0 4
1256.0 698.0 4
1256.0 666.0 4
1267.0 666.0 4
1277.0 666.0 4
1319.0 791.0 5
1319.0 781.0 5
1319.0 750.0 5
1329.0 729.0 5
1340.0 698.0 5
1340.0 698.0 5
1340.0 698.0 5
1340.0 718.0 5
1350.0 750.0 5
1371.0 770.0 5
1402.0 781.0 5
1413.0 770.0 5
1423.0 750.0 5
1433.0 729.0 5
1433.0 708.0 5
1444.0 687.0 5
1454.0 687.0 5
1548.0 781.0 6
1538.0 781.0 6
1517.0 760.0 6
1517.0 739.0 6
1517.0 718.0 6
1527.0 708.0 6
1558.0 698.0 6
1569.0 698.0 6
1579.0 718.0 6
1590.0 729.0 6
1579.0 770.0 6
1569.0 791.0 6
1548.0 802.0 6
1538.0 802.0 6
1517.0 791.0 6
1517.0 791.0 6
1642.0 791.0 7
1642.0 781.0 7
1642.0 760.0 7
1652.0 739.0 7
1673.0 718.0 7
1704.0 718.0 7
1725.0 718.0 7
1756.0 739.0 7
1767.0 770.0 7
1767.0 812.0 7
1756.0 823.0 7
1756.0 833.0 7
1756.0 833.0 7
1840.0 823.0 8
1840.0 802.0 8
1850.0 770.0 8
1850.0 750.0 8
1860.0 739.0 8
1860.0 739.0 8
1860.0 739.0 8
1871.0 760.0 8
1881.0 791.0 8
1913.0 812.0 8
1933.0 812.0 8
1944.0 791.0 8
1954.0 770.0 8
1965.0 750.0 8
1965.0 708.0 8
2090.0 802.0 9
2079.0 812.0 9
2079.0 823.0 9
2058.0 823.0 9
2038.0 812.0 9
2017.0 802.0 9
1996.0 770.0 9
1996.0 750.0 9
2006.0 739.0 9
2027.0 729.0 9
2058.0 718.0 9
2100.0 718.0 9
2121.0 729.0 9
2194.0 833.0 10
2194.0 750.0 10
2204.0 739.0 10
2204.0 739.0 10
2204.0 750.0 10
2163.0 885.0 11
2142.0 895.0 11
2142.0 895.0 11
2142.0 895.0 11
2142.0 885.0 11
2277.0 802.0 12
2277.0 781.0 12
2298.0 750.0 12
2298.0 739.0 12
2298.0 750.0 12
2329.0 791.0 12
2350.0 812.0 12
2371.0 823.0 12
2381.0 823.0 12
2392.0 791.0 12
2402.0 760.0 12
2402.0 739.0 12
2413.0 729.0 12
2433.0 729.0 12
2465.0 729.0 12
2496.0 729.0 12
2517.0 750.0 12
2538.0 770.0 12
2538.0 823.0 12
2517.0 833.0 12
2485.0 823.0 12
2454.0 802.0 12
2433.0 770.0 12
2433.0 739.0 12
2444.0 729.0 12
2475.0 729.0 12
2506.0 750.0 12
2538.0 781.0 12
2538.0 802.0 12
2548.0 823.0 12
2538.0 823.0 12
2538.0 812.0 12
2538.0 781.0 12
2558.0 739.0 12
2579.0 698.0 12
2590.0 635.0 12
2590.0 593.0 12
2579.0 562.0 12
2548.0 531.0 12
2496.0 500.0 12
2465.0 489.0 12
2433.0 479.0 12
2433.0 479.0 12
2433.0 489.0 12

