1902.0 1916.0 1
1902.0 1927.0 1
1913.0 1937.0 1
1902.0 1927.0 1
1902.0 1906.0 1
1902.0 1885.0 1
1892.0 1864.0 1
1881.0 1854.0 1
1871.0 1833.0 1
1860.0 1833.0 1
1860.0 1833.0 1
1860.0 1833.0 1
1860.0 1843.0 1
1871.0 1843.0 1
1933.0 1843.0 1
1954.0 1843.0 1
1965.0 1833.0 1
1965.0 1823.0 1
1975.0 1823.0 1
1975.0 1833.0 1
1975.0 1833.0 1
1975.0 1968.0 2
1975.0 1906.0 2
1975.0 1875.0 2
1965.0 1833.0 2
1954.0 1802.0 2
1944.0 1760.0 2
1944.0 1729.0 2
1933.0 1708.0 2
1933.0 1708.0 2
1933.0 1708.0 2
1933.0 1718.0 2
1944.0 1729.0 2
2079.0 1916.0 3
2079.0 1916.0 3
2079.0 1916.0 3
2090.0 1916.0 3
2100.0 1916.0 3
2163.0 1916.0 3
2183.0 1916.0 3
2204.0 1927.0 3
2225.0 1927.0 3
2235.0 1927.0 3
2246.0 1916.0 3
2246.0 1916.0 3
2235.0 1906.0 3
2235.0 1885.0 3
2215.0 1864.0 3
2204.0 1833.0 3
2194.0 1812.0 3
2183.0 1781.0 3
2173.0 1760.0 3
2163.0 1739.0 3
2163.0 1718.0 3
2163.0 1718.0 3
2163.0 1729.0 3
2173.0 1739.0 3
2360.0 1906.0 4
2360.0 1895.0 4
2350.0 1875.0 4
2350.0 1843.0 4
2329.0 1802.0 4
2329.0 1781.0 4
2308.0 1750.0 4
2298.0 1739.0 4
2298.0 1718.0 4
2288.0 1708.0 4
2288.0 1708.0 4
2288.0 1708.0 4
2590.0 1864.0 5
2590.0 1875.0 5
2590.0 1885.0 5
2590.0 1895.0 5
2590.0 1916.0 5
2590.0 1916.0 5
2579.0 1937.0 5
2579.0 1937.0 5
2558.0 1927.0 5
2538.0 1906.0 5
2506.0 1885.0 5
2496.0 1875.0 5
2485.0 1843.0 5
2496.0 1833.0 5
2506.0 1812.0 5
2517.0 1812.0 5
2548.0 1812.0 5
2558.0 1823.0 5
2569.0 1823.0 5
2579.0 1843.0 5
2590.0 1854.0 5
2590.0 1854.0 5
2590.0 1854.0 5
2579.0 1843.0 5
2569.0 1823.0 5
2569.0 1802.0 5
2548.0 1781.0 5
2548.0 1760.0 5
2527.0 1739.0 5
2527.0 1729.0 5
2527.0 1729.0 5
2527.0 1729.0 5
2527.0 1718.0 5
2527.0 1718.0 5
2735.0 1906.0 6
2735.0 1906.0 6
2735.0 1906.0 6
2725.0 1895.0 6
2715.0 1885.0 6
2704.0 1875.0 6
2694.0 1854.0 6
2683.0 1833.0 6
2663.0 1812.0 6
2663.0 1781.0 6
2663.0 1770.0 6
2663.0 1750.0 6
2673.0 1739.0 6
2694.0 1739.0 6
2735.0 1739.0 6
2756.0 1739.0 6
2788.0 1760.0 6
2808.0 1781.0 6
2819.0 1802.0 6
2829.0 1823.0 6
2819.0 1843.0 6
2808.0 1885.0 6
2788.0 1895.0 6
2777.0 1906.0 6
2746.0 1906.0 6
2735.0 1895.0 6
2725.0 1895.0 6
2715.0 1895.0 6
2715.0 1885.0 6

