1704.0 1781.0 1
1694.0 1781.0 1
1694.0 1781.0 1
1694.0 1760.0 1
1683.0 1729.0 1
1652.0 1687.0 1
1631.0 1666.0 1
1621.0 1635.0 1
1610.0 1625.0 1
1610.0 1625.0 1
1610.0 1645.0 1
1631.0 1666.0 1
1673.0 1708.0 1
1704.0 1750.0 1
1746.0 1791.0 1
1767.0 1812.0 1
1777.0 1833.0 1
1788.0 1833.0 1
1788.0 1812.0 1
1777.0 1791.0 1
1777.0 1760.0 1
1767.0 1718.0 1
1756.0 1666.0 1
1756.0 1635.0 1
1746.0 1614.0 1
1746.0 1604.0 1
1746.0 1593.0 1
1694.0 1687.0 2
1694.0 1687.0 2
1694.0 1687.0 2
1704.0 1687.0 2
1735.0 1687.0 2
1767.0 1698.0 2
1788.0 1698.0 2
1850.0 1698.0 3
1850.0 1687.0 3
1840.0 1666.0 3
1829.0 1645.0 3
1819.0 1625.0 3
1819.0 1614.0 3
1819.0 1614.0 3
1819.0 1635.0 3
1840.0 1645.0 3
1850.0 1656.0 3
1881.0 1677.0 3
1902.0 1687.0 3
1923.0 1698.0 3
1944.0 1698.0 3
1944.0 1698.0 3
1944.0 1677.0 3
1944.0 1666.0 3
1933.0 1656.0 3
1933.0 1635.0 3
1933.0 1625.0 3
1923.0 1625.0 3
1996.0 1677.0 4
1996.0 1666.0 4
1985.0 1656.0 4
1975.0 1635.0 4
1975.0 1614.0 4
1975.0 1614.0 4
1975.0 1614.0 4
1975.0 1625.0 4
1985.0 1625.0 4
2017.0 1666.0 4
2038.0 1677.0 4
2058.0 1687.0 4
2079.0 1698.0 4
2079.0 1698.0 4
2090.0 1698.0 4
2090.0 1677.0 4
2090.0 1666.0 4
2069.0 1635.0 4
2058.0 1614.0 4
2058.0 1604.0 4
2058.0 1593.0 4
2058.0 1593.0 4
2173.0 1677.0 5
2173.0 1677.0 5
2163.0 1666.0 5
2142.0 1656.0 5
2131.0 1635.0 5
2121.0 1625.0 5
2121.0 1604.0 5
2131.0 1593.0 5
2152.0 1593.0 5
2163.0 1593.0 5
2183.0 1593.0 5
2194.0 1614.0 5
2215.0 1625.0 5
2225.0 1645.0 5
2225.0 1656.0 5
2215.0 1677.0 5
2194.0 1677.0 5
2183.0 1677.0 5
2183.0 1677.0 5
2277.0 1687.0 6
2277.0 1687.0 6
2277.0 1677.0 6
2267.0 1666.0 6
2267.0 1656.0 6
2256.0 1635.0 6
2256.0 1614.0 6
2267.0 1604.0 6
2277.0 1593.0 6
2298.0 1593.0 6
2319.0 1604.0 6
2340.0 1614.0 6
2360.0 1635.0 6
2371.0 1645.0 6
2371.0 1666.0 6
2371.0 1666.0 6
2360.0 1656.0 6
2350.0 1635.0 6
2350.0 1625.0 6
2350.0 1614.0 6
2350.0 1604.0 6
2360.0 1593.0 6
2371.0 1593.0 6
2381.0 1593.0 6
2465.0 1666.0 7
2465.0 1666.0 7
2465.0 1656.0 7
2454.0 1635.0 7
2444.0 1614.0 7
2444.0 1604.0 7
2433.0 1593.0 7
2433.0 1593.0 7
2433.0 1604.0 7
2454.0 1614.0 7
2475.0 1635.0 7
2496.0 1656.0 7
2517.0 1656.0 7
2527.0 1666.0 7
2548.0 1677.0 7
2548.0 1666.0 7
2548.0 1656.0 7
2548.0 1645.0 7
2548.0 1635.0 7
2538.0 1614.0 7
2527.0 1593.0 7
2652.0 1656.0 8
2652.0 1687.0 8
2642.0 1687.0 8
2631.0 1677.0 8
2610.0 1666.0 8
2600.0 1656.0 8
2590.0 1645.0 8
2579.0 1635.0 8
2569.0 1614.0 8
2569.0 1604.0 8
2579.0 1593.0 8
2590.0 1583.0 8
2610.0 1583.0 8
2631.0 1593.0 8
2652.0 1593.0 8
2725.0 1666.0 9
2715.0 1666.0 9
2715.0 1656.0 9
2704.0 1625.0 9
2694.0 1614.0 9
2694.0 1593.0 9
2694.0 1593.0 9
2694.0 1583.0 9
2798.0 1656.0 10
2788.0 1645.0 10
2788.0 1625.0 10
2777.0 1604.0 10
2767.0 1593.0 10
2767.0 1593.0 10
2777.0 1593.0 10
2788.0 1604.0 10
2798.0 1635.0 10
2819.0 1645.0 10
2840.0 1666.0 10
2881.0 1666.0 10
2902.0 1666.0 10
2892.0 1656.0 10
2892.0 1635.0 10
2881.0 1614.0 10
2871.0 1604.0 10
2871.0 1593.0 10
2871.0 1593.0 10
2871.0 1583.0 10
2871.0 1583.0 10
2996.0 1666.0 11
2985.0 1666.0 11
2985.0 1666.0 11
2975.0 1666.0 11
2954.0 1656.0 11
2933.0 1635.0 11
2913.0 1625.0 11
2902.0 1593.0 11
2892.0 1583.0 11
2902.0 1573.0 11
2913.0 1573.0 11
2933.0 1573.0 11
2944.0 1583.0 11
2954.0 1593.0 11
2965.0 1604.0 11
2985.0 1635.0 11
2985.0 1635.0 11
2985.0 1635.0 11
2975.0 1625.0 11
2965.0 1604.0 11
2954.0 1583.0 11
2933.0 1552.0 11
2913.0 1510.0 11
2902.0 1479.0 11
2881.0 1437.0 11
2860.0 1406.0 11
2829.0 1385.0 11
2819.0 1385.0 11
2798.0 1385.0 11
2788.0 1385.0 11
2777.0 1395.0 11
2767.0 1416.0 11
2715.0 1823.0 12
2715.0 1833.0 12
2715.0 1833.0 12
2704.0 1833.0 12
2704.0 1833.0 12
2704.0 1833.0 12

