315.0 2775.0 1
325.0 2775.0 1
335.0 2764.0 1
335.0 2743.0 1
325.0 2712.0 1
315.0 2681.0 1
315.0 2650.0 1
304.0 2650.0 1
429.0 2775.0 2
429.0 2785.0 2
429.0 2785.0 2
419.0 2775.0 2
398.0 2754.0 2
367.0 2733.0 2
346.0 2702.0 2
346.0 2733.0 3
356.0 2723.0 3
367.0 2712.0 3
377.0 2691.0 3
388.0 2681.0 3
408.0 2660.0 3
419.0 2660.0 3
419.0 2650.0 3
325.0 2837.0 4
325.0 2848.0 4
325.0 2816.0 4
315.0 2806.0 4
315.0 2764.0 4
315.0 2754.0 4
315.0 2733.0 4

