1038.0 1520.0 1
1038.0 1552.0 1
1017.0 1573.0 1
996.0 1583.0 1
965.0 1552.0 1
902.0 1500.0 1
850.0 1406.0 1
777.0 1281.0 1
715.0 1114.0 1
704.0 1052.0 1
725.0 1020.0 1
798.0 1020.0 1
954.0 1041.0 1
1069.0 1052.0 1
1152.0 1052.0 1
1194.0 1000.0 1
1173.0 937.0 1
1121.0 854.0 1
1038.0 781.0 1
913.0 698.0 1
819.0 656.0 1
746.0 656.0 1
694.0 666.0 1
683.0 698.0 1
1246.0 1166.0 2
1235.0 1177.0 2
1246.0 1156.0 2
1246.0 1104.0 2
1235.0 1020.0 2
1235.0 958.0 2
1256.0 927.0 2
1288.0 906.0 2
1340.0 916.0 2
1381.0 948.0 2
1433.0 979.0 2
1475.0 1010.0 2
1215.0 958.0 3
1215.0 958.0 3
1225.0 968.0 3
1288.0 1031.0 3
1329.0 1073.0 3
1329.0 1093.0 3
1329.0 1114.0 3
1298.0 1125.0 3
1267.0 1135.0 3
1267.0 1135.0 3
1277.0 1156.0 3
1340.0 1229.0 3
1517.0 1333.0 4
1517.0 1302.0 4
1517.0 1270.0 4
1517.0 1125.0 4
1527.0 1104.0 4
1569.0 1104.0 4
1610.0 1114.0 4
1652.0 1135.0 4
1683.0 1177.0 4
1715.0 1198.0 4
1558.0 1177.0 5
1517.0 1166.0 5
1517.0 1166.0 5
1527.0 1177.0 5
1590.0 1229.0 5
1631.0 1270.0 5
1652.0 1291.0 5
1652.0 1312.0 5
1600.0 1323.0 5
1569.0 1323.0 5
1548.0 1333.0 5
1548.0 1354.0 5
1579.0 1395.0 5
1631.0 1437.0 5
1694.0 1458.0 5
1788.0 1500.0 6
1788.0 1479.0 6
1788.0 1437.0 6
1798.0 1343.0 6
1798.0 1291.0 6
1808.0 1270.0 6
1819.0 1250.0 6
1819.0 1250.0 6
1923.0 1583.0 7
1913.0 1583.0 7
1913.0 1583.0 7
1913.0 1583.0 7
1902.0 1520.0 7
1881.0 1468.0 7
1850.0 1416.0 7
1829.0 1375.0 7
1808.0 1343.0 7
1819.0 1395.0 8
1840.0 1395.0 8
1902.0 1395.0 8
1944.0 1395.0 8
1985.0 1406.0 8
2090.0 1625.0 9
2090.0 1614.0 9
2079.0 1593.0 9
2079.0 1531.0 9
2069.0 1458.0 9
2069.0 1427.0 9
2079.0 1406.0 9
2121.0 1406.0 9
2152.0 1416.0 9
2183.0 1437.0 9
2225.0 1468.0 9
2038.0 1500.0 10
2038.0 1500.0 10
2048.0 1510.0 10
2100.0 1541.0 10
2173.0 1583.0 10
2194.0 1614.0 10
2204.0 1635.0 10
2183.0 1645.0 10
2142.0 1645.0 10
2121.0 1645.0 10
2110.0 1656.0 10
2121.0 1666.0 10
2173.0 1687.0 10
2215.0 1718.0 10
2267.0 1750.0 10
2298.0 1760.0 10
2308.0 1760.0 10
2319.0 1760.0 10
2319.0 1760.0 10
2319.0 1718.0 10
2319.0 1677.0 10
2308.0 1635.0 10
2308.0 1573.0 10
2298.0 1531.0 10
2288.0 1510.0 10
2288.0 1520.0 10
2308.0 1573.0 10
2329.0 1635.0 10
2350.0 1708.0 10
2381.0 1791.0 10
2413.0 1854.0 10
2433.0 1875.0 10
2444.0 1875.0 10
2454.0 1854.0 10
2444.0 1802.0 10
2413.0 1750.0 10
2392.0 1708.0 10
2371.0 1677.0 10
2371.0 1656.0 10
2381.0 1656.0 10
2402.0 1645.0 10
2444.0 1635.0 10
2506.0 1614.0 10
2569.0 1614.0 10
2621.0 1614.0 10
2673.0 1604.0 10
2725.0 1562.0 10

