1788.0 1270.0 1
1788.0 1270.0 1
1777.0 1281.0 1
1777.0 1281.0 1
1756.0 1281.0 1
1746.0 1270.0 1
1715.0 1270.0 1
1694.0 1250.0 1
1694.0 1250.0 1
1704.0 1229.0 1
1735.0 1229.0 1
1767.0 1208.0 1
1788.0 1198.0 1
1798.0 1177.0 1
1798.0 1166.0 1
1788.0 1145.0 1
1767.0 1145.0 1
1746.0 1156.0 1
1725.0 1166.0 1
1715.0 1187.0 1
1715.0 1208.0 1
1746.0 1229.0 1
1756.0 1250.0 1
1777.0 1250.0 1
1902.0 1302.0 2
1892.0 1302.0 2
1892.0 1302.0 2
1881.0 1302.0 2
1871.0 1291.0 2
1850.0 1281.0 2
1840.0 1250.0 2
1829.0 1218.0 2
1840.0 1198.0 2
1850.0 1187.0 2
1881.0 1187.0 2
1913.0 1187.0 2
1933.0 1208.0 2
1944.0 1218.0 2
1923.0 1218.0 2
1913.0 1218.0 2
1892.0 1208.0 2
1892.0 1187.0 2
1902.0 1177.0 2
2038.0 1291.0 3
2038.0 1302.0 3
2027.0 1312.0 3
2027.0 1323.0 3
2027.0 1323.0 3
2027.0 1323.0 3
2038.0 1323.0 3
2079.0 1323.0 3
2100.0 1323.0 3
2121.0 1312.0 3
2121.0 1312.0 3
2121.0 1302.0 3
2131.0 1291.0 3
2131.0 1270.0 3
2110.0 1250.0 3
2090.0 1229.0 3
2058.0 1208.0 3
2058.0 1187.0 3
2058.0 1187.0 3
2058.0 1177.0 3
2194.0 1291.0 4
2194.0 1291.0 4
2194.0 1302.0 4
2194.0 1312.0 4
2194.0 1312.0 4
2194.0 1312.0 4
2215.0 1323.0 4
2225.0 1323.0 4
2225.0 1323.0 4
2235.0 1323.0 4
2256.0 1323.0 4
2267.0 1323.0 4
2267.0 1323.0 4
2267.0 1302.0 4
2267.0 1291.0 4
2256.0 1260.0 4
2235.0 1239.0 4
2225.0 1218.0 4
2215.0 1208.0 4
2371.0 1302.0 5
2371.0 1302.0 5
2360.0 1312.0 5
2360.0 1312.0 5
2350.0 1323.0 5
2350.0 1323.0 5
2360.0 1323.0 5
2371.0 1333.0 5
2381.0 1343.0 5
2392.0 1354.0 5
2402.0 1343.0 5
2413.0 1343.0 5
2433.0 1343.0 5
2444.0 1333.0 5
2444.0 1312.0 5
2433.0 1302.0 5
2413.0 1281.0 5
2392.0 1281.0 5
2392.0 1281.0 5
2402.0 1281.0 5
2423.0 1270.0 5
2444.0 1260.0 5
2465.0 1260.0 5
2485.0 1250.0 5
2496.0 1229.0 5
2485.0 1229.0 5
2465.0 1218.0 5
2423.0 1208.0 5
2371.0 1198.0 5
2340.0 1198.0 5

