408.0 2702.0 1
408.0 2702.0 1
408.0 2702.0 1
408.0 2702.0 1
408.0 2712.0 1
419.0 2712.0 1
419.0 2712.0 1
419.0 2712.0 1
429.0 2723.0 1
429.0 2723.0 1
429.0 2723.0 1
419.0 2702.0 1
408.0 2670.0 1
388.0 2629.0 1
377.0 2598.0 1
377.0 2587.0 1
388.0 2587.0 1
638.0 2723.0 2
638.0 2723.0 2
627.0 2723.0 2
606.0 2723.0 2
585.0 2712.0 2
565.0 2712.0 2
544.0 2712.0 2
544.0 2712.0 2
533.0 2702.0 2
533.0 2691.0 2
533.0 2691.0 2
533.0 2681.0 2
544.0 2681.0 2
585.0 2681.0 2
585.0 2670.0 2
596.0 2660.0 2
596.0 2650.0 2
575.0 2629.0 2
544.0 2608.0 2
523.0 2598.0 2
502.0 2598.0 2
502.0 2618.0 2
690.0 2712.0 3
679.0 2712.0 3
679.0 2712.0 3
658.0 2691.0 3
638.0 2691.0 3
617.0 2660.0 3
606.0 2639.0 3
606.0 2618.0 3
627.0 2618.0 3
658.0 2618.0 3
700.0 2639.0 3
721.0 2660.0 3
721.0 2681.0 3
700.0 2712.0 3
669.0 2712.0 3

