1694.0 1895.0 1
1683.0 1895.0 1
1683.0 1895.0 1
1694.0 1885.0 1
1704.0 1843.0 1
1704.0 1802.0 1
1704.0 1729.0 1
1694.0 1677.0 1
1673.0 1614.0 1
1673.0 1593.0 1
1673.0 1593.0 1
1673.0 1645.0 1
1683.0 1698.0 1
1694.0 1770.0 1
1715.0 1843.0 1
1735.0 1916.0 1
1756.0 1948.0 1
1788.0 1968.0 1
1819.0 1968.0 1
1871.0 1948.0 1
1913.0 1916.0 1
1923.0 1885.0 1
1923.0 1854.0 1
1881.0 1791.0 1
1840.0 1760.0 1
1798.0 1739.0 1
1767.0 1739.0 1
1746.0 1750.0 1
1746.0 1760.0 1
1746.0 1770.0 1
1985.0 1718.0 2
1975.0 1729.0 2
1975.0 1729.0 2
1975.0 1677.0 2
1975.0 1656.0 2
1975.0 1635.0 2
1985.0 1614.0 2
1985.0 1593.0 2
2006.0 1573.0 2
2027.0 1573.0 2
2038.0 1583.0 2
2048.0 1593.0 2
2058.0 1625.0 2
2069.0 1645.0 2
2079.0 1687.0 2
2079.0 1708.0 2
2079.0 1729.0 2
2090.0 1739.0 2
2090.0 1729.0 2
2090.0 1729.0 2
2090.0 1729.0 2
2090.0 1739.0 2
2090.0 1729.0 2
2079.0 1729.0 2
2079.0 1708.0 2
2079.0 1687.0 2
2079.0 1656.0 2
2069.0 1635.0 2
2069.0 1614.0 2
2069.0 1614.0 2
2069.0 1625.0 2
2069.0 1645.0 2
2340.0 1843.0 3
2340.0 1843.0 3
2329.0 1854.0 3
2319.0 1864.0 3
2308.0 1875.0 3
2298.0 1885.0 3
2288.0 1885.0 3
2277.0 1875.0 3
2267.0 1854.0 3
2256.0 1833.0 3
2246.0 1802.0 3
2235.0 1739.0 3
2225.0 1687.0 3
2215.0 1645.0 3
2215.0 1614.0 3
2215.0 1593.0 3
2215.0 1604.0 3
2225.0 1625.0 3
2204.0 1729.0 4
2204.0 1718.0 4
2204.0 1718.0 4
2215.0 1718.0 4
2256.0 1718.0 4
2288.0 1718.0 4
2319.0 1729.0 4
2329.0 1729.0 4
2329.0 1729.0 4
2506.0 1802.0 5
2496.0 1812.0 5
2496.0 1823.0 5
2485.0 1843.0 5
2475.0 1843.0 5
2465.0 1854.0 5
2454.0 1854.0 5
2444.0 1843.0 5
2444.0 1823.0 5
2423.0 1791.0 5
2413.0 1760.0 5
2402.0 1718.0 5
2402.0 1677.0 5
2402.0 1645.0 5
2402.0 1635.0 5
2402.0 1625.0 5
2402.0 1614.0 5
2402.0 1614.0 5
2381.0 1729.0 6
2381.0 1729.0 6
2392.0 1718.0 6
2423.0 1718.0 6
2454.0 1729.0 6
2475.0 1739.0 6

