1079.0 1468.0 1
1069.0 1468.0 1
1058.0 1479.0 1
1058.0 1489.0 1
1058.0 1583.0 1
1069.0 1625.0 1
1069.0 1729.0 1
1079.0 1770.0 1
1090.0 1812.0 1
1100.0 1833.0 1
1110.0 1843.0 1
1121.0 1843.0 1
1131.0 1823.0 1
1173.0 1770.0 1
1194.0 1708.0 1
1215.0 1656.0 1
1235.0 1593.0 1
1256.0 1520.0 1
1267.0 1489.0 1
1267.0 1489.0 1
1267.0 1489.0 1
1277.0 1500.0 1
1277.0 1552.0 1
1298.0 1625.0 1
1308.0 1708.0 1
1329.0 1812.0 1
1340.0 1854.0 1
1340.0 1854.0 1
1558.0 1625.0 2
1548.0 1635.0 2
1527.0 1635.0 2
1527.0 1635.0 2
1517.0 1635.0 2
1506.0 1625.0 2
1485.0 1583.0 2
1475.0 1552.0 2
1475.0 1531.0 2
1485.0 1531.0 2
1517.0 1531.0 2
1527.0 1552.0 2
1538.0 1583.0 2
1538.0 1604.0 2
1538.0 1614.0 2
1527.0 1614.0 2
1652.0 1625.0 3
1652.0 1625.0 3
1652.0 1625.0 3
1652.0 1614.0 3
1663.0 1573.0 3
1673.0 1531.0 3
1673.0 1500.0 3
1673.0 1479.0 3
1673.0 1479.0 3
1673.0 1489.0 3
1673.0 1510.0 3
1683.0 1552.0 3
1704.0 1593.0 3
1735.0 1625.0 3
1756.0 1625.0 3
1767.0 1625.0 3
1892.0 1593.0 4
1892.0 1593.0 4
1892.0 1583.0 4
1902.0 1562.0 4
1902.0 1541.0 4
1902.0 1500.0 4
1902.0 1468.0 4
1902.0 1448.0 4
1902.0 1468.0 4
1923.0 1510.0 4
1944.0 1552.0 4
1965.0 1583.0 4
1975.0 1583.0 4
1985.0 1573.0 4
1996.0 1541.0 4
1996.0 1489.0 4
1996.0 1479.0 4
2006.0 1489.0 4
2027.0 1531.0 4
2038.0 1562.0 4
2058.0 1573.0 4
2058.0 1573.0 4
2069.0 1562.0 4
2069.0 1531.0 4
2079.0 1510.0 4
2079.0 1479.0 4
2204.0 1531.0 5
2194.0 1531.0 5
2194.0 1541.0 5
2194.0 1541.0 5
2183.0 1541.0 5
2173.0 1531.0 5
2152.0 1510.0 5
2152.0 1489.0 5
2163.0 1468.0 5
2183.0 1458.0 5
2194.0 1468.0 5
2215.0 1479.0 5
2235.0 1489.0 5
2246.0 1520.0 5
2246.0 1541.0 5
2246.0 1541.0 5
2246.0 1541.0 5
2246.0 1531.0 5
2256.0 1479.0 5
2267.0 1458.0 5
2413.0 1760.0 6
2402.0 1750.0 6
2402.0 1698.0 6
2392.0 1656.0 6
2392.0 1614.0 6
2392.0 1552.0 6
2392.0 1500.0 6
2392.0 1479.0 6
2392.0 1468.0 6
2402.0 1468.0 6
2558.0 1573.0 7
2558.0 1583.0 7
2558.0 1573.0 7
2558.0 1541.0 7
2548.0 1510.0 7
2548.0 1489.0 7
2548.0 1468.0 7
2548.0 1468.0 7
2569.0 1729.0 8
2558.0 1739.0 8
2558.0 1750.0 8
2683.0 1573.0 9
2673.0 1573.0 9
2673.0 1573.0 9
2673.0 1573.0 9
2694.0 1573.0 9
2715.0 1573.0 9
2735.0 1573.0 9
2767.0 1573.0 9
2788.0 1562.0 9
2788.0 1541.0 9
2767.0 1510.0 9
2746.0 1489.0 9
2725.0 1468.0 9
2715.0 1458.0 9
2704.0 1458.0 9
2715.0 1458.0 9
2735.0 1458.0 9
2756.0 1458.0 9
2798.0 1468.0 9
2819.0 1468.0 9
2944.0 1531.0 10
2933.0 1531.0 10
2923.0 1541.0 10
2913.0 1541.0 10
2902.0 1541.0 10
2892.0 1520.0 10
2871.0 1489.0 10
2871.0 1479.0 10
2881.0 1468.0 10
2902.0 1468.0 10
2933.0 1468.0 10
2954.0 1479.0 10
2975.0 1489.0 10
2985.0 1510.0 10
2985.0 1520.0 10
2985.0 1520.0 10
2985.0 1500.0 10
2996.0 1468.0 10
3006.0 1458.0 10
3017.0 1448.0 10
3152.0 1739.0 11
3152.0 1718.0 11
3152.0 1677.0 11
3163.0 1625.0 11
3152.0 1573.0 11
3152.0 1500.0 11
3131.0 1458.0 11
3131.0 1427.0 11
3131.0 1416.0 11
3131.0 1416.0 11
3131.0 1427.0 11
3069.0 1520.0 12
3079.0 1510.0 12
3121.0 1510.0 12
3163.0 1510.0 12
3225.0 1510.0 12
3246.0 1479.0 13
3246.0 1489.0 13
3246.0 1489.0 13
3246.0 1468.0 13
3246.0 1448.0 13
3246.0 1416.0 13
3235.0 1385.0 13
3235.0 1364.0 13
3267.0 1656.0 14
3256.0 1656.0 14
3267.0 1677.0 14
3288.0 1687.0 14
3402.0 1448.0 15
3402.0 1458.0 15
3402.0 1458.0 15
3392.0 1468.0 15
3381.0 1468.0 15
3381.0 1468.0 15
3371.0 1448.0 15
3360.0 1427.0 15
3360.0 1406.0 15
3371.0 1395.0 15
3392.0 1395.0 15
3392.0 1406.0 15
3402.0 1416.0 15
3402.0 1448.0 15
3402.0 1468.0 15
3402.0 1479.0 15
3517.0 1458.0 16
3506.0 1468.0 16
3506.0 1468.0 16
3506.0 1479.0 16
3517.0 1468.0 16
3517.0 1458.0 16
3517.0 1448.0 16
3517.0 1406.0 16
3517.0 1385.0 16
3506.0 1364.0 16
3517.0 1375.0 16
3527.0 1395.0 16
3538.0 1427.0 16
3558.0 1458.0 16
3590.0 1489.0 16
3600.0 1489.0 16
3610.0 1489.0 16
3621.0 1458.0 16
3621.0 1427.0 16
3621.0 1385.0 16
3610.0 1364.0 16

