1194.0 1968.0 1
1194.0 1979.0 1
1194.0 1979.0 1
1194.0 1979.0 1
1204.0 1958.0 1
1204.0 1927.0 1
1215.0 1895.0 1
1225.0 1854.0 1
1225.0 1791.0 1
1225.0 1739.0 1
1225.0 1698.0 1
1215.0 1677.0 1
1215.0 1666.0 1
1204.0 1687.0 1
1204.0 1729.0 1
1204.0 1812.0 1
1225.0 1864.0 1
1235.0 1916.0 1
1256.0 1958.0 1
1298.0 1989.0 1
1329.0 2000.0 1
1350.0 1989.0 1
1392.0 1958.0 1
1444.0 1895.0 1
1465.0 1854.0 1
1465.0 1812.0 1
1444.0 1739.0 1
1413.0 1687.0 1
1371.0 1656.0 1
1340.0 1635.0 1
1277.0 1625.0 1
1256.0 1635.0 1
1256.0 1635.0 1
1256.0 1635.0 1
1517.0 1791.0 2
1517.0 1802.0 2
1517.0 1802.0 2
1517.0 1791.0 2
1527.0 1750.0 2
1527.0 1718.0 2
1527.0 1687.0 2
1517.0 1656.0 2
1517.0 1645.0 2
1527.0 1645.0 2
1538.0 1927.0 3
1538.0 1927.0 3
1538.0 1937.0 3
1558.0 1958.0 3
1683.0 1781.0 4
1683.0 1781.0 4
1683.0 1781.0 4
1683.0 1781.0 4
1673.0 1770.0 4
1652.0 1760.0 4
1631.0 1739.0 4
1621.0 1718.0 4
1631.0 1708.0 4
1663.0 1708.0 4
1694.0 1708.0 4
1725.0 1718.0 4
1756.0 1708.0 4
1756.0 1687.0 4
1746.0 1677.0 4
1725.0 1656.0 4
1715.0 1645.0 4
1704.0 1645.0 4
1965.0 1729.0 5
1954.0 1729.0 5
1944.0 1729.0 5
1923.0 1729.0 5
1913.0 1729.0 5
1902.0 1718.0 5
1871.0 1687.0 5
1871.0 1666.0 5
1871.0 1635.0 5
1881.0 1614.0 5
1902.0 1614.0 5
1933.0 1614.0 5
1944.0 1625.0 5
1965.0 1645.0 5
1975.0 1677.0 5
1975.0 1698.0 5
1975.0 1666.0 5
1975.0 1635.0 5
1975.0 1593.0 5
1975.0 1510.0 5
1975.0 1500.0 5
1985.0 1500.0 5
2090.0 1698.0 6
2079.0 1698.0 6
2079.0 1698.0 6
2079.0 1687.0 6
2079.0 1677.0 6
2069.0 1635.0 6
2069.0 1614.0 6
2079.0 1593.0 6
2090.0 1593.0 6
2110.0 1593.0 6
2142.0 1614.0 6
2163.0 1645.0 6
2173.0 1677.0 6
2173.0 1687.0 6
2173.0 1698.0 6
2173.0 1656.0 6
2183.0 1625.0 6
2183.0 1593.0 6
2194.0 1573.0 6
2194.0 1573.0 6
2204.0 1573.0 6
2340.0 1677.0 7
2329.0 1677.0 7
2319.0 1687.0 7
2308.0 1687.0 7
2298.0 1687.0 7
2267.0 1666.0 7
2256.0 1645.0 7
2246.0 1625.0 7
2246.0 1604.0 7
2256.0 1583.0 7
2288.0 1583.0 7
2308.0 1593.0 7
2329.0 1614.0 7
2350.0 1645.0 7
2350.0 1666.0 7
2360.0 1666.0 7
2360.0 1666.0 7
2360.0 1666.0 7
2360.0 1645.0 7
2371.0 1614.0 7
2381.0 1573.0 7
2392.0 1562.0 7
2392.0 1562.0 7
2548.0 1895.0 8
2548.0 1895.0 8
2558.0 1875.0 8
2579.0 1843.0 8
2579.0 1802.0 8
2579.0 1739.0 8
2569.0 1677.0 8
2548.0 1625.0 8
2548.0 1593.0 8
2548.0 1583.0 8
2548.0 1573.0 8
2558.0 1573.0 8
2579.0 1583.0 8
2663.0 1698.0 9
2642.0 1698.0 9
2642.0 1677.0 9
2642.0 1656.0 9
2642.0 1625.0 9
2642.0 1593.0 9
2631.0 1583.0 9
2715.0 1864.0 10
2715.0 1875.0 10
2892.0 1823.0 11
2892.0 1843.0 11
2881.0 1854.0 11
2871.0 1854.0 11
2850.0 1833.0 11
2819.0 1802.0 11
2798.0 1750.0 11
2777.0 1708.0 11
2777.0 1645.0 11
2777.0 1604.0 11
2788.0 1562.0 11
2808.0 1531.0 11
2808.0 1531.0 11
2819.0 1531.0 11
2746.0 1645.0 12
2746.0 1635.0 12
2788.0 1645.0 12
2840.0 1656.0 12
2902.0 1677.0 12
2954.0 1687.0 12
2954.0 1687.0 12
2954.0 1677.0 12
2996.0 1625.0 13
2996.0 1625.0 13
2996.0 1635.0 13
2996.0 1614.0 13
2996.0 1583.0 13
2985.0 1562.0 13
2985.0 1520.0 13
2985.0 1510.0 13
2996.0 1510.0 13
2996.0 1510.0 13
3027.0 1781.0 14
3027.0 1781.0 14
3038.0 1802.0 14
3090.0 1593.0 15
3079.0 1593.0 15
3079.0 1593.0 15
3090.0 1583.0 15
3100.0 1573.0 15
3110.0 1573.0 15
3131.0 1573.0 15
3163.0 1573.0 15
3183.0 1583.0 15
3194.0 1604.0 15
3194.0 1614.0 15
3183.0 1625.0 15
3163.0 1635.0 15
3131.0 1625.0 15
3100.0 1604.0 15
3090.0 1573.0 15
3090.0 1552.0 15
3100.0 1520.0 15
3131.0 1500.0 15
3163.0 1489.0 15
3194.0 1489.0 15
3215.0 1500.0 15
3340.0 1791.0 16
3340.0 1802.0 16
3350.0 1812.0 16
3360.0 1802.0 16
3360.0 1791.0 16
3371.0 1739.0 16
3360.0 1687.0 16
3360.0 1635.0 16
3360.0 1583.0 16
3360.0 1541.0 16
3360.0 1531.0 16
3360.0 1520.0 16
3360.0 1562.0 16
3360.0 1593.0 16
3350.0 1614.0 16
3319.0 1625.0 16
3298.0 1614.0 16
3256.0 1593.0 16
3225.0 1562.0 16
3215.0 1541.0 16
3215.0 1520.0 16
3235.0 1500.0 16
3277.0 1500.0 16
3329.0 1500.0 16

