1475.0 1760.0 1
1444.0 1781.0 1
1433.0 1791.0 1
1444.0 1791.0 1
1465.0 1802.0 1
1506.0 1823.0 1
1579.0 1843.0 1
1652.0 1854.0 1
1694.0 1854.0 1
1715.0 1833.0 1
1715.0 1802.0 1
1694.0 1739.0 1
1663.0 1666.0 1
1621.0 1593.0 1
1590.0 1520.0 1
1558.0 1458.0 1
1558.0 1437.0 1
1558.0 1406.0 1
1444.0 1614.0 2
1444.0 1614.0 2
1475.0 1614.0 2
1517.0 1625.0 2
1579.0 1635.0 2
1694.0 1645.0 2
1902.0 1812.0 3
1902.0 1812.0 3
1913.0 1812.0 3
1965.0 1823.0 3
2017.0 1823.0 3
2058.0 1802.0 3
2079.0 1760.0 3
2079.0 1708.0 3
2048.0 1625.0 3
2017.0 1552.0 3
1975.0 1500.0 3
1923.0 1458.0 3
1860.0 1458.0 3
1850.0 1468.0 3
1850.0 1500.0 3
1881.0 1552.0 3
1933.0 1593.0 3
1965.0 1604.0 3
1985.0 1593.0 3
1996.0 1573.0 3
2006.0 1541.0 3
2027.0 1520.0 3
2038.0 1500.0 3
2048.0 1468.0 3
2371.0 1833.0 4
2350.0 1875.0 4
2319.0 1885.0 4
2267.0 1885.0 4
2235.0 1875.0 4
2215.0 1843.0 4
2215.0 1791.0 4
2225.0 1698.0 4
2246.0 1635.0 4
2267.0 1562.0 4
2277.0 1510.0 4
2267.0 1468.0 4
2225.0 1468.0 4
2183.0 1479.0 4
2131.0 1520.0 4
2121.0 1593.0 4
2131.0 1635.0 4
2173.0 1677.0 4
2225.0 1698.0 4
2319.0 1718.0 4
2371.0 1718.0 4
2642.0 1833.0 5
2631.0 1864.0 5
2610.0 1864.0 5
2579.0 1854.0 5
2548.0 1823.0 5
2506.0 1791.0 5
2506.0 1781.0 5
2527.0 1781.0 5
2579.0 1781.0 5
2610.0 1791.0 5
2621.0 1791.0 5
2610.0 1770.0 5
2579.0 1718.0 5
2548.0 1666.0 5
2517.0 1604.0 5
2485.0 1541.0 5
2465.0 1489.0 5
2465.0 1468.0 5
2465.0 1468.0 5
2923.0 1864.0 6
2902.0 1885.0 6
2871.0 1895.0 6
2819.0 1895.0 6
2767.0 1885.0 6
2746.0 1864.0 6
2735.0 1833.0 6
2735.0 1781.0 6
2767.0 1708.0 6
2788.0 1656.0 6
2808.0 1604.0 6
2808.0 1541.0 6
2808.0 1489.0 6
2767.0 1468.0 6
2725.0 1458.0 6
2683.0 1489.0 6
2683.0 1541.0 6
2704.0 1604.0 6
2756.0 1677.0 6
2829.0 1750.0 6
2902.0 1781.0 6
2965.0 1802.0 6
3006.0 1812.0 6

