273.0 2712.0 1
273.0 2681.0 1
273.0 2650.0 1
273.0 2618.0 1
283.0 2598.0 1
283.0 2587.0 1
283.0 2587.0 1
283.0 2587.0 1
283.0 2587.0 1
273.0 2618.0 1
263.0 2639.0 1
263.0 2660.0 1
263.0 2702.0 1
263.0 2743.0 1
273.0 2785.0 1
273.0 2806.0 1
304.0 2837.0 1
325.0 2848.0 1
346.0 2848.0 1
367.0 2837.0 1
242.0 2681.0 2
242.0 2691.0 2
242.0 2691.0 2
263.0 2691.0 2
294.0 2702.0 2
335.0 2702.0 2

