283.0 2785.0 1
283.0 2785.0 1
283.0 2723.0 1
283.0 2691.0 1
273.0 2670.0 1
273.0 2660.0 1
273.0 2691.0 1
283.0 2723.0 1
294.0 2743.0 1
315.0 2754.0 1
335.0 2754.0 1
367.0 2754.0 1
377.0 2754.0 1
398.0 2764.0 1
419.0 2764.0 1

