1288.0 750.0 1
1277.0 750.0 1
1288.0 739.0 1
1288.0 739.0 1
1319.0 739.0 1
1360.0 750.0 1
1402.0 750.0 1
1465.0 750.0 1
1527.0 739.0 1
1548.0 729.0 1
1558.0 729.0 1
1558.0 718.0 1
1558.0 708.0 1
1558.0 687.0 1
1538.0 666.0 1
1506.0 625.0 1
1444.0 562.0 1
1402.0 520.0 1
1371.0 489.0 1
1360.0 479.0 1
1360.0 458.0 1
1350.0 448.0 1
1350.0 427.0 1
1360.0 427.0 1
1642.0 656.0 2
1631.0 656.0 2
1631.0 666.0 2
1642.0 677.0 2
1673.0 698.0 2
1694.0 718.0 2
1725.0 729.0 2
1767.0 718.0 2
1777.0 708.0 2
1788.0 687.0 2
1788.0 656.0 2
1756.0 593.0 2
1725.0 541.0 2
1683.0 500.0 2
1631.0 468.0 2
1610.0 458.0 2
1600.0 458.0 2
1600.0 458.0 2
1631.0 458.0 2
1673.0 468.0 2
1715.0 468.0 2
1746.0 458.0 2
1777.0 448.0 2
1798.0 448.0 2
1819.0 416.0 2
2173.0 698.0 3
2163.0 698.0 3
2079.0 698.0 3
2048.0 698.0 3
2017.0 687.0 3
1985.0 666.0 3
1975.0 645.0 3
1975.0 614.0 3
1985.0 593.0 3
2017.0 573.0 3
2069.0 552.0 3
2090.0 531.0 3
2100.0 510.0 3
2100.0 489.0 3
2079.0 458.0 3
2048.0 448.0 3
2006.0 437.0 3
1975.0 448.0 3
1954.0 458.0 3
1954.0 458.0 3
1954.0 479.0 3
1985.0 520.0 3
2027.0 562.0 3
2069.0 614.0 3
2110.0 656.0 3
2131.0 687.0 3
2142.0 687.0 3
2142.0 687.0 3
2538.0 708.0 4
2517.0 708.0 4
2506.0 718.0 4
2485.0 729.0 4
2444.0 739.0 4
2413.0 739.0 4
2381.0 718.0 4
2350.0 687.0 4
2308.0 645.0 4
2298.0 614.0 4
2298.0 593.0 4
2308.0 583.0 4
2340.0 583.0 4
2371.0 593.0 4
2423.0 625.0 4
2485.0 666.0 4
2527.0 698.0 4
2527.0 698.0 4
2527.0 666.0 4
2506.0 635.0 4
2475.0 583.0 4
2433.0 531.0 4
2392.0 468.0 4
2371.0 448.0 4
2360.0 427.0 4
2360.0 416.0 4
2829.0 729.0 5
2819.0 729.0 5
2808.0 718.0 5
2777.0 718.0 5
2725.0 687.0 5
2694.0 666.0 5
2673.0 645.0 5
2673.0 614.0 5
2683.0 583.0 5
2715.0 562.0 5
2746.0 541.0 5
2767.0 520.0 5
2788.0 479.0 5
2788.0 448.0 5
2777.0 416.0 5
2746.0 385.0 5
2715.0 375.0 5
2683.0 375.0 5
2652.0 385.0 5
2642.0 427.0 5
2642.0 458.0 5
2663.0 479.0 5
2694.0 520.0 5
2735.0 583.0 5
2777.0 625.0 5
2788.0 666.0 5
2798.0 698.0 5
2808.0 718.0 5
2798.0 739.0 5
2788.0 739.0 5
2767.0 739.0 5

