1933.0 1468.0 1
1933.0 1468.0 1
1933.0 1479.0 1
1933.0 1468.0 1
1933.0 1479.0 1
1933.0 1489.0 1
1944.0 1500.0 1
1944.0 1531.0 1
1954.0 1573.0 1
1965.0 1604.0 1
1975.0 1645.0 1
1985.0 1677.0 1
1985.0 1687.0 1
1985.0 1687.0 1
1985.0 1687.0 1
1996.0 1656.0 1
1996.0 1635.0 1
1996.0 1562.0 1
2006.0 1531.0 1
2006.0 1510.0 1
2017.0 1510.0 1
2027.0 1510.0 1
2027.0 1520.0 1
2038.0 1552.0 1
2048.0 1583.0 1
2058.0 1635.0 1
2069.0 1677.0 1
2079.0 1698.0 1
2079.0 1708.0 1
2090.0 1708.0 1
2090.0 1687.0 1
2090.0 1656.0 1
2100.0 1614.0 1
2100.0 1552.0 1
2100.0 1520.0 1
2100.0 1510.0 1
2110.0 1500.0 1
2152.0 1541.0 2
2152.0 1531.0 2
2163.0 1531.0 2
2163.0 1531.0 2
2194.0 1541.0 2
2204.0 1552.0 2
2215.0 1573.0 2
2215.0 1583.0 2
2215.0 1604.0 2
2215.0 1614.0 2
2204.0 1625.0 2
2194.0 1614.0 2
2183.0 1604.0 2
2163.0 1573.0 2
2163.0 1541.0 2
2163.0 1520.0 2
2163.0 1500.0 2
2183.0 1479.0 2
2194.0 1479.0 2
2225.0 1479.0 2
2246.0 1489.0 2
2277.0 1500.0 2
2298.0 1593.0 3
2298.0 1593.0 3
2298.0 1573.0 3
2298.0 1562.0 3
2298.0 1520.0 3
2298.0 1489.0 3
2298.0 1479.0 3
2298.0 1479.0 3
2308.0 1500.0 3
2329.0 1520.0 3
2340.0 1552.0 3
2350.0 1573.0 3
2350.0 1583.0 3
2360.0 1583.0 3
2360.0 1583.0 3
2360.0 1562.0 3
2371.0 1541.0 3
2371.0 1520.0 3
2381.0 1500.0 3
2381.0 1489.0 3
2392.0 1479.0 3
2402.0 1479.0 3
2444.0 1593.0 4
2444.0 1583.0 4
2433.0 1573.0 4
2433.0 1510.0 4
2444.0 1489.0 4
2454.0 1479.0 4
2475.0 1468.0 4
2485.0 1468.0 4
2506.0 1489.0 4
2517.0 1500.0 4
2527.0 1531.0 4
2527.0 1562.0 4
2527.0 1593.0 4
2527.0 1604.0 4

