1798.0 1781.0 1
1798.0 1791.0 1
1798.0 1802.0 1
1798.0 1812.0 1
1788.0 1823.0 1
1788.0 1823.0 1
1777.0 1823.0 1
1756.0 1802.0 1
1735.0 1781.0 1
1704.0 1739.0 1
1683.0 1708.0 1
1652.0 1645.0 1
1642.0 1604.0 1
1642.0 1573.0 1
1663.0 1541.0 1
1694.0 1510.0 1
1725.0 1500.0 1
1756.0 1500.0 1
1777.0 1500.0 1
1808.0 1510.0 1
1923.0 1666.0 2
1913.0 1666.0 2
1913.0 1677.0 2
1913.0 1677.0 2
1902.0 1656.0 2
1892.0 1635.0 2
1881.0 1604.0 2
1881.0 1573.0 2
1881.0 1531.0 2
1881.0 1510.0 2
1902.0 1510.0 2
1913.0 1510.0 2
1944.0 1531.0 2
1954.0 1562.0 2
1954.0 1583.0 2
1944.0 1635.0 2
1933.0 1656.0 2
1923.0 1666.0 2
1902.0 1666.0 2
2017.0 1666.0 3
2006.0 1666.0 3
2006.0 1645.0 3
2006.0 1625.0 3
2006.0 1593.0 3
2006.0 1552.0 3
2006.0 1489.0 3
2006.0 1489.0 3
2006.0 1500.0 3
2017.0 1531.0 3
2038.0 1562.0 3
2048.0 1614.0 3
2069.0 1645.0 3
2079.0 1645.0 3
2079.0 1645.0 3
2079.0 1635.0 3
2090.0 1625.0 3
2090.0 1593.0 3
2090.0 1562.0 3
2090.0 1531.0 3
2100.0 1520.0 3
2100.0 1520.0 3
2100.0 1520.0 3
2100.0 1531.0 3
2121.0 1552.0 3
2131.0 1583.0 3
2142.0 1625.0 3
2163.0 1635.0 3
2163.0 1635.0 3
2173.0 1635.0 3
2173.0 1604.0 3
2173.0 1573.0 3
2173.0 1541.0 3
2183.0 1510.0 3
2183.0 1500.0 3
2183.0 1500.0 3
2235.0 1635.0 4
2235.0 1625.0 4
2235.0 1604.0 4
2235.0 1583.0 4
2235.0 1552.0 4
2235.0 1520.0 4
2235.0 1510.0 4
2235.0 1500.0 4
2235.0 1510.0 4
2246.0 1520.0 4
2256.0 1562.0 4
2267.0 1593.0 4
2288.0 1625.0 4
2298.0 1645.0 4
2298.0 1645.0 4
2308.0 1635.0 4
2308.0 1604.0 4
2308.0 1562.0 4
2308.0 1541.0 4
2308.0 1531.0 4
2308.0 1531.0 4
2319.0 1541.0 4
2329.0 1562.0 4
2340.0 1593.0 4
2360.0 1635.0 4
2371.0 1645.0 4
2381.0 1645.0 4
2381.0 1645.0 4
2392.0 1625.0 4
2392.0 1593.0 4
2392.0 1573.0 4
2402.0 1541.0 4
2402.0 1520.0 4
2590.0 1635.0 5
2579.0 1635.0 5
2579.0 1666.0 5
2569.0 1677.0 5
2569.0 1677.0 5
2558.0 1677.0 5
2538.0 1666.0 5
2527.0 1656.0 5
2506.0 1625.0 5
2496.0 1593.0 5
2485.0 1573.0 5
2475.0 1552.0 5
2485.0 1531.0 5
2485.0 1520.0 5
2506.0 1520.0 5
2517.0 1520.0 5
2527.0 1541.0 5
2538.0 1562.0 5
2548.0 1593.0 5
2558.0 1614.0 5
2558.0 1625.0 5
2558.0 1625.0 5
2558.0 1614.0 5
2558.0 1604.0 5
2569.0 1583.0 5
2579.0 1552.0 5
2590.0 1531.0 5
2610.0 1531.0 5
2642.0 1541.0 5
2683.0 1656.0 6
2683.0 1656.0 6
2683.0 1656.0 6
2683.0 1645.0 6
2673.0 1625.0 6
2673.0 1604.0 6
2673.0 1552.0 6
2673.0 1531.0 6
2673.0 1520.0 6
2683.0 1531.0 6
2683.0 1552.0 6
2694.0 1573.0 6
2715.0 1614.0 6
2725.0 1635.0 6
2735.0 1656.0 6
2746.0 1666.0 6
2756.0 1666.0 6
2756.0 1656.0 6
2756.0 1635.0 6
2756.0 1552.0 6
2767.0 1531.0 6
2767.0 1531.0 6
2944.0 1687.0 7
2933.0 1698.0 7
2933.0 1698.0 7
2923.0 1687.0 7
2902.0 1677.0 7
2881.0 1666.0 7
2860.0 1645.0 7
2840.0 1614.0 7
2840.0 1593.0 7
2829.0 1562.0 7
2829.0 1541.0 7
2850.0 1531.0 7
2871.0 1531.0 7
2902.0 1552.0 7
2933.0 1573.0 7
2944.0 1593.0 7
2954.0 1635.0 7
2954.0 1656.0 7
2954.0 1687.0 7
2944.0 1729.0 7
2944.0 1781.0 7
2944.0 1812.0 7
2944.0 1833.0 7
2944.0 1823.0 7
2944.0 1791.0 7
2944.0 1750.0 7
2933.0 1708.0 7
2933.0 1645.0 7
2933.0 1604.0 7
2933.0 1573.0 7
2944.0 1541.0 7
2965.0 1541.0 7
2985.0 1552.0 7
2996.0 1573.0 7
3017.0 1593.0 7
3058.0 1698.0 8
3058.0 1708.0 8
3058.0 1698.0 8
3058.0 1677.0 8
3048.0 1656.0 8
3048.0 1625.0 8
3048.0 1593.0 8
3048.0 1552.0 8
3048.0 1541.0 8
3048.0 1541.0 8
3058.0 1802.0 9
3058.0 1812.0 9
3058.0 1802.0 9
3163.0 1698.0 10
3163.0 1708.0 10
3163.0 1708.0 10
3163.0 1708.0 10
3163.0 1698.0 10
3152.0 1677.0 10
3142.0 1645.0 10
3142.0 1593.0 10
3131.0 1562.0 10
3131.0 1531.0 10
3131.0 1531.0 10
3142.0 1541.0 10
3152.0 1562.0 10
3163.0 1593.0 10
3183.0 1645.0 10
3204.0 1666.0 10
3225.0 1687.0 10
3235.0 1687.0 10
3246.0 1687.0 10
3246.0 1677.0 10
3246.0 1656.0 10
3246.0 1635.0 10
3256.0 1583.0 10
3256.0 1562.0 10
3267.0 1541.0 10
3267.0 1531.0 10
3267.0 1531.0 10
3413.0 1625.0 11
3413.0 1635.0 11
3423.0 1645.0 11
3433.0 1666.0 11
3433.0 1677.0 11
3433.0 1687.0 11
3423.0 1687.0 11
3392.0 1677.0 11
3371.0 1666.0 11
3340.0 1645.0 11
3319.0 1604.0 11
3308.0 1562.0 11
3308.0 1541.0 11
3319.0 1531.0 11
3340.0 1531.0 11
3371.0 1541.0 11
3392.0 1562.0 11
3413.0 1593.0 11
3423.0 1625.0 11
3423.0 1645.0 11
3423.0 1645.0 11
3423.0 1645.0 11
3423.0 1625.0 11
3413.0 1583.0 11
3413.0 1500.0 11
3413.0 1458.0 11
3402.0 1375.0 11
3392.0 1323.0 11
3360.0 1281.0 11
3329.0 1260.0 11
3288.0 1260.0 11
3267.0 1270.0 11
3256.0 1270.0 11

