304.0 2785.0 1
304.0 2785.0 1
304.0 2775.0 1
304.0 2754.0 1
304.0 2629.0 1
304.0 2639.0 1
304.0 2639.0 1
304.0 2702.0 1
304.0 2723.0 1
294.0 2733.0 1
283.0 2754.0 1
283.0 2764.0 1
283.0 2775.0 1
283.0 2785.0 1
283.0 2806.0 1
294.0 2806.0 1
315.0 2816.0 1
325.0 2827.0 1
356.0 2827.0 1
377.0 2827.0 1
388.0 2816.0 1
398.0 2785.0 1
398.0 2764.0 1
388.0 2743.0 1
377.0 2733.0 1
356.0 2723.0 1
346.0 2733.0 1
325.0 2743.0 1
315.0 2754.0 1
304.0 2754.0 1
304.0 2754.0 1
304.0 2743.0 1

