829.0 1781.0 1
829.0 1791.0 1
829.0 1812.0 1
819.0 1833.0 1
798.0 1843.0 1
777.0 1854.0 1
767.0 1854.0 1
746.0 1843.0 1
715.0 1802.0 1
694.0 1729.0 1
673.0 1645.0 1
673.0 1531.0 1
704.0 1479.0 1
746.0 1458.0 1
798.0 1458.0 1
881.0 1479.0 1
923.0 1500.0 1
954.0 1520.0 1
954.0 1531.0 1
954.0 1541.0 1
933.0 1552.0 1
923.0 1583.0 1
892.0 1604.0 1
840.0 1614.0 1
798.0 1614.0 1
777.0 1604.0 1
767.0 1604.0 1
777.0 1604.0 1
788.0 1604.0 1
840.0 1604.0 1
892.0 1614.0 1
923.0 1614.0 1
944.0 1614.0 1
944.0 1604.0 1
954.0 1604.0 1
1017.0 1573.0 2
1017.0 1573.0 2
1027.0 1573.0 2
1048.0 1573.0 2
1069.0 1583.0 2
1090.0 1604.0 2
1100.0 1625.0 2
1100.0 1635.0 2
1100.0 1656.0 2
1090.0 1656.0 2
1069.0 1656.0 2
1048.0 1645.0 2
1038.0 1614.0 2
1017.0 1573.0 2
1017.0 1510.0 2
1038.0 1489.0 2
1069.0 1468.0 2
1100.0 1468.0 2
1142.0 1479.0 2
1163.0 1489.0 2
1173.0 1500.0 2
1183.0 1500.0 2
1173.0 1510.0 2
1173.0 1510.0 2
1256.0 1604.0 3
1246.0 1604.0 3
1246.0 1604.0 3
1235.0 1583.0 3
1235.0 1552.0 3
1235.0 1510.0 3
1246.0 1468.0 3
1277.0 1458.0 3
1319.0 1458.0 3
1350.0 1468.0 3
1381.0 1489.0 3
1402.0 1510.0 3
1402.0 1541.0 3
1402.0 1593.0 3
1392.0 1614.0 3
1381.0 1635.0 3
1350.0 1635.0 3
1319.0 1635.0 3
1298.0 1625.0 3
1277.0 1614.0 3
1277.0 1614.0 3
1558.0 1645.0 4
1558.0 1656.0 4
1548.0 1687.0 4
1527.0 1687.0 4
1517.0 1687.0 4
1485.0 1677.0 4
1475.0 1677.0 4
1454.0 1656.0 4
1433.0 1614.0 4
1423.0 1552.0 4
1423.0 1531.0 4
1433.0 1510.0 4
1465.0 1510.0 4
1506.0 1510.0 4
1538.0 1531.0 4
1569.0 1552.0 4
1569.0 1573.0 4
1569.0 1593.0 4
1579.0 1614.0 4
1579.0 1645.0 4
1579.0 1677.0 4
1579.0 1677.0 4
1579.0 1656.0 4
1579.0 1635.0 4
1579.0 1614.0 4
1590.0 1552.0 4
1590.0 1500.0 4
1600.0 1448.0 4
1600.0 1385.0 4
1610.0 1302.0 4
1610.0 1260.0 4
1610.0 1229.0 4
1590.0 1208.0 4
1569.0 1177.0 4
1548.0 1177.0 4
1506.0 1187.0 4
1475.0 1198.0 4
1444.0 1239.0 4
1433.0 1281.0 4
1673.0 1656.0 5
1673.0 1666.0 5
1673.0 1656.0 5
1673.0 1635.0 5
1683.0 1593.0 5
1683.0 1541.0 5
1683.0 1510.0 5
1683.0 1500.0 5
1683.0 1489.0 5
1683.0 1489.0 5
1683.0 1520.0 5
1683.0 1562.0 5
1694.0 1593.0 5
1704.0 1625.0 5
1725.0 1635.0 5
1746.0 1645.0 5
1756.0 1645.0 5
1777.0 1645.0 5
1777.0 1645.0 5
1788.0 1645.0 5
1798.0 1635.0 5
1954.0 1635.0 6
1954.0 1645.0 6
1954.0 1656.0 6
1944.0 1656.0 6
1933.0 1666.0 6
1923.0 1677.0 6
1913.0 1677.0 6
1892.0 1687.0 6
1871.0 1677.0 6
1850.0 1635.0 6
1829.0 1562.0 6
1829.0 1531.0 6
1850.0 1510.0 6
1860.0 1500.0 6
1902.0 1500.0 6
1923.0 1520.0 6
1944.0 1541.0 6
1944.0 1562.0 6
1954.0 1593.0 6
1954.0 1614.0 6
1954.0 1625.0 6
1954.0 1614.0 6
1954.0 1593.0 6
1954.0 1552.0 6
1965.0 1520.0 6
1985.0 1500.0 6
2006.0 1489.0 6
2038.0 1489.0 6
2048.0 1500.0 6
2069.0 1520.0 6
2121.0 1593.0 7
2100.0 1614.0 7
2100.0 1625.0 7
2100.0 1635.0 7
2100.0 1635.0 7
2100.0 1520.0 7
2100.0 1468.0 7
2090.0 1427.0 7
2090.0 1375.0 7
2090.0 1354.0 7
2090.0 1354.0 7
2090.0 1364.0 7
2090.0 1406.0 7
2090.0 1448.0 7
2090.0 1489.0 7
2090.0 1541.0 7
2090.0 1573.0 7
2079.0 1604.0 7
2079.0 1614.0 7
2069.0 1635.0 7
2079.0 1656.0 7
2100.0 1677.0 7
2121.0 1677.0 7
2163.0 1677.0 7
2194.0 1677.0 7
2225.0 1645.0 7
2246.0 1604.0 7
2246.0 1562.0 7
2225.0 1520.0 7
2204.0 1510.0 7
2183.0 1489.0 7
2152.0 1489.0 7
2131.0 1510.0 7
2110.0 1520.0 7
2100.0 1531.0 7
2319.0 1729.0 8
2308.0 1750.0 8
2308.0 1760.0 8
2308.0 1781.0 8
2319.0 1760.0 8
2319.0 1687.0 8
2308.0 1625.0 8
2308.0 1562.0 8
2308.0 1520.0 8
2308.0 1489.0 8
2308.0 1479.0 8
2308.0 1479.0 8
2298.0 1489.0 8
2298.0 1510.0 8
2308.0 1552.0 8
2329.0 1614.0 8
2350.0 1635.0 8
2360.0 1645.0 8
2371.0 1645.0 8
2392.0 1635.0 8
2402.0 1604.0 8
2413.0 1573.0 8
2423.0 1541.0 8
2423.0 1510.0 8
2423.0 1500.0 8
2444.0 1500.0 8
2485.0 1666.0 9
2485.0 1677.0 9
2485.0 1677.0 9
2485.0 1677.0 9
2496.0 1635.0 9
2517.0 1593.0 9
2527.0 1562.0 9
2548.0 1531.0 9
2558.0 1510.0 9
2569.0 1510.0 9
2569.0 1510.0 9
2621.0 1677.0 10
2621.0 1677.0 10
2621.0 1677.0 10
2610.0 1645.0 10
2579.0 1562.0 10
2569.0 1489.0 10
2548.0 1416.0 10
2517.0 1333.0 10
2496.0 1281.0 10
2485.0 1239.0 10
2475.0 1218.0 10
2475.0 1208.0 10

