200.0 2754.0 1
200.0 2764.0 1
210.0 2764.0 1
221.0 2733.0 1
242.0 2712.0 1
263.0 2681.0 1
283.0 2660.0 1
294.0 2650.0 1
346.0 2795.0 2
346.0 2795.0 2
335.0 2775.0 2
315.0 2723.0 2
304.0 2670.0 2
294.0 2618.0 2
294.0 2598.0 2
283.0 2577.0 2

