1663.0 2073.0 1
1663.0 2093.0 1
1663.0 2104.0 1
1652.0 2135.0 1
1642.0 2145.0 1
1621.0 2145.0 1
1590.0 2125.0 1
1538.0 2073.0 1
1496.0 2000.0 1
1475.0 1937.0 1
1465.0 1895.0 1
1485.0 1864.0 1
1517.0 1843.0 1
1548.0 1843.0 1
1579.0 1843.0 1
1600.0 1854.0 1
1631.0 1854.0 1
1642.0 1854.0 1
1725.0 2010.0 2
1725.0 2000.0 2
1725.0 2000.0 2
1704.0 1958.0 2
1694.0 1916.0 2
1694.0 1885.0 2
1715.0 1864.0 2
1746.0 1864.0 2
1777.0 1875.0 2
1808.0 1895.0 2
1819.0 1927.0 2
1819.0 1948.0 2
1788.0 1979.0 2
1767.0 2000.0 2
1725.0 2000.0 2
1704.0 1989.0 2
1829.0 1958.0 3
1829.0 1937.0 3
1829.0 1916.0 3
1829.0 1895.0 3
1829.0 1895.0 3
1840.0 1895.0 3
1829.0 1916.0 3
1829.0 1937.0 3
1840.0 1968.0 3
1840.0 2000.0 3
1871.0 2031.0 3
1892.0 2031.0 3
1913.0 2020.0 3
1923.0 1989.0 3
1923.0 1948.0 3
1933.0 1937.0 3
1933.0 1916.0 3
1933.0 1948.0 3
1944.0 1979.0 3
1954.0 2000.0 3
1975.0 2010.0 3
1985.0 2010.0 3
1996.0 1989.0 3
2006.0 1968.0 3
2006.0 1948.0 3
2006.0 1937.0 3
2006.0 1916.0 3
2017.0 1906.0 3
2079.0 2020.0 4
2090.0 2000.0 4
2090.0 1958.0 4
2079.0 1895.0 4
2079.0 1854.0 4
2090.0 1823.0 4
2090.0 1802.0 4
2090.0 1781.0 4
2090.0 1781.0 4
2090.0 1791.0 4
2048.0 2020.0 5
2058.0 2041.0 5
2090.0 2052.0 5
2121.0 2052.0 5
2173.0 2031.0 5
2194.0 2000.0 5
2194.0 1979.0 5
2194.0 1948.0 5
2152.0 1937.0 5
2110.0 1916.0 5
2079.0 1916.0 5
2069.0 1916.0 5
2319.0 2041.0 6
2319.0 2052.0 6
2298.0 2052.0 6
2267.0 2041.0 6
2235.0 2020.0 6
2204.0 1989.0 6
2194.0 1958.0 6
2194.0 1916.0 6
2204.0 1906.0 6
2225.0 1906.0 6
2246.0 1916.0 6
2267.0 1927.0 6
2288.0 1948.0 6
2298.0 1968.0 6
2298.0 2010.0 6
2298.0 2020.0 6
2298.0 2020.0 6
2298.0 1989.0 6
2298.0 1958.0 6
2308.0 1948.0 6
2319.0 1927.0 6
2340.0 1927.0 6
2360.0 1927.0 6
2371.0 1937.0 6
2392.0 2020.0 7
2392.0 1958.0 7
2392.0 1968.0 7
2392.0 2000.0 7
2392.0 2020.0 7
2392.0 2041.0 7
2402.0 2062.0 7
2433.0 2083.0 7
2444.0 2083.0 7
2475.0 2083.0 7
2579.0 2052.0 8
2579.0 2062.0 8
2558.0 2062.0 8
2548.0 2062.0 8
2517.0 2041.0 8
2485.0 2000.0 8
2475.0 1968.0 8
2475.0 1937.0 8
2475.0 1927.0 8
2496.0 1916.0 8
2517.0 1927.0 8
2548.0 1948.0 8
2569.0 1968.0 8
2569.0 1989.0 8
2569.0 2020.0 8
2569.0 2031.0 8
2579.0 2020.0 8
2569.0 2020.0 8
2569.0 1979.0 8
2579.0 1958.0 8
2590.0 1937.0 8
2704.0 2208.0 9
2704.0 2114.0 9
2704.0 2073.0 9
2704.0 2010.0 9
2704.0 1979.0 9
2694.0 1958.0 9
2694.0 1948.0 9
2621.0 2031.0 10
2621.0 2031.0 10
2631.0 2031.0 10
2663.0 2041.0 10
2704.0 2052.0 10
2746.0 2052.0 10
2756.0 2052.0 10
2767.0 2052.0 10
2767.0 2041.0 10
2767.0 2020.0 10
2756.0 2000.0 10
2756.0 1979.0 10
2756.0 1958.0 10
2756.0 1948.0 10
2767.0 2093.0 11
2767.0 2104.0 11
2767.0 2093.0 11
2819.0 2031.0 12
2829.0 2010.0 12
2840.0 2000.0 12
2850.0 1989.0 12
2860.0 1979.0 12
2860.0 1979.0 12
2860.0 1989.0 12
2871.0 2010.0 12
2871.0 2041.0 12
2871.0 2073.0 12
2871.0 2093.0 12
2871.0 2104.0 12
2881.0 2104.0 12
2954.0 2041.0 13
2965.0 2041.0 13
2985.0 2052.0 13
3017.0 2062.0 13
3027.0 2062.0 13
3048.0 2073.0 13
3058.0 2073.0 13
3058.0 2093.0 13
3048.0 2093.0 13
3027.0 2093.0 13
2996.0 2083.0 13
2975.0 2073.0 13
2954.0 2041.0 13
2944.0 2020.0 13
2954.0 2010.0 13
2965.0 1989.0 13
2985.0 1979.0 13
3017.0 1979.0 13
3048.0 1979.0 13
3069.0 1979.0 13
3142.0 2198.0 14
3131.0 2218.0 14
3131.0 2208.0 14
3131.0 2041.0 14
3142.0 2010.0 14
3142.0 2000.0 14
3142.0 2000.0 14
3142.0 2000.0 14
3194.0 2093.0 15
3183.0 2083.0 15
3183.0 2062.0 15
3183.0 2041.0 15
3194.0 2031.0 15
3215.0 2020.0 15
3235.0 2020.0 15
3235.0 2020.0 15
3319.0 2156.0 16
3329.0 2156.0 16
3329.0 2135.0 16
3308.0 2083.0 16
3288.0 2020.0 16
3267.0 1958.0 16
3267.0 1906.0 16
3267.0 1885.0 16
3256.0 1885.0 16
2840.0 2010.0 17
2840.0 2010.0 17
2840.0 2010.0 17
2829.0 2010.0 17
2829.0 2010.0 17
2829.0 2010.0 17
2829.0 2020.0 17
2829.0 2010.0 17
2829.0 2020.0 17
2829.0 2020.0 17
2819.0 2020.0 17
2819.0 2020.0 17
2819.0 2020.0 17
2819.0 2020.0 17
2819.0 2020.0 17
2819.0 2031.0 17
2819.0 2031.0 17
2808.0 2031.0 17
2808.0 2031.0 17
2808.0 2031.0 17
2808.0 2041.0 17
2808.0 2041.0 17
2808.0 2052.0 17
2808.0 2052.0 17
2808.0 2062.0 17
2808.0 2062.0 17
2808.0 2062.0 17
2808.0 2062.0 17
2808.0 2073.0 17
2808.0 2073.0 17
2808.0 2073.0 17
2808.0 2083.0 17
2808.0 2083.0 17
2808.0 2083.0 17
2808.0 2093.0 17
2798.0 2104.0 17
2808.0 2104.0 17

