1652.0 1802.0 1
1652.0 1823.0 1
1663.0 1812.0 1
1683.0 1760.0 1
1694.0 1698.0 1
1715.0 1656.0 1
1746.0 1614.0 1
1767.0 1562.0 1
1788.0 1541.0 1
1788.0 1531.0 1
1788.0 1541.0 1
1788.0 1541.0 1
1798.0 1573.0 1
1808.0 1614.0 1
1819.0 1708.0 1
1829.0 1802.0 1
1850.0 1854.0 1
1850.0 1885.0 1
1860.0 1906.0 1
1860.0 1916.0 1
1860.0 1906.0 1
1975.0 1750.0 2
1965.0 1750.0 2
1965.0 1729.0 2
1954.0 1698.0 2
1954.0 1677.0 2
1944.0 1635.0 2
1954.0 1604.0 2
1965.0 1583.0 2
1975.0 1573.0 2
1985.0 1573.0 2
2027.0 1604.0 2
2038.0 1625.0 2
2038.0 1656.0 2
2038.0 1687.0 2
2006.0 1729.0 2
1985.0 1750.0 2
1965.0 1750.0 2
1923.0 1729.0 2
1923.0 1708.0 2
1923.0 1677.0 2
2142.0 1885.0 3
2142.0 1885.0 3
2142.0 1864.0 3
2152.0 1823.0 3
2163.0 1729.0 3
2163.0 1677.0 3
2173.0 1635.0 3
2173.0 1604.0 3
2173.0 1583.0 3
2173.0 1593.0 3
2340.0 1750.0 4
2340.0 1750.0 4
2340.0 1750.0 4
2340.0 1750.0 4
2340.0 1770.0 4
2340.0 1791.0 4
2329.0 1802.0 4
2319.0 1812.0 4
2288.0 1812.0 4
2256.0 1781.0 4
2235.0 1739.0 4
2225.0 1677.0 4
2225.0 1645.0 4
2235.0 1625.0 4
2256.0 1614.0 4
2288.0 1614.0 4
2319.0 1614.0 4
2340.0 1614.0 4
2350.0 1625.0 4
2496.0 1750.0 5
2485.0 1770.0 5
2475.0 1781.0 5
2454.0 1791.0 5
2423.0 1781.0 5
2402.0 1760.0 5
2381.0 1718.0 5
2371.0 1687.0 5
2371.0 1645.0 5
2392.0 1635.0 5
2402.0 1625.0 5
2423.0 1625.0 5
2444.0 1635.0 5
2454.0 1666.0 5
2465.0 1677.0 5
2465.0 1718.0 5
2465.0 1750.0 5
2465.0 1739.0 5
2465.0 1708.0 5
2475.0 1677.0 5
2485.0 1656.0 5
2496.0 1635.0 5
2517.0 1635.0 5
2527.0 1635.0 5
2548.0 1739.0 6
2548.0 1739.0 6
2548.0 1708.0 6
2548.0 1687.0 6
2548.0 1666.0 6
2558.0 1656.0 6
2558.0 1645.0 6
2548.0 1656.0 6
2548.0 1656.0 6
2538.0 1698.0 6
2548.0 1739.0 6
2569.0 1781.0 6
2590.0 1802.0 6
2621.0 1812.0 6
2631.0 1802.0 6
2652.0 1770.0 6
2652.0 1739.0 6
2663.0 1698.0 6
2663.0 1645.0 6
2663.0 1635.0 6
2756.0 1760.0 7
2756.0 1718.0 7
2756.0 1698.0 7
2767.0 1677.0 7
2767.0 1656.0 7
2767.0 1656.0 7
2767.0 1656.0 7
2777.0 1875.0 8
2777.0 1885.0 8
2788.0 1885.0 8
2798.0 1885.0 8
2923.0 1760.0 9
2923.0 1760.0 9
2933.0 1760.0 9
2933.0 1781.0 9
2944.0 1791.0 9
2944.0 1802.0 9
2944.0 1823.0 9
2933.0 1823.0 9
2913.0 1823.0 9
2881.0 1802.0 9
2850.0 1739.0 9
2840.0 1698.0 9
2840.0 1656.0 9
2850.0 1635.0 9
2881.0 1614.0 9
2923.0 1614.0 9
2965.0 1614.0 9
2996.0 1635.0 9
3006.0 1635.0 9

