1277.0 1875.0 1
1277.0 1864.0 1
1277.0 1833.0 1
1277.0 1770.0 1
1288.0 1677.0 1
1298.0 1625.0 1
1298.0 1573.0 1
1298.0 1552.0 1
1288.0 1562.0 1
1277.0 1604.0 1
1267.0 1656.0 1
1235.0 1760.0 1
1225.0 1802.0 1
1225.0 1823.0 1
1204.0 1833.0 1
1204.0 1854.0 1
1204.0 1864.0 1
1204.0 1875.0 1
1225.0 1875.0 1
1350.0 1875.0 1
1423.0 1875.0 1
1475.0 1854.0 1
1496.0 1833.0 1
1496.0 1802.0 1
1475.0 1770.0 1
1423.0 1760.0 1
1360.0 1729.0 1
1319.0 1708.0 1
1298.0 1698.0 1
1298.0 1677.0 1
1319.0 1677.0 1
1350.0 1666.0 1
1381.0 1656.0 1
1444.0 1635.0 1
1475.0 1604.0 1
1496.0 1573.0 1
1506.0 1562.0 1
1517.0 1552.0 1
1527.0 1552.0 1
1548.0 1677.0 2
1538.0 1677.0 2
1538.0 1677.0 2
1558.0 1666.0 2
1579.0 1656.0 2
1610.0 1656.0 2
1642.0 1656.0 2
1673.0 1677.0 2
1694.0 1708.0 2
1683.0 1729.0 2
1663.0 1750.0 2
1621.0 1760.0 2
1590.0 1750.0 2
1569.0 1708.0 2
1548.0 1677.0 2
1548.0 1625.0 2
1569.0 1583.0 2
1610.0 1552.0 2
1652.0 1552.0 2
1725.0 1562.0 2
1829.0 1718.0 3
1850.0 1708.0 3
1860.0 1687.0 3
1892.0 1645.0 3
1902.0 1583.0 3
1892.0 1489.0 3
1850.0 1437.0 3
1819.0 1406.0 3
1798.0 1406.0 3
1767.0 1448.0 3
1756.0 1500.0 3
1788.0 1916.0 4
1777.0 1916.0 4
1777.0 1916.0 4
1777.0 1916.0 4
1954.0 1718.0 5
1944.0 1739.0 5
1944.0 1739.0 5
1954.0 1739.0 5
1965.0 1729.0 5
1975.0 1698.0 5
1975.0 1656.0 5
1975.0 1614.0 5
1985.0 1593.0 5
1996.0 1583.0 5
2027.0 1583.0 5
2058.0 1604.0 5
2069.0 1635.0 5
2079.0 1666.0 5
2079.0 1729.0 5
2079.0 1750.0 5
2079.0 1760.0 5
2079.0 1750.0 5
2079.0 1718.0 5
2090.0 1687.0 5
2121.0 1635.0 5
2131.0 1604.0 5
2142.0 1583.0 5
2142.0 1573.0 5
2152.0 1573.0 5
2173.0 1770.0 6
2173.0 1760.0 6
2183.0 1750.0 6
2194.0 1729.0 6
2204.0 1687.0 6
2215.0 1645.0 6
2225.0 1614.0 6
2235.0 1593.0 6
2235.0 1583.0 6
2235.0 1593.0 6
2246.0 1614.0 6
2246.0 1635.0 6
2256.0 1666.0 6
2267.0 1698.0 6
2277.0 1729.0 6
2288.0 1760.0 6
2288.0 1791.0 6
2288.0 1791.0 6
2340.0 1687.0 7
2340.0 1698.0 7
2350.0 1698.0 7
2371.0 1698.0 7
2392.0 1708.0 7
2423.0 1718.0 7
2433.0 1729.0 7
2433.0 1750.0 7
2433.0 1770.0 7
2413.0 1791.0 7
2392.0 1802.0 7
2371.0 1791.0 7
2350.0 1760.0 7
2340.0 1718.0 7
2340.0 1687.0 7
2340.0 1656.0 7
2360.0 1625.0 7
2381.0 1604.0 7
2433.0 1604.0 7
2475.0 1625.0 7
2506.0 1656.0 7
2527.0 1781.0 8
2506.0 1781.0 8
2506.0 1781.0 8
2517.0 1770.0 8
2527.0 1729.0 8
2538.0 1677.0 8
2548.0 1656.0 8
2548.0 1635.0 8
2548.0 1645.0 8
2538.0 1656.0 8
2538.0 1687.0 8
2538.0 1729.0 8
2558.0 1781.0 8
2569.0 1802.0 8
2579.0 1802.0 8
2600.0 1802.0 8
2621.0 1791.0 8
2631.0 1770.0 8
2652.0 1739.0 8
2663.0 1708.0 8
2663.0 1635.0 8
2829.0 1739.0 9
2829.0 1739.0 9
2819.0 1739.0 9
2819.0 1760.0 9
2819.0 1781.0 9
2808.0 1812.0 9
2788.0 1843.0 9
2756.0 1843.0 9
2735.0 1833.0 9
2704.0 1791.0 9
2694.0 1718.0 9
2694.0 1677.0 9
2725.0 1645.0 9
2756.0 1635.0 9
2798.0 1635.0 9
2808.0 1645.0 9
2819.0 1677.0 9
2819.0 1708.0 9
2819.0 1760.0 9
2819.0 1791.0 9
2819.0 1781.0 9
2819.0 1750.0 9
2829.0 1718.0 9
2829.0 1677.0 9
2829.0 1645.0 9
2840.0 1625.0 9
2850.0 1625.0 9
2933.0 1906.0 10
2933.0 1906.0 10
2944.0 1875.0 10
2954.0 1833.0 10
2965.0 1781.0 10
2965.0 1739.0 10
2975.0 1698.0 10
2975.0 1677.0 10
2975.0 1656.0 10
2975.0 1645.0 10
2965.0 1645.0 10
2881.0 1791.0 11
2871.0 1791.0 11
2881.0 1791.0 11
2892.0 1781.0 11
2954.0 1781.0 11
2996.0 1791.0 11
3027.0 1791.0 11
3090.0 1812.0 12
3090.0 1781.0 12
3090.0 1739.0 12
3090.0 1698.0 12
3100.0 1666.0 12
3100.0 1656.0 12
3048.0 1937.0 13
3038.0 1937.0 13
3038.0 1937.0 13
3163.0 1823.0 14
3163.0 1802.0 14
3163.0 1781.0 14
3163.0 1739.0 14
3173.0 1687.0 14
3173.0 1666.0 14
3173.0 1666.0 14
3173.0 1666.0 14
3173.0 1698.0 14
3173.0 1739.0 14
3173.0 1833.0 14
3194.0 1864.0 14
3204.0 1864.0 14
3225.0 1854.0 14
3246.0 1833.0 14
3277.0 1781.0 14
3288.0 1739.0 14
3288.0 1708.0 14
3277.0 1687.0 14
3277.0 1677.0 14
3277.0 1677.0 14
3413.0 1843.0 15
3413.0 1843.0 15
3402.0 1854.0 15
3381.0 1854.0 15
3340.0 1843.0 15
3308.0 1812.0 15
3298.0 1781.0 15
3298.0 1739.0 15
3329.0 1698.0 15
3371.0 1687.0 15
3402.0 1687.0 15
3423.0 1687.0 15
3433.0 1698.0 15
3433.0 1739.0 15
3423.0 1770.0 15
3402.0 1812.0 15
3402.0 1833.0 15
3402.0 1823.0 15
3433.0 1770.0 15
3465.0 1698.0 15
3485.0 1645.0 15
3485.0 1562.0 15
3465.0 1489.0 15
3402.0 1427.0 15
3340.0 1385.0 15
3277.0 1375.0 15

