242.0 2775.0 1
252.0 2764.0 1
252.0 2723.0 1
252.0 2681.0 1
252.0 2639.0 1
252.0 2629.0 1
252.0 2618.0 1
242.0 2806.0 2
242.0 2806.0 2
242.0 2806.0 2
263.0 2827.0 2
294.0 2858.0 2
335.0 2879.0 2
356.0 2889.0 2
377.0 2900.0 2
377.0 2900.0 2
377.0 2889.0 2
242.0 2723.0 3
252.0 2733.0 3
263.0 2754.0 3
294.0 2775.0 3
315.0 2785.0 3
335.0 2795.0 3
335.0 2795.0 3
335.0 2764.0 3
242.0 2608.0 4
242.0 2608.0 4
273.0 2618.0 4
304.0 2639.0 4
356.0 2670.0 4
377.0 2681.0 4
388.0 2691.0 4
388.0 2691.0 4
388.0 2681.0 4

