881.0 1906.0 1
881.0 1906.0 1
881.0 1906.0 1
881.0 1906.0 1
871.0 1875.0 1
850.0 1833.0 1
808.0 1750.0 1
767.0 1666.0 1
756.0 1604.0 1
746.0 1562.0 1
756.0 1541.0 1
777.0 1552.0 1
798.0 1573.0 1
840.0 1614.0 1
892.0 1687.0 1
933.0 1760.0 1
975.0 1833.0 1
996.0 1885.0 1
1006.0 1927.0 1
1006.0 1927.0 1
996.0 1916.0 1
965.0 1854.0 1
933.0 1781.0 1
902.0 1698.0 1
881.0 1635.0 1
892.0 1583.0 1
902.0 1562.0 1
913.0 1562.0 1
923.0 1562.0 1
944.0 1573.0 1
1038.0 1760.0 2
1038.0 1770.0 2
1038.0 1770.0 2
1038.0 1750.0 2
1027.0 1718.0 2
1017.0 1677.0 2
996.0 1614.0 2
975.0 1583.0 2
975.0 1562.0 2
975.0 1552.0 2
975.0 1541.0 2
975.0 1552.0 2
975.0 1562.0 2
975.0 1573.0 2
975.0 1573.0 2
975.0 1583.0 2
985.0 1593.0 2
985.0 1604.0 2
985.0 1614.0 2
996.0 1635.0 2
1017.0 1656.0 2
1027.0 1677.0 2
1038.0 1698.0 2
1069.0 1718.0 2
1090.0 1739.0 2
1100.0 1750.0 2
1121.0 1750.0 2
1142.0 1750.0 2
1142.0 1750.0 2
1142.0 1739.0 2
1152.0 1718.0 2
1152.0 1698.0 2
1152.0 1677.0 2
1142.0 1645.0 2
1121.0 1593.0 2
1100.0 1573.0 2
1100.0 1541.0 2
1090.0 1531.0 2
1090.0 1531.0 2
1090.0 1541.0 2
1100.0 1541.0 2
1100.0 1552.0 2
1110.0 1562.0 2
1308.0 1729.0 3
1308.0 1729.0 3
1308.0 1729.0 3
1308.0 1718.0 3
1298.0 1708.0 3
1298.0 1698.0 3
1298.0 1698.0 3
1298.0 1698.0 3
1308.0 1698.0 3
1319.0 1718.0 3
1329.0 1739.0 3
1329.0 1750.0 3
1319.0 1760.0 3
1298.0 1750.0 3
1256.0 1729.0 3
1225.0 1698.0 3
1194.0 1656.0 3
1194.0 1625.0 3
1194.0 1593.0 3
1215.0 1583.0 3
1235.0 1583.0 3
1256.0 1583.0 3
1288.0 1593.0 3
1308.0 1614.0 3
1444.0 1760.0 4
1444.0 1760.0 4
1444.0 1760.0 4
1423.0 1750.0 4
1402.0 1718.0 4
1381.0 1677.0 4
1360.0 1645.0 4
1350.0 1614.0 4
1360.0 1593.0 4
1371.0 1583.0 4
1392.0 1593.0 4
1413.0 1614.0 4
1444.0 1645.0 4
1465.0 1698.0 4
1465.0 1729.0 4
1465.0 1750.0 4
1444.0 1760.0 4
1423.0 1760.0 4
1413.0 1739.0 4
1402.0 1729.0 4
1527.0 1750.0 5
1527.0 1750.0 5
1527.0 1739.0 5
1517.0 1708.0 5
1506.0 1677.0 5
1485.0 1645.0 5
1454.0 1604.0 5
1454.0 1583.0 5
1454.0 1593.0 5
1475.0 1614.0 5
1485.0 1645.0 5
1506.0 1677.0 5
1527.0 1708.0 5
1548.0 1718.0 5
1569.0 1729.0 5
1579.0 1718.0 5
1590.0 1698.0 5
1600.0 1677.0 5
1590.0 1656.0 5
1590.0 1635.0 5
1579.0 1614.0 5
1579.0 1604.0 5
1579.0 1604.0 5
1579.0 1614.0 5
1590.0 1645.0 5
1600.0 1666.0 5
1621.0 1698.0 5
1652.0 1729.0 5
1673.0 1739.0 5
1673.0 1739.0 5
1683.0 1729.0 5
1683.0 1698.0 5
1683.0 1666.0 5
1683.0 1645.0 5
1673.0 1614.0 5
1673.0 1604.0 5
1673.0 1593.0 5
1913.0 1833.0 6
1923.0 1864.0 6
1923.0 1885.0 6
1913.0 1895.0 6
1902.0 1906.0 6
1881.0 1885.0 6
1850.0 1802.0 6
1808.0 1718.0 6
1777.0 1645.0 6
1767.0 1593.0 6
1756.0 1562.0 6
1767.0 1552.0 6
1777.0 1552.0 6
1683.0 1739.0 7
1683.0 1729.0 7
1704.0 1729.0 7
1735.0 1729.0 7
1767.0 1729.0 7
1808.0 1739.0 7
1850.0 1750.0 7
1871.0 1750.0 7
1892.0 1739.0 7
1975.0 1739.0 8
1965.0 1739.0 8
1954.0 1750.0 8
1944.0 1750.0 8
1913.0 1729.0 8
1892.0 1698.0 8
1881.0 1666.0 8
1871.0 1635.0 8
1871.0 1614.0 8
1881.0 1593.0 8
1892.0 1593.0 8
1913.0 1614.0 8
1933.0 1656.0 8
1954.0 1677.0 8
1965.0 1708.0 8
1965.0 1739.0 8
1965.0 1739.0 8
1944.0 1739.0 8
1944.0 1729.0 8
2038.0 1729.0 9
2038.0 1729.0 9
2048.0 1729.0 9
2048.0 1729.0 9
2038.0 1708.0 9
2027.0 1687.0 9
2006.0 1656.0 9
2006.0 1635.0 9
1996.0 1625.0 9
1996.0 1635.0 9
2006.0 1656.0 9
2027.0 1666.0 9
2048.0 1698.0 9
2090.0 1739.0 9
2121.0 1750.0 9
2142.0 1750.0 9
2152.0 1739.0 9
2163.0 1729.0 9
2152.0 1708.0 9
2152.0 1708.0 9
2277.0 1843.0 10
2277.0 1843.0 10
2277.0 1833.0 10
2267.0 1791.0 10
2246.0 1708.0 10
2215.0 1656.0 10
2204.0 1614.0 10
2194.0 1604.0 10
2194.0 1593.0 10
2131.0 1718.0 11
2121.0 1718.0 11
2121.0 1718.0 11
2121.0 1708.0 11
2142.0 1708.0 11
2173.0 1708.0 11
2246.0 1739.0 11
2298.0 1750.0 11
2329.0 1760.0 11
2350.0 1760.0 11
2340.0 1760.0 11
2381.0 1698.0 12
2381.0 1698.0 12
2402.0 1708.0 12
2413.0 1729.0 12
2423.0 1739.0 12
2423.0 1750.0 12
2413.0 1770.0 12
2392.0 1770.0 12
2371.0 1760.0 12
2340.0 1739.0 12
2319.0 1698.0 12
2319.0 1666.0 12
2319.0 1645.0 12
2329.0 1645.0 12
2350.0 1656.0 12
2371.0 1677.0 12
2392.0 1698.0 12
2423.0 1729.0 12
2423.0 1750.0 12
2433.0 1760.0 12
2433.0 1760.0 12
2423.0 1729.0 12
2402.0 1698.0 12
2402.0 1677.0 12
2402.0 1666.0 12
2413.0 1645.0 12
2423.0 1645.0 12
2444.0 1656.0 12
2600.0 1864.0 13
2590.0 1864.0 13
2590.0 1864.0 13
2579.0 1854.0 13
2579.0 1833.0 13
2569.0 1812.0 13
2569.0 1802.0 13
2558.0 1770.0 13
2538.0 1729.0 13
2506.0 1708.0 13
2506.0 1677.0 13
2506.0 1677.0 13
2496.0 1666.0 13
2496.0 1677.0 13
2496.0 1677.0 13
2496.0 1677.0 13
2496.0 1677.0 13
2496.0 1677.0 13
2496.0 1666.0 13
2496.0 1687.0 13
2496.0 1687.0 13
2506.0 1718.0 13
2517.0 1729.0 13
2538.0 1739.0 13
2548.0 1750.0 13
2569.0 1750.0 13
2569.0 1739.0 13
2579.0 1729.0 13
2579.0 1708.0 13
2579.0 1698.0 13
2569.0 1677.0 13
2538.0 1645.0 13
2506.0 1635.0 13
2475.0 1625.0 13
2454.0 1625.0 13
2444.0 1625.0 13
2444.0 1635.0 13
2735.0 1895.0 14
2735.0 1895.0 14
2725.0 1895.0 14
2715.0 1854.0 14
2694.0 1781.0 14
2663.0 1718.0 14
2631.0 1677.0 14
2621.0 1645.0 14
2610.0 1635.0 14
2610.0 1635.0 14
2621.0 1645.0 14
2631.0 1666.0 14
2735.0 1770.0 15
2735.0 1781.0 15
2735.0 1770.0 15
2715.0 1760.0 15
2704.0 1739.0 15
2694.0 1708.0 15
2694.0 1677.0 15
2694.0 1666.0 15
2694.0 1645.0 15
2725.0 1645.0 15
2756.0 1666.0 15
2788.0 1677.0 15
2819.0 1698.0 15
2840.0 1750.0 15
2850.0 1770.0 15
2850.0 1791.0 15
2840.0 1791.0 15
2840.0 1781.0 15
2829.0 1750.0 15
2819.0 1708.0 15
2808.0 1635.0 15
2788.0 1541.0 15
2788.0 1468.0 15
2777.0 1406.0 15
2767.0 1364.0 15
2735.0 1323.0 15
2694.0 1312.0 15
2631.0 1312.0 15
2569.0 1333.0 15
2496.0 1354.0 15

