548.0 1125.0 1
527.0 1135.0 1
527.0 1145.0 1
527.0 1135.0 1
538.0 1125.0 1
558.0 1083.0 1
600.0 1020.0 1
621.0 968.0 1
642.0 937.0 1
663.0 906.0 1
673.0 885.0 1
673.0 885.0 1
673.0 885.0 1
673.0 885.0 1
652.0 916.0 1
621.0 968.0 1
590.0 1020.0 1
569.0 1083.0 1
538.0 1177.0 1
538.0 1250.0 1
538.0 1281.0 1
548.0 1302.0 1
579.0 1302.0 1
610.0 1281.0 1
642.0 1270.0 1
673.0 1239.0 1
683.0 1208.0 1
694.0 1187.0 1
694.0 1156.0 1
663.0 1114.0 1
621.0 1083.0 1
579.0 1052.0 1
548.0 1041.0 1
517.0 1041.0 1
517.0 1052.0 1
746.0 1270.0 2
756.0 1239.0 2
756.0 1187.0 2
756.0 1177.0 2
777.0 1156.0 2
788.0 1145.0 2
788.0 1135.0 2
788.0 1145.0 2
777.0 1166.0 2
767.0 1208.0 2
756.0 1229.0 2
746.0 1260.0 2
746.0 1291.0 2
767.0 1302.0 2
892.0 1302.0 3
892.0 1302.0 3
881.0 1270.0 3
881.0 1239.0 3
881.0 1187.0 3
892.0 1177.0 3
913.0 1177.0 3
933.0 1177.0 3
944.0 1187.0 3
954.0 1208.0 3
954.0 1229.0 3
944.0 1250.0 3
933.0 1281.0 3
902.0 1302.0 3
860.0 1302.0 3
840.0 1302.0 3
840.0 1302.0 3
975.0 1323.0 4
985.0 1312.0 4
996.0 1291.0 4
1017.0 1260.0 4
1038.0 1239.0 4
1048.0 1218.0 4
1048.0 1198.0 4
1058.0 1177.0 4
1069.0 1156.0 4
1069.0 1135.0 4
1058.0 1135.0 4
1048.0 1114.0 4
1017.0 1114.0 4
923.0 1437.0 5
913.0 1437.0 5
902.0 1437.0 5
902.0 1437.0 5
892.0 1437.0 5
1069.0 1333.0 6
1069.0 1333.0 6
1069.0 1323.0 6
1079.0 1323.0 6
1079.0 1333.0 6
1090.0 1354.0 6
1090.0 1375.0 6
1090.0 1406.0 6
1079.0 1406.0 6
1069.0 1406.0 6
1069.0 1406.0 6
1058.0 1385.0 6
1058.0 1354.0 6
1058.0 1302.0 6
1069.0 1281.0 6
1079.0 1260.0 6
1100.0 1260.0 6
1121.0 1260.0 6
1152.0 1270.0 6
1183.0 1281.0 6
1215.0 1406.0 7
1204.0 1406.0 7
1204.0 1406.0 7
1194.0 1406.0 7
1194.0 1395.0 7
1183.0 1364.0 7
1173.0 1343.0 7
1183.0 1312.0 7
1194.0 1291.0 7
1204.0 1281.0 7
1225.0 1291.0 7
1256.0 1302.0 7
1288.0 1323.0 7
1256.0 1489.0 8
1256.0 1479.0 8
1256.0 1458.0 8
1267.0 1406.0 8
1288.0 1385.0 8
1298.0 1364.0 8
1319.0 1333.0 8
1340.0 1333.0 8
1340.0 1323.0 8
1340.0 1323.0 8
1256.0 1406.0 9
1267.0 1406.0 9
1267.0 1406.0 9
1277.0 1427.0 9
1308.0 1458.0 9
1319.0 1468.0 9
1329.0 1479.0 9
1392.0 1448.0 10
1392.0 1448.0 10
1402.0 1437.0 10
1402.0 1427.0 10
1413.0 1416.0 10
1413.0 1406.0 10
1413.0 1395.0 10
1413.0 1385.0 10
1381.0 1531.0 11
1381.0 1531.0 11
1381.0 1531.0 11
1381.0 1520.0 11
1506.0 1500.0 12
1506.0 1468.0 12
1496.0 1458.0 12
1496.0 1437.0 12
1506.0 1416.0 12
1527.0 1385.0 12
1527.0 1385.0 12
1527.0 1385.0 12
1548.0 1395.0 12
1558.0 1416.0 12
1558.0 1448.0 12
1538.0 1468.0 12
1527.0 1479.0 12
1506.0 1489.0 12
1465.0 1489.0 12
1465.0 1468.0 12
1579.0 1458.0 13
1590.0 1448.0 13
1600.0 1437.0 13
1610.0 1406.0 13
1610.0 1406.0 13
1610.0 1406.0 13
1610.0 1416.0 13
1610.0 1437.0 13
1610.0 1458.0 13
1621.0 1489.0 13
1631.0 1500.0 13
1642.0 1510.0 13
1673.0 1510.0 13
1704.0 1500.0 13
1735.0 1489.0 13
1746.0 1479.0 13
1756.0 1468.0 13
1756.0 1458.0 13
1756.0 1437.0 13
1860.0 1552.0 14
1860.0 1573.0 14
1860.0 1573.0 14
1840.0 1583.0 14
1819.0 1573.0 14
1788.0 1562.0 14
1777.0 1531.0 14
1777.0 1520.0 14
1788.0 1510.0 14
1819.0 1500.0 14
1860.0 1489.0 14
1892.0 1479.0 14
1902.0 1479.0 14
1913.0 1468.0 14
1902.0 1448.0 14
1881.0 1437.0 14
1860.0 1437.0 14
1840.0 1427.0 14
1808.0 1416.0 14
1788.0 1406.0 14
1777.0 1406.0 14

