1152.0 2125.0 1
1110.0 2177.0 1
1090.0 2198.0 1
1027.0 2229.0 1
996.0 2239.0 1
954.0 2239.0 1
892.0 2218.0 1
819.0 2114.0 1
746.0 2010.0 1
694.0 1864.0 1
652.0 1708.0 1
642.0 1510.0 1
663.0 1406.0 1
704.0 1333.0 1
767.0 1302.0 1
860.0 1302.0 1
954.0 1333.0 1
1017.0 1385.0 1
1069.0 1458.0 1
1100.0 1520.0 1
1100.0 1573.0 1
1069.0 1614.0 1
1027.0 1656.0 1
965.0 1687.0 1
913.0 1698.0 1
881.0 1698.0 1
871.0 1677.0 1
892.0 1635.0 1
923.0 1614.0 1
975.0 1604.0 1
1038.0 1604.0 1
1131.0 1635.0 1
1194.0 1666.0 1
1235.0 1687.0 1
1277.0 1708.0 1
1465.0 1573.0 2
1465.0 1573.0 2
1465.0 1573.0 2
1496.0 1593.0 2
1527.0 1635.0 2
1548.0 1666.0 2
1569.0 1698.0 2
1579.0 1729.0 2
1579.0 1739.0 2
1569.0 1760.0 2
1538.0 1760.0 2
1485.0 1750.0 2
1433.0 1729.0 2
1402.0 1687.0 2
1381.0 1614.0 2
1381.0 1500.0 2
1392.0 1468.0 2
1413.0 1448.0 2
1454.0 1448.0 2
1527.0 1468.0 2
1590.0 1500.0 2
1840.0 1760.0 3
1829.0 1781.0 3
1798.0 1781.0 3
1777.0 1770.0 3
1746.0 1687.0 3
1725.0 1614.0 3
1715.0 1541.0 3
1715.0 1510.0 3
1725.0 1489.0 3
1746.0 1489.0 3
1777.0 1510.0 3
1788.0 1531.0 3
1819.0 1583.0 3
1819.0 1625.0 3
1808.0 1666.0 3
1788.0 1718.0 3
1746.0 1760.0 3
1715.0 1760.0 3
1694.0 1750.0 3
1694.0 1677.0 3
2038.0 1760.0 4
2038.0 1760.0 4
2027.0 1760.0 4
1996.0 1750.0 4
1965.0 1708.0 4
1944.0 1677.0 4
1944.0 1625.0 4
1944.0 1593.0 4
1965.0 1573.0 4
1985.0 1573.0 4
2017.0 1604.0 4
2038.0 1645.0 4
2058.0 1677.0 4
2058.0 1708.0 4
2058.0 1656.0 4
2090.0 1562.0 4
2100.0 1489.0 4
2131.0 1416.0 4
2142.0 1333.0 4
2142.0 1270.0 4
2142.0 1229.0 4
2121.0 1166.0 4
2100.0 1114.0 4
2079.0 1093.0 4
2225.0 1635.0 5
2225.0 1614.0 5
2235.0 1520.0 5
2246.0 1479.0 5
2246.0 1458.0 5
2246.0 1458.0 5
2246.0 1458.0 5
2256.0 1468.0 5
2256.0 1489.0 5
2267.0 1531.0 5
2267.0 1614.0 5
2277.0 1677.0 5
2288.0 1781.0 5
2308.0 1791.0 5
2319.0 1791.0 5
2340.0 1770.0 5
2538.0 1677.0 6
2538.0 1687.0 6
2527.0 1687.0 6
2506.0 1687.0 6
2475.0 1687.0 6
2444.0 1656.0 6
2402.0 1583.0 6
2392.0 1531.0 6
2381.0 1510.0 6
2392.0 1500.0 6
2413.0 1500.0 6
2444.0 1510.0 6
2475.0 1541.0 6
2506.0 1573.0 6
2517.0 1614.0 6
2517.0 1635.0 6
2517.0 1645.0 6
2517.0 1645.0 6
2517.0 1583.0 6
2527.0 1531.0 6
2538.0 1500.0 6
2579.0 1479.0 6
2610.0 1479.0 6
2642.0 1489.0 6
2673.0 1510.0 6
2808.0 1698.0 7
2808.0 1666.0 7
2808.0 1583.0 7
2808.0 1489.0 7
2829.0 1448.0 7
2829.0 1312.0 7
2829.0 1333.0 7
2819.0 1385.0 7
2808.0 1458.0 7
2808.0 1531.0 7
2829.0 1656.0 7
2840.0 1708.0 7
2860.0 1708.0 7
2881.0 1698.0 7
2913.0 1656.0 7
2944.0 1604.0 7
2954.0 1562.0 7
2965.0 1541.0 7
2954.0 1500.0 7
2933.0 1479.0 7
2902.0 1458.0 7
2860.0 1437.0 7
2798.0 1427.0 7
2756.0 1427.0 7
2725.0 1437.0 7
2725.0 1437.0 7
2923.0 2073.0 8
2913.0 2073.0 8
2923.0 1958.0 8
2944.0 1843.0 8
2965.0 1718.0 8
2985.0 1635.0 8
2996.0 1562.0 8
3006.0 1489.0 8
3017.0 1468.0 8
3017.0 1468.0 8
3017.0 1479.0 8
3017.0 1510.0 8
3017.0 1562.0 8
3027.0 1635.0 8
3048.0 1666.0 8
3058.0 1677.0 8
3079.0 1656.0 8
3110.0 1593.0 8
3121.0 1520.0 8
3142.0 1479.0 8
3173.0 1437.0 8
3183.0 1427.0 8
3225.0 1625.0 9
3225.0 1583.0 9
3225.0 1520.0 9
3235.0 1479.0 9
3256.0 1468.0 9
3267.0 1458.0 9
3277.0 1458.0 9
3308.0 1468.0 9
3329.0 1500.0 9
3350.0 1552.0 9
3360.0 1604.0 9
3371.0 1625.0 9
3381.0 1562.0 9
3392.0 1468.0 9
3413.0 1385.0 9
3444.0 1302.0 9
3475.0 1229.0 9
3475.0 1156.0 9
3506.0 1041.0 9
3506.0 948.0 9

