840.0 1437.0 1
840.0 1437.0 1
829.0 1437.0 1
829.0 1458.0 1
850.0 1510.0 1
881.0 1583.0 1
913.0 1687.0 1
933.0 1781.0 1
954.0 1854.0 1
965.0 1875.0 1
965.0 1864.0 1
975.0 1812.0 1
985.0 1718.0 1
996.0 1625.0 1
1006.0 1510.0 1
1006.0 1468.0 1
1017.0 1427.0 1
1017.0 1416.0 1
1017.0 1416.0 1
1017.0 1416.0 1
871.0 1614.0 2
871.0 1614.0 2
860.0 1614.0 2
860.0 1614.0 2
871.0 1614.0 2
892.0 1614.0 2
923.0 1625.0 2
954.0 1635.0 2
975.0 1635.0 2
1183.0 1583.0 3
1173.0 1583.0 3
1173.0 1593.0 3
1163.0 1593.0 3
1152.0 1593.0 3
1131.0 1583.0 3
1121.0 1541.0 3
1121.0 1520.0 3
1131.0 1520.0 3
1142.0 1520.0 3
1163.0 1541.0 3
1163.0 1552.0 3
1163.0 1562.0 3
1163.0 1573.0 3
1173.0 1562.0 3
1183.0 1552.0 3
1194.0 1510.0 3
1204.0 1458.0 3
1215.0 1375.0 3
1215.0 1312.0 3
1194.0 1281.0 3
1173.0 1250.0 3
1142.0 1239.0 3
1121.0 1250.0 3
1100.0 1260.0 3
1079.0 1281.0 3
1079.0 1323.0 3
1319.0 1573.0 4
1319.0 1573.0 4
1308.0 1573.0 4
1298.0 1573.0 4
1298.0 1541.0 4
1308.0 1510.0 4
1329.0 1500.0 4
1350.0 1500.0 4
1381.0 1510.0 4
1392.0 1541.0 4
1392.0 1573.0 4
1381.0 1604.0 4
1350.0 1614.0 4
1319.0 1614.0 4
1298.0 1604.0 4
1298.0 1593.0 4
1454.0 1593.0 5
1454.0 1593.0 5
1454.0 1593.0 5
1454.0 1510.0 5
1454.0 1500.0 5
1465.0 1500.0 5
1475.0 1520.0 5
1496.0 1541.0 5
1527.0 1583.0 5
1538.0 1593.0 5
1548.0 1583.0 5
1548.0 1562.0 5
1548.0 1531.0 5
1548.0 1500.0 5
1548.0 1489.0 5
1558.0 1479.0 5
1642.0 1593.0 6
1642.0 1593.0 6
1642.0 1573.0 6
1642.0 1531.0 6
1642.0 1510.0 6
1642.0 1500.0 6
1631.0 1489.0 6
1642.0 1687.0 7
1631.0 1698.0 7
1631.0 1708.0 7
1642.0 1687.0 7
1715.0 1614.0 8
1704.0 1614.0 8
1715.0 1614.0 8
1735.0 1625.0 8
1746.0 1625.0 8
1777.0 1625.0 8
1808.0 1625.0 8
1808.0 1614.0 8
1808.0 1604.0 8
1798.0 1583.0 8
1767.0 1552.0 8
1735.0 1520.0 8
1715.0 1500.0 8
1715.0 1479.0 8
1725.0 1468.0 8
1756.0 1468.0 8
1777.0 1479.0 8
1798.0 1479.0 8
1808.0 1489.0 8
1808.0 1489.0 8
1725.0 1552.0 9
1694.0 1552.0 9
1683.0 1552.0 9
1694.0 1552.0 9
1725.0 1552.0 9
1767.0 1552.0 9
1798.0 1552.0 9
1892.0 1604.0 10
1892.0 1604.0 10
1892.0 1583.0 10
1892.0 1562.0 10
1892.0 1531.0 10
1881.0 1510.0 10
1881.0 1500.0 10
1892.0 1677.0 11
1892.0 1698.0 11
1881.0 1708.0 11
1892.0 1698.0 11
1965.0 1614.0 12
1965.0 1614.0 12
1965.0 1614.0 12
1965.0 1593.0 12
1965.0 1562.0 12
1965.0 1541.0 12
1975.0 1552.0 12
1985.0 1573.0 12
2017.0 1604.0 12
2038.0 1625.0 12
2048.0 1625.0 12
2048.0 1604.0 12
2048.0 1573.0 12
2048.0 1541.0 12
2048.0 1520.0 12
2194.0 1604.0 13
2194.0 1614.0 13
2183.0 1625.0 13
2183.0 1625.0 13
2173.0 1625.0 13
2152.0 1625.0 13
2131.0 1614.0 13
2121.0 1583.0 13
2110.0 1562.0 13
2110.0 1552.0 13
2121.0 1541.0 13
2142.0 1552.0 13
2163.0 1573.0 13
2163.0 1583.0 13
2173.0 1593.0 13
2173.0 1593.0 13
2173.0 1583.0 13
2173.0 1573.0 13
2183.0 1531.0 13
2194.0 1489.0 13
2183.0 1406.0 13
2163.0 1354.0 13
2142.0 1312.0 13
2121.0 1291.0 13
2110.0 1281.0 13
2090.0 1281.0 13
2079.0 1281.0 13
2058.0 1302.0 13
2048.0 1333.0 13
2319.0 1791.0 14
2319.0 1802.0 14
2319.0 1802.0 14
2319.0 1781.0 14
2319.0 1718.0 14
2308.0 1666.0 14
2298.0 1614.0 14
2288.0 1573.0 14
2288.0 1552.0 14
2288.0 1541.0 14
2288.0 1541.0 14
2360.0 1635.0 15
2360.0 1635.0 15
2360.0 1635.0 15
2381.0 1635.0 15
2392.0 1614.0 15
2402.0 1604.0 15
2423.0 1593.0 15
2423.0 1583.0 15
2444.0 1573.0 15
2485.0 1625.0 16
2475.0 1614.0 16
2444.0 1573.0 16
2413.0 1500.0 16
2381.0 1437.0 16
2360.0 1375.0 16
2340.0 1323.0 16
2340.0 1291.0 16

