1590.0 1531.0 1
1590.0 1531.0 1
1579.0 1531.0 1
1579.0 1448.0 1
1579.0 1343.0 1
1569.0 1302.0 1
1569.0 1260.0 1
1569.0 1250.0 1
1569.0 1250.0 1
1569.0 1281.0 1
1579.0 1343.0 1
1579.0 1437.0 1
1579.0 1520.0 1
1579.0 1625.0 1
1579.0 1635.0 1
1590.0 1614.0 1
1600.0 1552.0 1
1621.0 1489.0 1
1642.0 1416.0 1
1663.0 1395.0 1
1683.0 1385.0 1
1694.0 1385.0 1
1715.0 1416.0 1
1725.0 1458.0 1
1735.0 1510.0 1
1756.0 1573.0 1
1767.0 1625.0 1
1777.0 1593.0 1
1777.0 1520.0 1
1788.0 1427.0 1
1788.0 1364.0 1
1788.0 1323.0 1
1788.0 1302.0 1
1808.0 1302.0 1
1808.0 1302.0 1
1923.0 1364.0 2
1923.0 1364.0 2
1923.0 1364.0 2
1933.0 1364.0 2
1944.0 1375.0 2
1965.0 1395.0 2
1975.0 1427.0 2
1975.0 1448.0 2
1975.0 1458.0 2
1965.0 1468.0 2
1944.0 1468.0 2
1913.0 1437.0 2
1913.0 1395.0 2
1913.0 1333.0 2
1944.0 1312.0 2
1975.0 1312.0 2
2006.0 1312.0 2
2048.0 1323.0 2
2058.0 1323.0 2
2079.0 1427.0 3
2079.0 1427.0 3
2079.0 1406.0 3
2090.0 1385.0 3
2090.0 1354.0 3
2090.0 1323.0 3
2090.0 1312.0 3
2100.0 1312.0 3
2100.0 1323.0 3
2100.0 1343.0 3
2121.0 1395.0 3
2142.0 1437.0 3
2152.0 1448.0 3
2163.0 1448.0 3
2163.0 1416.0 3
2173.0 1385.0 3
2173.0 1364.0 3
2183.0 1343.0 3
2183.0 1312.0 3
2235.0 1427.0 4
2235.0 1437.0 4
2235.0 1437.0 4
2235.0 1427.0 4
2246.0 1375.0 4
2246.0 1343.0 4
2267.0 1323.0 4
2288.0 1323.0 4
2308.0 1333.0 4
2319.0 1364.0 4
2340.0 1385.0 4
2340.0 1416.0 4
2350.0 1448.0 4
2350.0 1468.0 4
2350.0 1458.0 4
2360.0 1406.0 4
2360.0 1375.0 4
2360.0 1354.0 4
2371.0 1333.0 4
2381.0 1333.0 4
2392.0 1333.0 4

