2152.0 1229.0 1
2163.0 1218.0 1
2183.0 1187.0 1
2183.0 1145.0 1
2194.0 1104.0 1
2194.0 1083.0 1
2204.0 1052.0 1
2215.0 1031.0 1
2215.0 1000.0 1
2340.0 1177.0 2
2340.0 1135.0 2
2340.0 1104.0 2
2350.0 1062.0 2
2371.0 1041.0 2
2392.0 1020.0 2
2413.0 1020.0 2
2444.0 1020.0 2
2475.0 1052.0 2
2485.0 1062.0 2
2485.0 1093.0 2
2485.0 1104.0 2
2454.0 1114.0 2
2423.0 1104.0 2
2402.0 1093.0 2
2392.0 1073.0 2
2392.0 1052.0 2
2579.0 1229.0 3
2558.0 1239.0 3
2558.0 1239.0 3
2569.0 1239.0 3
2590.0 1239.0 3
2621.0 1239.0 3
2652.0 1250.0 3
2673.0 1250.0 3
2673.0 1250.0 3
2663.0 1229.0 3
2642.0 1187.0 3
2610.0 1166.0 3
2600.0 1156.0 3
2600.0 1145.0 3
2600.0 1145.0 3
2621.0 1145.0 3
2642.0 1156.0 3
2683.0 1156.0 3
2715.0 1156.0 3
2735.0 1135.0 3
2746.0 1104.0 3
2746.0 1073.0 3
2725.0 1041.0 3
2704.0 1020.0 3
2673.0 1010.0 3
2652.0 1000.0 3
2621.0 1010.0 3
2621.0 1020.0 3
2621.0 1041.0 3
2944.0 1229.0 4
2933.0 1239.0 4
2933.0 1250.0 4
2902.0 1250.0 4
2850.0 1239.0 4
2808.0 1208.0 4
2808.0 1198.0 4
2819.0 1177.0 4
2850.0 1156.0 4
2892.0 1135.0 4
2923.0 1104.0 4
2965.0 1083.0 4
2965.0 1052.0 4
2965.0 1041.0 4
2944.0 1020.0 4
2913.0 1020.0 4
2881.0 1020.0 4
2881.0 1041.0 4
2871.0 1062.0 4
2881.0 1104.0 4
2892.0 1125.0 4
2913.0 1145.0 4
2944.0 1187.0 4
2965.0 1198.0 4
3017.0 1198.0 5
2996.0 1166.0 5
2996.0 1093.0 5
3006.0 1062.0 5
3038.0 1041.0 5
3069.0 1020.0 5
3110.0 1020.0 5
3142.0 1041.0 5
3163.0 1062.0 5
3173.0 1093.0 5
3173.0 1135.0 5
3173.0 1177.0 5
3152.0 1208.0 5
3131.0 1229.0 5
3100.0 1239.0 5
3069.0 1239.0 5
3038.0 1229.0 5

