1329.0 1573.0 1
1329.0 1583.0 1
1329.0 1583.0 1
1329.0 1583.0 1
1329.0 1562.0 1
1329.0 1520.0 1
1319.0 1468.0 1
1319.0 1427.0 1
1319.0 1364.0 1
1308.0 1333.0 1
1308.0 1302.0 1
1329.0 1302.0 1
1329.0 1302.0 1
1340.0 1291.0 1
1360.0 1291.0 1
1381.0 1291.0 1
1423.0 1302.0 1
1454.0 1302.0 1
1475.0 1302.0 1
1496.0 1302.0 1
1496.0 1302.0 1
1329.0 1385.0 2
1319.0 1406.0 2
1340.0 1406.0 2
1381.0 1406.0 2
1413.0 1406.0 2
1433.0 1406.0 2
1444.0 1406.0 2
1288.0 1541.0 3
1288.0 1552.0 3
1319.0 1552.0 3
1350.0 1552.0 3
1381.0 1552.0 3
1423.0 1552.0 3
1548.0 1468.0 4
1548.0 1427.0 4
1548.0 1385.0 4
1558.0 1343.0 4
1558.0 1323.0 4
1558.0 1302.0 4
1558.0 1302.0 4
1558.0 1312.0 4
1569.0 1333.0 4
1569.0 1364.0 4
1579.0 1395.0 4
1590.0 1427.0 4
1610.0 1427.0 4
1610.0 1416.0 4
1631.0 1395.0 4
1642.0 1354.0 4
1652.0 1333.0 4
1652.0 1312.0 4
1652.0 1291.0 4
1652.0 1291.0 4
1652.0 1291.0 4
1663.0 1302.0 4
1673.0 1333.0 4
1683.0 1364.0 4
1704.0 1395.0 4
1704.0 1406.0 4
1715.0 1406.0 4
1725.0 1395.0 4
1735.0 1375.0 4
1735.0 1354.0 4
1746.0 1333.0 4
1746.0 1323.0 4
1756.0 1312.0 4
1767.0 1312.0 4
1840.0 1573.0 5
1840.0 1541.0 5
1840.0 1500.0 5
1850.0 1458.0 5
1850.0 1333.0 5
1840.0 1333.0 5
1840.0 1333.0 5
1850.0 1364.0 5
1860.0 1395.0 5
1871.0 1427.0 5
1892.0 1427.0 5
1913.0 1416.0 5
1923.0 1395.0 5
1933.0 1364.0 5
1944.0 1343.0 5
1933.0 1333.0 5
1923.0 1312.0 5
1892.0 1302.0 5
1871.0 1302.0 5
1850.0 1312.0 5
1840.0 1333.0 5
1829.0 1333.0 5
1985.0 1427.0 6
1985.0 1416.0 6
1985.0 1385.0 6
1985.0 1354.0 6
1985.0 1333.0 6
1985.0 1312.0 6
1996.0 1312.0 6
1996.0 1354.0 6
1996.0 1406.0 6
2027.0 1416.0 6
2038.0 1427.0 6
2048.0 1427.0 6
2069.0 1416.0 6
2183.0 1395.0 7
2183.0 1416.0 7
2183.0 1427.0 7
2173.0 1437.0 7
2163.0 1437.0 7
2152.0 1427.0 7
2131.0 1406.0 7
2121.0 1385.0 7
2121.0 1354.0 7
2121.0 1333.0 7
2131.0 1323.0 7
2142.0 1323.0 7
2152.0 1323.0 7
2173.0 1333.0 7
2183.0 1364.0 7
2183.0 1385.0 7
2194.0 1406.0 7
2194.0 1416.0 7
2194.0 1416.0 7
2183.0 1406.0 7
2183.0 1385.0 7
2183.0 1354.0 7
2194.0 1323.0 7
2194.0 1302.0 7
2204.0 1291.0 7
2225.0 1291.0 7
2360.0 1427.0 8
2350.0 1427.0 8
2329.0 1427.0 8
2319.0 1427.0 8
2298.0 1416.0 8
2277.0 1406.0 8
2267.0 1375.0 8
2267.0 1364.0 8
2277.0 1333.0 8
2288.0 1323.0 8
2308.0 1302.0 8
2329.0 1302.0 8
2350.0 1302.0 8
2392.0 1375.0 9
2402.0 1375.0 9
2413.0 1375.0 9
2423.0 1375.0 9
2444.0 1375.0 9
2454.0 1385.0 9
2465.0 1395.0 9
2475.0 1406.0 9
2475.0 1416.0 9
2454.0 1427.0 9
2433.0 1427.0 9
2413.0 1427.0 9
2402.0 1427.0 9
2392.0 1406.0 9
2371.0 1375.0 9
2371.0 1354.0 9
2381.0 1333.0 9
2392.0 1323.0 9
2423.0 1312.0 9
2444.0 1312.0 9
2610.0 1437.0 10
2610.0 1437.0 10
2610.0 1448.0 10
2590.0 1458.0 10
2579.0 1448.0 10
2558.0 1448.0 10
2548.0 1437.0 10
2548.0 1427.0 10
2558.0 1416.0 10
2579.0 1406.0 10
2610.0 1395.0 10
2631.0 1375.0 10
2663.0 1364.0 10
2673.0 1343.0 10
2673.0 1323.0 10
2663.0 1302.0 10
2642.0 1291.0 10
2600.0 1291.0 10
2569.0 1302.0 10
2548.0 1312.0 10
2527.0 1312.0 10
2517.0 1312.0 10
2517.0 1323.0 10
2517.0 1312.0 10

