1402.0 2291.0 1
1402.0 2312.0 1
1402.0 2302.0 1
1402.0 2281.0 1
1413.0 2229.0 1
1413.0 2198.0 1
1413.0 2135.0 1
1423.0 2125.0 1
1485.0 2302.0 2
1496.0 2333.0 2
1506.0 2323.0 2
1506.0 2281.0 2
1517.0 2229.0 2
1517.0 2187.0 2
1517.0 2145.0 2
1527.0 2135.0 2
1538.0 2135.0 2
1381.0 2218.0 3
1381.0 2218.0 3
1381.0 2218.0 3
1392.0 2218.0 3
1444.0 2239.0 3
1506.0 2250.0 3
1548.0 2260.0 3
1579.0 2270.0 3
1590.0 2281.0 3
1590.0 2270.0 3
1590.0 2260.0 3
1590.0 2239.0 3
1579.0 2187.0 3
1579.0 2156.0 3
1579.0 2135.0 3
1590.0 2135.0 3
1610.0 2135.0 3
1631.0 2156.0 3
1642.0 2187.0 3
1663.0 2229.0 3
1663.0 2270.0 3
1663.0 2270.0 3
1663.0 2270.0 3
1663.0 2229.0 3
1663.0 2198.0 3
1663.0 2156.0 3
1663.0 2135.0 3
1673.0 2104.0 3
1694.0 2104.0 3
1767.0 2250.0 4
1756.0 2260.0 4
1746.0 2260.0 4
1715.0 2239.0 4
1704.0 2218.0 4
1683.0 2177.0 4
1694.0 2166.0 4
1704.0 2166.0 4
1725.0 2166.0 4
1735.0 2187.0 4
1746.0 2208.0 4
1746.0 2239.0 4
1756.0 2239.0 4
1767.0 2208.0 4
1767.0 2156.0 4
1777.0 2104.0 4
1777.0 2052.0 4
1767.0 2020.0 4
1746.0 2000.0 4
1725.0 1989.0 4
1683.0 1989.0 4
1663.0 2010.0 4
1881.0 2229.0 5
1881.0 2239.0 5
1871.0 2250.0 5
1860.0 2260.0 5
1829.0 2250.0 5
1798.0 2229.0 5
1777.0 2208.0 5
1777.0 2187.0 5
1788.0 2177.0 5
1808.0 2177.0 5
1840.0 2187.0 5
1850.0 2198.0 5
1860.0 2218.0 5
1860.0 2229.0 5
1860.0 2208.0 5
1881.0 2135.0 5
1892.0 2093.0 5
1892.0 2052.0 5
1892.0 2020.0 5
1881.0 1989.0 5
1850.0 1979.0 5
1829.0 1979.0 5
1788.0 1989.0 5
1777.0 2010.0 5
1944.0 2229.0 6
1944.0 2239.0 6
1944.0 2250.0 6
1944.0 2208.0 6
1944.0 2177.0 6
1944.0 2156.0 6
1954.0 2145.0 6
2027.0 2229.0 7
2027.0 2187.0 7
2017.0 2177.0 7
2017.0 2177.0 7
2027.0 2187.0 7
2038.0 2208.0 7
2048.0 2239.0 7
2069.0 2260.0 7
2079.0 2260.0 7
2090.0 2250.0 7
2090.0 2229.0 7
2100.0 2198.0 7
2090.0 2177.0 7
2090.0 2166.0 7
2090.0 2156.0 7
2090.0 2156.0 7
2100.0 2156.0 7
2194.0 2250.0 8
2194.0 2270.0 8
2194.0 2281.0 8
2194.0 2281.0 8
2183.0 2270.0 8
2152.0 2239.0 8
2142.0 2208.0 8
2142.0 2187.0 8
2142.0 2177.0 8
2152.0 2166.0 8
2173.0 2177.0 8
2183.0 2198.0 8
2204.0 2218.0 8
2215.0 2250.0 8
2225.0 2270.0 8
2225.0 2125.0 8
2225.0 2083.0 8
2225.0 2041.0 8
2204.0 2020.0 8
2194.0 2010.0 8
2163.0 2010.0 8
2121.0 2010.0 8
1954.0 2281.0 9
1923.0 2302.0 9
1913.0 2312.0 9
1913.0 2312.0 9
1913.0 2323.0 9
1913.0 2323.0 9

