315.0 2806.0 1
315.0 2816.0 1
315.0 2816.0 1
315.0 2816.0 1
304.0 2795.0 1
294.0 2764.0 1
283.0 2712.0 1
252.0 2650.0 1
242.0 2598.0 1
231.0 2587.0 1
242.0 2598.0 1
304.0 2816.0 2
304.0 2827.0 2
304.0 2827.0 2
304.0 2785.0 2
315.0 2733.0 2
325.0 2670.0 2
346.0 2618.0 2
367.0 2587.0 2
367.0 2587.0 2
263.0 2650.0 3
263.0 2650.0 3
263.0 2650.0 3
283.0 2660.0 3
325.0 2660.0 3
356.0 2670.0 3
377.0 2670.0 3

