335.0 2754.0 1
335.0 2764.0 1
335.0 2764.0 1
346.0 2743.0 1
367.0 2691.0 1
388.0 2650.0 1
398.0 2639.0 1
408.0 2618.0 1
408.0 2618.0 1
440.0 2754.0 2
440.0 2754.0 2
440.0 2754.0 2
429.0 2712.0 2
398.0 2670.0 2
388.0 2629.0 2
377.0 2587.0 2
377.0 2556.0 2
377.0 2556.0 2
481.0 2650.0 3
471.0 2670.0 3
460.0 2681.0 3
481.0 2681.0 3
523.0 2681.0 3
565.0 2691.0 3
596.0 2702.0 3
606.0 2712.0 3
606.0 2733.0 3
585.0 2743.0 3
554.0 2743.0 3
513.0 2723.0 3
481.0 2681.0 3
481.0 2650.0 3
513.0 2629.0 3
544.0 2629.0 3
596.0 2639.0 3
721.0 2723.0 4
721.0 2743.0 4
710.0 2743.0 4
700.0 2733.0 4
679.0 2723.0 4
638.0 2702.0 4
638.0 2691.0 4
648.0 2681.0 4
669.0 2681.0 4
721.0 2660.0 4
752.0 2639.0 4
773.0 2618.0 4
773.0 2618.0 4
752.0 2598.0 4
710.0 2598.0 4
658.0 2598.0 4
627.0 2587.0 4
617.0 2587.0 4

