1673.0 1718.0 1
1673.0 1635.0 1
1673.0 1635.0 1
1673.0 1635.0 1
1683.0 1645.0 1
1683.0 1677.0 1
1673.0 1708.0 1
1652.0 1718.0 1
1600.0 1708.0 1
1517.0 1645.0 1
1475.0 1573.0 1
1444.0 1489.0 1
1444.0 1437.0 1
1475.0 1385.0 1
1527.0 1375.0 1
1808.0 1520.0 2
1788.0 1531.0 2
1767.0 1531.0 2
1746.0 1500.0 2
1715.0 1458.0 2
1704.0 1406.0 2
1725.0 1385.0 2
1767.0 1385.0 2
1808.0 1406.0 2
1850.0 1448.0 2
1860.0 1479.0 2
1840.0 1500.0 2
1798.0 1520.0 2
1767.0 1520.0 2
1756.0 1520.0 2
1756.0 1520.0 2
1767.0 1520.0 2
1860.0 1520.0 3
1871.0 1520.0 3
1871.0 1520.0 3
1871.0 1510.0 3
1892.0 1458.0 3
1902.0 1427.0 3
1902.0 1406.0 3
1913.0 1406.0 3
1923.0 1427.0 3
1933.0 1458.0 3
1954.0 1489.0 3
1965.0 1510.0 3
1975.0 1520.0 3
1985.0 1510.0 3
1996.0 1489.0 3
1996.0 1458.0 3
1996.0 1437.0 3
1996.0 1437.0 3
1996.0 1437.0 3
2017.0 1468.0 3
2038.0 1500.0 3
2048.0 1531.0 3
2058.0 1531.0 3
2058.0 1500.0 3
2069.0 1468.0 3
2069.0 1458.0 3
2079.0 1437.0 3
2079.0 1437.0 3
2152.0 1531.0 4
2142.0 1531.0 4
2142.0 1510.0 4
2152.0 1468.0 4
2152.0 1395.0 4
2152.0 1281.0 4
2152.0 1281.0 4
2152.0 1312.0 4
2131.0 1468.0 5
2131.0 1510.0 5
2152.0 1531.0 5
2173.0 1552.0 5
2204.0 1552.0 5
2225.0 1531.0 5
2235.0 1500.0 5
2235.0 1468.0 5
2215.0 1427.0 5
2183.0 1416.0 5
2142.0 1416.0 5
2110.0 1427.0 5
2100.0 1437.0 5
2110.0 1437.0 5
2350.0 1510.0 6
2350.0 1531.0 6
2329.0 1531.0 6
2308.0 1520.0 6
2277.0 1489.0 6
2256.0 1458.0 6
2267.0 1427.0 6
2288.0 1427.0 6
2319.0 1427.0 6
2340.0 1448.0 6
2350.0 1489.0 6
2350.0 1531.0 6
2350.0 1531.0 6
2350.0 1468.0 6
2360.0 1448.0 6
2371.0 1427.0 6
2423.0 1500.0 7
2413.0 1500.0 7
2413.0 1458.0 7
2413.0 1448.0 7
2423.0 1437.0 7
2423.0 1437.0 7
2423.0 1458.0 7
2454.0 1500.0 7
2485.0 1531.0 7
2506.0 1541.0 7
2517.0 1552.0 7
2538.0 1552.0 7
2548.0 1552.0 7
2548.0 1552.0 7
2558.0 1552.0 7
2642.0 1541.0 8
2642.0 1552.0 8
2642.0 1552.0 8
2642.0 1541.0 8
2631.0 1489.0 8
2631.0 1458.0 8
2631.0 1427.0 8
2631.0 1427.0 8
2631.0 1427.0 8
2663.0 1573.0 9
2663.0 1583.0 9
2663.0 1573.0 9
2798.0 1718.0 10
2798.0 1718.0 10
2798.0 1698.0 10
2788.0 1645.0 10
2788.0 1573.0 10
2788.0 1500.0 10
2788.0 1437.0 10
2788.0 1416.0 10
2788.0 1416.0 10
2777.0 1448.0 10
2777.0 1479.0 10
2777.0 1500.0 10
2788.0 1520.0 10
2808.0 1541.0 10
2829.0 1552.0 10
2850.0 1562.0 10
2871.0 1562.0 10
2892.0 1552.0 10
2892.0 1510.0 10
2881.0 1468.0 10
2881.0 1427.0 10
2871.0 1416.0 10
2871.0 1416.0 10
2871.0 1416.0 10
2913.0 1583.0 11
2902.0 1583.0 11
2902.0 1583.0 11
2913.0 1583.0 11
2913.0 1583.0 11
2913.0 1573.0 11
2933.0 1552.0 12
2933.0 1541.0 12
2944.0 1531.0 12
2944.0 1500.0 12
2954.0 1458.0 12
2975.0 1427.0 12
2985.0 1406.0 12
2985.0 1395.0 12
2996.0 1395.0 12
2996.0 1406.0 12
3006.0 1437.0 12
3006.0 1468.0 12
3017.0 1510.0 12
3027.0 1531.0 12
3027.0 1541.0 12
3027.0 1552.0 12
3038.0 1562.0 12
3027.0 1468.0 13
3027.0 1468.0 13
3038.0 1479.0 13
3069.0 1489.0 13
3121.0 1510.0 13
3173.0 1541.0 13
3183.0 1552.0 13
3183.0 1562.0 13
3163.0 1562.0 13
3100.0 1541.0 13
3079.0 1510.0 13
3069.0 1468.0 13
3079.0 1448.0 13
3110.0 1437.0 13
3142.0 1448.0 13
3183.0 1458.0 13
3256.0 1687.0 14
3256.0 1698.0 14
3256.0 1687.0 14
3246.0 1625.0 14
3246.0 1562.0 14
3235.0 1468.0 14
3235.0 1437.0 14
3235.0 1437.0 14
3246.0 1437.0 14
3288.0 1531.0 15
3298.0 1510.0 15
3319.0 1458.0 15
3340.0 1427.0 15
3371.0 1406.0 15
3392.0 1406.0 15
3423.0 1427.0 15
3444.0 1468.0 15
3454.0 1510.0 15
3454.0 1520.0 15
3444.0 1500.0 15
3423.0 1448.0 15
3402.0 1333.0 15
3381.0 1260.0 15
3360.0 1187.0 15
3340.0 1156.0 15
3329.0 1156.0 15

